; generated by Slic3r 1.3.0 on 2020-05-22 at 12:11:05

; external perimeters extrusion width = 0.50mm (3.92mm^3/s)
; perimeters extrusion width = 0.50mm (3.92mm^3/s)
; infill extrusion width = 0.50mm (5.23mm^3/s)
; solid infill extrusion width = 0.50mm (3.92mm^3/s)
; top infill extrusion width = 0.50mm (3.92mm^3/s)

M107
M104 S215 ; set temperature
T0

; Filament gcode

M109 S215 ; set temperature and wait for it to be reached
G21 ; set units to millimeters
G90 ; use absolute coordinates
M83 ; use relative distances for extrusion
G1 E-3.50000 F2400.00000
G1 Z0.300 F9000.000
G1 X64.032 Y63.850 F9000.000
G1 E3.50000 F2400.00000
G1 F600
G1 X64.645 Y63.308 E0.07507
G1 X65.290 Y62.840 E0.07309
G1 X65.995 Y62.423 E0.07515
G1 X66.478 Y62.187 E0.04932
G1 X66.975 Y61.981 E0.04940
G1 X67.733 Y61.735 E0.07307
G1 X68.532 Y61.556 E0.07514
G1 X69.322 Y61.457 E0.07303
G1 X70.140 Y61.431 E0.07514
G1 X70.935 Y61.481 E0.07301
G1 X71.743 Y61.609 E0.07508
G1 X72.514 Y61.807 E0.07310
G1 X73.289 Y62.086 E0.07549
G1 X73.775 Y62.306 E0.04895
G1 X74.251 Y62.559 E0.04950
G1 X74.923 Y62.985 E0.07301
G1 X75.570 Y63.487 E0.07512
G1 X76.150 Y64.032 E0.07304
G1 X76.692 Y64.646 E0.07515
G1 X77.160 Y65.290 E0.07303
G1 X77.577 Y65.995 E0.07514
G1 X77.916 Y66.715 E0.07301
G1 X78.106 Y67.219 E0.04940
G1 X78.264 Y67.729 E0.04898
G1 X78.444 Y68.532 E0.07556
G1 X78.543 Y69.322 E0.07303
G1 X78.569 Y70.140 E0.07514
G1 X78.519 Y70.935 E0.07300
G1 X78.391 Y71.744 E0.07515
G1 X78.193 Y72.514 E0.07302
G1 X77.916 Y73.285 E0.07515
G1 X77.694 Y73.776 E0.04939
G1 X77.441 Y74.251 E0.04941
G1 X77.015 Y74.923 E0.07301
G1 X76.513 Y75.570 E0.07515
G1 X75.968 Y76.150 E0.07301
G1 X75.354 Y76.692 E0.07515
G1 X74.710 Y77.160 E0.07302
G1 X74.005 Y77.577 E0.07515
G1 X73.285 Y77.916 E0.07300
G1 X72.781 Y78.106 E0.04940
G1 X72.267 Y78.265 E0.04939
G1 X71.468 Y78.444 E0.07515
G1 X70.678 Y78.543 E0.07303
G1 X69.860 Y78.569 E0.07514
G1 X69.065 Y78.519 E0.07300
G1 X68.256 Y78.391 E0.07515
G1 X67.486 Y78.193 E0.07303
G1 X66.715 Y77.916 E0.07514
G1 X65.995 Y77.577 E0.07301
G1 X65.527 Y77.310 E0.04940
G1 X65.077 Y77.015 E0.04940
G1 X64.430 Y76.513 E0.07515
G1 X63.850 Y75.968 E0.07301
G1 X63.308 Y75.354 E0.07515
G1 X62.840 Y74.710 E0.07303
G1 X62.423 Y74.005 E0.07514
G1 X62.084 Y73.284 E0.07307
G1 X61.807 Y72.514 E0.07508
G1 X61.609 Y71.743 E0.07310
G1 X61.516 Y71.212 E0.04941
G1 X61.457 Y70.683 E0.04891
G1 X61.431 Y69.860 E0.07555
G1 X61.481 Y69.065 E0.07300
G1 X61.609 Y68.256 E0.07515
G1 X61.807 Y67.485 E0.07308
G1 X62.084 Y66.715 E0.07509
G1 X62.423 Y65.995 E0.07300
G1 X62.840 Y65.290 E0.07515
G1 X63.308 Y64.645 E0.07309
G1 X63.657 Y64.236 E0.04932
G1 X63.979 Y63.903 E0.04252
G1 X64.552 Y64.370 F9000.000
G1 F600
G1 X65.096 Y63.890 E0.06661
G1 X65.703 Y63.449 E0.06884
G1 X66.329 Y63.079 E0.06668
G1 X66.770 Y62.862 E0.04509
G1 X67.225 Y62.673 E0.04516
G1 X67.938 Y62.442 E0.06882
G1 X68.647 Y62.283 E0.06667
G1 X69.391 Y62.189 E0.06879
G1 X70.117 Y62.166 E0.06667
G1 X70.865 Y62.213 E0.06877
G1 X71.582 Y62.327 E0.06661
G1 X72.309 Y62.513 E0.06885
G1 X72.997 Y62.761 E0.06708
G1 X73.441 Y62.961 E0.04466
G1 X73.877 Y63.192 E0.04524
G1 X74.510 Y63.593 E0.06877
G1 X75.084 Y64.039 E0.06665
G1 X75.630 Y64.552 E0.06880
G1 X76.111 Y65.097 E0.06667
G1 X76.551 Y65.704 E0.06879
G1 X76.921 Y66.329 E0.06666
G1 X77.240 Y67.007 E0.06877
G1 X77.414 Y67.468 E0.04516
G1 X77.557 Y67.934 E0.04474
G1 X77.717 Y68.647 E0.06708
G1 X77.811 Y69.391 E0.06879
G1 X77.834 Y70.117 E0.06667
G1 X77.787 Y70.865 E0.06877
G1 X77.673 Y71.583 E0.06668
G1 X77.487 Y72.309 E0.06878
G1 X77.240 Y72.993 E0.06667
G1 X76.921 Y73.671 E0.06877
G1 X76.677 Y74.098 E0.04516
G1 X76.407 Y74.510 E0.04515
G1 X75.961 Y75.084 E0.06668
G1 X75.448 Y75.630 E0.06877
G1 X74.903 Y76.111 E0.06667
G1 X74.297 Y76.551 E0.06878
G1 X73.671 Y76.921 E0.06668
G1 X72.993 Y77.240 E0.06877
G1 X72.532 Y77.414 E0.04516
G1 X72.062 Y77.558 E0.04515
G1 X71.353 Y77.717 E0.06667
G1 X70.609 Y77.811 E0.06878
G1 X69.883 Y77.834 E0.06667
G1 X69.135 Y77.787 E0.06877
G1 X68.417 Y77.673 E0.06667
G1 X67.691 Y77.487 E0.06879
G1 X67.003 Y77.239 E0.06708
G1 X66.559 Y77.038 E0.04473
G1 X66.123 Y76.808 E0.04517
G1 X65.490 Y76.407 E0.06877
G1 X64.916 Y75.961 E0.06668
G1 X64.370 Y75.448 E0.06877
G1 X63.889 Y74.903 E0.06667
G1 X63.449 Y74.296 E0.06879
G1 X63.079 Y73.671 E0.06666
G1 X62.759 Y72.992 E0.06882
G1 X62.513 Y72.309 E0.06662
G1 X62.327 Y71.582 E0.06885
G1 X62.243 Y71.097 E0.04517
G1 X62.189 Y70.613 E0.04468
G1 X62.166 Y69.883 E0.06708
G1 X62.213 Y69.135 E0.06877
G1 X62.327 Y68.417 E0.06668
G1 X62.514 Y67.690 E0.06883
G1 X62.760 Y67.007 E0.06662
G1 X63.079 Y66.329 E0.06876
G1 X63.449 Y65.703 E0.06668
G1 X63.890 Y65.096 E0.06884
G1 X64.209 Y64.723 E0.04510
G1 X64.499 Y64.423 E0.03828
G1 E-3.50000 F2400.00000
G1 X72.504 Y72.656 F9000.000
G1 E3.50000 F2400.00000
G1 F900
G1 X72.143 Y72.950 E0.04843
G1 X71.942 Y73.086 E0.02530
G1 X71.758 Y73.198 E0.02240
G1 X71.343 Y73.393 E0.04771
G1 X70.901 Y73.537 E0.04845
G1 X70.684 Y73.585 E0.02313
G1 X70.464 Y73.620 E0.02313
G1 X70.000 Y73.650 E0.04845
G1 X69.536 Y73.620 E0.04845
G1 X69.316 Y73.585 E0.02313
G1 X68.657 Y73.392 E0.07150
G1 X68.044 Y73.082 E0.07150
G1 X67.698 Y72.827 E0.04478
G1 X67.478 Y72.636 E0.03036
G1 X67.186 Y72.324 E0.04442
G1 X66.937 Y71.977 E0.04447
G1 X66.802 Y71.758 E0.02678
G1 X66.606 Y71.341 E0.04801
G1 X66.414 Y70.677 E0.07195
G1 X66.380 Y70.464 E0.02240
G1 X66.350 Y70.000 E0.04845
G1 X66.380 Y69.536 E0.04845
G1 X66.415 Y69.316 E0.02313
G1 X66.463 Y69.099 E0.02313
G1 X66.607 Y68.657 E0.04845
G1 X66.802 Y68.242 E0.04772
G1 X67.052 Y67.854 E0.04800
G1 X67.183 Y67.679 E0.02284
G1 X67.509 Y67.337 E0.04912
G1 X67.671 Y67.190 E0.02284
G1 X68.052 Y66.917 E0.04873
G1 X68.236 Y66.805 E0.02239
G1 X68.657 Y66.607 E0.04845
G1 X69.099 Y66.463 E0.04845
G1 X69.310 Y66.419 E0.02238
G1 X69.776 Y66.360 E0.04889
G1 X70.045 Y66.352 E0.02811
G1 X70.456 Y66.382 E0.04287
G1 X70.697 Y66.421 E0.02539
G1 X70.908 Y66.465 E0.02240
G1 X71.370 Y66.618 E0.05065
G1 X71.752 Y66.798 E0.04404
G1 X72.149 Y67.054 E0.04915
G1 X72.324 Y67.186 E0.02284
G1 X72.663 Y67.509 E0.04873
G1 X72.808 Y67.668 E0.02239
G1 X73.083 Y68.052 E0.04917
G1 X73.195 Y68.236 E0.02238
G1 X73.393 Y68.657 E0.04846
G1 X73.536 Y69.095 E0.04801
G1 X73.585 Y69.316 E0.02359
G1 X73.620 Y69.536 E0.02311
G1 X73.650 Y70.000 E0.04845
G1 X73.620 Y70.464 E0.04845
G1 X73.585 Y70.684 E0.02313
G1 X73.393 Y71.343 E0.07151
G1 X73.195 Y71.764 E0.04845
G1 X72.969 Y72.122 E0.04404
G1 X72.556 Y72.602 E0.06591
G1 X72.504 Y72.656 F9000.000
G1 E-3.50000 F2400.00000
G1 Z0.600 F9000.000
G1 X72.365 Y72.512 F9000.000
G1 E3.50000 F2400.00000
G1 F600
G1 X72.196 Y72.661 E0.01220
G1 X71.852 Y72.911 E0.02312
G1 X71.659 Y73.025 E0.01220
G1 X71.270 Y73.208 E0.02332
G1 X70.877 Y73.336 E0.02247
G1 X70.647 Y73.389 E0.01283
G1 X70.429 Y73.424 E0.01202
G1 X70.000 Y73.451 E0.02333
G1 X69.571 Y73.424 E0.02333
G1 X69.354 Y73.389 E0.01199
G1 X69.138 Y73.341 E0.01199
G1 X68.730 Y73.208 E0.02333
G1 X68.338 Y73.024 E0.02354
G1 X67.975 Y72.794 E0.02333
G1 X67.798 Y72.656 E0.01220
G1 X67.487 Y72.364 E0.02315
G1 X67.329 Y72.184 E0.01304
G1 X67.089 Y71.851 E0.02229
G1 X66.967 Y71.644 E0.01303
G1 X66.792 Y71.270 E0.02247
G1 X66.659 Y70.862 E0.02332
G1 X66.611 Y70.646 E0.01202
G1 X66.575 Y70.413 E0.01283
G1 X66.549 Y70.000 E0.02247
G1 X66.576 Y69.571 E0.02332
G1 X66.611 Y69.353 E0.01202
G1 X66.664 Y69.123 E0.01283
G1 X66.792 Y68.730 E0.02247
G1 X66.975 Y68.341 E0.02332
G1 X67.089 Y68.148 E0.01220
G1 X67.339 Y67.804 E0.02312
G1 X67.488 Y67.635 E0.01220
G1 X67.798 Y67.344 E0.02312
G1 X67.975 Y67.206 E0.01220
G1 X68.334 Y66.978 E0.02312
G1 X68.531 Y66.878 E0.01199
G1 X68.734 Y66.791 E0.01199
G1 X69.142 Y66.658 E0.02333
G1 X69.567 Y66.577 E0.02353
G1 X69.980 Y66.550 E0.02247
G1 X70.220 Y66.557 E0.01304
G1 X70.643 Y66.610 E0.02315
G1 X70.862 Y66.659 E0.01220
G1 X71.270 Y66.792 E0.02332
G1 X71.644 Y66.967 E0.02247
G1 X71.852 Y67.089 E0.01304
G1 X72.196 Y67.339 E0.02315
G1 X72.365 Y67.488 E0.01220
G1 X72.659 Y67.801 E0.02333
G1 X72.911 Y68.148 E0.02333
G1 X73.025 Y68.341 E0.01220
G1 X73.208 Y68.730 E0.02333
G1 X73.341 Y69.138 E0.02333
G1 X73.389 Y69.354 E0.01202
G1 X73.425 Y69.587 E0.01283
G1 X73.451 Y70.000 E0.02247
G1 X73.424 Y70.429 E0.02332
G1 X73.389 Y70.647 E0.01202
G1 X73.336 Y70.877 E0.01283
G1 X73.208 Y71.270 E0.02247
G1 X73.024 Y71.662 E0.02354
G1 X72.794 Y72.025 E0.02333
G1 X72.656 Y72.202 E0.01220
G1 X72.416 Y72.458 E0.01904
G1 X72.365 Y72.512 F9000.000
G1 X72.655 Y72.785 F9000.000
G1 F600
G1 X72.260 Y73.117 E0.02804
G1 X72.063 Y73.251 E0.01293
G1 X71.858 Y73.372 E0.01293
G1 X71.417 Y73.579 E0.02648
G1 X70.954 Y73.730 E0.02648
G1 X70.721 Y73.782 E0.01293
G1 X70.486 Y73.819 E0.01293
G1 X70.000 Y73.849 E0.02648
G1 X69.514 Y73.819 E0.02648
G1 X69.279 Y73.782 E0.01293
G1 X69.046 Y73.730 E0.01293
G1 X68.583 Y73.579 E0.02648
G1 X68.142 Y73.372 E0.02648
G1 X67.937 Y73.251 E0.01293
G1 X67.740 Y73.117 E0.01293
G1 X67.365 Y72.806 E0.02649
G1 X67.042 Y72.463 E0.02561
G1 X66.888 Y72.266 E0.01360
G1 X66.627 Y71.854 E0.02646
G1 X66.425 Y71.428 E0.02561
G1 X66.340 Y71.193 E0.01360
G1 X66.218 Y70.718 E0.02667
G1 X66.181 Y70.486 E0.01271
G1 X66.151 Y70.000 E0.02648
G1 X66.181 Y69.514 E0.02648
G1 X66.218 Y69.279 E0.01293
G1 X66.270 Y69.046 E0.01293
G1 X66.421 Y68.583 E0.02648
G1 X66.627 Y68.145 E0.02627
G1 X66.879 Y67.747 E0.02561
G1 X67.032 Y67.549 E0.01360
G1 X67.367 Y67.191 E0.02664
G1 X67.556 Y67.027 E0.01360
G1 X67.940 Y66.748 E0.02582
G1 X68.142 Y66.628 E0.01272
G1 X68.583 Y66.421 E0.02648
G1 X69.046 Y66.270 E0.02648
G1 X69.275 Y66.219 E0.01271
G1 X69.762 Y66.158 E0.02667
G1 X70.012 Y66.151 E0.01360
G1 X70.482 Y66.181 E0.02561
G1 X70.957 Y66.271 E0.02627
G1 X71.421 Y66.422 E0.02648
G1 X71.639 Y66.517 E0.01293
G1 X71.851 Y66.625 E0.01293
G1 X72.266 Y66.888 E0.02669
G1 X72.451 Y67.031 E0.01271
G1 X72.809 Y67.368 E0.02669
G1 X72.964 Y67.543 E0.01271
G1 X73.253 Y67.941 E0.02669
G1 X73.372 Y68.142 E0.01271
G1 X73.579 Y68.583 E0.02648
G1 X73.730 Y69.046 E0.02648
G1 X73.782 Y69.279 E0.01293
G1 X73.819 Y69.514 E0.01293
G1 X73.849 Y70.000 E0.02648
G1 X73.819 Y70.486 E0.02648
G1 X73.782 Y70.721 E0.01293
G1 X73.730 Y70.954 E0.01293
G1 X73.579 Y71.417 E0.02648
G1 X73.373 Y71.855 E0.02627
G1 X73.112 Y72.266 E0.02648
G1 X72.969 Y72.451 E0.01271
G1 X72.706 Y72.730 E0.02083
G1 X72.627 Y72.779 F9000.000
M106 S255
G1 E-3.50000 F2400.00000
G1 Z0.900 F9000.000
G1 X72.365 Y72.512 F9000.000
G1 E3.50000 F2400.00000
G1 F600
G1 X72.196 Y72.661 E0.01220
G1 X71.852 Y72.911 E0.02311
G1 X71.659 Y73.025 E0.01220
G1 X71.270 Y73.208 E0.02333
G1 X70.862 Y73.341 E0.02333
G1 X70.646 Y73.389 E0.01199
G1 X70.429 Y73.424 E0.01199
G1 X70.000 Y73.451 E0.02333
G1 X69.571 Y73.424 E0.02333
G1 X69.354 Y73.389 E0.01199
G1 X69.138 Y73.341 E0.01199
G1 X68.730 Y73.208 E0.02333
G1 X68.338 Y73.024 E0.02354
G1 X67.975 Y72.794 E0.02333
G1 X67.798 Y72.656 E0.01220
G1 X67.487 Y72.364 E0.02316
G1 X67.323 Y72.176 E0.01354
G1 X67.089 Y71.852 E0.02174
G1 X66.975 Y71.659 E0.01219
G1 X66.792 Y71.270 E0.02333
G1 X66.659 Y70.862 E0.02333
G1 X66.611 Y70.646 E0.01199
G1 X66.576 Y70.429 E0.01199
G1 X66.549 Y70.000 E0.02333
G1 X66.576 Y69.571 E0.02333
G1 X66.611 Y69.353 E0.01204
G1 X66.666 Y69.114 E0.01333
G1 X66.792 Y68.730 E0.02196
G1 X66.975 Y68.341 E0.02332
G1 X67.089 Y68.148 E0.01220
G1 X67.339 Y67.804 E0.02312
G1 X67.488 Y67.635 E0.01220
G1 X67.798 Y67.344 E0.02312
G1 X67.975 Y67.206 E0.01220
G1 X68.334 Y66.978 E0.02312
G1 X68.531 Y66.878 E0.01199
G1 X68.734 Y66.791 E0.01199
G1 X69.142 Y66.658 E0.02333
G1 X69.567 Y66.577 E0.02353
G1 X69.971 Y66.551 E0.02196
G1 X70.220 Y66.557 E0.01354
G1 X70.643 Y66.610 E0.02316
G1 X70.862 Y66.659 E0.01220
G1 X71.270 Y66.792 E0.02333
G1 X71.659 Y66.975 E0.02333
G1 X71.852 Y67.089 E0.01220
G1 X72.196 Y67.339 E0.02311
G1 X72.365 Y67.488 E0.01220
G1 X72.656 Y67.798 E0.02312
G1 X72.794 Y67.975 E0.01220
G1 X73.024 Y68.338 E0.02333
G1 X73.208 Y68.730 E0.02354
G1 X73.341 Y69.138 E0.02333
G1 X73.389 Y69.354 E0.01199
G1 X73.424 Y69.571 E0.01199
G1 X73.451 Y70.000 E0.02333
G1 X73.424 Y70.429 E0.02333
G1 X73.389 Y70.646 E0.01199
G1 X73.341 Y70.862 E0.01199
G1 X73.208 Y71.270 E0.02333
G1 X73.024 Y71.662 E0.02354
G1 X72.794 Y72.025 E0.02333
G1 X72.656 Y72.202 E0.01220
G1 X72.416 Y72.458 E0.01904
G1 X72.365 Y72.512 F9000.000
G1 X72.633 Y72.798 F9000.000
G1 F600
G1 X72.266 Y73.112 E0.02624
G1 X71.855 Y73.373 E0.02648
G1 X71.417 Y73.579 E0.02627
G1 X70.954 Y73.730 E0.02648
G1 X70.721 Y73.782 E0.01293
G1 X70.486 Y73.819 E0.01293
G1 X70.000 Y73.849 E0.02648
G1 X69.514 Y73.819 E0.02648
G1 X69.279 Y73.782 E0.01293
G1 X69.046 Y73.730 E0.01293
G1 X68.583 Y73.579 E0.02648
G1 X68.142 Y73.372 E0.02648
G1 X67.740 Y73.117 E0.02584
G1 X67.365 Y72.806 E0.02649
G1 X67.049 Y72.472 E0.02497
G1 X66.887 Y72.265 E0.01425
G1 X66.627 Y71.854 E0.02645
G1 X66.430 Y71.439 E0.02497
G1 X66.340 Y71.193 E0.01425
G1 X66.218 Y70.717 E0.02665
G1 X66.181 Y70.486 E0.01271
G1 X66.151 Y70.000 E0.02649
G1 X66.179 Y69.541 E0.02497
G1 X66.219 Y69.278 E0.01446
G1 X66.270 Y69.046 E0.01288
G1 X66.421 Y68.583 E0.02648
G1 X66.627 Y68.145 E0.02628
G1 X66.872 Y67.757 E0.02497
G1 X67.032 Y67.549 E0.01425
G1 X67.367 Y67.192 E0.02661
G1 X67.565 Y67.019 E0.01425
G1 X67.940 Y66.748 E0.02519
G1 X68.142 Y66.628 E0.01273
G1 X68.583 Y66.421 E0.02648
G1 X69.046 Y66.270 E0.02648
G1 X69.275 Y66.219 E0.01271
G1 X69.761 Y66.158 E0.02665
G1 X70.024 Y66.151 E0.01425
G1 X70.482 Y66.181 E0.02497
G1 X70.957 Y66.271 E0.02628
G1 X71.421 Y66.422 E0.02648
G1 X71.639 Y66.517 E0.01293
G1 X71.851 Y66.625 E0.01293
G1 X72.265 Y66.887 E0.02665
G1 X72.472 Y67.049 E0.01425
G1 X72.806 Y67.365 E0.02497
G1 X73.117 Y67.740 E0.02649
G1 X73.251 Y67.937 E0.01293
G1 X73.372 Y68.142 E0.01293
G1 X73.579 Y68.583 E0.02648
G1 X73.730 Y69.046 E0.02648
G1 X73.782 Y69.279 E0.01293
G1 X73.819 Y69.514 E0.01293
G1 X73.849 Y70.000 E0.02648
G1 X73.819 Y70.486 E0.02648
G1 X73.782 Y70.721 E0.01293
G1 X73.730 Y70.954 E0.01293
G1 X73.579 Y71.417 E0.02649
G1 X73.384 Y71.834 E0.02497
G1 X73.252 Y72.060 E0.01425
G1 X72.964 Y72.457 E0.02665
G1 X72.687 Y72.747 E0.02175
G1 X72.393 Y72.729 F9000.000
G1 E-3.50000 F2400.00000
G1 Z1.200 F9000.000
G1 X72.365 Y72.512 F9000.000
G1 E3.50000 F2400.00000
G1 F600
G1 X72.196 Y72.661 E0.01220
G1 X71.852 Y72.911 E0.02311
G1 X71.659 Y73.025 E0.01220
G1 X71.270 Y73.208 E0.02333
G1 X70.862 Y73.341 E0.02333
G1 X70.646 Y73.389 E0.01199
G1 X70.429 Y73.424 E0.01199
G1 X70.000 Y73.451 E0.02333
G1 X69.571 Y73.424 E0.02333
G1 X69.354 Y73.389 E0.01199
G1 X69.138 Y73.341 E0.01199
G1 X68.730 Y73.208 E0.02333
G1 X68.341 Y73.025 E0.02333
G1 X68.148 Y72.911 E0.01220
G1 X67.803 Y72.660 E0.02318
G1 X67.611 Y72.488 E0.01404
G1 X67.341 Y72.199 E0.02145
G1 X67.089 Y71.852 E0.02331
G1 X66.975 Y71.659 E0.01220
G1 X66.792 Y71.270 E0.02333
G1 X66.659 Y70.862 E0.02333
G1 X66.611 Y70.645 E0.01205
G1 X66.573 Y70.394 E0.01383
G1 X66.550 Y70.000 E0.02145
G1 X66.576 Y69.571 E0.02331
G1 X66.611 Y69.352 E0.01205
G1 X66.669 Y69.105 E0.01383
G1 X66.792 Y68.729 E0.02145
G1 X66.975 Y68.341 E0.02331
G1 X67.089 Y68.148 E0.01220
G1 X67.339 Y67.804 E0.02311
G1 X67.488 Y67.635 E0.01220
G1 X67.798 Y67.344 E0.02312
G1 X67.975 Y67.206 E0.01220
G1 X68.334 Y66.978 E0.02312
G1 X68.531 Y66.878 E0.01199
G1 X68.734 Y66.791 E0.01199
G1 X69.142 Y66.658 E0.02333
G1 X69.567 Y66.577 E0.02352
G1 X69.961 Y66.551 E0.02145
G1 X70.219 Y66.557 E0.01404
G1 X70.643 Y66.610 E0.02318
G1 X70.862 Y66.659 E0.01220
G1 X71.270 Y66.792 E0.02333
G1 X71.659 Y66.975 E0.02333
G1 X71.852 Y67.089 E0.01220
G1 X72.196 Y67.339 E0.02311
G1 X72.365 Y67.488 E0.01220
G1 X72.656 Y67.798 E0.02312
G1 X72.794 Y67.975 E0.01220
G1 X73.024 Y68.338 E0.02333
G1 X73.208 Y68.730 E0.02354
G1 X73.341 Y69.138 E0.02333
G1 X73.389 Y69.355 E0.01205
G1 X73.427 Y69.606 E0.01383
G1 X73.450 Y70.000 E0.02145
G1 X73.424 Y70.429 E0.02331
G1 X73.389 Y70.648 E0.01205
G1 X73.331 Y70.895 E0.01383
G1 X73.208 Y71.271 E0.02145
G1 X73.024 Y71.662 E0.02352
G1 X72.794 Y72.025 E0.02333
G1 X72.656 Y72.202 E0.01220
G1 X72.416 Y72.458 E0.01904
G1 X72.365 Y72.512 F9000.000
G1 X72.633 Y72.798 F9000.000
G1 F600
G1 X72.266 Y73.112 E0.02624
G1 X71.855 Y73.373 E0.02648
G1 X71.417 Y73.579 E0.02627
G1 X70.954 Y73.730 E0.02648
G1 X70.721 Y73.782 E0.01293
G1 X70.486 Y73.819 E0.01293
G1 X70.000 Y73.849 E0.02648
G1 X69.514 Y73.819 E0.02648
G1 X69.279 Y73.782 E0.01293
G1 X69.046 Y73.730 E0.01293
G1 X68.583 Y73.579 E0.02648
G1 X68.142 Y73.372 E0.02648
G1 X67.938 Y73.251 E0.01287
G1 X67.709 Y73.093 E0.01511
G1 X67.365 Y72.806 E0.02434
G1 X67.031 Y72.451 E0.02650
G1 X66.888 Y72.266 E0.01271
G1 X66.626 Y71.854 E0.02650
G1 X66.435 Y71.449 E0.02434
G1 X66.340 Y71.192 E0.01489
G1 X66.218 Y70.718 E0.02664
G1 X66.181 Y70.486 E0.01271
G1 X66.151 Y70.000 E0.02648
G1 X66.181 Y69.514 E0.02648
G1 X66.218 Y69.279 E0.01293
G1 X66.270 Y69.046 E0.01293
G1 X66.421 Y68.583 E0.02648
G1 X66.627 Y68.145 E0.02628
G1 X66.866 Y67.766 E0.02434
G1 X67.032 Y67.548 E0.01489
G1 X67.367 Y67.192 E0.02658
G1 X67.574 Y67.012 E0.01489
G1 X67.939 Y66.748 E0.02449
G1 X68.177 Y66.611 E0.01491
G1 X68.583 Y66.421 E0.02434
G1 X69.046 Y66.270 E0.02650
G1 X69.275 Y66.219 E0.01271
G1 X69.761 Y66.158 E0.02664
G1 X70.035 Y66.151 E0.01489
G1 X70.482 Y66.181 E0.02434
G1 X70.957 Y66.271 E0.02628
G1 X71.421 Y66.422 E0.02648
G1 X71.639 Y66.517 E0.01293
G1 X71.851 Y66.625 E0.01293
G1 X72.266 Y66.888 E0.02669
G1 X72.451 Y67.031 E0.01271
G1 X72.806 Y67.365 E0.02650
G1 X73.093 Y67.709 E0.02434
G1 X73.251 Y67.938 E0.01511
G1 X73.372 Y68.142 E0.01287
G1 X73.579 Y68.583 E0.02648
G1 X73.730 Y69.046 E0.02648
G1 X73.782 Y69.279 E0.01293
G1 X73.819 Y69.514 E0.01293
G1 X73.850 Y70.000 E0.02650
G1 X73.823 Y70.447 E0.02434
G1 X73.781 Y70.722 E0.01511
G1 X73.730 Y70.954 E0.01287
G1 X73.579 Y71.418 E0.02651
G1 X73.403 Y71.797 E0.02271
G1 X73.250 Y72.064 E0.01675
G1 X73.117 Y72.260 E0.01283
G1 X72.806 Y72.635 E0.02648
G1 X72.687 Y72.747 E0.00884
G1 X72.392 Y72.733 F9000.000
G1 E-3.50000 F2400.00000
G1 Z1.500 F9000.000
G1 X72.364 Y72.513 F9000.000
G1 E3.50000 F2400.00000
G1 F600
G1 X72.196 Y72.661 E0.01218
G1 X71.852 Y72.911 E0.02311
G1 X71.659 Y73.025 E0.01220
G1 X71.270 Y73.208 E0.02333
G1 X70.862 Y73.341 E0.02333
G1 X70.646 Y73.389 E0.01199
G1 X70.429 Y73.424 E0.01199
G1 X70.000 Y73.451 E0.02333
G1 X69.571 Y73.424 E0.02333
G1 X69.354 Y73.389 E0.01199
G1 X69.138 Y73.341 E0.01199
G1 X68.730 Y73.208 E0.02333
G1 X68.338 Y73.024 E0.02354
G1 X67.975 Y72.794 E0.02333
G1 X67.798 Y72.656 E0.01220
G1 X67.487 Y72.364 E0.02319
G1 X67.312 Y72.161 E0.01454
G1 X67.089 Y71.852 E0.02072
G1 X66.975 Y71.659 E0.01218
G1 X66.792 Y71.270 E0.02333
G1 X66.659 Y70.862 E0.02333
G1 X66.611 Y70.645 E0.01206
G1 X66.572 Y70.384 E0.01433
G1 X66.550 Y70.000 E0.02094
G1 X66.576 Y69.571 E0.02330
G1 X66.611 Y69.352 E0.01206
G1 X66.672 Y69.095 E0.01433
G1 X66.792 Y68.729 E0.02094
G1 X66.975 Y68.341 E0.02330
G1 X67.089 Y68.148 E0.01220
G1 X67.339 Y67.804 E0.02312
G1 X67.488 Y67.635 E0.01220
G1 X67.798 Y67.344 E0.02312
G1 X67.975 Y67.206 E0.01220
G1 X68.334 Y66.978 E0.02312
G1 X68.531 Y66.878 E0.01199
G1 X68.734 Y66.791 E0.01199
G1 X69.142 Y66.658 E0.02333
G1 X69.567 Y66.577 E0.02352
G1 X69.952 Y66.551 E0.02094
G1 X70.219 Y66.557 E0.01454
G1 X70.643 Y66.610 E0.02319
G1 X70.862 Y66.659 E0.01220
G1 X71.270 Y66.792 E0.02333
G1 X71.659 Y66.975 E0.02333
G1 X71.852 Y67.089 E0.01220
G1 X72.196 Y67.339 E0.02311
G1 X72.365 Y67.488 E0.01220
G1 X72.656 Y67.798 E0.02312
G1 X72.794 Y67.975 E0.01220
G1 X73.024 Y68.338 E0.02333
G1 X73.208 Y68.730 E0.02354
G1 X73.341 Y69.138 E0.02333
G1 X73.389 Y69.354 E0.01199
G1 X73.424 Y69.571 E0.01199
G1 X73.451 Y70.000 E0.02333
G1 X73.424 Y70.429 E0.02333
G1 X73.389 Y70.646 E0.01199
G1 X73.341 Y70.862 E0.01199
G1 X73.208 Y71.270 E0.02333
G1 X73.024 Y71.662 E0.02354
G1 X72.793 Y72.026 E0.02340
G1 X72.416 Y72.458 E0.03116
G1 X72.364 Y72.513 F9000.000
G1 X72.618 Y72.820 F9000.000
G1 F600
G1 X72.263 Y73.114 E0.02509
G1 X71.855 Y73.373 E0.02627
G1 X71.417 Y73.579 E0.02627
G1 X70.954 Y73.730 E0.02648
G1 X70.486 Y73.819 E0.02584
G1 X70.000 Y73.849 E0.02648
G1 X69.514 Y73.819 E0.02648
G1 X69.046 Y73.730 E0.02584
G1 X68.583 Y73.579 E0.02648
G1 X68.142 Y73.372 E0.02648
G1 X67.740 Y73.117 E0.02584
G1 X67.365 Y72.806 E0.02648
G1 X67.031 Y72.451 E0.02648
G1 X66.888 Y72.266 E0.01271
G1 X66.627 Y71.855 E0.02648
G1 X66.421 Y71.417 E0.02629
G1 X66.284 Y71.002 E0.02370
G1 X66.181 Y70.486 E0.02859
G1 X66.150 Y70.000 E0.02650
G1 X66.176 Y69.564 E0.02370
G1 X66.270 Y69.046 E0.02859
G1 X66.421 Y68.583 E0.02648
G1 X66.627 Y68.145 E0.02629
G1 X66.859 Y67.776 E0.02370
G1 X67.032 Y67.548 E0.01554
G1 X67.368 Y67.191 E0.02662
G1 X67.543 Y67.036 E0.01271
G1 X67.941 Y66.747 E0.02669
G1 X68.142 Y66.628 E0.01271
G1 X68.583 Y66.421 E0.02648
G1 X69.046 Y66.270 E0.02648
G1 X69.275 Y66.219 E0.01271
G1 X69.761 Y66.158 E0.02662
G1 X70.047 Y66.152 E0.01554
G1 X70.482 Y66.181 E0.02370
G1 X70.957 Y66.271 E0.02629
G1 X71.421 Y66.422 E0.02648
G1 X71.638 Y66.516 E0.01285
G1 X71.895 Y66.650 E0.01575
G1 X72.266 Y66.888 E0.02391
G1 X72.451 Y67.031 E0.01274
G1 X72.806 Y67.365 E0.02648
G1 X73.117 Y67.740 E0.02648
G1 X73.251 Y67.937 E0.01293
G1 X73.372 Y68.142 E0.01293
G1 X73.579 Y68.583 E0.02650
G1 X73.716 Y68.998 E0.02370
G1 X73.782 Y69.280 E0.01575
G1 X73.819 Y69.514 E0.01285
G1 X73.850 Y70.000 E0.02650
G1 X73.824 Y70.436 E0.02370
G1 X73.781 Y70.723 E0.01575
G1 X73.730 Y70.954 E0.01285
G1 X73.579 Y71.417 E0.02648
G1 X73.372 Y71.858 E0.02648
G1 X73.251 Y72.063 E0.01293
G1 X73.117 Y72.260 E0.01293
G1 X72.804 Y72.638 E0.02669
G1 X72.673 Y72.769 E0.01003
G1 X72.178 Y72.681 F9000.000
G1 E-3.50000 F2400.00000
G1 Z1.800 F9000.000
G1 X72.355 Y72.521 F9000.000
G1 E3.50000 F2400.00000
G1 F600
G1 X72.196 Y72.661 E0.01150
G1 X71.852 Y72.911 E0.02311
G1 X71.659 Y73.025 E0.01220
G1 X71.270 Y73.208 E0.02333
G1 X70.862 Y73.341 E0.02333
G1 X70.646 Y73.389 E0.01199
G1 X70.429 Y73.424 E0.01199
G1 X70.000 Y73.451 E0.02333
G1 X69.571 Y73.424 E0.02333
G1 X69.354 Y73.389 E0.01199
G1 X69.138 Y73.341 E0.01199
G1 X68.730 Y73.208 E0.02333
G1 X68.338 Y73.024 E0.02354
G1 X67.975 Y72.794 E0.02333
G1 X67.798 Y72.656 E0.01220
G1 X67.486 Y72.364 E0.02320
G1 X67.306 Y72.154 E0.01505
G1 X67.089 Y71.852 E0.02021
G1 X66.975 Y71.659 E0.01217
G1 X66.792 Y71.270 E0.02333
G1 X66.659 Y70.862 E0.02333
G1 X66.611 Y70.646 E0.01199
G1 X66.576 Y70.429 E0.01199
G1 X66.549 Y70.000 E0.02333
G1 X66.576 Y69.571 E0.02333
G1 X66.611 Y69.354 E0.01199
G1 X66.659 Y69.138 E0.01199
G1 X66.792 Y68.730 E0.02333
G1 X66.975 Y68.341 E0.02333
G1 X67.089 Y68.148 E0.01220
G1 X67.339 Y67.804 E0.02311
G1 X67.487 Y67.636 E0.01217
G1 X67.757 Y67.380 E0.02022
G1 X67.974 Y67.207 E0.01505
G1 X68.334 Y66.978 E0.02320
G1 X68.531 Y66.878 E0.01199
G1 X68.734 Y66.791 E0.01199
G1 X69.142 Y66.658 E0.02333
G1 X69.567 Y66.577 E0.02351
G1 X69.942 Y66.551 E0.02043
G1 X70.219 Y66.557 E0.01505
G1 X70.643 Y66.610 E0.02320
G1 X70.862 Y66.659 E0.01220
G1 X71.270 Y66.792 E0.02333
G1 X71.659 Y66.975 E0.02333
G1 X71.852 Y67.089 E0.01220
G1 X72.196 Y67.339 E0.02311
G1 X72.365 Y67.488 E0.01220
G1 X72.656 Y67.798 E0.02312
G1 X72.794 Y67.975 E0.01220
G1 X73.024 Y68.338 E0.02333
G1 X73.208 Y68.730 E0.02354
G1 X73.341 Y69.138 E0.02333
G1 X73.389 Y69.354 E0.01199
G1 X73.424 Y69.571 E0.01199
G1 X73.451 Y70.000 E0.02333
G1 X73.424 Y70.429 E0.02333
G1 X73.389 Y70.646 E0.01199
G1 X73.341 Y70.862 E0.01199
G1 X73.208 Y71.270 E0.02333
G1 X73.024 Y71.662 E0.02354
G1 X72.793 Y72.026 E0.02342
G1 X72.620 Y72.243 E0.01505
G1 X72.407 Y72.467 E0.01681
G1 X72.405 Y72.727 F9000.000
G1 X72.623 Y72.807 F9000.000
G1 F600
G1 X72.266 Y73.112 E0.02554
G1 X71.855 Y73.373 E0.02648
G1 X71.417 Y73.579 E0.02627
G1 X70.954 Y73.730 E0.02648
G1 X70.721 Y73.782 E0.01293
G1 X70.486 Y73.819 E0.01293
G1 X70.000 Y73.849 E0.02648
G1 X69.514 Y73.819 E0.02648
G1 X69.279 Y73.782 E0.01293
G1 X69.046 Y73.730 E0.01293
G1 X68.583 Y73.579 E0.02648
G1 X68.142 Y73.372 E0.02648
G1 X67.691 Y73.079 E0.02922
G1 X67.365 Y72.806 E0.02309
G1 X67.073 Y72.498 E0.02309
G1 X66.887 Y72.265 E0.01619
G1 X66.627 Y71.855 E0.02639
G1 X66.421 Y71.417 E0.02630
G1 X66.288 Y71.014 E0.02306
G1 X66.218 Y70.720 E0.01640
G1 X66.181 Y70.486 E0.01284
G1 X66.151 Y70.000 E0.02648
G1 X66.181 Y69.514 E0.02648
G1 X66.218 Y69.279 E0.01293
G1 X66.270 Y69.046 E0.01293
G1 X66.421 Y68.583 E0.02648
G1 X66.627 Y68.145 E0.02630
G1 X66.853 Y67.786 E0.02306
G1 X67.032 Y67.548 E0.01619
G1 X67.365 Y67.194 E0.02639
G1 X67.740 Y66.883 E0.02648
G1 X67.937 Y66.749 E0.01293
G1 X68.142 Y66.628 E0.01293
G1 X68.583 Y66.421 E0.02648
G1 X69.046 Y66.270 E0.02648
G1 X69.275 Y66.219 E0.01271
G1 X69.761 Y66.158 E0.02661
G1 X70.059 Y66.152 E0.01619
G1 X70.482 Y66.181 E0.02306
G1 X70.957 Y66.271 E0.02630
G1 X71.421 Y66.422 E0.02648
G1 X71.639 Y66.517 E0.01293
G1 X71.851 Y66.625 E0.01293
G1 X72.265 Y66.887 E0.02661
G1 X72.498 Y67.073 E0.01619
G1 X72.806 Y67.365 E0.02309
G1 X73.079 Y67.691 E0.02309
G1 X73.251 Y67.939 E0.01640
G1 X73.372 Y68.142 E0.01284
G1 X73.579 Y68.583 E0.02648
G1 X73.730 Y69.046 E0.02648
G1 X73.782 Y69.279 E0.01293
G1 X73.819 Y69.514 E0.01293
G1 X73.849 Y70.000 E0.02648
G1 X73.819 Y70.486 E0.02648
G1 X73.782 Y70.721 E0.01293
G1 X73.730 Y70.954 E0.01293
G1 X73.579 Y71.417 E0.02648
G1 X73.372 Y71.858 E0.02648
G1 X73.251 Y72.063 E0.01293
G1 X73.117 Y72.260 E0.01293
G1 X72.806 Y72.635 E0.02648
G1 X72.678 Y72.755 E0.00955
G1 X72.395 Y72.745 F9000.000
G1 E-3.50000 F2400.00000
G1 Z2.100 F9000.000
G1 X72.364 Y72.513 F9000.000
G1 E3.50000 F2400.00000
G1 F600
G1 X72.196 Y72.661 E0.01217
G1 X71.852 Y72.911 E0.02311
G1 X71.659 Y73.025 E0.01220
G1 X71.270 Y73.208 E0.02333
G1 X70.862 Y73.341 E0.02333
G1 X70.646 Y73.389 E0.01199
G1 X70.429 Y73.424 E0.01199
G1 X70.000 Y73.451 E0.02333
G1 X69.571 Y73.424 E0.02333
G1 X69.354 Y73.389 E0.01199
G1 X69.138 Y73.341 E0.01199
G1 X68.730 Y73.208 E0.02333
G1 X68.338 Y73.024 E0.02354
G1 X67.975 Y72.794 E0.02333
G1 X67.798 Y72.656 E0.01220
G1 X67.488 Y72.365 E0.02312
G1 X67.339 Y72.196 E0.01220
G1 X67.089 Y71.852 E0.02311
G1 X66.975 Y71.659 E0.01220
G1 X66.792 Y71.270 E0.02333
G1 X66.659 Y70.862 E0.02333
G1 X66.611 Y70.646 E0.01199
G1 X66.576 Y70.429 E0.01199
G1 X66.549 Y70.000 E0.02333
G1 X66.576 Y69.571 E0.02333
G1 X66.611 Y69.354 E0.01199
G1 X66.659 Y69.138 E0.01199
G1 X66.792 Y68.730 E0.02333
G1 X66.975 Y68.341 E0.02333
G1 X67.089 Y68.148 E0.01220
G1 X67.339 Y67.804 E0.02311
G1 X67.488 Y67.635 E0.01220
G1 X67.798 Y67.344 E0.02312
G1 X67.975 Y67.206 E0.01220
G1 X68.334 Y66.978 E0.02312
G1 X68.531 Y66.878 E0.01199
G1 X68.734 Y66.791 E0.01199
G1 X69.142 Y66.658 E0.02333
G1 X69.567 Y66.577 E0.02351
G1 X69.933 Y66.552 E0.01992
G1 X70.219 Y66.557 E0.01555
G1 X70.643 Y66.610 E0.02321
G1 X70.862 Y66.659 E0.01220
G1 X71.270 Y66.792 E0.02333
G1 X71.659 Y66.975 E0.02333
G1 X71.852 Y67.089 E0.01220
G1 X72.196 Y67.339 E0.02311
G1 X72.365 Y67.488 E0.01220
G1 X72.656 Y67.798 E0.02312
G1 X72.794 Y67.975 E0.01220
G1 X73.024 Y68.338 E0.02333
G1 X73.208 Y68.730 E0.02354
G1 X73.341 Y69.138 E0.02333
G1 X73.389 Y69.354 E0.01199
G1 X73.424 Y69.571 E0.01199
G1 X73.451 Y70.000 E0.02333
G1 X73.424 Y70.429 E0.02333
G1 X73.389 Y70.646 E0.01199
G1 X73.341 Y70.862 E0.01199
G1 X73.208 Y71.270 E0.02333
G1 X73.024 Y71.662 E0.02354
G1 X72.794 Y72.025 E0.02333
G1 X72.656 Y72.202 E0.01220
G1 X72.416 Y72.458 E0.01908
G1 X72.418 Y72.730 F9000.000
G1 X72.632 Y72.798 F9000.000
G1 F600
G1 X72.266 Y73.112 E0.02621
G1 X71.855 Y73.373 E0.02648
G1 X71.414 Y73.581 E0.02648
G1 X70.961 Y73.728 E0.02584
G1 X70.482 Y73.819 E0.02648
G1 X69.996 Y73.850 E0.02648
G1 X69.521 Y73.820 E0.02584
G1 X69.043 Y73.729 E0.02648
G1 X68.583 Y73.579 E0.02627
G1 X68.145 Y73.373 E0.02627
G1 X67.734 Y73.112 E0.02648
G1 X67.368 Y72.809 E0.02584
G1 X67.031 Y72.451 E0.02669
G1 X66.888 Y72.266 E0.01271
G1 X66.627 Y71.855 E0.02648
G1 X66.419 Y71.414 E0.02648
G1 X66.272 Y70.961 E0.02584
G1 X66.181 Y70.482 E0.02648
G1 X66.150 Y69.996 E0.02648
G1 X66.180 Y69.521 E0.02584
G1 X66.271 Y69.043 E0.02648
G1 X66.421 Y68.583 E0.02627
G1 X66.627 Y68.145 E0.02627
G1 X66.888 Y67.734 E0.02648
G1 X67.191 Y67.368 E0.02584
G1 X67.549 Y67.031 E0.02669
G1 X67.734 Y66.888 E0.01271
G1 X68.145 Y66.627 E0.02648
G1 X68.586 Y66.419 E0.02648
G1 X69.039 Y66.272 E0.02584
G1 X69.518 Y66.181 E0.02648
G1 X70.004 Y66.150 E0.02648
G1 X70.479 Y66.180 E0.02584
G1 X70.957 Y66.271 E0.02648
G1 X71.417 Y66.421 E0.02627
G1 X71.855 Y66.627 E0.02627
G1 X72.266 Y66.888 E0.02648
G1 X72.632 Y67.191 E0.02584
G1 X72.969 Y67.549 E0.02669
G1 X73.112 Y67.734 E0.01271
G1 X73.374 Y68.146 E0.02652
G1 X73.551 Y68.518 E0.02242
G1 X73.728 Y69.039 E0.02985
G1 X73.819 Y69.518 E0.02648
G1 X73.850 Y70.004 E0.02648
G1 X73.820 Y70.479 E0.02584
G1 X73.729 Y70.957 E0.02648
G1 X73.579 Y71.417 E0.02627
G1 X73.373 Y71.855 E0.02627
G1 X73.112 Y72.266 E0.02648
G1 X72.809 Y72.632 E0.02584
G1 X72.687 Y72.747 E0.00910
G1 X72.393 Y72.730 F9000.000
G1 E-3.50000 F2400.00000
G1 Z2.400 F9000.000
G1 X72.365 Y72.512 F9000.000
G1 E3.50000 F2400.00000
G1 F600
G1 X72.196 Y72.661 E0.01220
G1 X71.852 Y72.911 E0.02311
G1 X71.659 Y73.025 E0.01220
G1 X71.270 Y73.208 E0.02333
G1 X70.862 Y73.341 E0.02333
G1 X70.646 Y73.389 E0.01199
G1 X70.429 Y73.424 E0.01199
G1 X70.000 Y73.451 E0.02333
G1 X69.571 Y73.424 E0.02333
G1 X69.354 Y73.389 E0.01199
G1 X69.138 Y73.341 E0.01199
G1 X68.730 Y73.208 E0.02333
G1 X68.338 Y73.024 E0.02350
G1 X68.035 Y72.835 E0.01941
G1 X67.799 Y72.657 E0.01605
G1 X67.488 Y72.365 E0.02323
G1 X67.339 Y72.196 E0.01220
G1 X67.089 Y71.852 E0.02311
G1 X66.975 Y71.659 E0.01220
G1 X66.792 Y71.270 E0.02333
G1 X66.659 Y70.862 E0.02333
G1 X66.611 Y70.645 E0.01210
G1 X66.570 Y70.356 E0.01584
G1 X66.550 Y69.999 E0.01941
G1 X66.576 Y69.571 E0.02328
G1 X66.611 Y69.354 E0.01199
G1 X66.659 Y69.138 E0.01199
G1 X66.792 Y68.730 E0.02333
G1 X66.975 Y68.341 E0.02333
G1 X67.089 Y68.148 E0.01220
G1 X67.339 Y67.804 E0.02312
G1 X67.487 Y67.636 E0.01216
G1 X67.743 Y67.392 E0.01920
G1 X67.973 Y67.207 E0.01605
G1 X68.334 Y66.978 E0.02323
G1 X68.531 Y66.878 E0.01199
G1 X68.734 Y66.791 E0.01199
G1 X69.142 Y66.658 E0.02333
G1 X69.567 Y66.577 E0.02350
G1 X69.923 Y66.552 E0.01941
G1 X70.219 Y66.557 E0.01605
G1 X70.643 Y66.610 E0.02323
G1 X70.862 Y66.659 E0.01220
G1 X71.270 Y66.792 E0.02333
G1 X71.659 Y66.975 E0.02333
G1 X71.852 Y67.089 E0.01220
G1 X72.196 Y67.339 E0.02311
G1 X72.365 Y67.488 E0.01220
G1 X72.657 Y67.799 E0.02323
G1 X72.835 Y68.035 E0.01605
G1 X73.024 Y68.338 E0.01941
G1 X73.208 Y68.730 E0.02350
G1 X73.341 Y69.138 E0.02333
G1 X73.389 Y69.354 E0.01199
G1 X73.424 Y69.571 E0.01199
G1 X73.451 Y70.000 E0.02333
G1 X73.424 Y70.429 E0.02333
G1 X73.389 Y70.646 E0.01199
G1 X73.341 Y70.862 E0.01199
G1 X73.208 Y71.270 E0.02333
G1 X73.024 Y71.662 E0.02354
G1 X72.794 Y72.025 E0.02333
G1 X72.656 Y72.202 E0.01220
G1 X72.416 Y72.458 E0.01904
G1 X72.365 Y72.512 F9000.000
G1 X72.633 Y72.798 F9000.000
G1 F600
G1 X72.266 Y73.112 E0.02624
G1 X71.855 Y73.373 E0.02648
G1 X71.417 Y73.579 E0.02627
G1 X70.954 Y73.730 E0.02648
G1 X70.721 Y73.782 E0.01293
G1 X70.486 Y73.819 E0.01293
G1 X70.000 Y73.849 E0.02648
G1 X69.514 Y73.819 E0.02648
G1 X69.279 Y73.782 E0.01293
G1 X69.046 Y73.730 E0.01293
G1 X68.583 Y73.579 E0.02648
G1 X68.142 Y73.372 E0.02648
G1 X67.740 Y73.117 E0.02584
G1 X67.364 Y72.806 E0.02652
G1 X67.088 Y72.515 E0.02177
G1 X66.887 Y72.264 E0.01748
G1 X66.626 Y71.854 E0.02641
G1 X66.453 Y71.492 E0.02177
G1 X66.339 Y71.191 E0.01748
G1 X66.218 Y70.718 E0.02658
G1 X66.181 Y70.486 E0.01271
G1 X66.151 Y70.000 E0.02648
G1 X66.181 Y69.514 E0.02648
G1 X66.218 Y69.279 E0.01293
G1 X66.270 Y69.046 E0.01293
G1 X66.421 Y68.583 E0.02648
G1 X66.627 Y68.145 E0.02631
G1 X66.840 Y67.805 E0.02177
G1 X67.033 Y67.548 E0.01748
G1 X67.366 Y67.192 E0.02647
G1 X67.611 Y66.984 E0.01748
G1 X67.940 Y66.748 E0.02199
G1 X68.142 Y66.628 E0.01276
G1 X68.583 Y66.421 E0.02648
G1 X69.046 Y66.270 E0.02648
G1 X69.275 Y66.219 E0.01271
G1 X69.760 Y66.158 E0.02658
G1 X70.082 Y66.153 E0.01748
G1 X70.482 Y66.181 E0.02177
G1 X70.957 Y66.271 E0.02631
G1 X71.421 Y66.422 E0.02648
G1 X71.639 Y66.517 E0.01293
G1 X71.851 Y66.625 E0.01293
G1 X72.264 Y66.887 E0.02658
G1 X72.515 Y67.088 E0.01748
G1 X72.806 Y67.364 E0.02177
G1 X73.117 Y67.740 E0.02652
G1 X73.251 Y67.937 E0.01293
G1 X73.372 Y68.142 E0.01293
G1 X73.579 Y68.583 E0.02648
G1 X73.730 Y69.046 E0.02648
G1 X73.782 Y69.279 E0.01293
G1 X73.819 Y69.514 E0.01293
G1 X73.849 Y70.000 E0.02648
G1 X73.819 Y70.486 E0.02648
G1 X73.782 Y70.721 E0.01293
G1 X73.730 Y70.954 E0.01293
G1 X73.579 Y71.417 E0.02648
G1 X73.372 Y71.858 E0.02648
G1 X73.251 Y72.063 E0.01293
G1 X73.117 Y72.260 E0.01293
G1 X72.806 Y72.635 E0.02648
G1 X72.687 Y72.747 E0.00884
G1 X72.392 Y72.733 F9000.000
G1 E-3.50000 F2400.00000
G1 Z2.700 F9000.000
G1 X72.361 Y72.516 F9000.000
G1 E3.50000 F2400.00000
G1 F600
G1 X72.028 Y72.792 E0.02349
G1 X71.666 Y73.022 E0.02333
G1 X71.266 Y73.209 E0.02397
G1 X70.858 Y73.342 E0.02333
G1 X70.436 Y73.423 E0.02333
G1 X69.996 Y73.450 E0.02397
G1 X69.568 Y73.423 E0.02333
G1 X69.146 Y73.343 E0.02333
G1 X68.726 Y73.207 E0.02397
G1 X68.338 Y73.024 E0.02333
G1 X67.973 Y72.792 E0.02349
G1 X67.703 Y72.572 E0.01891
G1 X67.484 Y72.361 E0.01655
G1 X67.208 Y72.028 E0.02345
G1 X66.978 Y71.666 E0.02333
G1 X66.791 Y71.266 E0.02397
G1 X66.658 Y70.858 E0.02333
G1 X66.577 Y70.436 E0.02333
G1 X66.550 Y69.996 E0.02397
G1 X66.577 Y69.568 E0.02333
G1 X66.658 Y69.142 E0.02354
G1 X66.792 Y68.730 E0.02354
G1 X66.975 Y68.341 E0.02333
G1 X67.089 Y68.148 E0.01220
G1 X67.339 Y67.804 E0.02311
G1 X67.488 Y67.635 E0.01220
G1 X67.798 Y67.344 E0.02312
G1 X67.975 Y67.206 E0.01220
G1 X68.334 Y66.978 E0.02312
G1 X68.531 Y66.878 E0.01199
G1 X68.734 Y66.791 E0.01199
G1 X69.142 Y66.658 E0.02333
G1 X69.566 Y66.577 E0.02344
G1 X69.864 Y66.554 E0.01624
G1 X70.218 Y66.556 E0.01923
G1 X70.643 Y66.610 E0.02328
G1 X70.862 Y66.659 E0.01220
G1 X71.270 Y66.792 E0.02333
G1 X71.659 Y66.975 E0.02333
G1 X71.852 Y67.089 E0.01220
G1 X72.196 Y67.339 E0.02311
G1 X72.365 Y67.488 E0.01220
G1 X72.656 Y67.798 E0.02312
G1 X72.794 Y67.975 E0.01220
G1 X73.022 Y68.334 E0.02312
G1 X73.209 Y68.734 E0.02397
G1 X73.342 Y69.142 E0.02333
G1 X73.423 Y69.564 E0.02333
G1 X73.450 Y70.004 E0.02397
G1 X73.423 Y70.432 E0.02333
G1 X73.343 Y70.854 E0.02333
G1 X73.207 Y71.274 E0.02397
G1 X73.024 Y71.662 E0.02333
G1 X72.792 Y72.027 E0.02345
G1 X72.413 Y72.462 E0.03136
G1 X72.361 Y72.516 F9000.000
G1 X72.629 Y72.801 F9000.000
G1 F600
G1 X72.266 Y73.112 E0.02598
G1 X71.855 Y73.373 E0.02648
G1 X71.417 Y73.579 E0.02627
G1 X70.954 Y73.730 E0.02648
G1 X70.721 Y73.782 E0.01293
G1 X70.486 Y73.819 E0.01293
G1 X70.000 Y73.849 E0.02648
G1 X69.514 Y73.819 E0.02648
G1 X69.281 Y73.782 E0.01281
G1 X68.953 Y73.703 E0.01834
G1 X68.582 Y73.579 E0.02123
G1 X68.277 Y73.441 E0.01818
G1 X67.935 Y73.249 E0.02135
G1 X67.740 Y73.117 E0.01277
G1 X67.365 Y72.806 E0.02648
G1 X67.031 Y72.451 E0.02648
G1 X66.888 Y72.266 E0.01271
G1 X66.627 Y71.855 E0.02648
G1 X66.421 Y71.417 E0.02627
G1 X66.270 Y70.954 E0.02648
G1 X66.181 Y70.486 E0.02584
G1 X66.151 Y70.000 E0.02648
G1 X66.181 Y69.514 E0.02648
G1 X66.270 Y69.046 E0.02584
G1 X66.421 Y68.583 E0.02648
G1 X66.627 Y68.145 E0.02632
G1 X66.833 Y67.815 E0.02113
G1 X67.033 Y67.548 E0.01812
G1 X67.365 Y67.194 E0.02636
G1 X67.740 Y66.883 E0.02648
G1 X67.937 Y66.749 E0.01293
G1 X68.142 Y66.628 E0.01293
G1 X68.583 Y66.421 E0.02648
G1 X69.046 Y66.270 E0.02648
G1 X69.275 Y66.219 E0.01271
G1 X69.760 Y66.158 E0.02657
G1 X70.094 Y66.153 E0.01813
G1 X70.482 Y66.181 E0.02113
G1 X70.957 Y66.271 E0.02632
G1 X71.421 Y66.422 E0.02648
G1 X71.639 Y66.517 E0.01293
G1 X71.851 Y66.625 E0.01293
G1 X72.266 Y66.888 E0.02669
G1 X72.451 Y67.031 E0.01271
G1 X72.806 Y67.365 E0.02648
G1 X73.117 Y67.740 E0.02648
G1 X73.251 Y67.937 E0.01293
G1 X73.372 Y68.142 E0.01293
G1 X73.580 Y68.584 E0.02653
G1 X73.703 Y68.953 E0.02113
G1 X73.782 Y69.281 E0.01834
G1 X73.819 Y69.514 E0.01281
G1 X73.849 Y70.000 E0.02648
G1 X73.819 Y70.486 E0.02648
G1 X73.782 Y70.721 E0.01293
G1 X73.730 Y70.954 E0.01293
G1 X73.579 Y71.417 E0.02648
G1 X73.372 Y71.858 E0.02648
G1 X73.251 Y72.063 E0.01293
G1 X73.117 Y72.260 E0.01293
G1 X72.806 Y72.635 E0.02648
G1 X72.684 Y72.750 E0.00911
G1 X72.393 Y72.737 F9000.000
G1 E-3.50000 F2400.00000
G1 Z3.000 F9000.000
G1 X72.365 Y72.512 F9000.000
G1 E3.50000 F2400.00000
G1 F600
G1 X71.928 Y72.859 E0.03031
G1 X71.661 Y73.024 E0.01706
G1 X71.270 Y73.208 E0.02346
G1 X70.858 Y73.342 E0.02354
G1 X70.436 Y73.423 E0.02333
G1 X69.996 Y73.450 E0.02397
G1 X69.568 Y73.423 E0.02333
G1 X69.146 Y73.343 E0.02333
G1 X68.726 Y73.207 E0.02397
G1 X68.338 Y73.024 E0.02333
G1 X67.975 Y72.794 E0.02333
G1 X67.798 Y72.656 E0.01220
G1 X67.488 Y72.365 E0.02312
G1 X67.155 Y71.949 E0.02894
G1 X66.976 Y71.661 E0.01840
G1 X66.792 Y71.270 E0.02348
G1 X66.658 Y70.858 E0.02354
G1 X66.577 Y70.436 E0.02333
G1 X66.550 Y69.996 E0.02397
G1 X66.577 Y69.568 E0.02333
G1 X66.658 Y69.142 E0.02354
G1 X66.792 Y68.730 E0.02354
G1 X66.975 Y68.341 E0.02333
G1 X67.089 Y68.148 E0.01220
G1 X67.339 Y67.804 E0.02311
G1 X67.487 Y67.636 E0.01214
G1 X67.729 Y67.405 E0.01819
G1 X67.973 Y67.208 E0.01706
G1 X68.334 Y66.978 E0.02325
G1 X68.531 Y66.878 E0.01199
G1 X68.734 Y66.791 E0.01199
G1 X69.142 Y66.658 E0.02333
G1 X69.564 Y66.577 E0.02336
G1 X69.804 Y66.556 E0.01307
G1 X70.217 Y66.556 E0.02244
G1 X70.643 Y66.610 E0.02332
G1 X70.862 Y66.659 E0.01220
G1 X71.270 Y66.792 E0.02333
G1 X71.659 Y66.975 E0.02333
G1 X71.852 Y67.089 E0.01220
G1 X72.196 Y67.339 E0.02311
G1 X72.365 Y67.488 E0.01220
G1 X72.656 Y67.798 E0.02312
G1 X72.794 Y67.975 E0.01220
G1 X73.022 Y68.334 E0.02312
G1 X73.209 Y68.734 E0.02397
G1 X73.342 Y69.142 E0.02333
G1 X73.423 Y69.564 E0.02333
G1 X73.450 Y70.004 E0.02397
G1 X73.423 Y70.432 E0.02333
G1 X73.343 Y70.854 E0.02333
G1 X73.207 Y71.274 E0.02397
G1 X73.024 Y71.661 E0.02325
G1 X72.859 Y71.928 E0.01706
G1 X72.658 Y72.200 E0.01840
G1 X72.416 Y72.458 E0.01919
G1 X72.365 Y72.512 F9000.000
G1 X72.619 Y72.820 F9000.000
G1 F600
G1 X72.263 Y73.114 E0.02512
G1 X71.855 Y73.373 E0.02627
G1 X71.417 Y73.579 E0.02627
G1 X70.954 Y73.730 E0.02648
G1 X70.721 Y73.782 E0.01293
G1 X70.486 Y73.819 E0.01293
G1 X70.000 Y73.849 E0.02648
G1 X69.514 Y73.819 E0.02648
G1 X69.279 Y73.782 E0.01293
G1 X69.046 Y73.730 E0.01293
G1 X68.581 Y73.579 E0.02656
G1 X68.267 Y73.435 E0.01877
G1 X67.935 Y73.249 E0.02070
G1 X67.740 Y73.117 E0.01277
G1 X67.362 Y72.804 E0.02669
G1 X67.196 Y72.638 E0.01271
G1 X66.886 Y72.263 E0.02648
G1 X66.627 Y71.855 E0.02627
G1 X66.421 Y71.417 E0.02627
G1 X66.270 Y70.954 E0.02648
G1 X66.218 Y70.721 E0.01293
G1 X66.181 Y70.486 E0.01293
G1 X66.151 Y70.000 E0.02648
G1 X66.181 Y69.514 E0.02648
G1 X66.218 Y69.279 E0.01293
G1 X66.270 Y69.046 E0.01293
G1 X66.421 Y68.583 E0.02648
G1 X66.627 Y68.145 E0.02627
G1 X66.886 Y67.736 E0.02633
G1 X67.124 Y67.444 E0.02049
G1 X67.364 Y67.195 E0.01877
G1 X67.740 Y66.883 E0.02656
G1 X67.937 Y66.749 E0.01293
G1 X68.142 Y66.628 E0.01293
G1 X68.583 Y66.421 E0.02648
G1 X69.046 Y66.270 E0.02648
G1 X69.275 Y66.219 E0.01271
G1 X69.760 Y66.158 E0.02656
G1 X70.105 Y66.154 E0.01877
G1 X70.481 Y66.181 E0.02049
G1 X70.957 Y66.271 E0.02633
G1 X71.421 Y66.422 E0.02648
G1 X71.639 Y66.517 E0.01293
G1 X71.851 Y66.625 E0.01293
G1 X72.266 Y66.888 E0.02669
G1 X72.451 Y67.031 E0.01271
G1 X72.809 Y67.368 E0.02669
G1 X72.964 Y67.543 E0.01271
G1 X73.253 Y67.941 E0.02669
G1 X73.372 Y68.142 E0.01271
G1 X73.579 Y68.583 E0.02648
G1 X73.730 Y69.046 E0.02648
G1 X73.782 Y69.279 E0.01293
G1 X73.819 Y69.514 E0.01293
G1 X73.849 Y70.000 E0.02648
G1 X73.819 Y70.486 E0.02648
G1 X73.782 Y70.721 E0.01293
G1 X73.730 Y70.954 E0.01293
G1 X73.579 Y71.417 E0.02648
G1 X73.372 Y71.858 E0.02648
G1 X73.251 Y72.063 E0.01293
G1 X73.117 Y72.260 E0.01293
G1 X72.804 Y72.638 E0.02669
G1 X72.673 Y72.768 E0.01000
G1 X72.178 Y72.681 F9000.000
G1 E-3.50000 F2400.00000
G1 Z3.300 F9000.000
G1 X72.355 Y72.521 F9000.000
G1 E3.50000 F2400.00000
G1 F600
G1 X72.196 Y72.661 E0.01152
G1 X71.852 Y72.911 E0.02311
G1 X71.659 Y73.025 E0.01220
G1 X71.270 Y73.208 E0.02333
G1 X70.862 Y73.341 E0.02333
G1 X70.646 Y73.389 E0.01199
G1 X70.429 Y73.424 E0.01199
G1 X70.000 Y73.451 E0.02333
G1 X69.571 Y73.424 E0.02333
G1 X69.354 Y73.389 E0.01199
G1 X69.138 Y73.341 E0.01199
G1 X68.730 Y73.208 E0.02333
G1 X68.341 Y73.025 E0.02333
G1 X68.148 Y72.911 E0.01220
G1 X67.802 Y72.659 E0.02325
G1 X67.564 Y72.441 E0.01756
G1 X67.341 Y72.198 E0.01790
G1 X67.089 Y71.852 E0.02326
G1 X66.975 Y71.659 E0.01220
G1 X66.792 Y71.270 E0.02333
G1 X66.659 Y70.862 E0.02333
G1 X66.611 Y70.646 E0.01199
G1 X66.574 Y70.415 E0.01274
G1 X66.550 Y70.000 E0.02260
G1 X66.576 Y69.571 E0.02331
G1 X66.611 Y69.354 E0.01199
G1 X66.659 Y69.138 E0.01199
G1 X66.792 Y68.730 E0.02333
G1 X66.975 Y68.341 E0.02333
G1 X67.089 Y68.148 E0.01220
G1 X67.339 Y67.804 E0.02311
G1 X67.488 Y67.635 E0.01220
G1 X67.798 Y67.344 E0.02312
G1 X67.975 Y67.206 E0.01220
G1 X68.334 Y66.978 E0.02312
G1 X68.531 Y66.878 E0.01199
G1 X68.734 Y66.791 E0.01199
G1 X69.142 Y66.658 E0.02333
G1 X69.566 Y66.577 E0.02347
G1 X69.895 Y66.553 E0.01790
G1 X70.218 Y66.556 E0.01756
G1 X70.643 Y66.610 E0.02325
G1 X70.862 Y66.659 E0.01220
G1 X71.270 Y66.792 E0.02333
G1 X71.659 Y66.975 E0.02333
G1 X71.852 Y67.089 E0.01220
G1 X72.196 Y67.339 E0.02312
G1 X72.365 Y67.488 E0.01220
G1 X72.658 Y67.800 E0.02326
G1 X72.851 Y68.059 E0.01756
G1 X73.024 Y68.339 E0.01790
G1 X73.208 Y68.730 E0.02347
G1 X73.341 Y69.138 E0.02333
G1 X73.389 Y69.354 E0.01199
G1 X73.424 Y69.571 E0.01199
G1 X73.451 Y70.000 E0.02333
G1 X73.424 Y70.429 E0.02333
G1 X73.389 Y70.646 E0.01199
G1 X73.341 Y70.862 E0.01199
G1 X73.208 Y71.270 E0.02333
G1 X73.024 Y71.662 E0.02354
G1 X72.792 Y72.027 E0.02347
G1 X72.408 Y72.467 E0.03175
G1 X72.406 Y72.727 F9000.000
G1 X72.609 Y72.828 F9000.000
G1 F600
G1 X72.263 Y73.114 E0.02444
G1 X71.855 Y73.373 E0.02627
G1 X71.417 Y73.579 E0.02627
G1 X70.954 Y73.730 E0.02648
G1 X70.721 Y73.782 E0.01293
G1 X70.486 Y73.819 E0.01293
G1 X70.000 Y73.849 E0.02648
G1 X69.514 Y73.819 E0.02648
G1 X69.279 Y73.782 E0.01293
G1 X69.046 Y73.730 E0.01293
G1 X68.582 Y73.579 E0.02655
G1 X68.257 Y73.430 E0.01941
G1 X67.935 Y73.249 E0.02006
G1 X67.740 Y73.117 E0.01278
G1 X67.362 Y72.804 E0.02669
G1 X67.196 Y72.638 E0.01271
G1 X66.886 Y72.263 E0.02648
G1 X66.627 Y71.855 E0.02627
G1 X66.421 Y71.417 E0.02627
G1 X66.270 Y70.954 E0.02648
G1 X66.218 Y70.721 E0.01293
G1 X66.181 Y70.486 E0.01293
G1 X66.151 Y70.000 E0.02648
G1 X66.181 Y69.514 E0.02648
G1 X66.218 Y69.279 E0.01293
G1 X66.270 Y69.046 E0.01293
G1 X66.421 Y68.583 E0.02648
G1 X66.627 Y68.144 E0.02633
G1 X66.820 Y67.834 E0.01984
G1 X67.033 Y67.547 E0.01941
G1 X67.368 Y67.191 E0.02655
G1 X67.543 Y67.036 E0.01271
G1 X67.941 Y66.747 E0.02669
G1 X68.142 Y66.628 E0.01271
G1 X68.583 Y66.421 E0.02648
G1 X69.046 Y66.270 E0.02648
G1 X69.275 Y66.219 E0.01271
G1 X69.760 Y66.158 E0.02655
G1 X70.117 Y66.154 E0.01941
G1 X70.481 Y66.181 E0.01984
G1 X70.957 Y66.271 E0.02633
G1 X71.421 Y66.422 E0.02648
G1 X71.639 Y66.517 E0.01293
G1 X71.851 Y66.625 E0.01293
G1 X72.266 Y66.888 E0.02669
G1 X72.451 Y67.031 E0.01271
G1 X72.809 Y67.368 E0.02669
G1 X72.964 Y67.543 E0.01271
G1 X73.253 Y67.941 E0.02669
G1 X73.372 Y68.142 E0.01271
G1 X73.579 Y68.583 E0.02648
G1 X73.730 Y69.046 E0.02648
G1 X73.782 Y69.279 E0.01293
G1 X73.819 Y69.514 E0.01293
G1 X73.849 Y70.000 E0.02648
G1 X73.819 Y70.486 E0.02648
G1 X73.782 Y70.721 E0.01293
G1 X73.730 Y70.954 E0.01293
G1 X73.579 Y71.417 E0.02648
G1 X73.372 Y71.858 E0.02648
G1 X73.251 Y72.063 E0.01293
G1 X73.117 Y72.260 E0.01293
G1 X72.804 Y72.638 E0.02669
G1 X72.665 Y72.777 E0.01068
G1 X72.180 Y72.692 F9000.000
G1 E-3.50000 F2400.00000
G1 Z3.600 F9000.000
G1 X72.346 Y72.529 F9000.000
G1 E3.50000 F2400.00000
G1 F600
G1 X71.944 Y72.849 E0.02792
G1 X71.661 Y73.024 E0.01807
G1 X71.270 Y73.208 E0.02348
G1 X70.858 Y73.342 E0.02354
G1 X70.436 Y73.423 E0.02333
G1 X69.996 Y73.450 E0.02397
G1 X69.568 Y73.423 E0.02333
G1 X69.146 Y73.343 E0.02333
G1 X68.726 Y73.207 E0.02397
G1 X68.338 Y73.024 E0.02333
G1 X67.973 Y72.792 E0.02347
G1 X67.724 Y72.591 E0.01739
G1 X67.484 Y72.361 E0.01807
G1 X67.208 Y72.028 E0.02348
G1 X66.978 Y71.666 E0.02333
G1 X66.791 Y71.266 E0.02397
G1 X66.658 Y70.858 E0.02333
G1 X66.577 Y70.436 E0.02333
G1 X66.550 Y69.996 E0.02397
G1 X66.577 Y69.568 E0.02333
G1 X66.658 Y69.142 E0.02354
G1 X66.792 Y68.730 E0.02354
G1 X66.975 Y68.341 E0.02333
G1 X67.089 Y68.148 E0.01220
G1 X67.339 Y67.804 E0.02311
G1 X67.488 Y67.635 E0.01220
G1 X67.798 Y67.344 E0.02312
G1 X67.975 Y67.206 E0.01220
G1 X68.334 Y66.978 E0.02312
G1 X68.531 Y66.878 E0.01199
G1 X68.734 Y66.791 E0.01199
G1 X69.142 Y66.658 E0.02333
G1 X69.566 Y66.577 E0.02347
G1 X69.885 Y66.553 E0.01739
G1 X70.218 Y66.556 E0.01807
G1 X70.643 Y66.610 E0.02326
G1 X70.862 Y66.659 E0.01220
G1 X71.270 Y66.792 E0.02333
G1 X71.659 Y66.975 E0.02333
G1 X71.852 Y67.089 E0.01220
G1 X72.196 Y67.339 E0.02311
G1 X72.365 Y67.488 E0.01220
G1 X72.656 Y67.798 E0.02312
G1 X72.794 Y67.975 E0.01220
G1 X73.022 Y68.334 E0.02312
G1 X73.209 Y68.734 E0.02397
G1 X73.342 Y69.142 E0.02333
G1 X73.423 Y69.564 E0.02333
G1 X73.450 Y70.004 E0.02397
G1 X73.423 Y70.432 E0.02333
G1 X73.343 Y70.854 E0.02333
G1 X73.207 Y71.274 E0.02397
G1 X73.024 Y71.662 E0.02333
G1 X72.794 Y72.025 E0.02333
G1 X72.656 Y72.202 E0.01220
G1 X72.399 Y72.476 E0.02040
G1 X72.393 Y72.721 F9000.000
G1 X72.619 Y72.814 F9000.000
G1 F600
G1 X72.264 Y73.114 E0.02524
G1 X71.855 Y73.373 E0.02634
G1 X71.414 Y73.581 E0.02648
G1 X71.190 Y73.661 E0.01293
G1 X70.961 Y73.728 E0.01293
G1 X70.482 Y73.819 E0.02648
G1 X69.996 Y73.850 E0.02648
G1 X69.758 Y73.842 E0.01293
G1 X69.521 Y73.820 E0.01293
G1 X69.043 Y73.729 E0.02648
G1 X68.579 Y73.578 E0.02648
G1 X68.361 Y73.483 E0.01293
G1 X68.149 Y73.375 E0.01293
G1 X67.734 Y73.112 E0.02669
G1 X67.549 Y72.969 E0.01271
G1 X67.194 Y72.635 E0.02648
G1 X66.883 Y72.260 E0.02648
G1 X66.749 Y72.063 E0.01293
G1 X66.628 Y71.858 E0.01293
G1 X66.421 Y71.417 E0.02648
G1 X66.271 Y70.957 E0.02627
G1 X66.181 Y70.482 E0.02627
G1 X66.150 Y69.996 E0.02648
G1 X66.158 Y69.758 E0.01293
G1 X66.180 Y69.521 E0.01293
G1 X66.271 Y69.043 E0.02648
G1 X66.422 Y68.579 E0.02648
G1 X66.517 Y68.361 E0.01293
G1 X66.625 Y68.149 E0.01293
G1 X66.888 Y67.734 E0.02669
G1 X67.031 Y67.549 E0.01271
G1 X67.366 Y67.193 E0.02655
G1 X67.648 Y66.955 E0.02006
G1 X67.939 Y66.748 E0.01941
G1 X68.142 Y66.628 E0.01279
G1 X68.584 Y66.420 E0.02655
G1 X68.934 Y66.303 E0.02006
G1 X69.277 Y66.219 E0.01920
G1 X69.759 Y66.158 E0.02641
G1 X70.129 Y66.154 E0.02006
G1 X70.481 Y66.181 E0.01920
G1 X70.957 Y66.271 E0.02634
G1 X71.421 Y66.422 E0.02648
G1 X71.639 Y66.517 E0.01293
G1 X71.851 Y66.625 E0.01293
G1 X72.266 Y66.888 E0.02669
G1 X72.451 Y67.031 E0.01271
G1 X72.809 Y67.368 E0.02669
G1 X72.964 Y67.543 E0.01271
G1 X73.253 Y67.941 E0.02669
G1 X73.372 Y68.142 E0.01271
G1 X73.579 Y68.583 E0.02648
G1 X73.729 Y69.043 E0.02627
G1 X73.819 Y69.518 E0.02627
G1 X73.850 Y70.004 E0.02648
G1 X73.820 Y70.479 E0.02584
G1 X73.729 Y70.957 E0.02648
G1 X73.578 Y71.421 E0.02648
G1 X73.375 Y71.851 E0.02584
G1 X73.114 Y72.263 E0.02648
G1 X72.805 Y72.636 E0.02633
G1 X72.673 Y72.763 E0.00993
G1 X72.511 Y72.786 F9000.000
G1 E-3.50000 F2400.00000
G1 Z3.900 F9000.000
G1 X72.358 Y72.518 F9000.000
G1 E3.50000 F2400.00000
G1 F600
G1 X72.025 Y72.794 E0.02349
G1 X71.662 Y73.024 E0.02333
G1 X71.270 Y73.208 E0.02354
G1 X70.858 Y73.342 E0.02354
G1 X70.436 Y73.423 E0.02333
G1 X69.996 Y73.450 E0.02397
G1 X69.568 Y73.423 E0.02333
G1 X69.142 Y73.342 E0.02354
G1 X68.730 Y73.208 E0.02354
G1 X68.341 Y73.025 E0.02333
G1 X68.148 Y72.911 E0.01220
G1 X67.804 Y72.661 E0.02311
G1 X67.635 Y72.512 E0.01220
G1 X67.344 Y72.202 E0.02312
G1 X67.206 Y72.025 E0.01220
G1 X66.978 Y71.666 E0.02312
G1 X66.791 Y71.266 E0.02397
G1 X66.658 Y70.858 E0.02333
G1 X66.577 Y70.436 E0.02333
G1 X66.550 Y69.996 E0.02397
G1 X66.577 Y69.568 E0.02333
G1 X66.658 Y69.142 E0.02354
G1 X66.792 Y68.730 E0.02354
G1 X66.975 Y68.341 E0.02333
G1 X67.089 Y68.148 E0.01220
G1 X67.339 Y67.804 E0.02312
G1 X67.488 Y67.635 E0.01220
G1 X67.798 Y67.344 E0.02312
G1 X67.975 Y67.206 E0.01220
G1 X68.334 Y66.978 E0.02312
G1 X68.531 Y66.878 E0.01199
G1 X68.734 Y66.791 E0.01199
G1 X69.142 Y66.658 E0.02333
G1 X69.566 Y66.577 E0.02346
G1 X69.876 Y66.554 E0.01689
G1 X70.218 Y66.556 E0.01857
G1 X70.643 Y66.610 E0.02327
G1 X70.862 Y66.659 E0.01220
G1 X71.270 Y66.792 E0.02333
G1 X71.659 Y66.975 E0.02333
G1 X71.852 Y67.089 E0.01220
G1 X72.196 Y67.339 E0.02311
G1 X72.365 Y67.488 E0.01220
G1 X72.656 Y67.798 E0.02312
G1 X72.794 Y67.975 E0.01220
G1 X73.022 Y68.334 E0.02312
G1 X73.209 Y68.734 E0.02397
G1 X73.342 Y69.142 E0.02333
G1 X73.423 Y69.564 E0.02333
G1 X73.450 Y70.004 E0.02397
G1 X73.423 Y70.432 E0.02333
G1 X73.343 Y70.854 E0.02333
G1 X73.207 Y71.274 E0.02397
G1 X73.024 Y71.662 E0.02333
G1 X72.794 Y72.025 E0.02333
G1 X72.656 Y72.202 E0.01220
G1 X72.410 Y72.464 E0.01952
G1 X72.409 Y72.724 F9000.000
G1 X72.630 Y72.803 F9000.000
G1 F600
G1 X72.264 Y73.113 E0.02608
G1 X71.855 Y73.373 E0.02635
G1 X71.414 Y73.581 E0.02648
G1 X70.961 Y73.728 E0.02584
G1 X70.482 Y73.819 E0.02648
G1 X69.996 Y73.850 E0.02648
G1 X69.758 Y73.842 E0.01293
G1 X69.521 Y73.820 E0.01293
G1 X69.043 Y73.729 E0.02648
G1 X68.579 Y73.578 E0.02648
G1 X68.361 Y73.483 E0.01293
G1 X68.149 Y73.375 E0.01293
G1 X67.737 Y73.114 E0.02648
G1 X67.364 Y72.805 E0.02635
G1 X67.127 Y72.559 E0.01856
G1 X66.886 Y72.264 E0.02070
G1 X66.627 Y71.855 E0.02632
G1 X66.419 Y71.414 E0.02648
G1 X66.339 Y71.190 E0.01293
G1 X66.272 Y70.961 E0.01293
G1 X66.181 Y70.482 E0.02648
G1 X66.150 Y69.996 E0.02648
G1 X66.158 Y69.758 E0.01293
G1 X66.180 Y69.521 E0.01293
G1 X66.271 Y69.043 E0.02648
G1 X66.422 Y68.579 E0.02648
G1 X66.517 Y68.361 E0.01293
G1 X66.625 Y68.149 E0.01293
G1 X66.888 Y67.734 E0.02669
G1 X67.031 Y67.549 E0.01271
G1 X67.366 Y67.193 E0.02654
G1 X67.657 Y66.948 E0.02070
G1 X67.939 Y66.748 E0.01877
G1 X68.142 Y66.628 E0.01280
G1 X68.583 Y66.421 E0.02648
G1 X69.046 Y66.270 E0.02648
G1 X69.275 Y66.219 E0.01271
G1 X69.759 Y66.158 E0.02654
G1 X70.140 Y66.155 E0.02070
G1 X70.481 Y66.181 E0.01856
G1 X70.957 Y66.271 E0.02635
G1 X71.421 Y66.422 E0.02648
G1 X71.639 Y66.517 E0.01293
G1 X71.851 Y66.625 E0.01293
G1 X72.266 Y66.888 E0.02669
G1 X72.451 Y67.031 E0.01271
G1 X72.806 Y67.365 E0.02648
G1 X73.117 Y67.740 E0.02648
G1 X73.251 Y67.937 E0.01293
G1 X73.372 Y68.142 E0.01293
G1 X73.579 Y68.583 E0.02648
G1 X73.729 Y69.043 E0.02627
G1 X73.819 Y69.518 E0.02627
G1 X73.850 Y70.004 E0.02648
G1 X73.820 Y70.479 E0.02584
G1 X73.729 Y70.957 E0.02648
G1 X73.578 Y71.421 E0.02648
G1 X73.375 Y71.851 E0.02584
G1 X73.114 Y72.263 E0.02648
G1 X72.805 Y72.636 E0.02632
G1 X72.685 Y72.751 E0.00909
G1 X72.496 Y72.768 F9000.000
G1 E-3.50000 F2400.00000
G1 Z4.200 F9000.000
G1 X72.365 Y72.512 F9000.000
G1 E3.50000 F2400.00000
G1 F600
G1 X72.025 Y72.794 E0.02397
G1 X71.662 Y73.024 E0.02333
G1 X71.270 Y73.208 E0.02354
G1 X70.858 Y73.342 E0.02354
G1 X70.436 Y73.423 E0.02333
G1 X69.996 Y73.450 E0.02397
G1 X69.568 Y73.423 E0.02333
G1 X69.146 Y73.343 E0.02333
G1 X68.726 Y73.207 E0.02397
G1 X68.338 Y73.024 E0.02333
G1 X67.973 Y72.792 E0.02345
G1 X67.738 Y72.604 E0.01639
G1 X67.484 Y72.361 E0.01908
G1 X67.208 Y72.028 E0.02349
G1 X66.978 Y71.666 E0.02333
G1 X66.791 Y71.266 E0.02397
G1 X66.658 Y70.858 E0.02333
G1 X66.577 Y70.436 E0.02333
G1 X66.550 Y69.996 E0.02397
G1 X66.577 Y69.568 E0.02333
G1 X66.658 Y69.142 E0.02354
G1 X66.792 Y68.730 E0.02354
G1 X66.975 Y68.341 E0.02333
G1 X67.089 Y68.148 E0.01220
G1 X67.339 Y67.804 E0.02311
G1 X67.488 Y67.635 E0.01220
G1 X67.798 Y67.344 E0.02312
G1 X67.975 Y67.206 E0.01220
G1 X68.334 Y66.978 E0.02312
G1 X68.531 Y66.878 E0.01199
G1 X68.734 Y66.791 E0.01199
G1 X69.142 Y66.658 E0.02333
G1 X69.566 Y66.577 E0.02345
G1 X69.866 Y66.554 E0.01639
G1 X70.218 Y66.556 E0.01908
G1 X70.643 Y66.610 E0.02328
G1 X70.862 Y66.659 E0.01220
G1 X71.270 Y66.792 E0.02333
G1 X71.659 Y66.975 E0.02333
G1 X71.852 Y67.089 E0.01220
G1 X72.196 Y67.339 E0.02311
G1 X72.365 Y67.488 E0.01220
G1 X72.656 Y67.798 E0.02312
G1 X72.794 Y67.975 E0.01220
G1 X73.022 Y68.334 E0.02312
G1 X73.209 Y68.734 E0.02397
G1 X73.342 Y69.142 E0.02333
G1 X73.423 Y69.564 E0.02333
G1 X73.450 Y70.004 E0.02397
G1 X73.423 Y70.432 E0.02333
G1 X73.343 Y70.854 E0.02333
G1 X73.207 Y71.274 E0.02397
G1 X73.024 Y71.662 E0.02333
G1 X72.794 Y72.025 E0.02333
G1 X72.656 Y72.202 E0.01220
G1 X72.416 Y72.458 E0.01904
G1 X72.365 Y72.512 F9000.000
G1 X72.633 Y72.798 F9000.000
G1 F600
G1 X72.266 Y73.112 E0.02624
G1 X71.855 Y73.373 E0.02648
G1 X71.416 Y73.580 E0.02632
G1 X71.044 Y73.704 E0.02135
G1 X70.719 Y73.782 E0.01812
G1 X70.486 Y73.819 E0.01281
G1 X70.000 Y73.849 E0.02648
G1 X69.514 Y73.819 E0.02648
G1 X69.279 Y73.782 E0.01293
G1 X69.046 Y73.730 E0.01293
G1 X68.583 Y73.579 E0.02648
G1 X68.142 Y73.372 E0.02648
G1 X67.740 Y73.117 E0.02584
G1 X67.363 Y72.805 E0.02658
G1 X67.134 Y72.568 E0.01791
G1 X66.886 Y72.263 E0.02135
G1 X66.627 Y71.855 E0.02632
G1 X66.421 Y71.417 E0.02627
G1 X66.270 Y70.954 E0.02648
G1 X66.218 Y70.721 E0.01293
G1 X66.181 Y70.486 E0.01293
G1 X66.151 Y70.000 E0.02648
G1 X66.181 Y69.514 E0.02648
G1 X66.218 Y69.279 E0.01293
G1 X66.270 Y69.046 E0.01293
G1 X66.421 Y68.583 E0.02648
G1 X66.627 Y68.144 E0.02636
G1 X66.800 Y67.863 E0.01791
G1 X67.033 Y67.547 E0.02135
G1 X67.365 Y67.193 E0.02636
G1 X67.666 Y66.941 E0.02135
G1 X67.939 Y66.748 E0.01812
G1 X68.142 Y66.628 E0.01281
G1 X68.584 Y66.420 E0.02653
G1 X68.956 Y66.296 E0.02135
G1 X69.277 Y66.219 E0.01791
G1 X69.760 Y66.158 E0.02645
G1 X70.105 Y66.154 E0.01876
G1 X70.481 Y66.181 E0.02050
G1 X70.957 Y66.271 E0.02633
G1 X71.421 Y66.422 E0.02648
G1 X71.639 Y66.517 E0.01293
G1 X71.851 Y66.625 E0.01293
G1 X72.263 Y66.886 E0.02653
G1 X72.568 Y67.134 E0.02135
G1 X72.808 Y67.366 E0.01812
G1 X72.964 Y67.543 E0.01281
G1 X73.253 Y67.941 E0.02669
G1 X73.372 Y68.142 E0.01271
G1 X73.579 Y68.583 E0.02648
G1 X73.730 Y69.046 E0.02648
G1 X73.782 Y69.279 E0.01293
G1 X73.819 Y69.514 E0.01293
G1 X73.849 Y70.000 E0.02648
G1 X73.819 Y70.486 E0.02648
G1 X73.782 Y70.721 E0.01293
G1 X73.730 Y70.954 E0.01293
G1 X73.578 Y71.421 E0.02669
G1 X73.485 Y71.636 E0.01271
G1 X73.248 Y72.066 E0.02669
G1 X73.117 Y72.260 E0.01271
G1 X72.806 Y72.635 E0.02648
G1 X72.687 Y72.747 E0.00884
G1 X72.392 Y72.733 F9000.000
G1 E-3.50000 F2400.00000
G1 Z4.500 F9000.000
G1 X72.365 Y72.512 F9000.000
G1 E3.50000 F2400.00000
G1 F600
G1 X72.025 Y72.794 E0.02397
G1 X71.662 Y73.024 E0.02333
G1 X71.270 Y73.208 E0.02354
G1 X70.858 Y73.342 E0.02354
G1 X70.436 Y73.423 E0.02333
G1 X69.996 Y73.450 E0.02397
G1 X69.568 Y73.423 E0.02333
G1 X69.146 Y73.343 E0.02333
G1 X68.726 Y73.207 E0.02397
G1 X68.338 Y73.024 E0.02333
G1 X67.974 Y72.793 E0.02344
G1 X67.745 Y72.610 E0.01588
G1 X67.484 Y72.361 E0.01958
G1 X67.208 Y72.028 E0.02350
G1 X66.978 Y71.666 E0.02333
G1 X66.876 Y71.465 E0.01224
G1 X66.692 Y70.992 E0.02756
G1 X66.610 Y70.644 E0.01945
G1 X66.557 Y70.221 E0.02318
G1 X66.550 Y69.996 E0.01220
G1 X66.577 Y69.568 E0.02333
G1 X66.658 Y69.143 E0.02350
G1 X66.767 Y68.799 E0.01958
G1 X66.879 Y68.529 E0.01588
G1 X67.087 Y68.151 E0.02344
G1 X67.339 Y67.804 E0.02333
G1 X67.488 Y67.635 E0.01220
G1 X67.798 Y67.344 E0.02312
G1 X67.975 Y67.206 E0.01220
G1 X68.334 Y66.978 E0.02312
G1 X68.533 Y66.877 E0.01210
G1 X68.799 Y66.767 E0.01567
G1 X69.143 Y66.658 E0.01958
G1 X69.566 Y66.577 E0.02339
G1 X69.857 Y66.554 E0.01588
G1 X70.217 Y66.556 E0.01958
G1 X70.644 Y66.610 E0.02335
G1 X70.989 Y66.691 E0.01927
G1 X71.274 Y66.793 E0.01643
G1 X71.659 Y66.975 E0.02312
G1 X71.852 Y67.089 E0.01220
G1 X72.196 Y67.339 E0.02312
G1 X72.365 Y67.488 E0.01220
G1 X72.656 Y67.798 E0.02312
G1 X72.794 Y67.975 E0.01220
G1 X73.022 Y68.334 E0.02312
G1 X73.209 Y68.734 E0.02397
G1 X73.342 Y69.142 E0.02333
G1 X73.423 Y69.564 E0.02333
G1 X73.450 Y70.004 E0.02397
G1 X73.423 Y70.432 E0.02333
G1 X73.343 Y70.854 E0.02333
G1 X73.207 Y71.274 E0.02397
G1 X73.024 Y71.662 E0.02333
G1 X72.794 Y72.025 E0.02333
G1 X72.656 Y72.202 E0.01220
G1 X72.416 Y72.458 E0.01904
G1 X72.365 Y72.512 F9000.000
G1 X72.633 Y72.798 F9000.000
G1 F600
G1 X72.266 Y73.112 E0.02624
G1 X71.855 Y73.373 E0.02648
G1 X71.414 Y73.581 E0.02648
G1 X70.961 Y73.728 E0.02584
G1 X70.482 Y73.819 E0.02648
G1 X69.996 Y73.850 E0.02648
G1 X69.758 Y73.842 E0.01293
G1 X69.521 Y73.820 E0.01293
G1 X69.043 Y73.729 E0.02648
G1 X68.579 Y73.578 E0.02648
G1 X68.361 Y73.483 E0.01293
G1 X68.149 Y73.375 E0.01293
G1 X67.737 Y73.114 E0.02648
G1 X67.363 Y72.805 E0.02637
G1 X67.142 Y72.577 E0.01726
G1 X66.886 Y72.263 E0.02199
G1 X66.627 Y71.855 E0.02631
G1 X66.419 Y71.414 E0.02648
G1 X66.339 Y71.190 E0.01293
G1 X66.272 Y70.961 E0.01293
G1 X66.181 Y70.482 E0.02648
G1 X66.150 Y69.996 E0.02648
G1 X66.158 Y69.758 E0.01293
G1 X66.180 Y69.521 E0.01293
G1 X66.271 Y69.043 E0.02648
G1 X66.422 Y68.579 E0.02648
G1 X66.516 Y68.362 E0.01285
G1 X66.652 Y68.102 E0.01595
G1 X66.888 Y67.734 E0.02372
G1 X67.031 Y67.549 E0.01274
G1 X67.365 Y67.193 E0.02652
G1 X67.676 Y66.933 E0.02199
G1 X67.939 Y66.748 E0.01748
G1 X68.142 Y66.628 E0.01282
G1 X68.583 Y66.421 E0.02648
G1 X69.046 Y66.270 E0.02648
G1 X69.275 Y66.219 E0.01271
G1 X69.759 Y66.158 E0.02652
G1 X70.164 Y66.156 E0.02199
G1 X70.481 Y66.180 E0.01726
G1 X70.957 Y66.271 E0.02637
G1 X71.421 Y66.422 E0.02648
G1 X71.639 Y66.517 E0.01293
G1 X71.851 Y66.625 E0.01293
G1 X72.266 Y66.888 E0.02669
G1 X72.451 Y67.031 E0.01271
G1 X72.809 Y67.368 E0.02669
G1 X72.964 Y67.543 E0.01271
G1 X73.253 Y67.941 E0.02669
G1 X73.372 Y68.142 E0.01271
G1 X73.579 Y68.583 E0.02648
G1 X73.729 Y69.043 E0.02627
G1 X73.819 Y69.518 E0.02627
G1 X73.850 Y70.004 E0.02648
G1 X73.820 Y70.479 E0.02584
G1 X73.729 Y70.957 E0.02648
G1 X73.579 Y71.417 E0.02627
G1 X73.373 Y71.855 E0.02627
G1 X73.112 Y72.266 E0.02648
G1 X72.809 Y72.632 E0.02584
G1 X72.687 Y72.747 E0.00906
G1 X72.393 Y72.730 F9000.000
G1 E-3.50000 F2400.00000
G1 Z4.800 F9000.000
G1 X72.365 Y72.512 F9000.000
G1 E3.50000 F2400.00000
G1 F600
G1 X72.025 Y72.794 E0.02397
G1 X71.662 Y73.024 E0.02333
G1 X71.270 Y73.208 E0.02354
G1 X70.858 Y73.342 E0.02354
G1 X70.436 Y73.423 E0.02333
G1 X69.996 Y73.450 E0.02397
G1 X69.568 Y73.423 E0.02333
G1 X69.146 Y73.343 E0.02333
G1 X68.726 Y73.207 E0.02397
G1 X68.338 Y73.024 E0.02333
G1 X67.975 Y72.794 E0.02333
G1 X67.798 Y72.656 E0.01220
G1 X67.488 Y72.365 E0.02312
G1 X67.206 Y72.025 E0.02397
G1 X66.976 Y71.662 E0.02333
G1 X66.792 Y71.270 E0.02354
G1 X66.658 Y70.858 E0.02354
G1 X66.577 Y70.436 E0.02333
G1 X66.550 Y69.996 E0.02397
G1 X66.577 Y69.568 E0.02333
G1 X66.658 Y69.143 E0.02351
G1 X66.770 Y68.790 E0.02009
G1 X66.879 Y68.529 E0.01538
G1 X67.087 Y68.151 E0.02342
G1 X67.339 Y67.804 E0.02333
G1 X67.488 Y67.635 E0.01220
G1 X67.798 Y67.344 E0.02312
G1 X67.975 Y67.206 E0.01220
G1 X68.334 Y66.978 E0.02312
G1 X68.531 Y66.878 E0.01199
G1 X68.734 Y66.791 E0.01199
G1 X69.142 Y66.658 E0.02333
G1 X69.565 Y66.577 E0.02343
G1 X69.848 Y66.554 E0.01538
G1 X70.217 Y66.556 E0.02009
G1 X70.643 Y66.610 E0.02329
G1 X70.862 Y66.659 E0.01220
G1 X71.270 Y66.792 E0.02333
G1 X71.659 Y66.975 E0.02333
G1 X71.852 Y67.089 E0.01220
G1 X72.196 Y67.339 E0.02312
G1 X72.365 Y67.488 E0.01220
G1 X72.656 Y67.798 E0.02312
G1 X72.794 Y67.975 E0.01220
G1 X73.022 Y68.334 E0.02312
G1 X73.209 Y68.734 E0.02397
G1 X73.342 Y69.142 E0.02333
G1 X73.423 Y69.564 E0.02333
G1 X73.450 Y70.004 E0.02397
G1 X73.423 Y70.432 E0.02333
G1 X73.343 Y70.854 E0.02333
G1 X73.207 Y71.274 E0.02397
G1 X73.024 Y71.662 E0.02333
G1 X72.794 Y72.025 E0.02333
G1 X72.656 Y72.202 E0.01220
G1 X72.416 Y72.458 E0.01904
G1 X72.365 Y72.512 F9000.000
G1 X72.633 Y72.798 F9000.000
G1 F600
G1 X72.266 Y73.112 E0.02624
G1 X71.855 Y73.373 E0.02648
G1 X71.414 Y73.581 E0.02648
G1 X70.961 Y73.728 E0.02584
G1 X70.482 Y73.819 E0.02648
G1 X69.996 Y73.850 E0.02648
G1 X69.521 Y73.820 E0.02584
G1 X69.043 Y73.729 E0.02648
G1 X68.579 Y73.578 E0.02648
G1 X68.361 Y73.483 E0.01293
G1 X68.149 Y73.375 E0.01293
G1 X67.734 Y73.112 E0.02669
G1 X67.549 Y72.969 E0.01271
G1 X67.194 Y72.635 E0.02648
G1 X66.883 Y72.260 E0.02648
G1 X66.749 Y72.063 E0.01293
G1 X66.628 Y71.858 E0.01293
G1 X66.421 Y71.417 E0.02648
G1 X66.271 Y70.957 E0.02627
G1 X66.180 Y70.479 E0.02648
G1 X66.158 Y70.246 E0.01271
G1 X66.158 Y69.754 E0.02669
G1 X66.180 Y69.521 E0.01271
G1 X66.271 Y69.043 E0.02648
G1 X66.422 Y68.579 E0.02648
G1 X66.517 Y68.361 E0.01293
G1 X66.625 Y68.149 E0.01293
G1 X66.888 Y67.734 E0.02669
G1 X67.031 Y67.549 E0.01271
G1 X67.365 Y67.193 E0.02651
G1 X67.685 Y66.926 E0.02263
G1 X67.939 Y66.749 E0.01683
G1 X68.142 Y66.628 E0.01283
G1 X68.583 Y66.421 E0.02651
G1 X68.979 Y66.290 E0.02263
G1 X69.276 Y66.219 E0.01662
G1 X69.759 Y66.158 E0.02642
G1 X70.175 Y66.156 E0.02263
G1 X70.480 Y66.180 E0.01662
G1 X70.957 Y66.271 E0.02639
G1 X71.421 Y66.422 E0.02648
G1 X71.639 Y66.517 E0.01293
G1 X71.851 Y66.625 E0.01293
G1 X72.266 Y66.888 E0.02669
G1 X72.451 Y67.031 E0.01271
G1 X72.806 Y67.365 E0.02648
G1 X73.117 Y67.740 E0.02648
G1 X73.251 Y67.937 E0.01293
G1 X73.372 Y68.142 E0.01293
G1 X73.579 Y68.583 E0.02648
G1 X73.729 Y69.043 E0.02627
G1 X73.819 Y69.518 E0.02627
G1 X73.850 Y70.004 E0.02648
G1 X73.820 Y70.479 E0.02584
G1 X73.729 Y70.957 E0.02648
G1 X73.579 Y71.417 E0.02627
G1 X73.373 Y71.855 E0.02627
G1 X73.112 Y72.266 E0.02648
G1 X72.809 Y72.632 E0.02584
G1 X72.687 Y72.747 E0.00906
G1 X72.393 Y72.730 F9000.000
G1 E-3.50000 F2400.00000
G1 Z5.100 F9000.000
G1 X72.365 Y72.512 F9000.000
G1 E3.50000 F2400.00000
G1 F600
G1 X71.983 Y72.822 E0.02672
G1 X71.662 Y73.024 E0.02060
G1 X71.270 Y73.208 E0.02351
G1 X70.858 Y73.342 E0.02354
G1 X70.436 Y73.423 E0.02333
G1 X69.996 Y73.450 E0.02397
G1 X69.568 Y73.423 E0.02333
G1 X69.146 Y73.343 E0.02333
G1 X68.726 Y73.207 E0.02397
G1 X68.338 Y73.024 E0.02333
G1 X67.974 Y72.793 E0.02341
G1 X67.760 Y72.622 E0.01488
G1 X67.484 Y72.362 E0.02060
G1 X67.208 Y72.028 E0.02351
G1 X66.978 Y71.666 E0.02333
G1 X66.791 Y71.266 E0.02397
G1 X66.658 Y70.858 E0.02333
G1 X66.577 Y70.436 E0.02333
G1 X66.550 Y69.996 E0.02397
G1 X66.577 Y69.568 E0.02333
G1 X66.658 Y69.142 E0.02354
G1 X66.792 Y68.730 E0.02354
G1 X66.975 Y68.341 E0.02333
G1 X67.089 Y68.148 E0.01220
G1 X67.339 Y67.804 E0.02311
G1 X67.488 Y67.635 E0.01220
G1 X67.798 Y67.344 E0.02312
G1 X67.975 Y67.206 E0.01220
G1 X68.334 Y66.978 E0.02312
G1 X68.532 Y66.878 E0.01207
G1 X68.781 Y66.773 E0.01466
G1 X69.142 Y66.658 E0.02060
G1 X69.565 Y66.577 E0.02338
G1 X69.838 Y66.555 E0.01488
G1 X70.217 Y66.556 E0.02060
G1 X70.643 Y66.610 E0.02330
G1 X70.862 Y66.659 E0.01220
G1 X71.270 Y66.792 E0.02333
G1 X71.659 Y66.975 E0.02333
G1 X71.852 Y67.089 E0.01220
G1 X72.196 Y67.339 E0.02311
G1 X72.365 Y67.488 E0.01220
G1 X72.656 Y67.798 E0.02312
G1 X72.794 Y67.975 E0.01220
G1 X73.022 Y68.334 E0.02312
G1 X73.209 Y68.734 E0.02397
G1 X73.342 Y69.142 E0.02333
G1 X73.423 Y69.564 E0.02333
G1 X73.450 Y70.004 E0.02397
G1 X73.423 Y70.432 E0.02333
G1 X73.343 Y70.854 E0.02333
G1 X73.207 Y71.274 E0.02397
G1 X73.024 Y71.662 E0.02333
G1 X72.794 Y72.025 E0.02333
G1 X72.656 Y72.202 E0.01220
G1 X72.416 Y72.458 E0.01904
G1 X72.365 Y72.512 F9000.000
G1 X72.635 Y72.798 F9000.000
G1 F600
G1 X72.265 Y73.113 E0.02642
G1 X71.855 Y73.373 E0.02640
G1 X71.414 Y73.581 E0.02648
G1 X70.961 Y73.728 E0.02584
G1 X70.482 Y73.819 E0.02651
G1 X70.055 Y73.848 E0.02327
G1 X69.521 Y73.820 E0.02901
G1 X69.043 Y73.729 E0.02648
G1 X68.582 Y73.579 E0.02629
G1 X68.194 Y73.398 E0.02327
G1 X67.939 Y73.252 E0.01597
G1 X67.543 Y72.964 E0.02661
G1 X67.368 Y72.809 E0.01271
G1 X67.031 Y72.451 E0.02669
G1 X66.888 Y72.266 E0.01271
G1 X66.627 Y71.855 E0.02648
G1 X66.419 Y71.414 E0.02648
G1 X66.259 Y70.904 E0.02901
G1 X66.181 Y70.483 E0.02327
G1 X66.150 Y69.996 E0.02651
G1 X66.180 Y69.521 E0.02584
G1 X66.271 Y69.043 E0.02648
G1 X66.422 Y68.579 E0.02648
G1 X66.517 Y68.361 E0.01293
G1 X66.625 Y68.149 E0.01293
G1 X66.888 Y67.734 E0.02669
G1 X67.031 Y67.549 E0.01271
G1 X67.365 Y67.193 E0.02651
G1 X67.694 Y66.919 E0.02327
G1 X67.938 Y66.749 E0.01619
G1 X68.142 Y66.628 E0.01285
G1 X68.583 Y66.421 E0.02651
G1 X68.990 Y66.287 E0.02327
G1 X69.276 Y66.219 E0.01597
G1 X69.759 Y66.158 E0.02643
G1 X70.187 Y66.156 E0.02327
G1 X70.480 Y66.180 E0.01597
G1 X70.958 Y66.272 E0.02643
G1 X71.366 Y66.402 E0.02327
G1 X71.641 Y66.517 E0.01619
G1 X71.851 Y66.625 E0.01285
G1 X72.266 Y66.888 E0.02669
G1 X72.451 Y67.031 E0.01271
G1 X72.809 Y67.368 E0.02669
G1 X72.964 Y67.543 E0.01271
G1 X73.253 Y67.941 E0.02669
G1 X73.372 Y68.142 E0.01271
G1 X73.579 Y68.583 E0.02648
G1 X73.729 Y69.043 E0.02627
G1 X73.819 Y69.518 E0.02627
G1 X73.850 Y70.004 E0.02648
G1 X73.820 Y70.479 E0.02584
G1 X73.729 Y70.957 E0.02648
G1 X73.578 Y71.421 E0.02648
G1 X73.375 Y71.851 E0.02584
G1 X73.114 Y72.263 E0.02648
G1 X72.806 Y72.636 E0.02629
G1 X72.689 Y72.746 E0.00873
G1 X72.449 Y72.748 F9000.000
G1 E-3.50000 F2400.00000
G1 Z5.400 F9000.000
G1 X72.365 Y72.512 F9000.000
G1 E3.50000 F2400.00000
G1 F600
G1 X71.991 Y72.817 E0.02621
G1 X71.662 Y73.024 E0.02111
G1 X71.270 Y73.208 E0.02352
G1 X70.858 Y73.342 E0.02354
G1 X70.436 Y73.423 E0.02333
G1 X69.955 Y73.449 E0.02621
G1 X69.567 Y73.423 E0.02111
G1 X69.146 Y73.343 E0.02331
G1 X68.726 Y73.207 E0.02397
G1 X68.338 Y73.024 E0.02333
G1 X67.974 Y72.793 E0.02340
G1 X67.767 Y72.629 E0.01438
G1 X67.484 Y72.362 E0.02111
G1 X67.208 Y72.028 E0.02352
G1 X66.978 Y71.666 E0.02333
G1 X66.791 Y71.266 E0.02397
G1 X66.658 Y70.858 E0.02333
G1 X66.577 Y70.436 E0.02333
G1 X66.550 Y69.996 E0.02397
G1 X66.577 Y69.568 E0.02333
G1 X66.658 Y69.142 E0.02352
G1 X66.777 Y68.772 E0.02111
G1 X66.879 Y68.529 E0.01438
G1 X67.087 Y68.151 E0.02340
G1 X67.339 Y67.804 E0.02333
G1 X67.488 Y67.635 E0.01220
G1 X67.798 Y67.344 E0.02312
G1 X67.975 Y67.206 E0.01220
G1 X68.334 Y66.978 E0.02312
G1 X68.532 Y66.878 E0.01206
G1 X68.772 Y66.777 E0.01416
G1 X69.142 Y66.658 E0.02111
G1 X69.565 Y66.577 E0.02338
G1 X69.829 Y66.555 E0.01438
G1 X70.217 Y66.556 E0.02111
G1 X70.643 Y66.610 E0.02331
G1 X70.862 Y66.659 E0.01220
G1 X71.270 Y66.792 E0.02333
G1 X71.659 Y66.975 E0.02333
G1 X71.852 Y67.089 E0.01220
G1 X72.196 Y67.339 E0.02311
G1 X72.365 Y67.488 E0.01220
G1 X72.656 Y67.798 E0.02312
G1 X72.794 Y67.975 E0.01220
G1 X73.022 Y68.334 E0.02312
G1 X73.209 Y68.734 E0.02397
G1 X73.342 Y69.142 E0.02333
G1 X73.423 Y69.564 E0.02333
G1 X73.450 Y70.004 E0.02397
G1 X73.423 Y70.432 E0.02333
G1 X73.343 Y70.854 E0.02333
G1 X73.207 Y71.274 E0.02397
G1 X73.024 Y71.662 E0.02333
G1 X72.794 Y72.025 E0.02333
G1 X72.656 Y72.202 E0.01220
G1 X72.416 Y72.458 E0.01904
G1 X72.365 Y72.512 F9000.000
G1 X72.655 Y72.785 F9000.000
G1 F600
G1 X72.457 Y72.964 E0.01450
G1 X72.059 Y73.253 E0.02669
G1 X71.858 Y73.372 E0.01271
G1 X71.417 Y73.579 E0.02648
G1 X70.957 Y73.729 E0.02627
G1 X70.482 Y73.819 E0.02627
G1 X69.996 Y73.850 E0.02648
G1 X69.521 Y73.820 E0.02584
G1 X69.043 Y73.729 E0.02648
G1 X68.583 Y73.579 E0.02629
G1 X68.184 Y73.393 E0.02391
G1 X67.940 Y73.252 E0.01533
G1 X67.543 Y72.964 E0.02663
G1 X67.368 Y72.809 E0.01271
G1 X67.031 Y72.451 E0.02669
G1 X66.888 Y72.266 E0.01271
G1 X66.627 Y71.855 E0.02648
G1 X66.419 Y71.414 E0.02648
G1 X66.272 Y70.961 E0.02584
G1 X66.181 Y70.482 E0.02648
G1 X66.150 Y69.996 E0.02648
G1 X66.180 Y69.521 E0.02584
G1 X66.271 Y69.043 E0.02648
G1 X66.422 Y68.579 E0.02648
G1 X66.625 Y68.149 E0.02584
G1 X66.886 Y67.737 E0.02648
G1 X67.194 Y67.365 E0.02629
G1 X67.514 Y67.062 E0.02391
G1 X67.735 Y66.887 E0.01533
G1 X68.146 Y66.626 E0.02643
G1 X68.543 Y66.438 E0.02391
G1 X69.039 Y66.272 E0.02838
G1 X69.518 Y66.181 E0.02650
G1 X69.957 Y66.152 E0.02391
G1 X70.479 Y66.180 E0.02838
G1 X70.957 Y66.271 E0.02648
G1 X71.421 Y66.422 E0.02648
G1 X71.851 Y66.625 E0.02584
G1 X72.263 Y66.886 E0.02648
G1 X72.637 Y67.196 E0.02641
G1 X72.835 Y67.397 E0.01533
G1 X73.114 Y67.737 E0.02391
G1 X73.373 Y68.145 E0.02629
G1 X73.581 Y68.586 E0.02648
G1 X73.728 Y69.039 E0.02584
G1 X73.819 Y69.518 E0.02648
G1 X73.850 Y70.004 E0.02648
G1 X73.820 Y70.479 E0.02584
G1 X73.729 Y70.957 E0.02648
G1 X73.578 Y71.421 E0.02648
G1 X73.375 Y71.851 E0.02584
G1 X73.112 Y72.266 E0.02669
G1 X72.969 Y72.451 E0.01271
G1 X72.706 Y72.730 E0.02083
G1 X72.623 Y72.778 F9000.000
G1 E-3.50000 F2400.00000
G1 Z5.700 F9000.000
G1 X72.378 Y72.491 F9000.000
G1 E3.50000 F2400.00000
G1 F600
G1 X72.202 Y72.657 E0.01319
G1 X71.998 Y72.812 E0.01387
G1 X71.662 Y73.024 E0.02162
G1 X71.270 Y73.208 E0.02353
G1 X70.858 Y73.342 E0.02354
G1 X70.436 Y73.423 E0.02333
G1 X69.996 Y73.450 E0.02397
G1 X69.568 Y73.423 E0.02333
G1 X69.146 Y73.343 E0.02333
G1 X68.726 Y73.207 E0.02397
G1 X68.338 Y73.024 E0.02333
G1 X67.974 Y72.793 E0.02339
G1 X67.774 Y72.635 E0.01387
G1 X67.484 Y72.362 E0.02162
G1 X67.208 Y72.028 E0.02353
G1 X66.978 Y71.666 E0.02333
G1 X66.791 Y71.266 E0.02397
G1 X66.658 Y70.858 E0.02333
G1 X66.577 Y70.436 E0.02333
G1 X66.550 Y69.996 E0.02397
G1 X66.577 Y69.568 E0.02333
G1 X66.658 Y69.142 E0.02353
G1 X66.780 Y68.763 E0.02162
G1 X66.879 Y68.528 E0.01388
G1 X67.087 Y68.151 E0.02339
G1 X67.339 Y67.804 E0.02333
G1 X67.488 Y67.635 E0.01220
G1 X67.798 Y67.344 E0.02312
G1 X67.975 Y67.206 E0.01220
G1 X68.334 Y66.978 E0.02312
G1 X68.532 Y66.878 E0.01205
G1 X68.763 Y66.780 E0.01366
G1 X69.142 Y66.658 E0.02162
G1 X69.565 Y66.577 E0.02337
G1 X69.819 Y66.555 E0.01388
G1 X70.217 Y66.556 E0.02162
G1 X70.643 Y66.610 E0.02331
G1 X70.862 Y66.659 E0.01220
G1 X71.270 Y66.792 E0.02333
G1 X71.659 Y66.975 E0.02333
G1 X71.852 Y67.089 E0.01220
G1 X72.196 Y67.339 E0.02311
G1 X72.365 Y67.488 E0.01220
G1 X72.656 Y67.798 E0.02312
G1 X72.794 Y67.975 E0.01220
G1 X73.022 Y68.334 E0.02312
G1 X73.209 Y68.734 E0.02397
G1 X73.342 Y69.142 E0.02333
G1 X73.423 Y69.564 E0.02333
G1 X73.450 Y70.004 E0.02397
G1 X73.423 Y70.432 E0.02333
G1 X73.343 Y70.854 E0.02333
G1 X73.207 Y71.274 E0.02397
G1 X73.024 Y71.662 E0.02333
G1 X72.794 Y72.025 E0.02333
G1 X72.433 Y72.439 E0.02984
G1 X72.438 Y72.726 F9000.000
G1 X72.672 Y72.767 F9000.000
G1 F600
G1 X72.260 Y73.117 E0.02941
G1 X72.063 Y73.251 E0.01293
G1 X71.858 Y73.372 E0.01293
G1 X71.417 Y73.579 E0.02648
G1 X70.957 Y73.729 E0.02627
G1 X70.482 Y73.819 E0.02627
G1 X69.996 Y73.850 E0.02648
G1 X69.521 Y73.820 E0.02584
G1 X69.042 Y73.728 E0.02650
G1 X68.612 Y73.590 E0.02455
G1 X68.360 Y73.483 E0.01489
G1 X68.149 Y73.375 E0.01287
G1 X67.737 Y73.114 E0.02648
G1 X67.363 Y72.804 E0.02643
G1 X67.173 Y72.612 E0.01468
G1 X66.886 Y72.263 E0.02455
G1 X66.627 Y71.855 E0.02628
G1 X66.419 Y71.414 E0.02648
G1 X66.339 Y71.190 E0.01293
G1 X66.272 Y70.961 E0.01293
G1 X66.181 Y70.482 E0.02648
G1 X66.150 Y69.996 E0.02648
G1 X66.158 Y69.758 E0.01293
G1 X66.180 Y69.521 E0.01293
G1 X66.271 Y69.043 E0.02648
G1 X66.422 Y68.579 E0.02648
G1 X66.517 Y68.361 E0.01293
G1 X66.625 Y68.149 E0.01293
G1 X66.887 Y67.735 E0.02664
G1 X67.055 Y67.523 E0.01468
G1 X67.365 Y67.194 E0.02457
G1 X67.712 Y66.905 E0.02457
G1 X67.938 Y66.749 E0.01489
G1 X68.142 Y66.628 E0.01287
G1 X68.583 Y66.421 E0.02650
G1 X69.013 Y66.280 E0.02455
G1 X69.276 Y66.219 E0.01468
G1 X69.759 Y66.158 E0.02644
G1 X70.210 Y66.157 E0.02455
G1 X70.480 Y66.180 E0.01468
G1 X70.957 Y66.271 E0.02643
G1 X71.421 Y66.422 E0.02648
G1 X71.639 Y66.517 E0.01293
G1 X71.851 Y66.625 E0.01293
G1 X72.263 Y66.886 E0.02650
G1 X72.612 Y67.173 E0.02455
G1 X72.807 Y67.365 E0.01489
G1 X72.964 Y67.543 E0.01287
G1 X73.253 Y67.941 E0.02669
G1 X73.372 Y68.142 E0.01271
G1 X73.579 Y68.583 E0.02648
G1 X73.729 Y69.043 E0.02627
G1 X73.819 Y69.518 E0.02627
G1 X73.850 Y70.004 E0.02648
G1 X73.820 Y70.479 E0.02584
G1 X73.729 Y70.957 E0.02648
G1 X73.578 Y71.421 E0.02648
G1 X73.357 Y71.882 E0.02775
G1 X73.112 Y72.266 E0.02476
G1 X72.969 Y72.451 E0.01273
G1 X72.724 Y72.712 E0.01945
G1 X72.619 Y72.755 F9000.000
G1 E-3.50000 F2400.00000
G1 Z6.000 F9000.000
G1 X72.382 Y72.494 F9000.000
G1 E3.50000 F2400.00000
G1 F600
G1 X72.025 Y72.794 E0.02534
G1 X71.662 Y73.024 E0.02333
G1 X71.270 Y73.208 E0.02354
G1 X70.858 Y73.342 E0.02354
G1 X70.436 Y73.423 E0.02333
G1 X69.996 Y73.450 E0.02397
G1 X69.568 Y73.423 E0.02333
G1 X69.146 Y73.343 E0.02333
G1 X68.726 Y73.207 E0.02397
G1 X68.338 Y73.024 E0.02333
G1 X67.975 Y72.794 E0.02333
G1 X67.798 Y72.656 E0.01220
G1 X67.488 Y72.365 E0.02312
G1 X67.206 Y72.025 E0.02397
G1 X66.976 Y71.662 E0.02333
G1 X66.792 Y71.270 E0.02354
G1 X66.658 Y70.858 E0.02354
G1 X66.577 Y70.436 E0.02333
G1 X66.550 Y69.996 E0.02397
G1 X66.577 Y69.568 E0.02333
G1 X66.658 Y69.142 E0.02354
G1 X66.792 Y68.730 E0.02354
G1 X66.975 Y68.341 E0.02333
G1 X67.089 Y68.148 E0.01220
G1 X67.339 Y67.804 E0.02311
G1 X67.488 Y67.635 E0.01220
G1 X67.798 Y67.344 E0.02312
G1 X67.975 Y67.206 E0.01220
G1 X68.334 Y66.978 E0.02312
G1 X68.535 Y66.876 E0.01220
G1 X68.932 Y66.719 E0.02321
G1 X69.288 Y66.621 E0.02009
G1 X69.805 Y66.556 E0.02831
G1 X70.217 Y66.556 E0.02238
G1 X70.643 Y66.610 E0.02332
G1 X70.862 Y66.659 E0.01220
G1 X71.270 Y66.792 E0.02333
G1 X71.659 Y66.975 E0.02333
G1 X71.852 Y67.089 E0.01220
G1 X72.196 Y67.339 E0.02311
G1 X72.365 Y67.488 E0.01220
G1 X72.656 Y67.798 E0.02312
G1 X72.794 Y67.975 E0.01220
G1 X73.022 Y68.334 E0.02312
G1 X73.209 Y68.734 E0.02397
G1 X73.342 Y69.142 E0.02333
G1 X73.423 Y69.564 E0.02333
G1 X73.450 Y70.004 E0.02397
G1 X73.424 Y70.429 E0.02312
G1 X73.378 Y70.716 E0.01580
G1 X73.207 Y71.274 E0.03172
G1 X73.024 Y71.662 E0.02333
G1 X72.794 Y72.025 E0.02333
G1 X72.656 Y72.202 E0.01220
G1 X72.433 Y72.439 E0.01766
G1 X72.390 Y72.518 F9000.000
G1 X72.672 Y72.767 F9000.000
G1 F600
G1 X72.260 Y73.117 E0.02941
G1 X72.063 Y73.251 E0.01293
G1 X71.858 Y73.372 E0.01293
G1 X71.417 Y73.579 E0.02648
G1 X70.957 Y73.729 E0.02627
G1 X70.482 Y73.819 E0.02627
G1 X69.996 Y73.850 E0.02648
G1 X69.521 Y73.820 E0.02584
G1 X69.043 Y73.729 E0.02648
G1 X68.579 Y73.578 E0.02648
G1 X68.361 Y73.483 E0.01293
G1 X68.149 Y73.375 E0.01293
G1 X67.734 Y73.112 E0.02669
G1 X67.549 Y72.969 E0.01271
G1 X67.191 Y72.632 E0.02669
G1 X67.036 Y72.457 E0.01271
G1 X66.747 Y72.059 E0.02669
G1 X66.628 Y71.858 E0.01271
G1 X66.421 Y71.417 E0.02648
G1 X66.271 Y70.957 E0.02627
G1 X66.181 Y70.482 E0.02627
G1 X66.150 Y69.996 E0.02648
G1 X66.180 Y69.521 E0.02584
G1 X66.271 Y69.043 E0.02648
G1 X66.421 Y68.583 E0.02627
G1 X66.627 Y68.145 E0.02627
G1 X66.888 Y67.734 E0.02648
G1 X67.191 Y67.368 E0.02584
G1 X67.549 Y67.031 E0.02669
G1 X67.734 Y66.888 E0.01271
G1 X68.145 Y66.627 E0.02648
G1 X68.586 Y66.419 E0.02648
G1 X69.039 Y66.272 E0.02584
G1 X69.518 Y66.181 E0.02648
G1 X70.004 Y66.150 E0.02648
G1 X70.479 Y66.180 E0.02584
G1 X70.957 Y66.271 E0.02648
G1 X71.417 Y66.421 E0.02627
G1 X71.855 Y66.627 E0.02627
G1 X72.266 Y66.888 E0.02648
G1 X72.632 Y67.191 E0.02584
G1 X72.969 Y67.549 E0.02669
G1 X73.112 Y67.734 E0.01271
G1 X73.373 Y68.145 E0.02648
G1 X73.581 Y68.586 E0.02648
G1 X73.728 Y69.039 E0.02584
G1 X73.819 Y69.518 E0.02648
G1 X73.850 Y70.004 E0.02648
G1 X73.820 Y70.479 E0.02584
G1 X73.729 Y70.957 E0.02648
G1 X73.578 Y71.421 E0.02648
G1 X73.375 Y71.851 E0.02584
G1 X73.112 Y72.266 E0.02669
G1 X72.969 Y72.451 E0.01271
G1 X72.724 Y72.712 E0.01945
G1 X72.619 Y72.755 F9000.000
G1 E-3.50000 F2400.00000
G1 Z6.300 F9000.000
G1 X72.382 Y72.494 F9000.000
G1 E3.50000 F2400.00000
G1 F600
G1 X72.196 Y72.661 E0.01358
G1 X71.852 Y72.911 E0.02311
G1 X71.659 Y73.025 E0.01220
G1 X71.270 Y73.208 E0.02333
G1 X70.858 Y73.342 E0.02354
G1 X70.436 Y73.423 E0.02333
G1 X69.983 Y73.450 E0.02466
G1 X69.567 Y73.423 E0.02264
G1 X69.146 Y73.343 E0.02332
G1 X68.726 Y73.207 E0.02397
G1 X68.338 Y73.024 E0.02333
G1 X67.975 Y72.793 E0.02335
G1 X67.788 Y72.648 E0.01287
G1 X67.485 Y72.362 E0.02264
G1 X67.208 Y72.028 E0.02354
G1 X66.978 Y71.666 E0.02333
G1 X66.791 Y71.266 E0.02397
G1 X66.658 Y70.858 E0.02333
G1 X66.577 Y70.436 E0.02333
G1 X66.550 Y69.996 E0.02397
G1 X66.577 Y69.568 E0.02333
G1 X66.658 Y69.142 E0.02354
G1 X66.786 Y68.746 E0.02264
G1 X66.880 Y68.528 E0.01287
G1 X67.087 Y68.151 E0.02335
G1 X67.339 Y67.804 E0.02333
G1 X67.488 Y67.635 E0.01220
G1 X67.798 Y67.344 E0.02312
G1 X67.975 Y67.206 E0.01220
G1 X68.334 Y66.978 E0.02312
G1 X68.531 Y66.878 E0.01201
G1 X68.746 Y66.786 E0.01266
G1 X69.142 Y66.658 E0.02264
G1 X69.564 Y66.577 E0.02335
G1 X69.800 Y66.556 E0.01287
G1 X70.217 Y66.556 E0.02264
G1 X70.643 Y66.610 E0.02332
G1 X70.862 Y66.659 E0.01220
G1 X71.270 Y66.792 E0.02333
G1 X71.659 Y66.975 E0.02333
G1 X71.852 Y67.089 E0.01220
G1 X72.196 Y67.339 E0.02311
G1 X72.365 Y67.488 E0.01220
G1 X72.656 Y67.798 E0.02312
G1 X72.794 Y67.975 E0.01220
G1 X73.022 Y68.334 E0.02312
G1 X73.209 Y68.734 E0.02397
G1 X73.342 Y69.142 E0.02333
G1 X73.423 Y69.564 E0.02333
G1 X73.450 Y70.004 E0.02397
G1 X73.423 Y70.432 E0.02333
G1 X73.343 Y70.854 E0.02333
G1 X73.207 Y71.274 E0.02397
G1 X73.024 Y71.662 E0.02333
G1 X72.794 Y72.025 E0.02333
G1 X72.656 Y72.202 E0.01220
G1 X72.433 Y72.439 E0.01766
G1 X72.390 Y72.518 F9000.000
G1 X72.672 Y72.767 F9000.000
G1 F600
G1 X72.260 Y73.117 E0.02941
G1 X72.063 Y73.251 E0.01293
G1 X71.858 Y73.372 E0.01293
G1 X71.417 Y73.579 E0.02648
G1 X70.957 Y73.729 E0.02627
G1 X70.490 Y73.818 E0.02582
G1 X70.245 Y73.842 E0.01338
G1 X69.754 Y73.842 E0.02667
G1 X69.521 Y73.820 E0.01271
G1 X69.043 Y73.729 E0.02648
G1 X68.579 Y73.578 E0.02648
G1 X68.361 Y73.483 E0.01293
G1 X68.149 Y73.375 E0.01293
G1 X67.734 Y73.112 E0.02669
G1 X67.549 Y72.969 E0.01271
G1 X67.194 Y72.635 E0.02648
G1 X66.883 Y72.260 E0.02648
G1 X66.749 Y72.063 E0.01293
G1 X66.628 Y71.858 E0.01293
G1 X66.421 Y71.417 E0.02648
G1 X66.271 Y70.957 E0.02627
G1 X66.181 Y70.482 E0.02627
G1 X66.150 Y69.996 E0.02648
G1 X66.182 Y69.510 E0.02649
G1 X66.271 Y69.043 E0.02582
G1 X66.422 Y68.579 E0.02649
G1 X66.517 Y68.361 E0.01293
G1 X66.625 Y68.149 E0.01293
G1 X66.888 Y67.734 E0.02667
G1 X67.039 Y67.540 E0.01338
G1 X67.365 Y67.194 E0.02583
G1 X67.731 Y66.891 E0.02583
G1 X67.937 Y66.749 E0.01360
G1 X68.142 Y66.628 E0.01291
G1 X68.583 Y66.421 E0.02648
G1 X69.035 Y66.274 E0.02582
G1 X69.275 Y66.219 E0.01338
G1 X69.758 Y66.158 E0.02647
G1 X70.234 Y66.158 E0.02582
G1 X70.479 Y66.180 E0.01338
G1 X70.957 Y66.271 E0.02646
G1 X71.421 Y66.422 E0.02648
G1 X71.639 Y66.517 E0.01293
G1 X71.851 Y66.625 E0.01293
G1 X72.266 Y66.888 E0.02669
G1 X72.451 Y67.031 E0.01271
G1 X72.809 Y67.368 E0.02669
G1 X72.964 Y67.543 E0.01271
G1 X73.253 Y67.941 E0.02669
G1 X73.372 Y68.142 E0.01271
G1 X73.579 Y68.583 E0.02648
G1 X73.729 Y69.043 E0.02627
G1 X73.819 Y69.518 E0.02627
G1 X73.850 Y70.004 E0.02648
G1 X73.818 Y70.490 E0.02649
G1 X73.729 Y70.957 E0.02582
G1 X73.578 Y71.421 E0.02649
G1 X73.375 Y71.851 E0.02584
G1 X73.112 Y72.266 E0.02669
G1 X72.969 Y72.451 E0.01271
G1 X72.724 Y72.712 E0.01945
G1 X72.619 Y72.755 F9000.000
G1 E-3.50000 F2400.00000
G1 Z6.600 F9000.000
G1 X72.397 Y72.473 F9000.000
G1 E3.50000 F2400.00000
G1 F600
G1 X72.025 Y72.794 E0.02668
G1 X71.662 Y73.024 E0.02333
G1 X71.270 Y73.208 E0.02354
G1 X70.858 Y73.342 E0.02354
G1 X70.436 Y73.423 E0.02333
G1 X69.996 Y73.450 E0.02397
G1 X69.568 Y73.423 E0.02333
G1 X69.146 Y73.343 E0.02333
G1 X68.726 Y73.207 E0.02397
G1 X68.338 Y73.024 E0.02333
G1 X67.975 Y72.794 E0.02333
G1 X67.798 Y72.656 E0.01220
G1 X67.488 Y72.365 E0.02312
G1 X67.206 Y72.025 E0.02397
G1 X66.976 Y71.662 E0.02333
G1 X66.792 Y71.270 E0.02354
G1 X66.658 Y70.858 E0.02354
G1 X66.577 Y70.436 E0.02333
G1 X66.550 Y69.996 E0.02397
G1 X66.577 Y69.568 E0.02333
G1 X66.658 Y69.142 E0.02354
G1 X66.792 Y68.730 E0.02354
G1 X66.975 Y68.341 E0.02333
G1 X67.089 Y68.148 E0.01220
G1 X67.339 Y67.804 E0.02311
G1 X67.488 Y67.635 E0.01220
G1 X67.798 Y67.344 E0.02312
G1 X67.975 Y67.206 E0.01220
G1 X68.334 Y66.978 E0.02312
G1 X68.734 Y66.791 E0.02397
G1 X69.142 Y66.658 E0.02333
G1 X69.564 Y66.577 E0.02333
G1 X70.004 Y66.550 E0.02397
G1 X70.432 Y66.577 E0.02333
G1 X70.854 Y66.657 E0.02333
G1 X71.274 Y66.793 E0.02397
G1 X71.662 Y66.976 E0.02333
G1 X72.025 Y67.206 E0.02333
G1 X72.202 Y67.344 E0.01220
G1 X72.512 Y67.635 E0.02312
G1 X72.794 Y67.975 E0.02397
G1 X73.024 Y68.338 E0.02333
G1 X73.208 Y68.730 E0.02354
G1 X73.342 Y69.142 E0.02354
G1 X73.423 Y69.564 E0.02333
G1 X73.450 Y70.004 E0.02397
G1 X73.423 Y70.432 E0.02333
G1 X73.343 Y70.854 E0.02333
G1 X73.207 Y71.274 E0.02397
G1 X73.024 Y71.662 E0.02333
G1 X72.794 Y72.025 E0.02333
G1 X72.452 Y72.422 E0.02847
G1 X72.463 Y72.732 F9000.000
G1 X72.690 Y72.748 F9000.000
G1 F600
G1 X72.260 Y73.117 E0.03075
G1 X72.063 Y73.251 E0.01295
G1 X71.858 Y73.372 E0.01293
G1 X71.417 Y73.579 E0.02648
G1 X70.957 Y73.729 E0.02627
G1 X70.479 Y73.820 E0.02646
G1 X70.246 Y73.842 E0.01274
G1 X69.754 Y73.842 E0.02669
G1 X69.521 Y73.820 E0.01271
G1 X69.043 Y73.729 E0.02648
G1 X68.583 Y73.579 E0.02627
G1 X68.142 Y73.372 E0.02646
G1 X67.941 Y73.253 E0.01274
G1 X67.543 Y72.964 E0.02669
G1 X67.368 Y72.809 E0.01271
G1 X67.031 Y72.451 E0.02669
G1 X66.888 Y72.266 E0.01271
G1 X66.627 Y71.855 E0.02648
G1 X66.419 Y71.414 E0.02648
G1 X66.272 Y70.961 E0.02586
G1 X66.181 Y70.482 E0.02646
G1 X66.150 Y69.996 E0.02648
G1 X66.180 Y69.521 E0.02584
G1 X66.271 Y69.043 E0.02648
G1 X66.422 Y68.579 E0.02648
G1 X66.517 Y68.361 E0.01293
G1 X66.625 Y68.149 E0.01293
G1 X66.888 Y67.734 E0.02669
G1 X67.031 Y67.549 E0.01271
G1 X67.368 Y67.191 E0.02669
G1 X67.543 Y67.036 E0.01271
G1 X67.941 Y66.747 E0.02669
G1 X68.142 Y66.628 E0.01271
G1 X68.583 Y66.421 E0.02648
G1 X69.046 Y66.270 E0.02648
G1 X69.275 Y66.219 E0.01271
G1 X69.758 Y66.158 E0.02648
G1 X70.245 Y66.158 E0.02646
G1 X70.479 Y66.180 E0.01274
G1 X70.957 Y66.271 E0.02648
G1 X71.420 Y66.422 E0.02646
G1 X71.639 Y66.517 E0.01295
G1 X71.851 Y66.625 E0.01293
G1 X72.263 Y66.886 E0.02648
G1 X72.638 Y67.196 E0.02646
G1 X72.804 Y67.362 E0.01276
G1 X73.114 Y67.737 E0.02646
G1 X73.373 Y68.145 E0.02627
G1 X73.581 Y68.586 E0.02648
G1 X73.728 Y69.039 E0.02584
G1 X73.819 Y69.518 E0.02648
G1 X73.850 Y70.004 E0.02648
G1 X73.820 Y70.479 E0.02584
G1 X73.729 Y70.957 E0.02648
G1 X73.578 Y71.421 E0.02648
G1 X73.375 Y71.851 E0.02584
G1 X73.112 Y72.266 E0.02669
G1 X72.969 Y72.451 E0.01271
G1 X72.741 Y72.693 E0.01808
G1 X72.612 Y72.731 F9000.000
G1 E-3.50000 F2400.00000
M107
; Filament-specific end gcode 
;END gcode for filament

G91				; Set to Relative Positioning so that we can go up a fixed distance from current position which is the end of the print
G1 Z10				; move up 10mm from where we were when the print ended
G90				; Set to Absolute Positioning 
G10 P0 S-273 R-273	; Set tool 0 operating and standby temperatures  to negative 273 C means switched off, and zero all offsetsn
G4 S1			        ; wait for 1 second
G1 X112  Y140		; move to X:115, Y:140, i.e. eject !  updated 2020 03 31 13:37
G4 S1				; wait for 1 second
M140 S-273			;  set bed heater  to switched off
M104 S0 ; set temperature
; filament used = 63.9mm (0.2cm3)
; total filament cost = 0.0

; avoid_crossing_perimeters = 0
; bed_shape = 0x0,140x0,140x140,0x140
; bed_temperature = 0
; before_layer_gcode = 
; between_objects_gcode = 
; bridge_acceleration = 0
; bridge_fan_speed = 100
; brim_connections_width = 0
; brim_width = 0
; complete_objects = 0
; cooling = 1
; default_acceleration = 0
; disable_fan_first_layers = 2
; duplicate_distance = 6
; end_filament_gcode = "; Filament-specific end gcode \n;END gcode for filament\n"
; end_gcode = G91				; Set to Relative Positioning so that we can go up a fixed distance from current position which is the end of the print\nG1 Z10				; move up 10mm from where we were when the print ended\nG90				; Set to Absolute Positioning \nG10 P0 S-273 R-273	; Set tool 0 operating and standby temperatures  to negative 273 C means switched off, and zero all offsetsn\nG4 S1			        ; wait for 1 second\nG1 X112  Y140		; move to X:115, Y:140, i.e. eject !  updated 2020 03 31 13:37\nG4 S1				; wait for 1 second\nM140 S-273			;  set bed heater  to switched off
; extruder_clearance_height = 20
; extruder_clearance_radius = 20
; extruder_offset = 0x0
; extrusion_axis = E
; extrusion_multiplier = 1
; fan_always_on = 1
; fan_below_layer_time = 60
; filament_colour = #FFFFFF
; filament_cost = 0
; filament_density = 0
; filament_diameter = 1.75
; filament_max_volumetric_speed = 0
; filament_notes = ""
; first_layer_acceleration = 0
; first_layer_bed_temperature = 0
; first_layer_extrusion_width = 0.8
; first_layer_speed = 50%
; first_layer_temperature = 215
; gcode_arcs = 0
; gcode_comments = 0
; gcode_flavor = reprap
; has_heatbed = 1
; infill_acceleration = 0
; infill_first = 0
; interior_brim_width = 0
; layer_gcode = 
; max_fan_speed = 100
; max_layer_height = 0.3
; max_print_speed = 80
; max_volumetric_speed = 0
; min_fan_speed = 100
; min_layer_height = 0.15
; min_print_speed = 10
; min_skirt_length = 0
; notes = 
; nozzle_diameter = 0.5
; only_retract_when_crossing_perimeters = 1
; ooze_prevention = 0
; output_filename_format = [input_filename_base].gcode
; perimeter_acceleration = 0
; post_process = 
; pressure_advance = 0
; printer_notes = 
; resolution = 0
; retract_before_travel = 2
; retract_layer_change = 1
; retract_length = 3.5
; retract_length_toolchange = 10
; retract_lift = 0
; retract_lift_above = 0
; retract_lift_below = 0
; retract_restart_extra = 0
; retract_restart_extra_toolchange = 0
; retract_speed = 40
; skirt_distance = 3
; skirt_height = 1
; skirts = 2
; slowdown_below_layer_time = 20
; spiral_vase = 0
; standby_temperature_delta = -5
; start_filament_gcode = "; Filament gcode\n"
; start_gcode = T0\n
; temperature = 215
; threads = 4
; toolchange_gcode = 
; travel_speed = 150
; use_firmware_retraction = 0
; use_relative_e_distances = 1
; use_set_and_wait_bed = 0
; use_set_and_wait_extruder = 0
; use_volumetric_e = 0
; vibration_limit = 0
; wipe = 0
; z_offset = 0
; z_steps_per_mm = 0
; adaptive_slicing = 0
; adaptive_slicing_quality = 75%
; dont_support_bridges = 1
; extrusion_width = 0.5
; first_layer_height = 0.3
; infill_only_where_needed = 0
; interface_shells = 0
; layer_height = 0.3
; match_horizontal_surfaces = 0
; raft_layers = 0
; regions_overlap = 0
; seam_position = aligned
; sequential_print_priority = 0
; support_material = 0
; support_material_angle = 0
; support_material_buildplate_only = 0
; support_material_contact_distance = 0.2
; support_material_enforce_layers = 0
; support_material_extruder = 1
; support_material_extrusion_width = 0.5
; support_material_interface_extruder = 1
; support_material_interface_extrusion_width = 0
; support_material_interface_layers = 3
; support_material_interface_spacing = 0
; support_material_interface_speed = 100%
; support_material_max_layers = 0
; support_material_pattern = pillars
; support_material_spacing = 2.5
; support_material_speed = 40
; support_material_threshold = 60%
; xy_size_compensation = -0.05
; bottom_infill_pattern = rectilinear
; bottom_solid_layers = 3
; bridge_flow_ratio = 1
; bridge_speed = 40
; external_perimeter_extrusion_width = 0.5
; external_perimeter_speed = 30
; external_perimeters_first = 0
; extra_perimeters = 1
; fill_angle = 45
; fill_density = 20%
; fill_gaps = 1
; fill_pattern = rectilinear
; gap_fill_speed = 20
; infill_every_layers = 1
; infill_extruder = 1
; infill_extrusion_width = 0.5
; infill_overlap = 15%
; infill_speed = 40
; overhangs = 1
; perimeter_extruder = 1
; perimeter_extrusion_width = 0.5
; perimeter_speed = 30
; perimeters = 3
; small_perimeter_speed = 30
; solid_infill_below_area = 0
; solid_infill_every_layers = 0
; solid_infill_extruder = 1
; solid_infill_extrusion_width = 0.5
; solid_infill_speed = 30
; thin_walls = 1
; top_infill_extrusion_width = 0.5
; top_infill_pattern = rectilinear
; top_solid_infill_speed = 30
; top_solid_layers = 3
