%FSLAX45Y45*%
G04 Gerber Fmt 4.5, Leading zero omitted, Abs format (unit mm)*
G04 Created by KiCad (PCBNEW 5.1.10-88a1d61d58~88~ubuntu18.04.1) date 2021-08-15 21:40:35*
%MOMM*%
%LPD*%
G01*
G04 APERTURE LIST*
%TA.AperFunction,Profile*%
%ADD10C,0.150000*%
%TD*%
%ADD11C,0.200000*%
%ADD12C,0.300000*%
G04 APERTURE END LIST*
D10*
X13716000Y-7002000D02*
X20716000Y-7002000D01*
X20716000Y-16002000D02*
X20716000Y-7002000D01*
X13716000Y-16002000D02*
X20716000Y-16002000D01*
X13716000Y-7002000D02*
X13716000Y-16002000D01*
D11*
X14001000Y-8290000D02*
X14081000Y-8370000D01*
X14081000Y-8290000D02*
X14001000Y-8370000D01*
X14001000Y-8540000D02*
X14081000Y-8620000D01*
X14081000Y-8540000D02*
X14001000Y-8620000D01*
X14132000Y-11461000D02*
X14212000Y-11541000D01*
X14212000Y-11461000D02*
X14132000Y-11541000D01*
X14255000Y-8540000D02*
X14335000Y-8620000D01*
X14335000Y-8540000D02*
X14255000Y-8620000D01*
X14382000Y-11461000D02*
X14462000Y-11541000D01*
X14462000Y-11461000D02*
X14382000Y-11541000D01*
X14505000Y-8540000D02*
X14585000Y-8620000D01*
X14585000Y-8540000D02*
X14505000Y-8620000D01*
X14848000Y-11374000D02*
G75*
G03*
X14848000Y-11374000I-45000J0D01*
G01*
X14848000Y-12390000D02*
G75*
G03*
X14848000Y-12390000I-45000J0D01*
G01*
X15102000Y-11374000D02*
G75*
G03*
X15102000Y-11374000I-45000J0D01*
G01*
X15102000Y-12390000D02*
G75*
G03*
X15102000Y-12390000I-45000J0D01*
G01*
X15356000Y-11374000D02*
G75*
G03*
X15356000Y-11374000I-45000J0D01*
G01*
X15356000Y-12390000D02*
G75*
G03*
X15356000Y-12390000I-45000J0D01*
G01*
X15610000Y-11374000D02*
G75*
G03*
X15610000Y-11374000I-45000J0D01*
G01*
X15610000Y-12390000D02*
G75*
G03*
X15610000Y-12390000I-45000J0D01*
G01*
X15864000Y-11374000D02*
G75*
G03*
X15864000Y-11374000I-45000J0D01*
G01*
X15864000Y-12390000D02*
G75*
G03*
X15864000Y-12390000I-45000J0D01*
G01*
X16118000Y-11374000D02*
G75*
G03*
X16118000Y-11374000I-45000J0D01*
G01*
X16118000Y-12390000D02*
G75*
G03*
X16118000Y-12390000I-45000J0D01*
G01*
X14168000Y-10181000D02*
X14168000Y-10281000D01*
X14118000Y-10231000D02*
X14218000Y-10231000D01*
X14168000Y-10435000D02*
X14168000Y-10535000D01*
X14118000Y-10485000D02*
X14218000Y-10485000D01*
X14168000Y-10689000D02*
X14168000Y-10789000D01*
X14118000Y-10739000D02*
X14218000Y-10739000D01*
X14168000Y-10943000D02*
X14168000Y-11043000D01*
X14118000Y-10993000D02*
X14218000Y-10993000D01*
X16712000Y-11451000D02*
X16712000Y-11551000D01*
X16662000Y-11501000D02*
X16762000Y-11501000D01*
X17220000Y-11451000D02*
X17220000Y-11551000D01*
X17170000Y-11501000D02*
X17270000Y-11501000D01*
X17728000Y-11451000D02*
X17728000Y-11551000D01*
X17678000Y-11501000D02*
X17778000Y-11501000D01*
X20264000Y-10181000D02*
X20264000Y-10281000D01*
X20214000Y-10231000D02*
X20314000Y-10231000D01*
X20264000Y-10435000D02*
X20264000Y-10535000D01*
X20214000Y-10485000D02*
X20314000Y-10485000D01*
X20264000Y-10689000D02*
X20264000Y-10789000D01*
X20214000Y-10739000D02*
X20314000Y-10739000D01*
X20264000Y-10943000D02*
X20264000Y-11043000D01*
X20214000Y-10993000D02*
X20314000Y-10993000D01*
X15728770Y-7307770D02*
X15728770Y-7234230D01*
X15655230Y-7234230D01*
X15655230Y-7307770D01*
X15728770Y-7307770D01*
X15728770Y-9847770D02*
X15728770Y-9774230D01*
X15655230Y-9774230D01*
X15655230Y-9847770D01*
X15728770Y-9847770D01*
X15982770Y-7307770D02*
X15982770Y-7234230D01*
X15909230Y-7234230D01*
X15909230Y-7307770D01*
X15982770Y-7307770D01*
X15982770Y-9847770D02*
X15982770Y-9774230D01*
X15909230Y-9774230D01*
X15909230Y-9847770D01*
X15982770Y-9847770D01*
X16236770Y-7307770D02*
X16236770Y-7234230D01*
X16163230Y-7234230D01*
X16163230Y-7307770D01*
X16236770Y-7307770D01*
X16236770Y-9847770D02*
X16236770Y-9774230D01*
X16163230Y-9774230D01*
X16163230Y-9847770D01*
X16236770Y-9847770D01*
X16490770Y-7307770D02*
X16490770Y-7234230D01*
X16417230Y-7234230D01*
X16417230Y-7307770D01*
X16490770Y-7307770D01*
X16490770Y-9847770D02*
X16490770Y-9774230D01*
X16417230Y-9774230D01*
X16417230Y-9847770D01*
X16490770Y-9847770D01*
X16744770Y-7307770D02*
X16744770Y-7234230D01*
X16671230Y-7234230D01*
X16671230Y-7307770D01*
X16744770Y-7307770D01*
X16744770Y-9847770D02*
X16744770Y-9774230D01*
X16671230Y-9774230D01*
X16671230Y-9847770D01*
X16744770Y-9847770D01*
X16998770Y-7307770D02*
X16998770Y-7234230D01*
X16925230Y-7234230D01*
X16925230Y-7307770D01*
X16998770Y-7307770D01*
X16998770Y-9847770D02*
X16998770Y-9774230D01*
X16925230Y-9774230D01*
X16925230Y-9847770D01*
X16998770Y-9847770D01*
X17252770Y-7307770D02*
X17252770Y-7234230D01*
X17179230Y-7234230D01*
X17179230Y-7307770D01*
X17252770Y-7307770D01*
X17252770Y-9847770D02*
X17252770Y-9774230D01*
X17179230Y-9774230D01*
X17179230Y-9847770D01*
X17252770Y-9847770D01*
X17506770Y-7307770D02*
X17506770Y-7234230D01*
X17433230Y-7234230D01*
X17433230Y-7307770D01*
X17506770Y-7307770D01*
X17506770Y-9847770D02*
X17506770Y-9774230D01*
X17433230Y-9774230D01*
X17433230Y-9847770D01*
X17506770Y-9847770D01*
X17760770Y-7307770D02*
X17760770Y-7234230D01*
X17687230Y-7234230D01*
X17687230Y-7307770D01*
X17760770Y-7307770D01*
X17760770Y-9847770D02*
X17760770Y-9774230D01*
X17687230Y-9774230D01*
X17687230Y-9847770D01*
X17760770Y-9847770D01*
X18014770Y-7307770D02*
X18014770Y-7234230D01*
X17941230Y-7234230D01*
X17941230Y-7307770D01*
X18014770Y-7307770D01*
X18014770Y-9847770D02*
X18014770Y-9774230D01*
X17941230Y-9774230D01*
X17941230Y-9847770D01*
X18014770Y-9847770D01*
X18268770Y-7307770D02*
X18268770Y-7234230D01*
X18195230Y-7234230D01*
X18195230Y-7307770D01*
X18268770Y-7307770D01*
X18268770Y-9847770D02*
X18268770Y-9774230D01*
X18195230Y-9774230D01*
X18195230Y-9847770D01*
X18268770Y-9847770D01*
X18522770Y-7307770D02*
X18522770Y-7234230D01*
X18449230Y-7234230D01*
X18449230Y-7307770D01*
X18522770Y-7307770D01*
X18522770Y-9847770D02*
X18522770Y-9774230D01*
X18449230Y-9774230D01*
X18449230Y-9847770D01*
X18522770Y-9847770D01*
X18776770Y-7307770D02*
X18776770Y-7234230D01*
X18703230Y-7234230D01*
X18703230Y-7307770D01*
X18776770Y-7307770D01*
X18776770Y-9847770D02*
X18776770Y-9774230D01*
X18703230Y-9774230D01*
X18703230Y-9847770D01*
X18776770Y-9847770D01*
X19030770Y-7307770D02*
X19030770Y-7234230D01*
X18957230Y-7234230D01*
X18957230Y-7307770D01*
X19030770Y-7307770D01*
X19030770Y-9847770D02*
X19030770Y-9774230D01*
X18957230Y-9774230D01*
X18957230Y-9847770D01*
X19030770Y-9847770D01*
X19284770Y-7307770D02*
X19284770Y-7234230D01*
X19211230Y-7234230D01*
X19211230Y-7307770D01*
X19284770Y-7307770D01*
X19284770Y-9847770D02*
X19284770Y-9774230D01*
X19211230Y-9774230D01*
X19211230Y-9847770D01*
X19284770Y-9847770D01*
X19538770Y-7307770D02*
X19538770Y-7234230D01*
X19465230Y-7234230D01*
X19465230Y-7307770D01*
X19538770Y-7307770D01*
X19538770Y-9847770D02*
X19538770Y-9774230D01*
X19465230Y-9774230D01*
X19465230Y-9847770D01*
X19538770Y-9847770D01*
X19792770Y-7307770D02*
X19792770Y-7234230D01*
X19719230Y-7234230D01*
X19719230Y-7307770D01*
X19792770Y-7307770D01*
X19792770Y-9847770D02*
X19792770Y-9774230D01*
X19719230Y-9774230D01*
X19719230Y-9847770D01*
X19792770Y-9847770D01*
X20046770Y-7307770D02*
X20046770Y-7234230D01*
X19973230Y-7234230D01*
X19973230Y-7307770D01*
X20046770Y-7307770D01*
X20046770Y-9847770D02*
X20046770Y-9774230D01*
X19973230Y-9774230D01*
X19973230Y-9847770D01*
X20046770Y-9847770D01*
X20300770Y-7307770D02*
X20300770Y-7234230D01*
X20227230Y-7234230D01*
X20227230Y-7307770D01*
X20300770Y-7307770D01*
X20300770Y-9847770D02*
X20300770Y-9774230D01*
X20227230Y-9774230D01*
X20227230Y-9847770D01*
X20300770Y-9847770D01*
X14041000Y-9016000D02*
X14096000Y-8961000D01*
X14041000Y-8906000D01*
X13986000Y-8961000D01*
X14041000Y-9016000D01*
X14168000Y-7492000D02*
X14223000Y-7437000D01*
X14168000Y-7382000D01*
X14113000Y-7437000D01*
X14168000Y-7492000D01*
X14295000Y-9016000D02*
X14350000Y-8961000D01*
X14295000Y-8906000D01*
X14240000Y-8961000D01*
X14295000Y-9016000D01*
X14422000Y-7492000D02*
X14477000Y-7437000D01*
X14422000Y-7382000D01*
X14367000Y-7437000D01*
X14422000Y-7492000D01*
X14549000Y-9016000D02*
X14604000Y-8961000D01*
X14549000Y-8906000D01*
X14494000Y-8961000D01*
X14549000Y-9016000D01*
X14103000Y-13468000D02*
X14233000Y-13598000D01*
X14233000Y-13468000D02*
X14103000Y-13598000D01*
X14233000Y-13533000D02*
G75*
G03*
X14233000Y-13533000I-65000J0D01*
G01*
X14103000Y-13976000D02*
X14233000Y-14106000D01*
X14233000Y-13976000D02*
X14103000Y-14106000D01*
X14233000Y-14041000D02*
G75*
G03*
X14233000Y-14041000I-65000J0D01*
G01*
X14103000Y-14738000D02*
X14233000Y-14868000D01*
X14233000Y-14738000D02*
X14103000Y-14868000D01*
X14233000Y-14803000D02*
G75*
G03*
X14233000Y-14803000I-65000J0D01*
G01*
X14103000Y-15246000D02*
X14233000Y-15376000D01*
X14233000Y-15246000D02*
X14103000Y-15376000D01*
X14233000Y-15311000D02*
G75*
G03*
X14233000Y-15311000I-65000J0D01*
G01*
X15373000Y-13468000D02*
X15503000Y-13598000D01*
X15503000Y-13468000D02*
X15373000Y-13598000D01*
X15503000Y-13533000D02*
G75*
G03*
X15503000Y-13533000I-65000J0D01*
G01*
X15373000Y-13976000D02*
X15503000Y-14106000D01*
X15503000Y-13976000D02*
X15373000Y-14106000D01*
X15503000Y-14041000D02*
G75*
G03*
X15503000Y-14041000I-65000J0D01*
G01*
X15373000Y-14738000D02*
X15503000Y-14868000D01*
X15503000Y-14738000D02*
X15373000Y-14868000D01*
X15503000Y-14803000D02*
G75*
G03*
X15503000Y-14803000I-65000J0D01*
G01*
X15373000Y-15246000D02*
X15503000Y-15376000D01*
X15503000Y-15246000D02*
X15373000Y-15376000D01*
X15503000Y-15311000D02*
G75*
G03*
X15503000Y-15311000I-65000J0D01*
G01*
X18929000Y-13468000D02*
X19059000Y-13598000D01*
X19059000Y-13468000D02*
X18929000Y-13598000D01*
X19059000Y-13533000D02*
G75*
G03*
X19059000Y-13533000I-65000J0D01*
G01*
X18929000Y-13976000D02*
X19059000Y-14106000D01*
X19059000Y-13976000D02*
X18929000Y-14106000D01*
X19059000Y-14041000D02*
G75*
G03*
X19059000Y-14041000I-65000J0D01*
G01*
X18929000Y-14738000D02*
X19059000Y-14868000D01*
X19059000Y-14738000D02*
X18929000Y-14868000D01*
X19059000Y-14803000D02*
G75*
G03*
X19059000Y-14803000I-65000J0D01*
G01*
X18929000Y-15246000D02*
X19059000Y-15376000D01*
X19059000Y-15246000D02*
X18929000Y-15376000D01*
X19059000Y-15311000D02*
G75*
G03*
X19059000Y-15311000I-65000J0D01*
G01*
X20199000Y-13468000D02*
X20329000Y-13598000D01*
X20329000Y-13468000D02*
X20199000Y-13598000D01*
X20329000Y-13533000D02*
G75*
G03*
X20329000Y-13533000I-65000J0D01*
G01*
X20199000Y-13976000D02*
X20329000Y-14106000D01*
X20329000Y-13976000D02*
X20199000Y-14106000D01*
X20329000Y-14041000D02*
G75*
G03*
X20329000Y-14041000I-65000J0D01*
G01*
X20199000Y-14738000D02*
X20329000Y-14868000D01*
X20329000Y-14738000D02*
X20199000Y-14868000D01*
X20329000Y-14803000D02*
G75*
G03*
X20329000Y-14803000I-65000J0D01*
G01*
X20199000Y-15246000D02*
X20329000Y-15376000D01*
X20329000Y-15246000D02*
X20199000Y-15376000D01*
X20329000Y-15311000D02*
G75*
G03*
X20329000Y-15311000I-65000J0D01*
G01*
D12*
X13994928Y-16475214D02*
X13994928Y-16175214D01*
X14066357Y-16175214D01*
X14109214Y-16189500D01*
X14137786Y-16218071D01*
X14152071Y-16246643D01*
X14166357Y-16303786D01*
X14166357Y-16346643D01*
X14152071Y-16403786D01*
X14137786Y-16432357D01*
X14109214Y-16460929D01*
X14066357Y-16475214D01*
X13994928Y-16475214D01*
X14294928Y-16475214D02*
X14294928Y-16275214D01*
X14294928Y-16332357D02*
X14309214Y-16303786D01*
X14323500Y-16289500D01*
X14352071Y-16275214D01*
X14380643Y-16275214D01*
X14480643Y-16475214D02*
X14480643Y-16275214D01*
X14480643Y-16175214D02*
X14466357Y-16189500D01*
X14480643Y-16203786D01*
X14494928Y-16189500D01*
X14480643Y-16175214D01*
X14480643Y-16203786D01*
X14666357Y-16475214D02*
X14637786Y-16460929D01*
X14623500Y-16432357D01*
X14623500Y-16175214D01*
X14823500Y-16475214D02*
X14794928Y-16460929D01*
X14780643Y-16432357D01*
X14780643Y-16175214D01*
X15166357Y-16475214D02*
X15166357Y-16175214D01*
X15266357Y-16389500D01*
X15366357Y-16175214D01*
X15366357Y-16475214D01*
X15637786Y-16475214D02*
X15637786Y-16318071D01*
X15623500Y-16289500D01*
X15594928Y-16275214D01*
X15537786Y-16275214D01*
X15509214Y-16289500D01*
X15637786Y-16460929D02*
X15609214Y-16475214D01*
X15537786Y-16475214D01*
X15509214Y-16460929D01*
X15494928Y-16432357D01*
X15494928Y-16403786D01*
X15509214Y-16375214D01*
X15537786Y-16360929D01*
X15609214Y-16360929D01*
X15637786Y-16346643D01*
X15780643Y-16275214D02*
X15780643Y-16575214D01*
X15780643Y-16289500D02*
X15809214Y-16275214D01*
X15866357Y-16275214D01*
X15894928Y-16289500D01*
X15909214Y-16303786D01*
X15923500Y-16332357D01*
X15923500Y-16418071D01*
X15909214Y-16446643D01*
X15894928Y-16460929D01*
X15866357Y-16475214D01*
X15809214Y-16475214D01*
X15780643Y-16460929D01*
X16052071Y-16446643D02*
X16066357Y-16460929D01*
X16052071Y-16475214D01*
X16037786Y-16460929D01*
X16052071Y-16446643D01*
X16052071Y-16475214D01*
X16052071Y-16289500D02*
X16066357Y-16303786D01*
X16052071Y-16318071D01*
X16037786Y-16303786D01*
X16052071Y-16289500D01*
X16052071Y-16318071D01*
X13628500Y-16929500D02*
X13708500Y-17009500D01*
X13708500Y-16929500D02*
X13628500Y-17009500D01*
X14052071Y-16805214D02*
X14080643Y-16805214D01*
X14109214Y-16819500D01*
X14123500Y-16833786D01*
X14137786Y-16862357D01*
X14152071Y-16919500D01*
X14152071Y-16990929D01*
X14137786Y-17048072D01*
X14123500Y-17076643D01*
X14109214Y-17090929D01*
X14080643Y-17105214D01*
X14052071Y-17105214D01*
X14023500Y-17090929D01*
X14009214Y-17076643D01*
X13994928Y-17048072D01*
X13980643Y-16990929D01*
X13980643Y-16919500D01*
X13994928Y-16862357D01*
X14009214Y-16833786D01*
X14023500Y-16819500D01*
X14052071Y-16805214D01*
X14280643Y-17076643D02*
X14294928Y-17090929D01*
X14280643Y-17105214D01*
X14266357Y-17090929D01*
X14280643Y-17076643D01*
X14280643Y-17105214D01*
X14466357Y-16933786D02*
X14437786Y-16919500D01*
X14423500Y-16905214D01*
X14409214Y-16876643D01*
X14409214Y-16862357D01*
X14423500Y-16833786D01*
X14437786Y-16819500D01*
X14466357Y-16805214D01*
X14523500Y-16805214D01*
X14552071Y-16819500D01*
X14566357Y-16833786D01*
X14580643Y-16862357D01*
X14580643Y-16876643D01*
X14566357Y-16905214D01*
X14552071Y-16919500D01*
X14523500Y-16933786D01*
X14466357Y-16933786D01*
X14437786Y-16948072D01*
X14423500Y-16962357D01*
X14409214Y-16990929D01*
X14409214Y-17048072D01*
X14423500Y-17076643D01*
X14437786Y-17090929D01*
X14466357Y-17105214D01*
X14523500Y-17105214D01*
X14552071Y-17090929D01*
X14566357Y-17076643D01*
X14580643Y-17048072D01*
X14580643Y-16990929D01*
X14566357Y-16962357D01*
X14552071Y-16948072D01*
X14523500Y-16933786D01*
X14766357Y-16805214D02*
X14794928Y-16805214D01*
X14823500Y-16819500D01*
X14837786Y-16833786D01*
X14852071Y-16862357D01*
X14866357Y-16919500D01*
X14866357Y-16990929D01*
X14852071Y-17048072D01*
X14837786Y-17076643D01*
X14823500Y-17090929D01*
X14794928Y-17105214D01*
X14766357Y-17105214D01*
X14737786Y-17090929D01*
X14723500Y-17076643D01*
X14709214Y-17048072D01*
X14694928Y-16990929D01*
X14694928Y-16919500D01*
X14709214Y-16862357D01*
X14723500Y-16833786D01*
X14737786Y-16819500D01*
X14766357Y-16805214D01*
X15052071Y-16805214D02*
X15080643Y-16805214D01*
X15109214Y-16819500D01*
X15123500Y-16833786D01*
X15137786Y-16862357D01*
X15152071Y-16919500D01*
X15152071Y-16990929D01*
X15137786Y-17048072D01*
X15123500Y-17076643D01*
X15109214Y-17090929D01*
X15080643Y-17105214D01*
X15052071Y-17105214D01*
X15023500Y-17090929D01*
X15009214Y-17076643D01*
X14994928Y-17048072D01*
X14980643Y-16990929D01*
X14980643Y-16919500D01*
X14994928Y-16862357D01*
X15009214Y-16833786D01*
X15023500Y-16819500D01*
X15052071Y-16805214D01*
X15280643Y-17105214D02*
X15280643Y-16905214D01*
X15280643Y-16933786D02*
X15294928Y-16919500D01*
X15323500Y-16905214D01*
X15366357Y-16905214D01*
X15394928Y-16919500D01*
X15409214Y-16948072D01*
X15409214Y-17105214D01*
X15409214Y-16948072D02*
X15423500Y-16919500D01*
X15452071Y-16905214D01*
X15494928Y-16905214D01*
X15523500Y-16919500D01*
X15537786Y-16948072D01*
X15537786Y-17105214D01*
X15680643Y-17105214D02*
X15680643Y-16905214D01*
X15680643Y-16933786D02*
X15694928Y-16919500D01*
X15723500Y-16905214D01*
X15766357Y-16905214D01*
X15794928Y-16919500D01*
X15809214Y-16948072D01*
X15809214Y-17105214D01*
X15809214Y-16948072D02*
X15823500Y-16919500D01*
X15852071Y-16905214D01*
X15894928Y-16905214D01*
X15923500Y-16919500D01*
X15937786Y-16948072D01*
X15937786Y-17105214D01*
X16523500Y-16790929D02*
X16266357Y-17176643D01*
X16909214Y-16805214D02*
X16937786Y-16805214D01*
X16966357Y-16819500D01*
X16980643Y-16833786D01*
X16994928Y-16862357D01*
X17009214Y-16919500D01*
X17009214Y-16990929D01*
X16994928Y-17048072D01*
X16980643Y-17076643D01*
X16966357Y-17090929D01*
X16937786Y-17105214D01*
X16909214Y-17105214D01*
X16880643Y-17090929D01*
X16866357Y-17076643D01*
X16852071Y-17048072D01*
X16837786Y-16990929D01*
X16837786Y-16919500D01*
X16852071Y-16862357D01*
X16866357Y-16833786D01*
X16880643Y-16819500D01*
X16909214Y-16805214D01*
X17137786Y-17076643D02*
X17152071Y-17090929D01*
X17137786Y-17105214D01*
X17123500Y-17090929D01*
X17137786Y-17076643D01*
X17137786Y-17105214D01*
X17337786Y-16805214D02*
X17366357Y-16805214D01*
X17394928Y-16819500D01*
X17409214Y-16833786D01*
X17423500Y-16862357D01*
X17437786Y-16919500D01*
X17437786Y-16990929D01*
X17423500Y-17048072D01*
X17409214Y-17076643D01*
X17394928Y-17090929D01*
X17366357Y-17105214D01*
X17337786Y-17105214D01*
X17309214Y-17090929D01*
X17294928Y-17076643D01*
X17280643Y-17048072D01*
X17266357Y-16990929D01*
X17266357Y-16919500D01*
X17280643Y-16862357D01*
X17294928Y-16833786D01*
X17309214Y-16819500D01*
X17337786Y-16805214D01*
X17537786Y-16805214D02*
X17723500Y-16805214D01*
X17623500Y-16919500D01*
X17666357Y-16919500D01*
X17694928Y-16933786D01*
X17709214Y-16948072D01*
X17723500Y-16976643D01*
X17723500Y-17048072D01*
X17709214Y-17076643D01*
X17694928Y-17090929D01*
X17666357Y-17105214D01*
X17580643Y-17105214D01*
X17552071Y-17090929D01*
X17537786Y-17076643D01*
X18009214Y-17105214D02*
X17837786Y-17105214D01*
X17923500Y-17105214D02*
X17923500Y-16805214D01*
X17894928Y-16848072D01*
X17866357Y-16876643D01*
X17837786Y-16890929D01*
X18280643Y-16805214D02*
X18137786Y-16805214D01*
X18123500Y-16948072D01*
X18137786Y-16933786D01*
X18166357Y-16919500D01*
X18237786Y-16919500D01*
X18266357Y-16933786D01*
X18280643Y-16948072D01*
X18294928Y-16976643D01*
X18294928Y-17048072D01*
X18280643Y-17076643D01*
X18266357Y-17090929D01*
X18237786Y-17105214D01*
X18166357Y-17105214D01*
X18137786Y-17090929D01*
X18123500Y-17076643D01*
X18409214Y-16805214D02*
X18409214Y-16862357D01*
X18523500Y-16805214D02*
X18523500Y-16862357D01*
X18966357Y-17219500D02*
X18952071Y-17205214D01*
X18923500Y-17162357D01*
X18909214Y-17133786D01*
X18894928Y-17090929D01*
X18880643Y-17019500D01*
X18880643Y-16962357D01*
X18894928Y-16890929D01*
X18909214Y-16848072D01*
X18923500Y-16819500D01*
X18952071Y-16776643D01*
X18966357Y-16762357D01*
X19209214Y-16805214D02*
X19152071Y-16805214D01*
X19123500Y-16819500D01*
X19109214Y-16833786D01*
X19080643Y-16876643D01*
X19066357Y-16933786D01*
X19066357Y-17048072D01*
X19080643Y-17076643D01*
X19094928Y-17090929D01*
X19123500Y-17105214D01*
X19180643Y-17105214D01*
X19209214Y-17090929D01*
X19223500Y-17076643D01*
X19237786Y-17048072D01*
X19237786Y-16976643D01*
X19223500Y-16948072D01*
X19209214Y-16933786D01*
X19180643Y-16919500D01*
X19123500Y-16919500D01*
X19094928Y-16933786D01*
X19080643Y-16948072D01*
X19066357Y-16976643D01*
X19594928Y-17105214D02*
X19594928Y-16805214D01*
X19723500Y-17105214D02*
X19723500Y-16948072D01*
X19709214Y-16919500D01*
X19680643Y-16905214D01*
X19637786Y-16905214D01*
X19609214Y-16919500D01*
X19594928Y-16933786D01*
X19909214Y-17105214D02*
X19880643Y-17090929D01*
X19866357Y-17076643D01*
X19852071Y-17048072D01*
X19852071Y-16962357D01*
X19866357Y-16933786D01*
X19880643Y-16919500D01*
X19909214Y-16905214D01*
X19952071Y-16905214D01*
X19980643Y-16919500D01*
X19994928Y-16933786D01*
X20009214Y-16962357D01*
X20009214Y-17048072D01*
X19994928Y-17076643D01*
X19980643Y-17090929D01*
X19952071Y-17105214D01*
X19909214Y-17105214D01*
X20180643Y-17105214D02*
X20152071Y-17090929D01*
X20137786Y-17062357D01*
X20137786Y-16805214D01*
X20409214Y-17090929D02*
X20380643Y-17105214D01*
X20323500Y-17105214D01*
X20294928Y-17090929D01*
X20280643Y-17062357D01*
X20280643Y-16948072D01*
X20294928Y-16919500D01*
X20323500Y-16905214D01*
X20380643Y-16905214D01*
X20409214Y-16919500D01*
X20423500Y-16948072D01*
X20423500Y-16976643D01*
X20280643Y-17005214D01*
X20537786Y-17090929D02*
X20566357Y-17105214D01*
X20623500Y-17105214D01*
X20652071Y-17090929D01*
X20666357Y-17062357D01*
X20666357Y-17048072D01*
X20652071Y-17019500D01*
X20623500Y-17005214D01*
X20580643Y-17005214D01*
X20552071Y-16990929D01*
X20537786Y-16962357D01*
X20537786Y-16948072D01*
X20552071Y-16919500D01*
X20580643Y-16905214D01*
X20623500Y-16905214D01*
X20652071Y-16919500D01*
X20766357Y-17219500D02*
X20780643Y-17205214D01*
X20809214Y-17162357D01*
X20823500Y-17133786D01*
X20837786Y-17090929D01*
X20852071Y-17019500D01*
X20852071Y-16962357D01*
X20837786Y-16890929D01*
X20823500Y-16848072D01*
X20809214Y-16819500D01*
X20780643Y-16776643D01*
X20766357Y-16762357D01*
X13708500Y-17365500D02*
G75*
G03*
X13708500Y-17365500I-45000J0D01*
G01*
X14052071Y-17201214D02*
X14080643Y-17201214D01*
X14109214Y-17215500D01*
X14123500Y-17229786D01*
X14137786Y-17258357D01*
X14152071Y-17315500D01*
X14152071Y-17386929D01*
X14137786Y-17444072D01*
X14123500Y-17472643D01*
X14109214Y-17486929D01*
X14080643Y-17501214D01*
X14052071Y-17501214D01*
X14023500Y-17486929D01*
X14009214Y-17472643D01*
X13994928Y-17444072D01*
X13980643Y-17386929D01*
X13980643Y-17315500D01*
X13994928Y-17258357D01*
X14009214Y-17229786D01*
X14023500Y-17215500D01*
X14052071Y-17201214D01*
X14280643Y-17472643D02*
X14294928Y-17486929D01*
X14280643Y-17501214D01*
X14266357Y-17486929D01*
X14280643Y-17472643D01*
X14280643Y-17501214D01*
X14437786Y-17501214D02*
X14494928Y-17501214D01*
X14523500Y-17486929D01*
X14537786Y-17472643D01*
X14566357Y-17429786D01*
X14580643Y-17372643D01*
X14580643Y-17258357D01*
X14566357Y-17229786D01*
X14552071Y-17215500D01*
X14523500Y-17201214D01*
X14466357Y-17201214D01*
X14437786Y-17215500D01*
X14423500Y-17229786D01*
X14409214Y-17258357D01*
X14409214Y-17329786D01*
X14423500Y-17358357D01*
X14437786Y-17372643D01*
X14466357Y-17386929D01*
X14523500Y-17386929D01*
X14552071Y-17372643D01*
X14566357Y-17358357D01*
X14580643Y-17329786D01*
X14766357Y-17201214D02*
X14794928Y-17201214D01*
X14823500Y-17215500D01*
X14837786Y-17229786D01*
X14852071Y-17258357D01*
X14866357Y-17315500D01*
X14866357Y-17386929D01*
X14852071Y-17444072D01*
X14837786Y-17472643D01*
X14823500Y-17486929D01*
X14794928Y-17501214D01*
X14766357Y-17501214D01*
X14737786Y-17486929D01*
X14723500Y-17472643D01*
X14709214Y-17444072D01*
X14694928Y-17386929D01*
X14694928Y-17315500D01*
X14709214Y-17258357D01*
X14723500Y-17229786D01*
X14737786Y-17215500D01*
X14766357Y-17201214D01*
X15052071Y-17201214D02*
X15080643Y-17201214D01*
X15109214Y-17215500D01*
X15123500Y-17229786D01*
X15137786Y-17258357D01*
X15152071Y-17315500D01*
X15152071Y-17386929D01*
X15137786Y-17444072D01*
X15123500Y-17472643D01*
X15109214Y-17486929D01*
X15080643Y-17501214D01*
X15052071Y-17501214D01*
X15023500Y-17486929D01*
X15009214Y-17472643D01*
X14994928Y-17444072D01*
X14980643Y-17386929D01*
X14980643Y-17315500D01*
X14994928Y-17258357D01*
X15009214Y-17229786D01*
X15023500Y-17215500D01*
X15052071Y-17201214D01*
X15280643Y-17501214D02*
X15280643Y-17301214D01*
X15280643Y-17329786D02*
X15294928Y-17315500D01*
X15323500Y-17301214D01*
X15366357Y-17301214D01*
X15394928Y-17315500D01*
X15409214Y-17344072D01*
X15409214Y-17501214D01*
X15409214Y-17344072D02*
X15423500Y-17315500D01*
X15452071Y-17301214D01*
X15494928Y-17301214D01*
X15523500Y-17315500D01*
X15537786Y-17344072D01*
X15537786Y-17501214D01*
X15680643Y-17501214D02*
X15680643Y-17301214D01*
X15680643Y-17329786D02*
X15694928Y-17315500D01*
X15723500Y-17301214D01*
X15766357Y-17301214D01*
X15794928Y-17315500D01*
X15809214Y-17344072D01*
X15809214Y-17501214D01*
X15809214Y-17344072D02*
X15823500Y-17315500D01*
X15852071Y-17301214D01*
X15894928Y-17301214D01*
X15923500Y-17315500D01*
X15937786Y-17344072D01*
X15937786Y-17501214D01*
X16523500Y-17186929D02*
X16266357Y-17572643D01*
X16909214Y-17201214D02*
X16937786Y-17201214D01*
X16966357Y-17215500D01*
X16980643Y-17229786D01*
X16994928Y-17258357D01*
X17009214Y-17315500D01*
X17009214Y-17386929D01*
X16994928Y-17444072D01*
X16980643Y-17472643D01*
X16966357Y-17486929D01*
X16937786Y-17501214D01*
X16909214Y-17501214D01*
X16880643Y-17486929D01*
X16866357Y-17472643D01*
X16852071Y-17444072D01*
X16837786Y-17386929D01*
X16837786Y-17315500D01*
X16852071Y-17258357D01*
X16866357Y-17229786D01*
X16880643Y-17215500D01*
X16909214Y-17201214D01*
X17137786Y-17472643D02*
X17152071Y-17486929D01*
X17137786Y-17501214D01*
X17123500Y-17486929D01*
X17137786Y-17472643D01*
X17137786Y-17501214D01*
X17337786Y-17201214D02*
X17366357Y-17201214D01*
X17394928Y-17215500D01*
X17409214Y-17229786D01*
X17423500Y-17258357D01*
X17437786Y-17315500D01*
X17437786Y-17386929D01*
X17423500Y-17444072D01*
X17409214Y-17472643D01*
X17394928Y-17486929D01*
X17366357Y-17501214D01*
X17337786Y-17501214D01*
X17309214Y-17486929D01*
X17294928Y-17472643D01*
X17280643Y-17444072D01*
X17266357Y-17386929D01*
X17266357Y-17315500D01*
X17280643Y-17258357D01*
X17294928Y-17229786D01*
X17309214Y-17215500D01*
X17337786Y-17201214D01*
X17537786Y-17201214D02*
X17723500Y-17201214D01*
X17623500Y-17315500D01*
X17666357Y-17315500D01*
X17694928Y-17329786D01*
X17709214Y-17344072D01*
X17723500Y-17372643D01*
X17723500Y-17444072D01*
X17709214Y-17472643D01*
X17694928Y-17486929D01*
X17666357Y-17501214D01*
X17580643Y-17501214D01*
X17552071Y-17486929D01*
X17537786Y-17472643D01*
X17994928Y-17201214D02*
X17852071Y-17201214D01*
X17837786Y-17344072D01*
X17852071Y-17329786D01*
X17880643Y-17315500D01*
X17952071Y-17315500D01*
X17980643Y-17329786D01*
X17994928Y-17344072D01*
X18009214Y-17372643D01*
X18009214Y-17444072D01*
X17994928Y-17472643D01*
X17980643Y-17486929D01*
X17952071Y-17501214D01*
X17880643Y-17501214D01*
X17852071Y-17486929D01*
X17837786Y-17472643D01*
X18266357Y-17301214D02*
X18266357Y-17501214D01*
X18194928Y-17186929D02*
X18123500Y-17401214D01*
X18309214Y-17401214D01*
X18409214Y-17201214D02*
X18409214Y-17258357D01*
X18523500Y-17201214D02*
X18523500Y-17258357D01*
X18966357Y-17615500D02*
X18952071Y-17601214D01*
X18923500Y-17558357D01*
X18909214Y-17529786D01*
X18894928Y-17486929D01*
X18880643Y-17415500D01*
X18880643Y-17358357D01*
X18894928Y-17286929D01*
X18909214Y-17244072D01*
X18923500Y-17215500D01*
X18952071Y-17172643D01*
X18966357Y-17158357D01*
X19237786Y-17501214D02*
X19066357Y-17501214D01*
X19152071Y-17501214D02*
X19152071Y-17201214D01*
X19123500Y-17244072D01*
X19094928Y-17272643D01*
X19066357Y-17286929D01*
X19352071Y-17229786D02*
X19366357Y-17215500D01*
X19394928Y-17201214D01*
X19466357Y-17201214D01*
X19494928Y-17215500D01*
X19509214Y-17229786D01*
X19523500Y-17258357D01*
X19523500Y-17286929D01*
X19509214Y-17329786D01*
X19337786Y-17501214D01*
X19523500Y-17501214D01*
X19880643Y-17501214D02*
X19880643Y-17201214D01*
X20009214Y-17501214D02*
X20009214Y-17344072D01*
X19994928Y-17315500D01*
X19966357Y-17301214D01*
X19923500Y-17301214D01*
X19894928Y-17315500D01*
X19880643Y-17329786D01*
X20194928Y-17501214D02*
X20166357Y-17486929D01*
X20152071Y-17472643D01*
X20137786Y-17444072D01*
X20137786Y-17358357D01*
X20152071Y-17329786D01*
X20166357Y-17315500D01*
X20194928Y-17301214D01*
X20237786Y-17301214D01*
X20266357Y-17315500D01*
X20280643Y-17329786D01*
X20294928Y-17358357D01*
X20294928Y-17444072D01*
X20280643Y-17472643D01*
X20266357Y-17486929D01*
X20237786Y-17501214D01*
X20194928Y-17501214D01*
X20466357Y-17501214D02*
X20437786Y-17486929D01*
X20423500Y-17458357D01*
X20423500Y-17201214D01*
X20694928Y-17486929D02*
X20666357Y-17501214D01*
X20609214Y-17501214D01*
X20580643Y-17486929D01*
X20566357Y-17458357D01*
X20566357Y-17344072D01*
X20580643Y-17315500D01*
X20609214Y-17301214D01*
X20666357Y-17301214D01*
X20694928Y-17315500D01*
X20709214Y-17344072D01*
X20709214Y-17372643D01*
X20566357Y-17401214D01*
X20823500Y-17486929D02*
X20852071Y-17501214D01*
X20909214Y-17501214D01*
X20937786Y-17486929D01*
X20952071Y-17458357D01*
X20952071Y-17444072D01*
X20937786Y-17415500D01*
X20909214Y-17401214D01*
X20866357Y-17401214D01*
X20837786Y-17386929D01*
X20823500Y-17358357D01*
X20823500Y-17344072D01*
X20837786Y-17315500D01*
X20866357Y-17301214D01*
X20909214Y-17301214D01*
X20937786Y-17315500D01*
X21052071Y-17615500D02*
X21066357Y-17601214D01*
X21094928Y-17558357D01*
X21109214Y-17529786D01*
X21123500Y-17486929D01*
X21137786Y-17415500D01*
X21137786Y-17358357D01*
X21123500Y-17286929D01*
X21109214Y-17244072D01*
X21094928Y-17215500D01*
X21066357Y-17172643D01*
X21052071Y-17158357D01*
X13658500Y-17711500D02*
X13658500Y-17811500D01*
X13608500Y-17761500D02*
X13708500Y-17761500D01*
X14152071Y-17897214D02*
X13980643Y-17897214D01*
X14066357Y-17897214D02*
X14066357Y-17597214D01*
X14037786Y-17640072D01*
X14009214Y-17668643D01*
X13980643Y-17682929D01*
X14280643Y-17868643D02*
X14294928Y-17882929D01*
X14280643Y-17897214D01*
X14266357Y-17882929D01*
X14280643Y-17868643D01*
X14280643Y-17897214D01*
X14480643Y-17597214D02*
X14509214Y-17597214D01*
X14537786Y-17611500D01*
X14552071Y-17625786D01*
X14566357Y-17654357D01*
X14580643Y-17711500D01*
X14580643Y-17782929D01*
X14566357Y-17840072D01*
X14552071Y-17868643D01*
X14537786Y-17882929D01*
X14509214Y-17897214D01*
X14480643Y-17897214D01*
X14452071Y-17882929D01*
X14437786Y-17868643D01*
X14423500Y-17840072D01*
X14409214Y-17782929D01*
X14409214Y-17711500D01*
X14423500Y-17654357D01*
X14437786Y-17625786D01*
X14452071Y-17611500D01*
X14480643Y-17597214D01*
X14766357Y-17597214D02*
X14794928Y-17597214D01*
X14823500Y-17611500D01*
X14837786Y-17625786D01*
X14852071Y-17654357D01*
X14866357Y-17711500D01*
X14866357Y-17782929D01*
X14852071Y-17840072D01*
X14837786Y-17868643D01*
X14823500Y-17882929D01*
X14794928Y-17897214D01*
X14766357Y-17897214D01*
X14737786Y-17882929D01*
X14723500Y-17868643D01*
X14709214Y-17840072D01*
X14694928Y-17782929D01*
X14694928Y-17711500D01*
X14709214Y-17654357D01*
X14723500Y-17625786D01*
X14737786Y-17611500D01*
X14766357Y-17597214D01*
X15052071Y-17597214D02*
X15080643Y-17597214D01*
X15109214Y-17611500D01*
X15123500Y-17625786D01*
X15137786Y-17654357D01*
X15152071Y-17711500D01*
X15152071Y-17782929D01*
X15137786Y-17840072D01*
X15123500Y-17868643D01*
X15109214Y-17882929D01*
X15080643Y-17897214D01*
X15052071Y-17897214D01*
X15023500Y-17882929D01*
X15009214Y-17868643D01*
X14994928Y-17840072D01*
X14980643Y-17782929D01*
X14980643Y-17711500D01*
X14994928Y-17654357D01*
X15009214Y-17625786D01*
X15023500Y-17611500D01*
X15052071Y-17597214D01*
X15280643Y-17897214D02*
X15280643Y-17697214D01*
X15280643Y-17725786D02*
X15294928Y-17711500D01*
X15323500Y-17697214D01*
X15366357Y-17697214D01*
X15394928Y-17711500D01*
X15409214Y-17740072D01*
X15409214Y-17897214D01*
X15409214Y-17740072D02*
X15423500Y-17711500D01*
X15452071Y-17697214D01*
X15494928Y-17697214D01*
X15523500Y-17711500D01*
X15537786Y-17740072D01*
X15537786Y-17897214D01*
X15680643Y-17897214D02*
X15680643Y-17697214D01*
X15680643Y-17725786D02*
X15694928Y-17711500D01*
X15723500Y-17697214D01*
X15766357Y-17697214D01*
X15794928Y-17711500D01*
X15809214Y-17740072D01*
X15809214Y-17897214D01*
X15809214Y-17740072D02*
X15823500Y-17711500D01*
X15852071Y-17697214D01*
X15894928Y-17697214D01*
X15923500Y-17711500D01*
X15937786Y-17740072D01*
X15937786Y-17897214D01*
X16523500Y-17582929D02*
X16266357Y-17968643D01*
X16909214Y-17597214D02*
X16937786Y-17597214D01*
X16966357Y-17611500D01*
X16980643Y-17625786D01*
X16994928Y-17654357D01*
X17009214Y-17711500D01*
X17009214Y-17782929D01*
X16994928Y-17840072D01*
X16980643Y-17868643D01*
X16966357Y-17882929D01*
X16937786Y-17897214D01*
X16909214Y-17897214D01*
X16880643Y-17882929D01*
X16866357Y-17868643D01*
X16852071Y-17840072D01*
X16837786Y-17782929D01*
X16837786Y-17711500D01*
X16852071Y-17654357D01*
X16866357Y-17625786D01*
X16880643Y-17611500D01*
X16909214Y-17597214D01*
X17137786Y-17868643D02*
X17152071Y-17882929D01*
X17137786Y-17897214D01*
X17123500Y-17882929D01*
X17137786Y-17868643D01*
X17137786Y-17897214D01*
X17337786Y-17597214D02*
X17366357Y-17597214D01*
X17394928Y-17611500D01*
X17409214Y-17625786D01*
X17423500Y-17654357D01*
X17437786Y-17711500D01*
X17437786Y-17782929D01*
X17423500Y-17840072D01*
X17409214Y-17868643D01*
X17394928Y-17882929D01*
X17366357Y-17897214D01*
X17337786Y-17897214D01*
X17309214Y-17882929D01*
X17294928Y-17868643D01*
X17280643Y-17840072D01*
X17266357Y-17782929D01*
X17266357Y-17711500D01*
X17280643Y-17654357D01*
X17294928Y-17625786D01*
X17309214Y-17611500D01*
X17337786Y-17597214D01*
X17537786Y-17597214D02*
X17723500Y-17597214D01*
X17623500Y-17711500D01*
X17666357Y-17711500D01*
X17694928Y-17725786D01*
X17709214Y-17740072D01*
X17723500Y-17768643D01*
X17723500Y-17840072D01*
X17709214Y-17868643D01*
X17694928Y-17882929D01*
X17666357Y-17897214D01*
X17580643Y-17897214D01*
X17552071Y-17882929D01*
X17537786Y-17868643D01*
X17866357Y-17897214D02*
X17923500Y-17897214D01*
X17952071Y-17882929D01*
X17966357Y-17868643D01*
X17994928Y-17825786D01*
X18009214Y-17768643D01*
X18009214Y-17654357D01*
X17994928Y-17625786D01*
X17980643Y-17611500D01*
X17952071Y-17597214D01*
X17894928Y-17597214D01*
X17866357Y-17611500D01*
X17852071Y-17625786D01*
X17837786Y-17654357D01*
X17837786Y-17725786D01*
X17852071Y-17754357D01*
X17866357Y-17768643D01*
X17894928Y-17782929D01*
X17952071Y-17782929D01*
X17980643Y-17768643D01*
X17994928Y-17754357D01*
X18009214Y-17725786D01*
X18266357Y-17697214D02*
X18266357Y-17897214D01*
X18194928Y-17582929D02*
X18123500Y-17797214D01*
X18309214Y-17797214D01*
X18409214Y-17597214D02*
X18409214Y-17654357D01*
X18523500Y-17597214D02*
X18523500Y-17654357D01*
X18966357Y-18011500D02*
X18952071Y-17997214D01*
X18923500Y-17954357D01*
X18909214Y-17925786D01*
X18894928Y-17882929D01*
X18880643Y-17811500D01*
X18880643Y-17754357D01*
X18894928Y-17682929D01*
X18909214Y-17640072D01*
X18923500Y-17611500D01*
X18952071Y-17568643D01*
X18966357Y-17554357D01*
X19237786Y-17897214D02*
X19066357Y-17897214D01*
X19152071Y-17897214D02*
X19152071Y-17597214D01*
X19123500Y-17640072D01*
X19094928Y-17668643D01*
X19066357Y-17682929D01*
X19523500Y-17897214D02*
X19352071Y-17897214D01*
X19437786Y-17897214D02*
X19437786Y-17597214D01*
X19409214Y-17640072D01*
X19380643Y-17668643D01*
X19352071Y-17682929D01*
X19880643Y-17897214D02*
X19880643Y-17597214D01*
X20009214Y-17897214D02*
X20009214Y-17740072D01*
X19994928Y-17711500D01*
X19966357Y-17697214D01*
X19923500Y-17697214D01*
X19894928Y-17711500D01*
X19880643Y-17725786D01*
X20194928Y-17897214D02*
X20166357Y-17882929D01*
X20152071Y-17868643D01*
X20137786Y-17840072D01*
X20137786Y-17754357D01*
X20152071Y-17725786D01*
X20166357Y-17711500D01*
X20194928Y-17697214D01*
X20237786Y-17697214D01*
X20266357Y-17711500D01*
X20280643Y-17725786D01*
X20294928Y-17754357D01*
X20294928Y-17840072D01*
X20280643Y-17868643D01*
X20266357Y-17882929D01*
X20237786Y-17897214D01*
X20194928Y-17897214D01*
X20466357Y-17897214D02*
X20437786Y-17882929D01*
X20423500Y-17854357D01*
X20423500Y-17597214D01*
X20694928Y-17882929D02*
X20666357Y-17897214D01*
X20609214Y-17897214D01*
X20580643Y-17882929D01*
X20566357Y-17854357D01*
X20566357Y-17740072D01*
X20580643Y-17711500D01*
X20609214Y-17697214D01*
X20666357Y-17697214D01*
X20694928Y-17711500D01*
X20709214Y-17740072D01*
X20709214Y-17768643D01*
X20566357Y-17797214D01*
X20823500Y-17882929D02*
X20852071Y-17897214D01*
X20909214Y-17897214D01*
X20937786Y-17882929D01*
X20952071Y-17854357D01*
X20952071Y-17840072D01*
X20937786Y-17811500D01*
X20909214Y-17797214D01*
X20866357Y-17797214D01*
X20837786Y-17782929D01*
X20823500Y-17754357D01*
X20823500Y-17740072D01*
X20837786Y-17711500D01*
X20866357Y-17697214D01*
X20909214Y-17697214D01*
X20937786Y-17711500D01*
X21052071Y-18011500D02*
X21066357Y-17997214D01*
X21094928Y-17954357D01*
X21109214Y-17925786D01*
X21123500Y-17882929D01*
X21137786Y-17811500D01*
X21137786Y-17754357D01*
X21123500Y-17682929D01*
X21109214Y-17640072D01*
X21094928Y-17611500D01*
X21066357Y-17568643D01*
X21052071Y-17554357D01*
X13693270Y-18194270D02*
X13693270Y-18120730D01*
X13619730Y-18120730D01*
X13619730Y-18194270D01*
X13693270Y-18194270D01*
X14152071Y-18293214D02*
X13980643Y-18293214D01*
X14066357Y-18293214D02*
X14066357Y-17993214D01*
X14037786Y-18036072D01*
X14009214Y-18064643D01*
X13980643Y-18078929D01*
X14280643Y-18264643D02*
X14294928Y-18278929D01*
X14280643Y-18293214D01*
X14266357Y-18278929D01*
X14280643Y-18264643D01*
X14280643Y-18293214D01*
X14480643Y-17993214D02*
X14509214Y-17993214D01*
X14537786Y-18007500D01*
X14552071Y-18021786D01*
X14566357Y-18050357D01*
X14580643Y-18107500D01*
X14580643Y-18178929D01*
X14566357Y-18236072D01*
X14552071Y-18264643D01*
X14537786Y-18278929D01*
X14509214Y-18293214D01*
X14480643Y-18293214D01*
X14452071Y-18278929D01*
X14437786Y-18264643D01*
X14423500Y-18236072D01*
X14409214Y-18178929D01*
X14409214Y-18107500D01*
X14423500Y-18050357D01*
X14437786Y-18021786D01*
X14452071Y-18007500D01*
X14480643Y-17993214D01*
X14837786Y-18093214D02*
X14837786Y-18293214D01*
X14766357Y-17978929D02*
X14694928Y-18193214D01*
X14880643Y-18193214D01*
X15052071Y-17993214D02*
X15080643Y-17993214D01*
X15109214Y-18007500D01*
X15123500Y-18021786D01*
X15137786Y-18050357D01*
X15152071Y-18107500D01*
X15152071Y-18178929D01*
X15137786Y-18236072D01*
X15123500Y-18264643D01*
X15109214Y-18278929D01*
X15080643Y-18293214D01*
X15052071Y-18293214D01*
X15023500Y-18278929D01*
X15009214Y-18264643D01*
X14994928Y-18236072D01*
X14980643Y-18178929D01*
X14980643Y-18107500D01*
X14994928Y-18050357D01*
X15009214Y-18021786D01*
X15023500Y-18007500D01*
X15052071Y-17993214D01*
X15280643Y-18293214D02*
X15280643Y-18093214D01*
X15280643Y-18121786D02*
X15294928Y-18107500D01*
X15323500Y-18093214D01*
X15366357Y-18093214D01*
X15394928Y-18107500D01*
X15409214Y-18136072D01*
X15409214Y-18293214D01*
X15409214Y-18136072D02*
X15423500Y-18107500D01*
X15452071Y-18093214D01*
X15494928Y-18093214D01*
X15523500Y-18107500D01*
X15537786Y-18136072D01*
X15537786Y-18293214D01*
X15680643Y-18293214D02*
X15680643Y-18093214D01*
X15680643Y-18121786D02*
X15694928Y-18107500D01*
X15723500Y-18093214D01*
X15766357Y-18093214D01*
X15794928Y-18107500D01*
X15809214Y-18136072D01*
X15809214Y-18293214D01*
X15809214Y-18136072D02*
X15823500Y-18107500D01*
X15852071Y-18093214D01*
X15894928Y-18093214D01*
X15923500Y-18107500D01*
X15937786Y-18136072D01*
X15937786Y-18293214D01*
X16523500Y-17978929D02*
X16266357Y-18364643D01*
X16909214Y-17993214D02*
X16937786Y-17993214D01*
X16966357Y-18007500D01*
X16980643Y-18021786D01*
X16994928Y-18050357D01*
X17009214Y-18107500D01*
X17009214Y-18178929D01*
X16994928Y-18236072D01*
X16980643Y-18264643D01*
X16966357Y-18278929D01*
X16937786Y-18293214D01*
X16909214Y-18293214D01*
X16880643Y-18278929D01*
X16866357Y-18264643D01*
X16852071Y-18236072D01*
X16837786Y-18178929D01*
X16837786Y-18107500D01*
X16852071Y-18050357D01*
X16866357Y-18021786D01*
X16880643Y-18007500D01*
X16909214Y-17993214D01*
X17137786Y-18264643D02*
X17152071Y-18278929D01*
X17137786Y-18293214D01*
X17123500Y-18278929D01*
X17137786Y-18264643D01*
X17137786Y-18293214D01*
X17337786Y-17993214D02*
X17366357Y-17993214D01*
X17394928Y-18007500D01*
X17409214Y-18021786D01*
X17423500Y-18050357D01*
X17437786Y-18107500D01*
X17437786Y-18178929D01*
X17423500Y-18236072D01*
X17409214Y-18264643D01*
X17394928Y-18278929D01*
X17366357Y-18293214D01*
X17337786Y-18293214D01*
X17309214Y-18278929D01*
X17294928Y-18264643D01*
X17280643Y-18236072D01*
X17266357Y-18178929D01*
X17266357Y-18107500D01*
X17280643Y-18050357D01*
X17294928Y-18021786D01*
X17309214Y-18007500D01*
X17337786Y-17993214D01*
X17694928Y-18093214D02*
X17694928Y-18293214D01*
X17623500Y-17978929D02*
X17552071Y-18193214D01*
X17737786Y-18193214D01*
X17909214Y-17993214D02*
X17937786Y-17993214D01*
X17966357Y-18007500D01*
X17980643Y-18021786D01*
X17994928Y-18050357D01*
X18009214Y-18107500D01*
X18009214Y-18178929D01*
X17994928Y-18236072D01*
X17980643Y-18264643D01*
X17966357Y-18278929D01*
X17937786Y-18293214D01*
X17909214Y-18293214D01*
X17880643Y-18278929D01*
X17866357Y-18264643D01*
X17852071Y-18236072D01*
X17837786Y-18178929D01*
X17837786Y-18107500D01*
X17852071Y-18050357D01*
X17866357Y-18021786D01*
X17880643Y-18007500D01*
X17909214Y-17993214D01*
X18152071Y-18293214D02*
X18209214Y-18293214D01*
X18237786Y-18278929D01*
X18252071Y-18264643D01*
X18280643Y-18221786D01*
X18294928Y-18164643D01*
X18294928Y-18050357D01*
X18280643Y-18021786D01*
X18266357Y-18007500D01*
X18237786Y-17993214D01*
X18180643Y-17993214D01*
X18152071Y-18007500D01*
X18137786Y-18021786D01*
X18123500Y-18050357D01*
X18123500Y-18121786D01*
X18137786Y-18150357D01*
X18152071Y-18164643D01*
X18180643Y-18178929D01*
X18237786Y-18178929D01*
X18266357Y-18164643D01*
X18280643Y-18150357D01*
X18294928Y-18121786D01*
X18409214Y-17993214D02*
X18409214Y-18050357D01*
X18523500Y-17993214D02*
X18523500Y-18050357D01*
X18966357Y-18407500D02*
X18952071Y-18393214D01*
X18923500Y-18350357D01*
X18909214Y-18321786D01*
X18894928Y-18278929D01*
X18880643Y-18207500D01*
X18880643Y-18150357D01*
X18894928Y-18078929D01*
X18909214Y-18036072D01*
X18923500Y-18007500D01*
X18952071Y-17964643D01*
X18966357Y-17950357D01*
X19052071Y-17993214D02*
X19237786Y-17993214D01*
X19137786Y-18107500D01*
X19180643Y-18107500D01*
X19209214Y-18121786D01*
X19223500Y-18136072D01*
X19237786Y-18164643D01*
X19237786Y-18236072D01*
X19223500Y-18264643D01*
X19209214Y-18278929D01*
X19180643Y-18293214D01*
X19094928Y-18293214D01*
X19066357Y-18278929D01*
X19052071Y-18264643D01*
X19409214Y-18121786D02*
X19380643Y-18107500D01*
X19366357Y-18093214D01*
X19352071Y-18064643D01*
X19352071Y-18050357D01*
X19366357Y-18021786D01*
X19380643Y-18007500D01*
X19409214Y-17993214D01*
X19466357Y-17993214D01*
X19494928Y-18007500D01*
X19509214Y-18021786D01*
X19523500Y-18050357D01*
X19523500Y-18064643D01*
X19509214Y-18093214D01*
X19494928Y-18107500D01*
X19466357Y-18121786D01*
X19409214Y-18121786D01*
X19380643Y-18136072D01*
X19366357Y-18150357D01*
X19352071Y-18178929D01*
X19352071Y-18236072D01*
X19366357Y-18264643D01*
X19380643Y-18278929D01*
X19409214Y-18293214D01*
X19466357Y-18293214D01*
X19494928Y-18278929D01*
X19509214Y-18264643D01*
X19523500Y-18236072D01*
X19523500Y-18178929D01*
X19509214Y-18150357D01*
X19494928Y-18136072D01*
X19466357Y-18121786D01*
X19880643Y-18293214D02*
X19880643Y-17993214D01*
X20009214Y-18293214D02*
X20009214Y-18136072D01*
X19994928Y-18107500D01*
X19966357Y-18093214D01*
X19923500Y-18093214D01*
X19894928Y-18107500D01*
X19880643Y-18121786D01*
X20194928Y-18293214D02*
X20166357Y-18278929D01*
X20152071Y-18264643D01*
X20137786Y-18236072D01*
X20137786Y-18150357D01*
X20152071Y-18121786D01*
X20166357Y-18107500D01*
X20194928Y-18093214D01*
X20237786Y-18093214D01*
X20266357Y-18107500D01*
X20280643Y-18121786D01*
X20294928Y-18150357D01*
X20294928Y-18236072D01*
X20280643Y-18264643D01*
X20266357Y-18278929D01*
X20237786Y-18293214D01*
X20194928Y-18293214D01*
X20466357Y-18293214D02*
X20437786Y-18278929D01*
X20423500Y-18250357D01*
X20423500Y-17993214D01*
X20694928Y-18278929D02*
X20666357Y-18293214D01*
X20609214Y-18293214D01*
X20580643Y-18278929D01*
X20566357Y-18250357D01*
X20566357Y-18136072D01*
X20580643Y-18107500D01*
X20609214Y-18093214D01*
X20666357Y-18093214D01*
X20694928Y-18107500D01*
X20709214Y-18136072D01*
X20709214Y-18164643D01*
X20566357Y-18193214D01*
X20823500Y-18278929D02*
X20852071Y-18293214D01*
X20909214Y-18293214D01*
X20937786Y-18278929D01*
X20952071Y-18250357D01*
X20952071Y-18236072D01*
X20937786Y-18207500D01*
X20909214Y-18193214D01*
X20866357Y-18193214D01*
X20837786Y-18178929D01*
X20823500Y-18150357D01*
X20823500Y-18136072D01*
X20837786Y-18107500D01*
X20866357Y-18093214D01*
X20909214Y-18093214D01*
X20937786Y-18107500D01*
X21052071Y-18407500D02*
X21066357Y-18393214D01*
X21094928Y-18350357D01*
X21109214Y-18321786D01*
X21123500Y-18278929D01*
X21137786Y-18207500D01*
X21137786Y-18150357D01*
X21123500Y-18078929D01*
X21109214Y-18036072D01*
X21094928Y-18007500D01*
X21066357Y-17964643D01*
X21052071Y-17950357D01*
X13653500Y-18608500D02*
X13708500Y-18553500D01*
X13653500Y-18498500D01*
X13598500Y-18553500D01*
X13653500Y-18608500D01*
X14152071Y-18689214D02*
X13980643Y-18689214D01*
X14066357Y-18689214D02*
X14066357Y-18389214D01*
X14037786Y-18432072D01*
X14009214Y-18460643D01*
X13980643Y-18474929D01*
X14280643Y-18660643D02*
X14294928Y-18674929D01*
X14280643Y-18689214D01*
X14266357Y-18674929D01*
X14280643Y-18660643D01*
X14280643Y-18689214D01*
X14580643Y-18689214D02*
X14409214Y-18689214D01*
X14494928Y-18689214D02*
X14494928Y-18389214D01*
X14466357Y-18432072D01*
X14437786Y-18460643D01*
X14409214Y-18474929D01*
X14766357Y-18389214D02*
X14794928Y-18389214D01*
X14823500Y-18403500D01*
X14837786Y-18417786D01*
X14852071Y-18446357D01*
X14866357Y-18503500D01*
X14866357Y-18574929D01*
X14852071Y-18632072D01*
X14837786Y-18660643D01*
X14823500Y-18674929D01*
X14794928Y-18689214D01*
X14766357Y-18689214D01*
X14737786Y-18674929D01*
X14723500Y-18660643D01*
X14709214Y-18632072D01*
X14694928Y-18574929D01*
X14694928Y-18503500D01*
X14709214Y-18446357D01*
X14723500Y-18417786D01*
X14737786Y-18403500D01*
X14766357Y-18389214D01*
X15052071Y-18389214D02*
X15080643Y-18389214D01*
X15109214Y-18403500D01*
X15123500Y-18417786D01*
X15137786Y-18446357D01*
X15152071Y-18503500D01*
X15152071Y-18574929D01*
X15137786Y-18632072D01*
X15123500Y-18660643D01*
X15109214Y-18674929D01*
X15080643Y-18689214D01*
X15052071Y-18689214D01*
X15023500Y-18674929D01*
X15009214Y-18660643D01*
X14994928Y-18632072D01*
X14980643Y-18574929D01*
X14980643Y-18503500D01*
X14994928Y-18446357D01*
X15009214Y-18417786D01*
X15023500Y-18403500D01*
X15052071Y-18389214D01*
X15280643Y-18689214D02*
X15280643Y-18489214D01*
X15280643Y-18517786D02*
X15294928Y-18503500D01*
X15323500Y-18489214D01*
X15366357Y-18489214D01*
X15394928Y-18503500D01*
X15409214Y-18532072D01*
X15409214Y-18689214D01*
X15409214Y-18532072D02*
X15423500Y-18503500D01*
X15452071Y-18489214D01*
X15494928Y-18489214D01*
X15523500Y-18503500D01*
X15537786Y-18532072D01*
X15537786Y-18689214D01*
X15680643Y-18689214D02*
X15680643Y-18489214D01*
X15680643Y-18517786D02*
X15694928Y-18503500D01*
X15723500Y-18489214D01*
X15766357Y-18489214D01*
X15794928Y-18503500D01*
X15809214Y-18532072D01*
X15809214Y-18689214D01*
X15809214Y-18532072D02*
X15823500Y-18503500D01*
X15852071Y-18489214D01*
X15894928Y-18489214D01*
X15923500Y-18503500D01*
X15937786Y-18532072D01*
X15937786Y-18689214D01*
X16523500Y-18374929D02*
X16266357Y-18760643D01*
X16909214Y-18389214D02*
X16937786Y-18389214D01*
X16966357Y-18403500D01*
X16980643Y-18417786D01*
X16994928Y-18446357D01*
X17009214Y-18503500D01*
X17009214Y-18574929D01*
X16994928Y-18632072D01*
X16980643Y-18660643D01*
X16966357Y-18674929D01*
X16937786Y-18689214D01*
X16909214Y-18689214D01*
X16880643Y-18674929D01*
X16866357Y-18660643D01*
X16852071Y-18632072D01*
X16837786Y-18574929D01*
X16837786Y-18503500D01*
X16852071Y-18446357D01*
X16866357Y-18417786D01*
X16880643Y-18403500D01*
X16909214Y-18389214D01*
X17137786Y-18660643D02*
X17152071Y-18674929D01*
X17137786Y-18689214D01*
X17123500Y-18674929D01*
X17137786Y-18660643D01*
X17137786Y-18689214D01*
X17337786Y-18389214D02*
X17366357Y-18389214D01*
X17394928Y-18403500D01*
X17409214Y-18417786D01*
X17423500Y-18446357D01*
X17437786Y-18503500D01*
X17437786Y-18574929D01*
X17423500Y-18632072D01*
X17409214Y-18660643D01*
X17394928Y-18674929D01*
X17366357Y-18689214D01*
X17337786Y-18689214D01*
X17309214Y-18674929D01*
X17294928Y-18660643D01*
X17280643Y-18632072D01*
X17266357Y-18574929D01*
X17266357Y-18503500D01*
X17280643Y-18446357D01*
X17294928Y-18417786D01*
X17309214Y-18403500D01*
X17337786Y-18389214D01*
X17694928Y-18489214D02*
X17694928Y-18689214D01*
X17623500Y-18374929D02*
X17552071Y-18589214D01*
X17737786Y-18589214D01*
X17823500Y-18389214D02*
X18009214Y-18389214D01*
X17909214Y-18503500D01*
X17952071Y-18503500D01*
X17980643Y-18517786D01*
X17994928Y-18532072D01*
X18009214Y-18560643D01*
X18009214Y-18632072D01*
X17994928Y-18660643D01*
X17980643Y-18674929D01*
X17952071Y-18689214D01*
X17866357Y-18689214D01*
X17837786Y-18674929D01*
X17823500Y-18660643D01*
X18109214Y-18389214D02*
X18294928Y-18389214D01*
X18194928Y-18503500D01*
X18237786Y-18503500D01*
X18266357Y-18517786D01*
X18280643Y-18532072D01*
X18294928Y-18560643D01*
X18294928Y-18632072D01*
X18280643Y-18660643D01*
X18266357Y-18674929D01*
X18237786Y-18689214D01*
X18152071Y-18689214D01*
X18123500Y-18674929D01*
X18109214Y-18660643D01*
X18409214Y-18389214D02*
X18409214Y-18446357D01*
X18523500Y-18389214D02*
X18523500Y-18446357D01*
X18966357Y-18803500D02*
X18952071Y-18789214D01*
X18923500Y-18746357D01*
X18909214Y-18717786D01*
X18894928Y-18674929D01*
X18880643Y-18603500D01*
X18880643Y-18546357D01*
X18894928Y-18474929D01*
X18909214Y-18432072D01*
X18923500Y-18403500D01*
X18952071Y-18360643D01*
X18966357Y-18346357D01*
X19223500Y-18389214D02*
X19080643Y-18389214D01*
X19066357Y-18532072D01*
X19080643Y-18517786D01*
X19109214Y-18503500D01*
X19180643Y-18503500D01*
X19209214Y-18517786D01*
X19223500Y-18532072D01*
X19237786Y-18560643D01*
X19237786Y-18632072D01*
X19223500Y-18660643D01*
X19209214Y-18674929D01*
X19180643Y-18689214D01*
X19109214Y-18689214D01*
X19080643Y-18674929D01*
X19066357Y-18660643D01*
X19594928Y-18689214D02*
X19594928Y-18389214D01*
X19723500Y-18689214D02*
X19723500Y-18532072D01*
X19709214Y-18503500D01*
X19680643Y-18489214D01*
X19637786Y-18489214D01*
X19609214Y-18503500D01*
X19594928Y-18517786D01*
X19909214Y-18689214D02*
X19880643Y-18674929D01*
X19866357Y-18660643D01*
X19852071Y-18632072D01*
X19852071Y-18546357D01*
X19866357Y-18517786D01*
X19880643Y-18503500D01*
X19909214Y-18489214D01*
X19952071Y-18489214D01*
X19980643Y-18503500D01*
X19994928Y-18517786D01*
X20009214Y-18546357D01*
X20009214Y-18632072D01*
X19994928Y-18660643D01*
X19980643Y-18674929D01*
X19952071Y-18689214D01*
X19909214Y-18689214D01*
X20180643Y-18689214D02*
X20152071Y-18674929D01*
X20137786Y-18646357D01*
X20137786Y-18389214D01*
X20409214Y-18674929D02*
X20380643Y-18689214D01*
X20323500Y-18689214D01*
X20294928Y-18674929D01*
X20280643Y-18646357D01*
X20280643Y-18532072D01*
X20294928Y-18503500D01*
X20323500Y-18489214D01*
X20380643Y-18489214D01*
X20409214Y-18503500D01*
X20423500Y-18532072D01*
X20423500Y-18560643D01*
X20280643Y-18589214D01*
X20537786Y-18674929D02*
X20566357Y-18689214D01*
X20623500Y-18689214D01*
X20652071Y-18674929D01*
X20666357Y-18646357D01*
X20666357Y-18632072D01*
X20652071Y-18603500D01*
X20623500Y-18589214D01*
X20580643Y-18589214D01*
X20552071Y-18574929D01*
X20537786Y-18546357D01*
X20537786Y-18532072D01*
X20552071Y-18503500D01*
X20580643Y-18489214D01*
X20623500Y-18489214D01*
X20652071Y-18503500D01*
X20766357Y-18803500D02*
X20780643Y-18789214D01*
X20809214Y-18746357D01*
X20823500Y-18717786D01*
X20837786Y-18674929D01*
X20852071Y-18603500D01*
X20852071Y-18546357D01*
X20837786Y-18474929D01*
X20823500Y-18432072D01*
X20809214Y-18403500D01*
X20780643Y-18360643D01*
X20766357Y-18346357D01*
X13578500Y-18884500D02*
X13708500Y-19014500D01*
X13708500Y-18884500D02*
X13578500Y-19014500D01*
X13708500Y-18949500D02*
G75*
G03*
X13708500Y-18949500I-65000J0D01*
G01*
X14152071Y-19085214D02*
X13980643Y-19085214D01*
X14066357Y-19085214D02*
X14066357Y-18785214D01*
X14037786Y-18828072D01*
X14009214Y-18856643D01*
X13980643Y-18870929D01*
X14280643Y-19056643D02*
X14294928Y-19070929D01*
X14280643Y-19085214D01*
X14266357Y-19070929D01*
X14280643Y-19056643D01*
X14280643Y-19085214D01*
X14394928Y-18785214D02*
X14580643Y-18785214D01*
X14480643Y-18899500D01*
X14523500Y-18899500D01*
X14552071Y-18913786D01*
X14566357Y-18928072D01*
X14580643Y-18956643D01*
X14580643Y-19028072D01*
X14566357Y-19056643D01*
X14552071Y-19070929D01*
X14523500Y-19085214D01*
X14437786Y-19085214D01*
X14409214Y-19070929D01*
X14394928Y-19056643D01*
X14766357Y-18785214D02*
X14794928Y-18785214D01*
X14823500Y-18799500D01*
X14837786Y-18813786D01*
X14852071Y-18842357D01*
X14866357Y-18899500D01*
X14866357Y-18970929D01*
X14852071Y-19028072D01*
X14837786Y-19056643D01*
X14823500Y-19070929D01*
X14794928Y-19085214D01*
X14766357Y-19085214D01*
X14737786Y-19070929D01*
X14723500Y-19056643D01*
X14709214Y-19028072D01*
X14694928Y-18970929D01*
X14694928Y-18899500D01*
X14709214Y-18842357D01*
X14723500Y-18813786D01*
X14737786Y-18799500D01*
X14766357Y-18785214D01*
X15052071Y-18785214D02*
X15080643Y-18785214D01*
X15109214Y-18799500D01*
X15123500Y-18813786D01*
X15137786Y-18842357D01*
X15152071Y-18899500D01*
X15152071Y-18970929D01*
X15137786Y-19028072D01*
X15123500Y-19056643D01*
X15109214Y-19070929D01*
X15080643Y-19085214D01*
X15052071Y-19085214D01*
X15023500Y-19070929D01*
X15009214Y-19056643D01*
X14994928Y-19028072D01*
X14980643Y-18970929D01*
X14980643Y-18899500D01*
X14994928Y-18842357D01*
X15009214Y-18813786D01*
X15023500Y-18799500D01*
X15052071Y-18785214D01*
X15280643Y-19085214D02*
X15280643Y-18885214D01*
X15280643Y-18913786D02*
X15294928Y-18899500D01*
X15323500Y-18885214D01*
X15366357Y-18885214D01*
X15394928Y-18899500D01*
X15409214Y-18928072D01*
X15409214Y-19085214D01*
X15409214Y-18928072D02*
X15423500Y-18899500D01*
X15452071Y-18885214D01*
X15494928Y-18885214D01*
X15523500Y-18899500D01*
X15537786Y-18928072D01*
X15537786Y-19085214D01*
X15680643Y-19085214D02*
X15680643Y-18885214D01*
X15680643Y-18913786D02*
X15694928Y-18899500D01*
X15723500Y-18885214D01*
X15766357Y-18885214D01*
X15794928Y-18899500D01*
X15809214Y-18928072D01*
X15809214Y-19085214D01*
X15809214Y-18928072D02*
X15823500Y-18899500D01*
X15852071Y-18885214D01*
X15894928Y-18885214D01*
X15923500Y-18899500D01*
X15937786Y-18928072D01*
X15937786Y-19085214D01*
X16523500Y-18770929D02*
X16266357Y-19156643D01*
X16909214Y-18785214D02*
X16937786Y-18785214D01*
X16966357Y-18799500D01*
X16980643Y-18813786D01*
X16994928Y-18842357D01*
X17009214Y-18899500D01*
X17009214Y-18970929D01*
X16994928Y-19028072D01*
X16980643Y-19056643D01*
X16966357Y-19070929D01*
X16937786Y-19085214D01*
X16909214Y-19085214D01*
X16880643Y-19070929D01*
X16866357Y-19056643D01*
X16852071Y-19028072D01*
X16837786Y-18970929D01*
X16837786Y-18899500D01*
X16852071Y-18842357D01*
X16866357Y-18813786D01*
X16880643Y-18799500D01*
X16909214Y-18785214D01*
X17137786Y-19056643D02*
X17152071Y-19070929D01*
X17137786Y-19085214D01*
X17123500Y-19070929D01*
X17137786Y-19056643D01*
X17137786Y-19085214D01*
X17337786Y-18785214D02*
X17366357Y-18785214D01*
X17394928Y-18799500D01*
X17409214Y-18813786D01*
X17423500Y-18842357D01*
X17437786Y-18899500D01*
X17437786Y-18970929D01*
X17423500Y-19028072D01*
X17409214Y-19056643D01*
X17394928Y-19070929D01*
X17366357Y-19085214D01*
X17337786Y-19085214D01*
X17309214Y-19070929D01*
X17294928Y-19056643D01*
X17280643Y-19028072D01*
X17266357Y-18970929D01*
X17266357Y-18899500D01*
X17280643Y-18842357D01*
X17294928Y-18813786D01*
X17309214Y-18799500D01*
X17337786Y-18785214D01*
X17709214Y-18785214D02*
X17566357Y-18785214D01*
X17552071Y-18928072D01*
X17566357Y-18913786D01*
X17594928Y-18899500D01*
X17666357Y-18899500D01*
X17694928Y-18913786D01*
X17709214Y-18928072D01*
X17723500Y-18956643D01*
X17723500Y-19028072D01*
X17709214Y-19056643D01*
X17694928Y-19070929D01*
X17666357Y-19085214D01*
X17594928Y-19085214D01*
X17566357Y-19070929D01*
X17552071Y-19056643D01*
X18009214Y-19085214D02*
X17837786Y-19085214D01*
X17923500Y-19085214D02*
X17923500Y-18785214D01*
X17894928Y-18828072D01*
X17866357Y-18856643D01*
X17837786Y-18870929D01*
X18123500Y-18813786D02*
X18137786Y-18799500D01*
X18166357Y-18785214D01*
X18237786Y-18785214D01*
X18266357Y-18799500D01*
X18280643Y-18813786D01*
X18294928Y-18842357D01*
X18294928Y-18870929D01*
X18280643Y-18913786D01*
X18109214Y-19085214D01*
X18294928Y-19085214D01*
X18409214Y-18785214D02*
X18409214Y-18842357D01*
X18523500Y-18785214D02*
X18523500Y-18842357D01*
X18966357Y-19199500D02*
X18952071Y-19185214D01*
X18923500Y-19142357D01*
X18909214Y-19113786D01*
X18894928Y-19070929D01*
X18880643Y-18999500D01*
X18880643Y-18942357D01*
X18894928Y-18870929D01*
X18909214Y-18828072D01*
X18923500Y-18799500D01*
X18952071Y-18756643D01*
X18966357Y-18742357D01*
X19237786Y-19085214D02*
X19066357Y-19085214D01*
X19152071Y-19085214D02*
X19152071Y-18785214D01*
X19123500Y-18828072D01*
X19094928Y-18856643D01*
X19066357Y-18870929D01*
X19494928Y-18785214D02*
X19437786Y-18785214D01*
X19409214Y-18799500D01*
X19394928Y-18813786D01*
X19366357Y-18856643D01*
X19352071Y-18913786D01*
X19352071Y-19028072D01*
X19366357Y-19056643D01*
X19380643Y-19070929D01*
X19409214Y-19085214D01*
X19466357Y-19085214D01*
X19494928Y-19070929D01*
X19509214Y-19056643D01*
X19523500Y-19028072D01*
X19523500Y-18956643D01*
X19509214Y-18928072D01*
X19494928Y-18913786D01*
X19466357Y-18899500D01*
X19409214Y-18899500D01*
X19380643Y-18913786D01*
X19366357Y-18928072D01*
X19352071Y-18956643D01*
X19880643Y-19085214D02*
X19880643Y-18785214D01*
X20009214Y-19085214D02*
X20009214Y-18928072D01*
X19994928Y-18899500D01*
X19966357Y-18885214D01*
X19923500Y-18885214D01*
X19894928Y-18899500D01*
X19880643Y-18913786D01*
X20194928Y-19085214D02*
X20166357Y-19070929D01*
X20152071Y-19056643D01*
X20137786Y-19028072D01*
X20137786Y-18942357D01*
X20152071Y-18913786D01*
X20166357Y-18899500D01*
X20194928Y-18885214D01*
X20237786Y-18885214D01*
X20266357Y-18899500D01*
X20280643Y-18913786D01*
X20294928Y-18942357D01*
X20294928Y-19028072D01*
X20280643Y-19056643D01*
X20266357Y-19070929D01*
X20237786Y-19085214D01*
X20194928Y-19085214D01*
X20466357Y-19085214D02*
X20437786Y-19070929D01*
X20423500Y-19042357D01*
X20423500Y-18785214D01*
X20694928Y-19070929D02*
X20666357Y-19085214D01*
X20609214Y-19085214D01*
X20580643Y-19070929D01*
X20566357Y-19042357D01*
X20566357Y-18928072D01*
X20580643Y-18899500D01*
X20609214Y-18885214D01*
X20666357Y-18885214D01*
X20694928Y-18899500D01*
X20709214Y-18928072D01*
X20709214Y-18956643D01*
X20566357Y-18985214D01*
X20823500Y-19070929D02*
X20852071Y-19085214D01*
X20909214Y-19085214D01*
X20937786Y-19070929D01*
X20952071Y-19042357D01*
X20952071Y-19028072D01*
X20937786Y-18999500D01*
X20909214Y-18985214D01*
X20866357Y-18985214D01*
X20837786Y-18970929D01*
X20823500Y-18942357D01*
X20823500Y-18928072D01*
X20837786Y-18899500D01*
X20866357Y-18885214D01*
X20909214Y-18885214D01*
X20937786Y-18899500D01*
X21052071Y-19199500D02*
X21066357Y-19185214D01*
X21094928Y-19142357D01*
X21109214Y-19113786D01*
X21123500Y-19070929D01*
X21137786Y-18999500D01*
X21137786Y-18942357D01*
X21123500Y-18870929D01*
X21109214Y-18828072D01*
X21094928Y-18799500D01*
X21066357Y-18756643D01*
X21052071Y-18742357D01*
M02*
