  0
SECTION
  2
HEADER
  9
$ACADVER
  1
AC1014
  9
$HANDSEED
  5
FFFF
  9
$MEASUREMENT
 70
     1
  0
ENDSEC
  0
SECTION
  2
TABLES
  0
TABLE
  2
VPORT
  5
8
330
0
100
AcDbSymbolTable
 70
     4
  0
VPORT
  5
2E
330
8
100
AcDbSymbolTableRecord
100
AcDbViewportTableRecord
  2
*ACTIVE
 70
     0
 10
0.0
 20
0.0
 11
1.0
 21
1.0
 12
210.0
 22
148.5
 13
0.0
 23
0.0
 14
10.0
 24
10.0
 15
10.0
 25
10.0
 16
0.0
 26
0.0
 36
1.0
 17
0.0
 27
0.0
 37
0.0
 40
341.0
 41
1.24
 42
50.0
 43
0.0
 44
0.0
 50
0.0
 51
0.0
 71
     0
 72
   100
 73
     1
 74
     3
 75
     0
 76
     0
 77
     0
 78
     0
  0
ENDTAB
  0
TABLE
  2
LTYPE
  5
5
330
0
100
AcDbSymbolTable
 70
     1
  0
LTYPE
  5
14
330
5
100
AcDbSymbolTableRecord
100
AcDbLinetypeTableRecord
  2
BYBLOCK
 70
     0
  3

 72
    65
 73
     0
 40
0.0
  0
LTYPE
  5
15
330
5
100
AcDbSymbolTableRecord
100
AcDbLinetypeTableRecord
  2
BYLAYER
 70
     0
  3

 72
    65
 73
     0
 40
0.0
  0
LTYPE
  5
16
330
5
100
AcDbSymbolTableRecord
100
AcDbLinetypeTableRecord
  2
CONTINUOUS
 70
     0
  3
Solid line
 72
    65
 73
     0
 40
0.0
  0
ENDTAB
  0
TABLE
  2
LAYER
  5
2
100
AcDbSymbolTable
 70
3
  0
LAYER
  5
50
100
AcDbSymbolTableRecord
100
AcDbLayerTableRecord
  2
0
 70
0
  6
CONTINUOUS
  0
LAYER
  5
51
100
AcDbSymbolTableRecord
100
AcDbLayerTableRecord
  2
g10
 70
0
  6
CONTINUOUS
  0
LAYER
  5
52
100
AcDbSymbolTableRecord
100
AcDbLayerTableRecord
  2
g28
 70
0
  6
CONTINUOUS
  0
ENDTAB
  0
TABLE
  2
STYLE
  5
3
330
0
100
AcDbSymbolTable
 70
     1
  0
STYLE
  5
11
330
3
100
AcDbSymbolTableRecord
100
AcDbTextStyleTableRecord
  2
STANDARD
 70
     0
 40
0.0
 41
1.0
 50
0.0
 71
     0
 42
2.5
  3
txt
  4

  0
ENDTAB
  0
TABLE
  2
VIEW
  5
6
330
0
100
AcDbSymbolTable
 70
     0
  0
ENDTAB
  0
TABLE
  2
UCS
  5
7
330
0
100
AcDbSymbolTable
 70
     0
  0
ENDTAB
  0
TABLE
  2
APPID
  5
9
330
0
100
AcDbSymbolTable
 70
     2
  0
APPID
  5
12
330
9
100
AcDbSymbolTableRecord
100
AcDbRegAppTableRecord
  2
ACAD
 70
     0
  0
ENDTAB
  0
TABLE
  2
DIMSTYLE
  5
A
330
0
100
AcDbSymbolTable
 70
     1
  0
DIMSTYLE
105
27
330
A
100
AcDbSymbolTableRecord
100
AcDbDimStyleTableRecord
  2
ISO-25
 70
     0
  3

  4

  5

  6

  7

 40
1.0
 41
2.5
 42
0.625
 43
3.75
 44
1.25
 45
0.0
 46
0.0
 47
0.0
 48
0.0
140
2.5
141
2.5
142
0.0
143
0.03937007874016
144
1.0
145
0.0
146
1.0
147
0.625
 71
     0
 72
     0
 73
     0
 74
     0
 75
     0
 76
     0
 77
     1
 78
     8
170
     0
171
     3
172
     1
173
     0
174
     0
175
     0
176
     0
177
     0
178
     0
270
     2
271
     2
272
     2
273
     2
274
     3
340
11
275
     0
280
     0
281
     0
282
     0
283
     0
284
     8
285
     0
286
     0
287
     3
288
     0
  0
ENDTAB
  0
TABLE
  2
BLOCK_RECORD
  5
1
330
0
100
AcDbSymbolTable
 70
     1
  0
BLOCK_RECORD
  5
1F
330
1
100
AcDbSymbolTableRecord
100
AcDbBlockTableRecord
  2
*MODEL_SPACE
  0
BLOCK_RECORD
  5
1B
330
1
100
AcDbSymbolTableRecord
100
AcDbBlockTableRecord
  2
*PAPER_SPACE
  0
ENDTAB
  0
ENDSEC
  0
SECTION
  2
BLOCKS
  0
BLOCK
  5
20
330
1F
100
AcDbEntity
  8
0
100
AcDbBlockBegin
  2
*MODEL_SPACE
 70
     0
 10
0.0
 20
0.0
 30
0.0
  3
*MODEL_SPACE
  1

  0
ENDBLK
  5
21
330
1F
100
AcDbEntity
  8
0
100
AcDbBlockEnd
  0
BLOCK
  5
1C
330
1B
100
AcDbEntity
 67
     1
  8
0
100
AcDbBlockBegin
  2
*PAPER_SPACE
  1

  0
ENDBLK
  5
1D
330
1B
100
AcDbEntity
 67
     1
  8
0
100
AcDbBlockEnd
  0
ENDSEC
  0
SECTION
  2
ENTITIES
  0
LINE
  5
100
100
AcDbEntity
  8
g10
 62
7
100
AcDbLine
 10
1.803715
 20
17.822955
 30
0.0
 11
1.896195
 21
17.842747
 31
0.0
  0
LINE
  5
101
100
AcDbEntity
  8
g10
 62
7
100
AcDbLine
 10
1.896195
 20
17.842747
 30
0.0
 11
2.097932
 21
17.807222
 31
0.0
  0
LINE
  5
102
100
AcDbEntity
  8
g10
 62
7
100
AcDbLine
 10
2.097932
 20
17.807222
 30
0.0
 11
2.401820
 21
17.611031
 31
0.0
  0
LINE
  5
103
100
AcDbEntity
  8
g10
 62
7
100
AcDbLine
 10
2.401820
 20
17.611031
 30
0.0
 11
2.401820
 21
17.555261
 31
0.0
  0
LINE
  5
104
100
AcDbEntity
  8
g10
 62
7
100
AcDbLine
 10
2.401820
 20
17.555261
 30
0.0
 11
2.097932
 21
17.359070
 31
0.0
  0
LINE
  5
105
100
AcDbEntity
  8
g10
 62
7
100
AcDbLine
 10
2.097932
 20
17.359070
 30
0.0
 11
1.896195
 21
17.323545
 31
0.0
  0
LINE
  5
106
100
AcDbEntity
  8
g10
 62
7
100
AcDbLine
 10
1.896195
 20
17.323545
 30
0.0
 11
1.803715
 21
17.343337
 31
0.0
  0
LINE
  5
107
100
AcDbEntity
  8
g10
 62
7
100
AcDbLine
 10
1.803715
 20
17.343337
 30
0.0
 11
1.730667
 21
17.118517
 31
0.0
  0
LINE
  5
108
100
AcDbEntity
  8
g10
 62
7
100
AcDbLine
 10
1.730667
 20
17.118517
 30
0.0
 11
1.817118
 21
17.080171
 31
0.0
  0
LINE
  5
109
100
AcDbEntity
  8
g10
 62
7
100
AcDbLine
 10
1.817118
 20
17.080171
 30
0.0
 11
1.959446
 21
16.932853
 31
0.0
  0
LINE
  5
10a
100
AcDbEntity
  8
g10
 62
7
100
AcDbLine
 10
1.959446
 20
16.932853
 30
0.0
 11
2.089978
 21
16.595510
 31
0.0
  0
LINE
  5
10b
100
AcDbEntity
  8
g10
 62
7
100
AcDbLine
 10
2.089978
 20
16.595510
 30
0.0
 11
2.057197
 21
16.550391
 31
0.0
  0
LINE
  5
10c
100
AcDbEntity
  8
g10
 62
7
100
AcDbLine
 10
2.057197
 20
16.550391
 30
0.0
 11
1.696029
 21
16.570290
 31
0.0
  0
LINE
  5
10d
100
AcDbEntity
  8
g10
 62
7
100
AcDbLine
 10
1.696029
 20
16.570290
 30
0.0
 11
1.511939
 21
16.660128
 31
0.0
  0
LINE
  5
10e
100
AcDbEntity
  8
g10
 62
7
100
AcDbLine
 10
1.511939
 20
16.660128
 30
0.0
 11
1.448754
 21
16.730499
 31
0.0
  0
LINE
  5
10f
100
AcDbEntity
  8
g10
 62
7
100
AcDbLine
 10
1.448754
 20
16.730499
 30
0.0
 11
1.257511
 21
16.591552
 31
0.0
  0
LINE
  5
110
100
AcDbEntity
  8
g10
 62
7
100
AcDbLine
 10
1.257511
 20
16.591552
 30
0.0
 11
1.304912
 21
16.509714
 31
0.0
  0
LINE
  5
111
100
AcDbEntity
  8
g10
 62
7
100
AcDbLine
 10
1.304912
 20
16.509714
 30
0.0
 11
1.333466
 21
16.306873
 31
0.0
  0
LINE
  5
112
100
AcDbEntity
  8
g10
 62
7
100
AcDbLine
 10
1.333466
 20
16.306873
 30
0.0
 11
1.240785
 21
15.957232
 31
0.0
  0
LINE
  5
113
100
AcDbEntity
  8
g10
 62
7
100
AcDbLine
 10
1.240785
 20
15.957232
 30
0.0
 11
1.187744
 21
15.939998
 31
0.0
  0
LINE
  5
114
100
AcDbEntity
  8
g10
 62
7
100
AcDbLine
 10
1.187744
 20
15.939998
 30
0.0
 11
0.907249
 21
16.168387
 31
0.0
  0
LINE
  5
115
100
AcDbEntity
  8
g10
 62
7
100
AcDbLine
 10
0.907249
 20
16.168387
 30
0.0
 11
0.811123
 21
16.349272
 31
0.0
  0
LINE
  5
116
100
AcDbEntity
  8
g10
 62
7
100
AcDbLine
 10
0.811123
 20
16.349272
 30
0.0
 11
0.801368
 21
16.443342
 31
0.0
  0
LINE
  5
117
100
AcDbEntity
  8
g10
 62
7
100
AcDbLine
 10
0.801368
 20
16.443342
 30
0.0
 11
0.564978
 21
16.443342
 31
0.0
  0
LINE
  5
118
100
AcDbEntity
  8
g10
 62
7
100
AcDbLine
 10
0.564978
 20
16.443342
 30
0.0
 11
0.555223
 21
16.349272
 31
0.0
  0
LINE
  5
119
100
AcDbEntity
  8
g10
 62
7
100
AcDbLine
 10
0.555223
 20
16.349272
 30
0.0
 11
0.459097
 21
16.168387
 31
0.0
  0
LINE
  5
11a
100
AcDbEntity
  8
g10
 62
7
100
AcDbLine
 10
0.459097
 20
16.168387
 30
0.0
 11
0.178602
 21
15.939998
 31
0.0
  0
LINE
  5
11b
100
AcDbEntity
  8
g10
 62
7
100
AcDbLine
 10
0.178602
 20
15.939998
 30
0.0
 11
0.125561
 21
15.957232
 31
0.0
  0
LINE
  5
11c
100
AcDbEntity
  8
g10
 62
7
100
AcDbLine
 10
0.125561
 20
15.957232
 30
0.0
 11
0.032880
 21
16.306873
 31
0.0
  0
LINE
  5
11d
100
AcDbEntity
  8
g10
 62
7
100
AcDbLine
 10
0.032880
 20
16.306873
 30
0.0
 11
0.061434
 21
16.509714
 31
0.0
  0
LINE
  5
11e
100
AcDbEntity
  8
g10
 62
7
100
AcDbLine
 10
0.061434
 20
16.509714
 30
0.0
 11
0.108835
 21
16.591552
 31
0.0
  0
LINE
  5
11f
100
AcDbEntity
  8
g10
 62
7
100
AcDbLine
 10
0.108835
 20
16.591552
 30
0.0
 11
-0.082408
 21
16.730499
 31
0.0
  0
LINE
  5
120
100
AcDbEntity
  8
g10
 62
7
100
AcDbLine
 10
-0.082408
 20
16.730499
 30
0.0
 11
-0.145593
 21
16.660128
 31
0.0
  0
LINE
  5
121
100
AcDbEntity
  8
g10
 62
7
100
AcDbLine
 10
-0.145593
 20
16.660128
 30
0.0
 11
-0.329683
 21
16.570290
 31
0.0
  0
LINE
  5
122
100
AcDbEntity
  8
g10
 62
7
100
AcDbLine
 10
-0.329683
 20
16.570290
 30
0.0
 11
-0.690851
 21
16.550391
 31
0.0
  0
LINE
  5
123
100
AcDbEntity
  8
g10
 62
7
100
AcDbLine
 10
-0.690851
 20
16.550391
 30
0.0
 11
-0.723632
 21
16.595510
 31
0.0
  0
LINE
  5
124
100
AcDbEntity
  8
g10
 62
7
100
AcDbLine
 10
-0.723632
 20
16.595510
 30
0.0
 11
-0.593100
 21
16.932853
 31
0.0
  0
LINE
  5
125
100
AcDbEntity
  8
g10
 62
7
100
AcDbLine
 10
-0.593100
 20
16.932853
 30
0.0
 11
-0.450772
 21
17.080171
 31
0.0
  0
LINE
  5
126
100
AcDbEntity
  8
g10
 62
7
100
AcDbLine
 10
-0.450772
 20
17.080171
 30
0.0
 11
-0.364321
 21
17.118517
 31
0.0
  0
LINE
  5
127
100
AcDbEntity
  8
g10
 62
7
100
AcDbLine
 10
-0.364321
 20
17.118517
 30
0.0
 11
-0.437369
 21
17.343337
 31
0.0
  0
LINE
  5
128
100
AcDbEntity
  8
g10
 62
7
100
AcDbLine
 10
-0.437369
 20
17.343337
 30
0.0
 11
-0.529849
 21
17.323545
 31
0.0
  0
LINE
  5
129
100
AcDbEntity
  8
g10
 62
7
100
AcDbLine
 10
-0.529849
 20
17.323545
 30
0.0
 11
-0.731586
 21
17.359070
 31
0.0
  0
LINE
  5
12a
100
AcDbEntity
  8
g10
 62
7
100
AcDbLine
 10
-0.731586
 20
17.359070
 30
0.0
 11
-1.035474
 21
17.555261
 31
0.0
  0
LINE
  5
12b
100
AcDbEntity
  8
g10
 62
7
100
AcDbLine
 10
-1.035474
 20
17.555261
 30
0.0
 11
-1.035474
 21
17.611031
 31
0.0
  0
LINE
  5
12c
100
AcDbEntity
  8
g10
 62
7
100
AcDbLine
 10
-1.035474
 20
17.611031
 30
0.0
 11
-0.731586
 21
17.807222
 31
0.0
  0
LINE
  5
12d
100
AcDbEntity
  8
g10
 62
7
100
AcDbLine
 10
-0.731586
 20
17.807222
 30
0.0
 11
-0.529849
 21
17.842747
 31
0.0
  0
LINE
  5
12e
100
AcDbEntity
  8
g10
 62
7
100
AcDbLine
 10
-0.529849
 20
17.842747
 30
0.0
 11
-0.437369
 21
17.822955
 31
0.0
  0
LINE
  5
12f
100
AcDbEntity
  8
g10
 62
7
100
AcDbLine
 10
-0.437369
 20
17.822955
 30
0.0
 11
-0.364321
 21
18.047775
 31
0.0
  0
LINE
  5
130
100
AcDbEntity
  8
g10
 62
7
100
AcDbLine
 10
-0.364321
 20
18.047775
 30
0.0
 11
-0.450772
 21
18.086121
 31
0.0
  0
LINE
  5
131
100
AcDbEntity
  8
g10
 62
7
100
AcDbLine
 10
-0.450772
 20
18.086121
 30
0.0
 11
-0.593100
 21
18.233439
 31
0.0
  0
LINE
  5
132
100
AcDbEntity
  8
g10
 62
7
100
AcDbLine
 10
-0.593100
 20
18.233439
 30
0.0
 11
-0.723632
 21
18.570782
 31
0.0
  0
LINE
  5
133
100
AcDbEntity
  8
g10
 62
7
100
AcDbLine
 10
-0.723632
 20
18.570782
 30
0.0
 11
-0.690851
 21
18.615901
 31
0.0
  0
LINE
  5
134
100
AcDbEntity
  8
g10
 62
7
100
AcDbLine
 10
-0.690851
 20
18.615901
 30
0.0
 11
-0.329683
 21
18.596002
 31
0.0
  0
LINE
  5
135
100
AcDbEntity
  8
g10
 62
7
100
AcDbLine
 10
-0.329683
 20
18.596002
 30
0.0
 11
-0.145593
 21
18.506164
 31
0.0
  0
LINE
  5
136
100
AcDbEntity
  8
g10
 62
7
100
AcDbLine
 10
-0.145593
 20
18.506164
 30
0.0
 11
-0.082408
 21
18.435793
 31
0.0
  0
LINE
  5
137
100
AcDbEntity
  8
g10
 62
7
100
AcDbLine
 10
-0.082408
 20
18.435793
 30
0.0
 11
0.108835
 21
18.574740
 31
0.0
  0
LINE
  5
138
100
AcDbEntity
  8
g10
 62
7
100
AcDbLine
 10
0.108835
 20
18.574740
 30
0.0
 11
0.061434
 21
18.656578
 31
0.0
  0
LINE
  5
139
100
AcDbEntity
  8
g10
 62
7
100
AcDbLine
 10
0.061434
 20
18.656578
 30
0.0
 11
0.032880
 21
18.859419
 31
0.0
  0
LINE
  5
13a
100
AcDbEntity
  8
g10
 62
7
100
AcDbLine
 10
0.032880
 20
18.859419
 30
0.0
 11
0.125561
 21
19.209060
 31
0.0
  0
LINE
  5
13b
100
AcDbEntity
  8
g10
 62
7
100
AcDbLine
 10
0.125561
 20
19.209060
 30
0.0
 11
0.178602
 21
19.226294
 31
0.0
  0
LINE
  5
13c
100
AcDbEntity
  8
g10
 62
7
100
AcDbLine
 10
0.178602
 20
19.226294
 30
0.0
 11
0.459097
 21
18.997905
 31
0.0
  0
LINE
  5
13d
100
AcDbEntity
  8
g10
 62
7
100
AcDbLine
 10
0.459097
 20
18.997905
 30
0.0
 11
0.555223
 21
18.817020
 31
0.0
  0
LINE
  5
13e
100
AcDbEntity
  8
g10
 62
7
100
AcDbLine
 10
0.555223
 20
18.817020
 30
0.0
 11
0.564978
 21
18.722950
 31
0.0
  0
LINE
  5
13f
100
AcDbEntity
  8
g10
 62
7
100
AcDbLine
 10
0.564978
 20
18.722950
 30
0.0
 11
0.801368
 21
18.722950
 31
0.0
  0
LINE
  5
140
100
AcDbEntity
  8
g10
 62
7
100
AcDbLine
 10
0.801368
 20
18.722950
 30
0.0
 11
0.811123
 21
18.817020
 31
0.0
  0
LINE
  5
141
100
AcDbEntity
  8
g10
 62
7
100
AcDbLine
 10
0.811123
 20
18.817020
 30
0.0
 11
0.907249
 21
18.997905
 31
0.0
  0
LINE
  5
142
100
AcDbEntity
  8
g10
 62
7
100
AcDbLine
 10
0.907249
 20
18.997905
 30
0.0
 11
1.187744
 21
19.226294
 31
0.0
  0
LINE
  5
143
100
AcDbEntity
  8
g10
 62
7
100
AcDbLine
 10
1.187744
 20
19.226294
 30
0.0
 11
1.240785
 21
19.209060
 31
0.0
  0
LINE
  5
144
100
AcDbEntity
  8
g10
 62
7
100
AcDbLine
 10
1.240785
 20
19.209060
 30
0.0
 11
1.333466
 21
18.859419
 31
0.0
  0
LINE
  5
145
100
AcDbEntity
  8
g10
 62
7
100
AcDbLine
 10
1.333466
 20
18.859419
 30
0.0
 11
1.304912
 21
18.656578
 31
0.0
  0
LINE
  5
146
100
AcDbEntity
  8
g10
 62
7
100
AcDbLine
 10
1.304912
 20
18.656578
 30
0.0
 11
1.257511
 21
18.574740
 31
0.0
  0
LINE
  5
147
100
AcDbEntity
  8
g10
 62
7
100
AcDbLine
 10
1.257511
 20
18.574740
 30
0.0
 11
1.448754
 21
18.435793
 31
0.0
  0
LINE
  5
148
100
AcDbEntity
  8
g10
 62
7
100
AcDbLine
 10
1.448754
 20
18.435793
 30
0.0
 11
1.511939
 21
18.506164
 31
0.0
  0
LINE
  5
149
100
AcDbEntity
  8
g10
 62
7
100
AcDbLine
 10
1.511939
 20
18.506164
 30
0.0
 11
1.696029
 21
18.596002
 31
0.0
  0
LINE
  5
14a
100
AcDbEntity
  8
g10
 62
7
100
AcDbLine
 10
1.696029
 20
18.596002
 30
0.0
 11
2.057197
 21
18.615901
 31
0.0
  0
LINE
  5
14b
100
AcDbEntity
  8
g10
 62
7
100
AcDbLine
 10
2.057197
 20
18.615901
 30
0.0
 11
2.089978
 21
18.570782
 31
0.0
  0
LINE
  5
14c
100
AcDbEntity
  8
g10
 62
7
100
AcDbLine
 10
2.089978
 20
18.570782
 30
0.0
 11
1.959446
 21
18.233439
 31
0.0
  0
LINE
  5
14d
100
AcDbEntity
  8
g10
 62
7
100
AcDbLine
 10
1.959446
 20
18.233439
 30
0.0
 11
1.817118
 21
18.086121
 31
0.0
  0
LINE
  5
14e
100
AcDbEntity
  8
g10
 62
7
100
AcDbLine
 10
1.817118
 20
18.086121
 30
0.0
 11
1.730667
 21
18.047775
 31
0.0
  0
LINE
  5
14f
100
AcDbEntity
  8
g10
 62
7
100
AcDbLine
 10
1.730667
 20
18.047775
 30
0.0
 11
1.803715
 21
17.822955
 31
0.0
  0
SPLINE
  5
150
100
AcDbEntity
  8
g10
 62
7
100
AcDbSpline
 70
8
 71
3
 72
8
 73
4
 74
0
 40
0
 40
0
 40
0
 40
0
 40
1
 40
1
 40
1
 40
1
 10
1.108173
 20
17.583146
 30
0.0
 10
1.108173
 20
17.431308
 30
0.0
 10
1.027168
 20
17.291004
 30
0.0
 10
0.895673
 20
17.215085
 30
0.0
  0
SPLINE
  5
151
100
AcDbEntity
  8
g10
 62
7
100
AcDbSpline
 70
8
 71
3
 72
8
 73
4
 74
0
 40
0
 40
0
 40
0
 40
0
 40
1
 40
1
 40
1
 40
1
 10
0.895673
 20
17.215085
 30
0.0
 10
0.764177
 20
17.139166
 30
0.0
 10
0.602168
 20
17.139166
 30
0.0
 10
0.470673
 20
17.215085
 30
0.0
  0
SPLINE
  5
152
100
AcDbEntity
  8
g10
 62
7
100
AcDbSpline
 70
8
 71
3
 72
8
 73
4
 74
0
 40
0
 40
0
 40
0
 40
0
 40
1
 40
1
 40
1
 40
1
 10
0.470673
 20
17.215085
 30
0.0
 10
0.339177
 20
17.291004
 30
0.0
 10
0.258173
 20
17.431308
 30
0.0
 10
0.258173
 20
17.583146
 30
0.0
  0
SPLINE
  5
153
100
AcDbEntity
  8
g10
 62
7
100
AcDbSpline
 70
8
 71
3
 72
8
 73
4
 74
0
 40
0
 40
0
 40
0
 40
0
 40
1
 40
1
 40
1
 40
1
 10
0.258173
 20
17.583146
 30
0.0
 10
0.258173
 20
17.734984
 30
0.0
 10
0.339177
 20
17.875288
 30
0.0
 10
0.470673
 20
17.951207
 30
0.0
  0
SPLINE
  5
154
100
AcDbEntity
  8
g10
 62
7
100
AcDbSpline
 70
8
 71
3
 72
8
 73
4
 74
0
 40
0
 40
0
 40
0
 40
0
 40
1
 40
1
 40
1
 40
1
 10
0.470673
 20
17.951207
 30
0.0
 10
0.602168
 20
18.027126
 30
0.0
 10
0.764177
 20
18.027126
 30
0.0
 10
0.895673
 20
17.951207
 30
0.0
  0
SPLINE
  5
155
100
AcDbEntity
  8
g10
 62
7
100
AcDbSpline
 70
8
 71
3
 72
8
 73
4
 74
0
 40
0
 40
0
 40
0
 40
0
 40
1
 40
1
 40
1
 40
1
 10
0.895673
 20
17.951207
 30
0.0
 10
1.027168
 20
17.875288
 30
0.0
 10
1.108173
 20
17.734984
 30
0.0
 10
1.108173
 20
17.583146
 30
0.0
  0
LINE
  5
156
100
AcDbEntity
  8
g10
 62
7
100
AcDbLine
 10
1.108173
 20
17.583146
 30
0.0
 11
1.108173
 21
17.583146
 31
0.0
  0
LINE
  5
157
100
AcDbEntity
  8
g28
 62
7
100
AcDbLine
 10
4.391608
 20
17.925734
 30
0.0
 11
4.687568
 21
17.808028
 31
0.0
  0
LINE
  5
158
100
AcDbEntity
  8
g28
 62
7
100
AcDbLine
 10
4.687568
 20
17.808028
 30
0.0
 11
4.980098
 21
17.630301
 31
0.0
  0
LINE
  5
159
100
AcDbEntity
  8
g28
 62
7
100
AcDbLine
 10
4.980098
 20
17.630301
 30
0.0
 11
4.980098
 21
17.535991
 31
0.0
  0
LINE
  5
15a
100
AcDbEntity
  8
g28
 62
7
100
AcDbLine
 10
4.980098
 20
17.535991
 30
0.0
 11
4.687568
 21
17.358264
 31
0.0
  0
LINE
  5
15b
100
AcDbEntity
  8
g28
 62
7
100
AcDbLine
 10
4.687568
 20
17.358264
 30
0.0
 11
4.391608
 21
17.240558
 31
0.0
  0
LINE
  5
15c
100
AcDbEntity
  8
g28
 62
7
100
AcDbLine
 10
4.391608
 20
17.240558
 30
0.0
 11
4.374863
 21
17.091940
 31
0.0
  0
LINE
  5
15d
100
AcDbEntity
  8
g28
 62
7
100
AcDbLine
 10
4.374863
 20
17.091940
 30
0.0
 11
4.637210
 21
16.911328
 31
0.0
  0
LINE
  5
15e
100
AcDbEntity
  8
g28
 62
7
100
AcDbLine
 10
4.637210
 20
16.911328
 30
0.0
 11
4.882858
 21
16.672963
 31
0.0
  0
LINE
  5
15f
100
AcDbEntity
  8
g28
 62
7
100
AcDbLine
 10
4.882858
 20
16.672963
 30
0.0
 11
4.861872
 21
16.581018
 31
0.0
  0
LINE
  5
160
100
AcDbEntity
  8
g28
 62
7
100
AcDbLine
 10
4.861872
 20
16.581018
 30
0.0
 11
4.537128
 21
16.472841
 31
0.0
  0
LINE
  5
161
100
AcDbEntity
  8
g28
 62
7
100
AcDbLine
 10
4.537128
 20
16.472841
 30
0.0
 11
4.222397
 21
16.423943
 31
0.0
  0
LINE
  5
162
100
AcDbEntity
  8
g28
 62
7
100
AcDbLine
 10
4.222397
 20
16.423943
 30
0.0
 11
4.173001
 21
16.282777
 31
0.0
  0
LINE
  5
163
100
AcDbEntity
  8
g28
 62
7
100
AcDbLine
 10
4.173001
 20
16.282777
 30
0.0
 11
4.388581
 21
16.048316
 31
0.0
  0
LINE
  5
164
100
AcDbEntity
  8
g28
 62
7
100
AcDbLine
 10
4.388581
 20
16.048316
 30
0.0
 11
4.575028
 21
15.761265
 31
0.0
  0
LINE
  5
165
100
AcDbEntity
  8
g28
 62
7
100
AcDbLine
 10
4.575028
 20
15.761265
 30
0.0
 11
4.534109
 21
15.676295
 31
0.0
  0
LINE
  5
166
100
AcDbEntity
  8
g28
 62
7
100
AcDbLine
 10
4.534109
 20
15.676295
 30
0.0
 11
4.193436
 21
15.643092
 31
0.0
  0
LINE
  5
167
100
AcDbEntity
  8
g28
 62
7
100
AcDbLine
 10
4.193436
 20
15.643092
 30
0.0
 11
3.875714
 21
15.665455
 31
0.0
  0
LINE
  5
168
100
AcDbEntity
  8
g28
 62
7
100
AcDbLine
 10
3.875714
 20
15.665455
 30
0.0
 11
3.796144
 21
15.538820
 31
0.0
  0
LINE
  5
169
100
AcDbEntity
  8
g28
 62
7
100
AcDbLine
 10
3.796144
 20
15.538820
 30
0.0
 11
3.954147
 21
15.262266
 31
0.0
  0
LINE
  5
16a
100
AcDbEntity
  8
g28
 62
7
100
AcDbLine
 10
3.954147
 20
15.262266
 30
0.0
 11
4.072045
 21
14.940924
 31
0.0
  0
LINE
  5
16b
100
AcDbEntity
  8
g28
 62
7
100
AcDbLine
 10
4.072045
 20
14.940924
 30
0.0
 11
4.013243
 21
14.867190
 31
0.0
  0
LINE
  5
16c
100
AcDbEntity
  8
g28
 62
7
100
AcDbLine
 10
4.013243
 20
14.867190
 30
0.0
 11
3.673723
 21
14.910627
 31
0.0
  0
LINE
  5
16d
100
AcDbEntity
  8
g28
 62
7
100
AcDbLine
 10
3.673723
 20
14.910627
 30
0.0
 11
3.368944
 21
15.003129
 31
0.0
  0
LINE
  5
16e
100
AcDbEntity
  8
g28
 62
7
100
AcDbLine
 10
3.368944
 20
15.003129
 30
0.0
 11
3.263190
 21
14.897375
 31
0.0
  0
LINE
  5
16f
100
AcDbEntity
  8
g28
 62
7
100
AcDbLine
 10
3.263190
 20
14.897375
 30
0.0
 11
3.355692
 21
14.592596
 31
0.0
  0
LINE
  5
170
100
AcDbEntity
  8
g28
 62
7
100
AcDbLine
 10
3.355692
 20
14.592596
 30
0.0
 11
3.399129
 21
14.253076
 31
0.0
  0
LINE
  5
171
100
AcDbEntity
  8
g28
 62
7
100
AcDbLine
 10
3.399129
 20
14.253076
 30
0.0
 11
3.325395
 21
14.194274
 31
0.0
  0
LINE
  5
172
100
AcDbEntity
  8
g28
 62
7
100
AcDbLine
 10
3.325395
 20
14.194274
 30
0.0
 11
3.004053
 21
14.312172
 31
0.0
  0
LINE
  5
173
100
AcDbEntity
  8
g28
 62
7
100
AcDbLine
 10
3.004053
 20
14.312172
 30
0.0
 11
2.727499
 21
14.470175
 31
0.0
  0
LINE
  5
174
100
AcDbEntity
  8
g28
 62
7
100
AcDbLine
 10
2.727499
 20
14.470175
 30
0.0
 11
2.600864
 21
14.390605
 31
0.0
  0
LINE
  5
175
100
AcDbEntity
  8
g28
 62
7
100
AcDbLine
 10
2.600864
 20
14.390605
 30
0.0
 11
2.623227
 21
14.072883
 31
0.0
  0
LINE
  5
176
100
AcDbEntity
  8
g28
 62
7
100
AcDbLine
 10
2.623227
 20
14.072883
 30
0.0
 11
2.590024
 21
13.732210
 31
0.0
  0
LINE
  5
177
100
AcDbEntity
  8
g28
 62
7
100
AcDbLine
 10
2.590024
 20
13.732210
 30
0.0
 11
2.505054
 21
13.691291
 31
0.0
  0
LINE
  5
178
100
AcDbEntity
  8
g28
 62
7
100
AcDbLine
 10
2.505054
 20
13.691291
 30
0.0
 11
2.218003
 21
13.877738
 31
0.0
  0
LINE
  5
179
100
AcDbEntity
  8
g28
 62
7
100
AcDbLine
 10
2.218003
 20
13.877738
 30
0.0
 11
1.983542
 21
14.093318
 31
0.0
  0
LINE
  5
17a
100
AcDbEntity
  8
g28
 62
7
100
AcDbLine
 10
1.983542
 20
14.093318
 30
0.0
 11
1.842376
 21
14.043922
 31
0.0
  0
LINE
  5
17b
100
AcDbEntity
  8
g28
 62
7
100
AcDbLine
 10
1.842376
 20
14.043922
 30
0.0
 11
1.793478
 21
13.729191
 31
0.0
  0
LINE
  5
17c
100
AcDbEntity
  8
g28
 62
7
100
AcDbLine
 10
1.793478
 20
13.729191
 30
0.0
 11
1.685301
 21
13.404447
 31
0.0
  0
LINE
  5
17d
100
AcDbEntity
  8
g28
 62
7
100
AcDbLine
 10
1.685301
 20
13.404447
 30
0.0
 11
1.593356
 21
13.383461
 31
0.0
  0
LINE
  5
17e
100
AcDbEntity
  8
g28
 62
7
100
AcDbLine
 10
1.593356
 20
13.383461
 30
0.0
 11
1.354991
 21
13.629109
 31
0.0
  0
LINE
  5
17f
100
AcDbEntity
  8
g28
 62
7
100
AcDbLine
 10
1.354991
 20
13.629109
 30
0.0
 11
1.174379
 21
13.891456
 31
0.0
  0
LINE
  5
180
100
AcDbEntity
  8
g28
 62
7
100
AcDbLine
 10
1.174379
 20
13.891456
 30
0.0
 11
1.025761
 21
13.874711
 31
0.0
  0
LINE
  5
181
100
AcDbEntity
  8
g28
 62
7
100
AcDbLine
 10
1.025761
 20
13.874711
 30
0.0
 11
0.908055
 21
13.578751
 31
0.0
  0
LINE
  5
182
100
AcDbEntity
  8
g28
 62
7
100
AcDbLine
 10
0.908055
 20
13.578751
 30
0.0
 11
0.730328
 21
13.286221
 31
0.0
  0
LINE
  5
183
100
AcDbEntity
  8
g28
 62
7
100
AcDbLine
 10
0.730328
 20
13.286221
 30
0.0
 11
0.636018
 21
13.286221
 31
0.0
  0
LINE
  5
184
100
AcDbEntity
  8
g28
 62
7
100
AcDbLine
 10
0.636018
 20
13.286221
 30
0.0
 11
0.458291
 21
13.578751
 31
0.0
  0
LINE
  5
185
100
AcDbEntity
  8
g28
 62
7
100
AcDbLine
 10
0.458291
 20
13.578751
 30
0.0
 11
0.340585
 21
13.874711
 31
0.0
  0
LINE
  5
186
100
AcDbEntity
  8
g28
 62
7
100
AcDbLine
 10
0.340585
 20
13.874711
 30
0.0
 11
0.191967
 21
13.891456
 31
0.0
  0
LINE
  5
187
100
AcDbEntity
  8
g28
 62
7
100
AcDbLine
 10
0.191967
 20
13.891456
 30
0.0
 11
0.011355
 21
13.629109
 31
0.0
  0
LINE
  5
188
100
AcDbEntity
  8
g28
 62
7
100
AcDbLine
 10
0.011355
 20
13.629109
 30
0.0
 11
-0.227010
 21
13.383461
 31
0.0
  0
LINE
  5
189
100
AcDbEntity
  8
g28
 62
7
100
AcDbLine
 10
-0.227010
 20
13.383461
 30
0.0
 11
-0.318955
 21
13.404447
 31
0.0
  0
LINE
  5
18a
100
AcDbEntity
  8
g28
 62
7
100
AcDbLine
 10
-0.318955
 20
13.404447
 30
0.0
 11
-0.427132
 21
13.729191
 31
0.0
  0
LINE
  5
18b
100
AcDbEntity
  8
g28
 62
7
100
AcDbLine
 10
-0.427132
 20
13.729191
 30
0.0
 11
-0.476030
 21
14.043922
 31
0.0
  0
LINE
  5
18c
100
AcDbEntity
  8
g28
 62
7
100
AcDbLine
 10
-0.476030
 20
14.043922
 30
0.0
 11
-0.617196
 21
14.093318
 31
0.0
  0
LINE
  5
18d
100
AcDbEntity
  8
g28
 62
7
100
AcDbLine
 10
-0.617196
 20
14.093318
 30
0.0
 11
-0.851657
 21
13.877738
 31
0.0
  0
LINE
  5
18e
100
AcDbEntity
  8
g28
 62
7
100
AcDbLine
 10
-0.851657
 20
13.877738
 30
0.0
 11
-1.138708
 21
13.691291
 31
0.0
  0
LINE
  5
18f
100
AcDbEntity
  8
g28
 62
7
100
AcDbLine
 10
-1.138708
 20
13.691291
 30
0.0
 11
-1.223678
 21
13.732210
 31
0.0
  0
LINE
  5
190
100
AcDbEntity
  8
g28
 62
7
100
AcDbLine
 10
-1.223678
 20
13.732210
 30
0.0
 11
-1.256881
 21
14.072883
 31
0.0
  0
LINE
  5
191
100
AcDbEntity
  8
g28
 62
7
100
AcDbLine
 10
-1.256881
 20
14.072883
 30
0.0
 11
-1.234518
 21
14.390605
 31
0.0
  0
LINE
  5
192
100
AcDbEntity
  8
g28
 62
7
100
AcDbLine
 10
-1.234518
 20
14.390605
 30
0.0
 11
-1.361153
 21
14.470175
 31
0.0
  0
LINE
  5
193
100
AcDbEntity
  8
g28
 62
7
100
AcDbLine
 10
-1.361153
 20
14.470175
 30
0.0
 11
-1.637707
 21
14.312172
 31
0.0
  0
LINE
  5
194
100
AcDbEntity
  8
g28
 62
7
100
AcDbLine
 10
-1.637707
 20
14.312172
 30
0.0
 11
-1.959049
 21
14.194274
 31
0.0
  0
LINE
  5
195
100
AcDbEntity
  8
g28
 62
7
100
AcDbLine
 10
-1.959049
 20
14.194274
 30
0.0
 11
-2.032783
 21
14.253076
 31
0.0
  0
LINE
  5
196
100
AcDbEntity
  8
g28
 62
7
100
AcDbLine
 10
-2.032783
 20
14.253076
 30
0.0
 11
-1.989346
 21
14.592596
 31
0.0
  0
LINE
  5
197
100
AcDbEntity
  8
g28
 62
7
100
AcDbLine
 10
-1.989346
 20
14.592596
 30
0.0
 11
-1.896844
 21
14.897375
 31
0.0
  0
LINE
  5
198
100
AcDbEntity
  8
g28
 62
7
100
AcDbLine
 10
-1.896844
 20
14.897375
 30
0.0
 11
-2.002598
 21
15.003129
 31
0.0
  0
LINE
  5
199
100
AcDbEntity
  8
g28
 62
7
100
AcDbLine
 10
-2.002598
 20
15.003129
 30
0.0
 11
-2.307377
 21
14.910627
 31
0.0
  0
LINE
  5
19a
100
AcDbEntity
  8
g28
 62
7
100
AcDbLine
 10
-2.307377
 20
14.910627
 30
0.0
 11
-2.646897
 21
14.867190
 31
0.0
  0
LINE
  5
19b
100
AcDbEntity
  8
g28
 62
7
100
AcDbLine
 10
-2.646897
 20
14.867190
 30
0.0
 11
-2.705699
 21
14.940924
 31
0.0
  0
LINE
  5
19c
100
AcDbEntity
  8
g28
 62
7
100
AcDbLine
 10
-2.705699
 20
14.940924
 30
0.0
 11
-2.587801
 21
15.262266
 31
0.0
  0
LINE
  5
19d
100
AcDbEntity
  8
g28
 62
7
100
AcDbLine
 10
-2.587801
 20
15.262266
 30
0.0
 11
-2.429798
 21
15.538820
 31
0.0
  0
LINE
  5
19e
100
AcDbEntity
  8
g28
 62
7
100
AcDbLine
 10
-2.429798
 20
15.538820
 30
0.0
 11
-2.509368
 21
15.665455
 31
0.0
  0
LINE
  5
19f
100
AcDbEntity
  8
g28
 62
7
100
AcDbLine
 10
-2.509368
 20
15.665455
 30
0.0
 11
-2.827090
 21
15.643092
 31
0.0
  0
LINE
  5
1a0
100
AcDbEntity
  8
g28
 62
7
100
AcDbLine
 10
-2.827090
 20
15.643092
 30
0.0
 11
-3.167763
 21
15.676295
 31
0.0
  0
LINE
  5
1a1
100
AcDbEntity
  8
g28
 62
7
100
AcDbLine
 10
-3.167763
 20
15.676295
 30
0.0
 11
-3.208682
 21
15.761265
 31
0.0
  0
LINE
  5
1a2
100
AcDbEntity
  8
g28
 62
7
100
AcDbLine
 10
-3.208682
 20
15.761265
 30
0.0
 11
-3.022235
 21
16.048316
 31
0.0
  0
LINE
  5
1a3
100
AcDbEntity
  8
g28
 62
7
100
AcDbLine
 10
-3.022235
 20
16.048316
 30
0.0
 11
-2.806655
 21
16.282777
 31
0.0
  0
LINE
  5
1a4
100
AcDbEntity
  8
g28
 62
7
100
AcDbLine
 10
-2.806655
 20
16.282777
 30
0.0
 11
-2.856051
 21
16.423943
 31
0.0
  0
LINE
  5
1a5
100
AcDbEntity
  8
g28
 62
7
100
AcDbLine
 10
-2.856051
 20
16.423943
 30
0.0
 11
-3.170782
 21
16.472841
 31
0.0
  0
LINE
  5
1a6
100
AcDbEntity
  8
g28
 62
7
100
AcDbLine
 10
-3.170782
 20
16.472841
 30
0.0
 11
-3.495526
 21
16.581018
 31
0.0
  0
LINE
  5
1a7
100
AcDbEntity
  8
g28
 62
7
100
AcDbLine
 10
-3.495526
 20
16.581018
 30
0.0
 11
-3.516512
 21
16.672963
 31
0.0
  0
LINE
  5
1a8
100
AcDbEntity
  8
g28
 62
7
100
AcDbLine
 10
-3.516512
 20
16.672963
 30
0.0
 11
-3.270864
 21
16.911328
 31
0.0
  0
LINE
  5
1a9
100
AcDbEntity
  8
g28
 62
7
100
AcDbLine
 10
-3.270864
 20
16.911328
 30
0.0
 11
-3.008517
 21
17.091940
 31
0.0
  0
LINE
  5
1aa
100
AcDbEntity
  8
g28
 62
7
100
AcDbLine
 10
-3.008517
 20
17.091940
 30
0.0
 11
-3.025262
 21
17.240558
 31
0.0
  0
LINE
  5
1ab
100
AcDbEntity
  8
g28
 62
7
100
AcDbLine
 10
-3.025262
 20
17.240558
 30
0.0
 11
-3.321222
 21
17.358264
 31
0.0
  0
LINE
  5
1ac
100
AcDbEntity
  8
g28
 62
7
100
AcDbLine
 10
-3.321222
 20
17.358264
 30
0.0
 11
-3.613752
 21
17.535991
 31
0.0
  0
LINE
  5
1ad
100
AcDbEntity
  8
g28
 62
7
100
AcDbLine
 10
-3.613752
 20
17.535991
 30
0.0
 11
-3.613752
 21
17.630301
 31
0.0
  0
LINE
  5
1ae
100
AcDbEntity
  8
g28
 62
7
100
AcDbLine
 10
-3.613752
 20
17.630301
 30
0.0
 11
-3.321222
 21
17.808028
 31
0.0
  0
LINE
  5
1af
100
AcDbEntity
  8
g28
 62
7
100
AcDbLine
 10
-3.321222
 20
17.808028
 30
0.0
 11
-3.025262
 21
17.925734
 31
0.0
  0
LINE
  5
1b0
100
AcDbEntity
  8
g28
 62
7
100
AcDbLine
 10
-3.025262
 20
17.925734
 30
0.0
 11
-3.008517
 21
18.074352
 31
0.0
  0
LINE
  5
1b1
100
AcDbEntity
  8
g28
 62
7
100
AcDbLine
 10
-3.008517
 20
18.074352
 30
0.0
 11
-3.270864
 21
18.254964
 31
0.0
  0
LINE
  5
1b2
100
AcDbEntity
  8
g28
 62
7
100
AcDbLine
 10
-3.270864
 20
18.254964
 30
0.0
 11
-3.516512
 21
18.493329
 31
0.0
  0
LINE
  5
1b3
100
AcDbEntity
  8
g28
 62
7
100
AcDbLine
 10
-3.516512
 20
18.493329
 30
0.0
 11
-3.495526
 21
18.585274
 31
0.0
  0
LINE
  5
1b4
100
AcDbEntity
  8
g28
 62
7
100
AcDbLine
 10
-3.495526
 20
18.585274
 30
0.0
 11
-3.170782
 21
18.693451
 31
0.0
  0
LINE
  5
1b5
100
AcDbEntity
  8
g28
 62
7
100
AcDbLine
 10
-3.170782
 20
18.693451
 30
0.0
 11
-2.856051
 21
18.742349
 31
0.0
  0
LINE
  5
1b6
100
AcDbEntity
  8
g28
 62
7
100
AcDbLine
 10
-2.856051
 20
18.742349
 30
0.0
 11
-2.806655
 21
18.883515
 31
0.0
  0
LINE
  5
1b7
100
AcDbEntity
  8
g28
 62
7
100
AcDbLine
 10
-2.806655
 20
18.883515
 30
0.0
 11
-3.022235
 21
19.117976
 31
0.0
  0
LINE
  5
1b8
100
AcDbEntity
  8
g28
 62
7
100
AcDbLine
 10
-3.022235
 20
19.117976
 30
0.0
 11
-3.208682
 21
19.405027
 31
0.0
  0
LINE
  5
1b9
100
AcDbEntity
  8
g28
 62
7
100
AcDbLine
 10
-3.208682
 20
19.405027
 30
0.0
 11
-3.167763
 21
19.489997
 31
0.0
  0
LINE
  5
1ba
100
AcDbEntity
  8
g28
 62
7
100
AcDbLine
 10
-3.167763
 20
19.489997
 30
0.0
 11
-2.827090
 21
19.523200
 31
0.0
  0
LINE
  5
1bb
100
AcDbEntity
  8
g28
 62
7
100
AcDbLine
 10
-2.827090
 20
19.523200
 30
0.0
 11
-2.509368
 21
19.500837
 31
0.0
  0
LINE
  5
1bc
100
AcDbEntity
  8
g28
 62
7
100
AcDbLine
 10
-2.509368
 20
19.500837
 30
0.0
 11
-2.429798
 21
19.627472
 31
0.0
  0
LINE
  5
1bd
100
AcDbEntity
  8
g28
 62
7
100
AcDbLine
 10
-2.429798
 20
19.627472
 30
0.0
 11
-2.587801
 21
19.904026
 31
0.0
  0
LINE
  5
1be
100
AcDbEntity
  8
g28
 62
7
100
AcDbLine
 10
-2.587801
 20
19.904026
 30
0.0
 11
-2.705699
 21
20.225368
 31
0.0
  0
LINE
  5
1bf
100
AcDbEntity
  8
g28
 62
7
100
AcDbLine
 10
-2.705699
 20
20.225368
 30
0.0
 11
-2.646897
 21
20.299102
 31
0.0
  0
LINE
  5
1c0
100
AcDbEntity
  8
g28
 62
7
100
AcDbLine
 10
-2.646897
 20
20.299102
 30
0.0
 11
-2.307377
 21
20.255665
 31
0.0
  0
LINE
  5
1c1
100
AcDbEntity
  8
g28
 62
7
100
AcDbLine
 10
-2.307377
 20
20.255665
 30
0.0
 11
-2.002598
 21
20.163163
 31
0.0
  0
LINE
  5
1c2
100
AcDbEntity
  8
g28
 62
7
100
AcDbLine
 10
-2.002598
 20
20.163163
 30
0.0
 11
-1.896844
 21
20.268917
 31
0.0
  0
LINE
  5
1c3
100
AcDbEntity
  8
g28
 62
7
100
AcDbLine
 10
-1.896844
 20
20.268917
 30
0.0
 11
-1.989346
 21
20.573696
 31
0.0
  0
LINE
  5
1c4
100
AcDbEntity
  8
g28
 62
7
100
AcDbLine
 10
-1.989346
 20
20.573696
 30
0.0
 11
-2.032783
 21
20.913216
 31
0.0
  0
LINE
  5
1c5
100
AcDbEntity
  8
g28
 62
7
100
AcDbLine
 10
-2.032783
 20
20.913216
 30
0.0
 11
-1.959049
 21
20.972018
 31
0.0
  0
LINE
  5
1c6
100
AcDbEntity
  8
g28
 62
7
100
AcDbLine
 10
-1.959049
 20
20.972018
 30
0.0
 11
-1.637707
 21
20.854120
 31
0.0
  0
LINE
  5
1c7
100
AcDbEntity
  8
g28
 62
7
100
AcDbLine
 10
-1.637707
 20
20.854120
 30
0.0
 11
-1.361153
 21
20.696117
 31
0.0
  0
LINE
  5
1c8
100
AcDbEntity
  8
g28
 62
7
100
AcDbLine
 10
-1.361153
 20
20.696117
 30
0.0
 11
-1.234518
 21
20.775687
 31
0.0
  0
LINE
  5
1c9
100
AcDbEntity
  8
g28
 62
7
100
AcDbLine
 10
-1.234518
 20
20.775687
 30
0.0
 11
-1.256881
 21
21.093409
 31
0.0
  0
LINE
  5
1ca
100
AcDbEntity
  8
g28
 62
7
100
AcDbLine
 10
-1.256881
 20
21.093409
 30
0.0
 11
-1.223678
 21
21.434082
 31
0.0
  0
LINE
  5
1cb
100
AcDbEntity
  8
g28
 62
7
100
AcDbLine
 10
-1.223678
 20
21.434082
 30
0.0
 11
-1.138708
 21
21.475001
 31
0.0
  0
LINE
  5
1cc
100
AcDbEntity
  8
g28
 62
7
100
AcDbLine
 10
-1.138708
 20
21.475001
 30
0.0
 11
-0.851657
 21
21.288554
 31
0.0
  0
LINE
  5
1cd
100
AcDbEntity
  8
g28
 62
7
100
AcDbLine
 10
-0.851657
 20
21.288554
 30
0.0
 11
-0.617196
 21
21.072974
 31
0.0
  0
LINE
  5
1ce
100
AcDbEntity
  8
g28
 62
7
100
AcDbLine
 10
-0.617196
 20
21.072974
 30
0.0
 11
-0.476030
 21
21.122370
 31
0.0
  0
LINE
  5
1cf
100
AcDbEntity
  8
g28
 62
7
100
AcDbLine
 10
-0.476030
 20
21.122370
 30
0.0
 11
-0.427132
 21
21.437101
 31
0.0
  0
LINE
  5
1d0
100
AcDbEntity
  8
g28
 62
7
100
AcDbLine
 10
-0.427132
 20
21.437101
 30
0.0
 11
-0.318955
 21
21.761845
 31
0.0
  0
LINE
  5
1d1
100
AcDbEntity
  8
g28
 62
7
100
AcDbLine
 10
-0.318955
 20
21.761845
 30
0.0
 11
-0.227010
 21
21.782831
 31
0.0
  0
LINE
  5
1d2
100
AcDbEntity
  8
g28
 62
7
100
AcDbLine
 10
-0.227010
 20
21.782831
 30
0.0
 11
0.011355
 21
21.537183
 31
0.0
  0
LINE
  5
1d3
100
AcDbEntity
  8
g28
 62
7
100
AcDbLine
 10
0.011355
 20
21.537183
 30
0.0
 11
0.191967
 21
21.274836
 31
0.0
  0
LINE
  5
1d4
100
AcDbEntity
  8
g28
 62
7
100
AcDbLine
 10
0.191967
 20
21.274836
 30
0.0
 11
0.340585
 21
21.291581
 31
0.0
  0
LINE
  5
1d5
100
AcDbEntity
  8
g28
 62
7
100
AcDbLine
 10
0.340585
 20
21.291581
 30
0.0
 11
0.458291
 21
21.587541
 31
0.0
  0
LINE
  5
1d6
100
AcDbEntity
  8
g28
 62
7
100
AcDbLine
 10
0.458291
 20
21.587541
 30
0.0
 11
0.636018
 21
21.880071
 31
0.0
  0
LINE
  5
1d7
100
AcDbEntity
  8
g28
 62
7
100
AcDbLine
 10
0.636018
 20
21.880071
 30
0.0
 11
0.730328
 21
21.880071
 31
0.0
  0
LINE
  5
1d8
100
AcDbEntity
  8
g28
 62
7
100
AcDbLine
 10
0.730328
 20
21.880071
 30
0.0
 11
0.908055
 21
21.587541
 31
0.0
  0
LINE
  5
1d9
100
AcDbEntity
  8
g28
 62
7
100
AcDbLine
 10
0.908055
 20
21.587541
 30
0.0
 11
1.025761
 21
21.291581
 31
0.0
  0
LINE
  5
1da
100
AcDbEntity
  8
g28
 62
7
100
AcDbLine
 10
1.025761
 20
21.291581
 30
0.0
 11
1.174379
 21
21.274836
 31
0.0
  0
LINE
  5
1db
100
AcDbEntity
  8
g28
 62
7
100
AcDbLine
 10
1.174379
 20
21.274836
 30
0.0
 11
1.354991
 21
21.537183
 31
0.0
  0
LINE
  5
1dc
100
AcDbEntity
  8
g28
 62
7
100
AcDbLine
 10
1.354991
 20
21.537183
 30
0.0
 11
1.593356
 21
21.782831
 31
0.0
  0
LINE
  5
1dd
100
AcDbEntity
  8
g28
 62
7
100
AcDbLine
 10
1.593356
 20
21.782831
 30
0.0
 11
1.685301
 21
21.761845
 31
0.0
  0
LINE
  5
1de
100
AcDbEntity
  8
g28
 62
7
100
AcDbLine
 10
1.685301
 20
21.761845
 30
0.0
 11
1.793478
 21
21.437101
 31
0.0
  0
LINE
  5
1df
100
AcDbEntity
  8
g28
 62
7
100
AcDbLine
 10
1.793478
 20
21.437101
 30
0.0
 11
1.842376
 21
21.122370
 31
0.0
  0
LINE
  5
1e0
100
AcDbEntity
  8
g28
 62
7
100
AcDbLine
 10
1.842376
 20
21.122370
 30
0.0
 11
1.983542
 21
21.072974
 31
0.0
  0
LINE
  5
1e1
100
AcDbEntity
  8
g28
 62
7
100
AcDbLine
 10
1.983542
 20
21.072974
 30
0.0
 11
2.218003
 21
21.288554
 31
0.0
  0
LINE
  5
1e2
100
AcDbEntity
  8
g28
 62
7
100
AcDbLine
 10
2.218003
 20
21.288554
 30
0.0
 11
2.505054
 21
21.475001
 31
0.0
  0
LINE
  5
1e3
100
AcDbEntity
  8
g28
 62
7
100
AcDbLine
 10
2.505054
 20
21.475001
 30
0.0
 11
2.590024
 21
21.434082
 31
0.0
  0
LINE
  5
1e4
100
AcDbEntity
  8
g28
 62
7
100
AcDbLine
 10
2.590024
 20
21.434082
 30
0.0
 11
2.623227
 21
21.093409
 31
0.0
  0
LINE
  5
1e5
100
AcDbEntity
  8
g28
 62
7
100
AcDbLine
 10
2.623227
 20
21.093409
 30
0.0
 11
2.600864
 21
20.775687
 31
0.0
  0
LINE
  5
1e6
100
AcDbEntity
  8
g28
 62
7
100
AcDbLine
 10
2.600864
 20
20.775687
 30
0.0
 11
2.727499
 21
20.696117
 31
0.0
  0
LINE
  5
1e7
100
AcDbEntity
  8
g28
 62
7
100
AcDbLine
 10
2.727499
 20
20.696117
 30
0.0
 11
3.004053
 21
20.854120
 31
0.0
  0
LINE
  5
1e8
100
AcDbEntity
  8
g28
 62
7
100
AcDbLine
 10
3.004053
 20
20.854120
 30
0.0
 11
3.325395
 21
20.972018
 31
0.0
  0
LINE
  5
1e9
100
AcDbEntity
  8
g28
 62
7
100
AcDbLine
 10
3.325395
 20
20.972018
 30
0.0
 11
3.399129
 21
20.913216
 31
0.0
  0
LINE
  5
1ea
100
AcDbEntity
  8
g28
 62
7
100
AcDbLine
 10
3.399129
 20
20.913216
 30
0.0
 11
3.355692
 21
20.573696
 31
0.0
  0
LINE
  5
1eb
100
AcDbEntity
  8
g28
 62
7
100
AcDbLine
 10
3.355692
 20
20.573696
 30
0.0
 11
3.263190
 21
20.268917
 31
0.0
  0
LINE
  5
1ec
100
AcDbEntity
  8
g28
 62
7
100
AcDbLine
 10
3.263190
 20
20.268917
 30
0.0
 11
3.368944
 21
20.163163
 31
0.0
  0
LINE
  5
1ed
100
AcDbEntity
  8
g28
 62
7
100
AcDbLine
 10
3.368944
 20
20.163163
 30
0.0
 11
3.673723
 21
20.255665
 31
0.0
  0
LINE
  5
1ee
100
AcDbEntity
  8
g28
 62
7
100
AcDbLine
 10
3.673723
 20
20.255665
 30
0.0
 11
4.013243
 21
20.299102
 31
0.0
  0
LINE
  5
1ef
100
AcDbEntity
  8
g28
 62
7
100
AcDbLine
 10
4.013243
 20
20.299102
 30
0.0
 11
4.072045
 21
20.225368
 31
0.0
  0
LINE
  5
1f0
100
AcDbEntity
  8
g28
 62
7
100
AcDbLine
 10
4.072045
 20
20.225368
 30
0.0
 11
3.954147
 21
19.904026
 31
0.0
  0
LINE
  5
1f1
100
AcDbEntity
  8
g28
 62
7
100
AcDbLine
 10
3.954147
 20
19.904026
 30
0.0
 11
3.796144
 21
19.627472
 31
0.0
  0
LINE
  5
1f2
100
AcDbEntity
  8
g28
 62
7
100
AcDbLine
 10
3.796144
 20
19.627472
 30
0.0
 11
3.875714
 21
19.500837
 31
0.0
  0
LINE
  5
1f3
100
AcDbEntity
  8
g28
 62
7
100
AcDbLine
 10
3.875714
 20
19.500837
 30
0.0
 11
4.193436
 21
19.523200
 31
0.0
  0
LINE
  5
1f4
100
AcDbEntity
  8
g28
 62
7
100
AcDbLine
 10
4.193436
 20
19.523200
 30
0.0
 11
4.534109
 21
19.489997
 31
0.0
  0
LINE
  5
1f5
100
AcDbEntity
  8
g28
 62
7
100
AcDbLine
 10
4.534109
 20
19.489997
 30
0.0
 11
4.575028
 21
19.405027
 31
0.0
  0
LINE
  5
1f6
100
AcDbEntity
  8
g28
 62
7
100
AcDbLine
 10
4.575028
 20
19.405027
 30
0.0
 11
4.388581
 21
19.117976
 31
0.0
  0
LINE
  5
1f7
100
AcDbEntity
  8
g28
 62
7
100
AcDbLine
 10
4.388581
 20
19.117976
 30
0.0
 11
4.173001
 21
18.883515
 31
0.0
  0
LINE
  5
1f8
100
AcDbEntity
  8
g28
 62
7
100
AcDbLine
 10
4.173001
 20
18.883515
 30
0.0
 11
4.222397
 21
18.742349
 31
0.0
  0
LINE
  5
1f9
100
AcDbEntity
  8
g28
 62
7
100
AcDbLine
 10
4.222397
 20
18.742349
 30
0.0
 11
4.537128
 21
18.693451
 31
0.0
  0
LINE
  5
1fa
100
AcDbEntity
  8
g28
 62
7
100
AcDbLine
 10
4.537128
 20
18.693451
 30
0.0
 11
4.861872
 21
18.585274
 31
0.0
  0
LINE
  5
1fb
100
AcDbEntity
  8
g28
 62
7
100
AcDbLine
 10
4.861872
 20
18.585274
 30
0.0
 11
4.882858
 21
18.493329
 31
0.0
  0
LINE
  5
1fc
100
AcDbEntity
  8
g28
 62
7
100
AcDbLine
 10
4.882858
 20
18.493329
 30
0.0
 11
4.637210
 21
18.254964
 31
0.0
  0
LINE
  5
1fd
100
AcDbEntity
  8
g28
 62
7
100
AcDbLine
 10
4.637210
 20
18.254964
 30
0.0
 11
4.374863
 21
18.074352
 31
0.0
  0
LINE
  5
1fe
100
AcDbEntity
  8
g28
 62
7
100
AcDbLine
 10
4.374863
 20
18.074352
 30
0.0
 11
4.391608
 21
17.925734
 31
0.0
  0
SPLINE
  5
1ff
100
AcDbEntity
  8
g28
 62
7
100
AcDbSpline
 70
8
 71
3
 72
8
 73
4
 74
0
 40
0
 40
0
 40
0
 40
0
 40
1
 40
1
 40
1
 40
1
 10
1.108173
 20
17.583146
 30
0.0
 10
1.108173
 20
17.431308
 30
0.0
 10
1.027168
 20
17.291004
 30
0.0
 10
0.895673
 20
17.215085
 30
0.0
  0
SPLINE
  5
200
100
AcDbEntity
  8
g28
 62
7
100
AcDbSpline
 70
8
 71
3
 72
8
 73
4
 74
0
 40
0
 40
0
 40
0
 40
0
 40
1
 40
1
 40
1
 40
1
 10
0.895673
 20
17.215085
 30
0.0
 10
0.764177
 20
17.139166
 30
0.0
 10
0.602168
 20
17.139166
 30
0.0
 10
0.470673
 20
17.215085
 30
0.0
  0
SPLINE
  5
201
100
AcDbEntity
  8
g28
 62
7
100
AcDbSpline
 70
8
 71
3
 72
8
 73
4
 74
0
 40
0
 40
0
 40
0
 40
0
 40
1
 40
1
 40
1
 40
1
 10
0.470673
 20
17.215085
 30
0.0
 10
0.339177
 20
17.291004
 30
0.0
 10
0.258173
 20
17.431308
 30
0.0
 10
0.258173
 20
17.583146
 30
0.0
  0
SPLINE
  5
202
100
AcDbEntity
  8
g28
 62
7
100
AcDbSpline
 70
8
 71
3
 72
8
 73
4
 74
0
 40
0
 40
0
 40
0
 40
0
 40
1
 40
1
 40
1
 40
1
 10
0.258173
 20
17.583146
 30
0.0
 10
0.258173
 20
17.734984
 30
0.0
 10
0.339177
 20
17.875288
 30
0.0
 10
0.470673
 20
17.951207
 30
0.0
  0
SPLINE
  5
203
100
AcDbEntity
  8
g28
 62
7
100
AcDbSpline
 70
8
 71
3
 72
8
 73
4
 74
0
 40
0
 40
0
 40
0
 40
0
 40
1
 40
1
 40
1
 40
1
 10
0.470673
 20
17.951207
 30
0.0
 10
0.602168
 20
18.027126
 30
0.0
 10
0.764177
 20
18.027126
 30
0.0
 10
0.895673
 20
17.951207
 30
0.0
  0
SPLINE
  5
204
100
AcDbEntity
  8
g28
 62
7
100
AcDbSpline
 70
8
 71
3
 72
8
 73
4
 74
0
 40
0
 40
0
 40
0
 40
0
 40
1
 40
1
 40
1
 40
1
 10
0.895673
 20
17.951207
 30
0.0
 10
1.027168
 20
17.875288
 30
0.0
 10
1.108173
 20
17.734984
 30
0.0
 10
1.108173
 20
17.583146
 30
0.0
  0
LINE
  5
205
100
AcDbEntity
  8
g28
 62
7
100
AcDbLine
 10
1.108173
 20
17.583146
 30
0.0
 11
1.108173
 21
17.583146
 31
0.0
  0
ENDSEC
  0
SECTION
  2
OBJECTS
  0
DICTIONARY
  5
C
330
0
100
AcDbDictionary
  3
ACAD_GROUP
350
D
  3
ACAD_MLINESTYLE
350
17
  0
DICTIONARY
  5
D
330
C
100
AcDbDictionary
  0
DICTIONARY
  5
1A
330
C
100
AcDbDictionary
  0
DICTIONARY
  5
17
330
C
100
AcDbDictionary
  3
STANDARD
350
18
  0
DICTIONARY
  5
19
330
C
100
AcDbDictionary
  0
ENDSEC
  0
EOF
