EESchema Schematic File Version 4
EELAYER 30 0
EELAYER END
$Descr A4 11693 8268
encoding utf-8
Sheet 1 1
Title ""
Date ""
Rev ""
Comp ""
Comment1 ""
Comment2 ""
Comment3 ""
Comment4 ""
$EndDescr
$Comp
L Device:C C2
U 1 1 60DCC66D
P 2160 4790
F 0 "C2" H 2275 4837 50  0000 L CNN
F 1 "100nF" H 2275 4744 50  0000 L CNN
F 2 "Capacitor_THT:C_Disc_D3.4mm_W2.1mm_P2.50mm" H 2198 4640 50  0001 C CNN
F 3 "~" H 2160 4790 50  0001 C CNN
	1    2160 4790
	0    1    -1   0   
$EndComp
$Comp
L Connector:Conn_01x05_Female J2
U 1 1 60DCD83D
P 1410 5090
F 0 "J2" H 1660 4950 50  0000 C CNN
F 1 "Right_Motor" H 1630 5050 50  0000 C CNN
F 2 "Connector_JST:JST_EH_B5B-EH-A_1x05_P2.50mm_Vertical" H 1410 5090 50  0001 C CNN
F 3 "~" H 1410 5090 50  0001 C CNN
	1    1410 5090
	-1   0    0    1   
$EndComp
$Comp
L Regulator_Linear:L7805 U6
U 1 1 60E2CE28
P 2010 1760
F 0 "U6" V 1963 1865 50  0000 L CNN
F 1 "L7805" V 2056 1865 50  0000 L CNN
F 2 "Package_TO_SOT_THT:TO-220-3_Vertical" H 2035 1610 50  0001 L CIN
F 3 "http://www.st.com/content/ccc/resource/technical/document/datasheet/41/4f/b3/b0/12/d4/47/88/CD00000444.pdf/files/CD00000444.pdf/jcr:content/translations/en.CD00000444.pdf" H 2010 1710 50  0001 C CNN
	1    2010 1760
	0    1    1    0   
$EndComp
$Comp
L Device:C C6
U 1 1 60E2D0C6
P 2010 2210
F 0 "C6" H 2125 2257 50  0000 L CNN
F 1 "100nF" H 2125 2164 50  0000 L CNN
F 2 "Capacitor_THT:C_Disc_D3.4mm_W2.1mm_P2.50mm" H 2048 2060 50  0001 C CNN
F 3 "~" H 2010 2210 50  0001 C CNN
	1    2010 2210
	1    0    0    -1  
$EndComp
$Comp
L Device:C C5
U 1 1 60E2D0D0
P 2010 1310
F 0 "C5" H 2125 1357 50  0000 L CNN
F 1 "330nF" H 2125 1264 50  0000 L CNN
F 2 "Capacitor_THT:C_Rect_L7.2mm_W4.5mm_P5.00mm_FKS2_FKP2_MKS2_MKP2" H 2048 1160 50  0001 C CNN
F 3 "~" H 2010 1310 50  0001 C CNN
	1    2010 1310
	1    0    0    -1  
$EndComp
Wire Wire Line
	2010 1460 2660 1460
Text Label 2010 2060 0    50   ~ 0
+5v_Robot
$Comp
L power:PWR_FLAG #FLG0103
U 1 1 60DEF9C9
P 2660 1560
F 0 "#FLG0103" H 2660 1635 50  0001 C CNN
F 1 "PWR_FLAG" H 2660 1736 50  0000 C CNN
F 2 "" H 2660 1560 50  0001 C CNN
F 3 "~" H 2660 1560 50  0001 C CNN
	1    2660 1560
	-1   0    0    1   
$EndComp
Connection ~ 2660 1460
$Comp
L power:PWR_FLAG #FLG0104
U 1 1 60DECC2E
P 2660 1460
F 0 "#FLG0104" H 2660 1535 50  0001 C CNN
F 1 "PWR_FLAG" H 2660 1636 50  0000 C CNN
F 2 "" H 2660 1460 50  0001 C CNN
F 3 "~" H 2660 1460 50  0001 C CNN
	1    2660 1460
	1    0    0    -1  
$EndComp
$Comp
L Connector:Conn_01x02_Female J4
U 1 1 60DD8C5D
P 2860 1460
F 0 "J4" H 2888 1436 50  0000 L CNN
F 1 "Conn_01x02_Female" H 2888 1343 50  0000 L CNN
F 2 "misc:WireHoles_1x02_P5.08mm_big_pads" H 2860 1460 50  0001 C CNN
F 3 "~" H 2860 1460 50  0001 C CNN
	1    2860 1460
	1    0    0    -1  
$EndComp
$Comp
L power:+7.5V #PWR0102
U 1 1 60DD65B9
P 2660 1460
F 0 "#PWR0102" H 2660 1310 50  0001 C CNN
F 1 "+7.5V" V 2675 1590 50  0000 L CNN
F 2 "" H 2660 1460 50  0001 C CNN
F 3 "" H 2660 1460 50  0001 C CNN
	1    2660 1460
	0    -1   -1   0   
$EndComp
$Comp
L power:GND2 #PWR0113
U 1 1 60F43529
P 2660 1560
F 0 "#PWR0113" H 2660 1310 50  0001 C CNN
F 1 "GND2" V 2665 1430 50  0000 R CNN
F 2 "" H 2660 1560 50  0001 C CNN
F 3 "" H 2660 1560 50  0001 C CNN
	1    2660 1560
	0    1    1    0   
$EndComp
Connection ~ 2660 1560
$Comp
L power:GND2 #PWR0114
U 1 1 60F43EF1
P 2010 1160
F 0 "#PWR0114" H 2010 910 50  0001 C CNN
F 1 "GND2" V 2015 1030 50  0001 R CNN
F 2 "" H 2010 1160 50  0001 C CNN
F 3 "" H 2010 1160 50  0001 C CNN
	1    2010 1160
	0    1    1    0   
$EndComp
$Comp
L power:GND2 #PWR0115
U 1 1 60F4449C
P 1710 1760
F 0 "#PWR0115" H 1710 1510 50  0001 C CNN
F 1 "GND2" V 1715 1630 50  0001 R CNN
F 2 "" H 1710 1760 50  0001 C CNN
F 3 "" H 1710 1760 50  0001 C CNN
	1    1710 1760
	0    1    1    0   
$EndComp
$Comp
L power:GND2 #PWR0116
U 1 1 60F4487A
P 2010 2360
F 0 "#PWR0116" H 2010 2110 50  0001 C CNN
F 1 "GND2" V 2015 2230 50  0001 R CNN
F 2 "" H 2010 2360 50  0001 C CNN
F 3 "" H 2010 2360 50  0001 C CNN
	1    2010 2360
	0    1    1    0   
$EndComp
Text Label 3470 4440 2    50   ~ 0
+5v_Robot
$Comp
L power:GND2 #PWR0118
U 1 1 60F493FC
P 5070 3240
F 0 "#PWR0118" H 5070 2990 50  0001 C CNN
F 1 "GND2" V 5075 3110 50  0001 R CNN
F 2 "" H 5070 3240 50  0001 C CNN
F 3 "" H 5070 3240 50  0001 C CNN
	1    5070 3240
	0    -1   -1   0   
$EndComp
Text Label 1610 4890 1    50   ~ 0
+5v_Robot
$Comp
L Connector:Conn_01x05_Female J1
U 1 1 60FA5680
P 1410 5590
F 0 "J1" H 1600 5530 50  0000 C CNN
F 1 "Left_Motor" H 1610 5640 50  0000 C CNN
F 2 "Connector_JST:JST_EH_B5B-EH-A_1x05_P2.50mm_Vertical" H 1410 5590 50  0001 C CNN
F 3 "~" H 1410 5590 50  0001 C CNN
	1    1410 5590
	-1   0    0    -1  
$EndComp
NoConn ~ 3470 2640
NoConn ~ 3470 2740
NoConn ~ 3470 2840
NoConn ~ 3470 2940
NoConn ~ 3470 3040
NoConn ~ 3470 3140
NoConn ~ 3470 4140
NoConn ~ 3470 4240
NoConn ~ 3470 4340
NoConn ~ 5070 4440
NoConn ~ 5070 4340
NoConn ~ 5070 4240
NoConn ~ 5070 3040
NoConn ~ 5070 2940
$Comp
L power:GND2 #PWR0122
U 1 1 61000D73
P 2010 4790
F 0 "#PWR0122" H 2010 4540 50  0001 C CNN
F 1 "GND2" V 2015 4660 50  0001 R CNN
F 2 "" H 2010 4790 50  0001 C CNN
F 3 "" H 2010 4790 50  0001 C CNN
	1    2010 4790
	-1   0    0    1   
$EndComp
Text Label 2410 5390 0    50   ~ 0
lm_1
Text Label 2410 5490 0    50   ~ 0
lm_2
Text Label 2410 5590 0    50   ~ 0
lm_3
Text Label 2410 5690 0    50   ~ 0
lm_4
Text Label 2410 4990 0    50   ~ 0
rm_4
Text Label 2410 5090 0    50   ~ 0
rm_3
Text Label 2410 5290 0    50   ~ 0
rm_1
Text Label 2410 5190 0    50   ~ 0
rm_2
$Comp
L ESP32-DEVKITC-32D:ESP32-DEVKITC-32D U3
U 1 1 60DD2EBC
P 4270 3540
F 0 "U3" H 4270 4710 50  0000 C CNN
F 1 "ESP32-Robot" H 4270 4617 50  0000 C CNN
F 2 "misc:MODULE_ESP32-DEVKITC-32D_big_pads" H 4270 3540 50  0001 L BNN
F 3 "" H 4270 3540 50  0001 L BNN
F 4 "4" H 4270 3540 50  0001 L BNN "PARTREV"
F 5 "Espressif Systems" H 4270 3540 50  0001 L BNN "MANUFACTURER"
	1    4270 3540
	1    0    0    -1  
$EndComp
Text Label 3470 3240 2    50   ~ 0
rm_4
Text Label 3470 3340 2    50   ~ 0
rm_3
Text Label 3470 3540 2    50   ~ 0
rm_1
Text Label 3470 3440 2    50   ~ 0
rm_2
Text Label 3470 3640 2    50   ~ 0
lm_1
Text Label 3470 3740 2    50   ~ 0
lm_2
Text Label 3470 3840 2    50   ~ 0
lm_3
Text Label 3470 4040 2    50   ~ 0
lm_4
$Comp
L power:GND2 #PWR01
U 1 1 60E99162
P 3470 3940
F 0 "#PWR01" H 3470 3690 50  0001 C CNN
F 1 "GND2" V 3475 3810 50  0001 R CNN
F 2 "" H 3470 3940 50  0001 C CNN
F 3 "" H 3470 3940 50  0001 C CNN
	1    3470 3940
	0    1    1    0   
$EndComp
NoConn ~ 5070 3140
NoConn ~ 5070 3340
NoConn ~ 5070 3640
NoConn ~ 5070 3740
NoConn ~ 5070 3840
NoConn ~ 5070 3940
$Comp
L Transistor_Array:ULN2803A U1
U 1 1 60E066B5
P 2010 5490
F 0 "U1" H 2010 6060 50  0000 C CNN
F 1 "ULN2803A" H 2010 5967 50  0000 C CNN
F 2 "misc:DIP-18_W7.62mm_big_pads" H 2060 4840 50  0001 L CNN
F 3 "http://www.ti.com/lit/ds/symlink/uln2803a.pdf" H 2110 5290 50  0001 C CNN
	1    2010 5490
	-1   0    0    1   
$EndComp
Connection ~ 2010 4790
Text Label 2310 4790 0    50   ~ 0
+5v_Robot
Text Label 1610 5790 3    50   ~ 0
+5v_Robot
$Comp
L Mechanical:MountingHole H1
U 1 1 60E2E93A
P 4000 6250
F 0 "H1" H 4100 6297 50  0000 L CNN
F 1 "MountingHole" H 4100 6204 50  0000 L CNN
F 2 "MountingHole:MountingHole_2.7mm_M2.5_DIN965" H 4000 6250 50  0001 C CNN
F 3 "~" H 4000 6250 50  0001 C CNN
	1    4000 6250
	1    0    0    -1  
$EndComp
$Comp
L Mechanical:MountingHole H2
U 1 1 60E2ED83
P 4000 6460
F 0 "H2" H 4100 6507 50  0000 L CNN
F 1 "MountingHole" H 4100 6414 50  0000 L CNN
F 2 "MountingHole:MountingHole_2.7mm_M2.5_DIN965" H 4000 6460 50  0001 C CNN
F 3 "~" H 4000 6460 50  0001 C CNN
	1    4000 6460
	1    0    0    -1  
$EndComp
$Comp
L power:GND2 #PWR0101
U 1 1 60F36BD0
P 5070 2640
F 0 "#PWR0101" H 5070 2390 50  0001 C CNN
F 1 "GND2" V 5075 2510 50  0001 R CNN
F 2 "" H 5070 2640 50  0001 C CNN
F 3 "" H 5070 2640 50  0001 C CNN
	1    5070 2640
	0    -1   -1   0   
$EndComp
NoConn ~ 5070 2840
NoConn ~ 5070 4040
NoConn ~ 5070 4140
Text Label 5070 2740 0    50   ~ 0
MOSI
Text Label 5070 3440 0    50   ~ 0
CLCK
Text Label 5070 3540 0    50   ~ 0
SS
Connection ~ 2010 1460
Text Label 7160 1000 2    50   ~ 0
+5v_Robot
$Comp
L Device:C C3
U 1 1 60F880A2
P 7310 1000
F 0 "C3" H 7425 1047 50  0000 L CNN
F 1 "100nF" H 7425 954 50  0000 L CNN
F 2 "Capacitor_THT:C_Disc_D3.4mm_W2.1mm_P2.50mm" H 7348 850 50  0001 C CNN
F 3 "~" H 7310 1000 50  0001 C CNN
	1    7310 1000
	0    1    -1   0   
$EndComp
$Comp
L power:GND2 #PWR0105
U 1 1 60F892B4
P 7460 1000
F 0 "#PWR0105" H 7460 750 50  0001 C CNN
F 1 "GND2" V 7465 870 50  0001 R CNN
F 2 "" H 7460 1000 50  0001 C CNN
F 3 "" H 7460 1000 50  0001 C CNN
	1    7460 1000
	-1   0    0    1   
$EndComp
Text Label 6760 1200 2    50   ~ 0
MOSI
$Comp
L power:GND2 #PWR0107
U 1 1 60F9511D
P 6760 1800
F 0 "#PWR0107" H 6760 1550 50  0001 C CNN
F 1 "GND2" V 6765 1670 50  0001 R CNN
F 2 "" H 6760 1800 50  0001 C CNN
F 3 "" H 6760 1800 50  0001 C CNN
	1    6760 1800
	0    1    1    0   
$EndComp
Text Label 6760 1400 2    50   ~ 0
CLCK
Text Label 6760 1700 2    50   ~ 0
SS
Text Label 6760 1500 2    50   ~ 0
+5v_Robot
$Comp
L power:GND2 #PWR0109
U 1 1 60FB281C
P 8330 680
F 0 "#PWR0109" H 8330 430 50  0001 C CNN
F 1 "GND2" V 8335 550 50  0001 R CNN
F 2 "" H 8330 680 50  0001 C CNN
F 3 "" H 8330 680 50  0001 C CNN
	1    8330 680 
	0    -1   -1   0   
$EndComp
$Comp
L Device:LED_BGCR D2
U 1 1 610218C8
P 8030 880
F 0 "D2" H 8030 410 50  0000 C CNN
F 1 "LED_BGCR" H 8030 503 50  0000 C CNN
F 2 "misc:LED_D5.0mm-4_RGB_P2.54_Wide_Pins" H 8030 830 50  0001 C CNN
F 3 "~" H 8030 830 50  0001 C CNN
	1    8030 880 
	0    1    1    0   
$EndComp
$Comp
L Device:LED_BGCR D4
U 1 1 6105C93F
P 8610 1190
F 0 "D4" H 8610 720 50  0000 C CNN
F 1 "LED_BGCR" H 8610 813 50  0000 C CNN
F 2 "misc:LED_D5.0mm-4_RGB_P2.54_Wide_Pins" H 8610 1140 50  0001 C CNN
F 3 "~" H 8610 1140 50  0001 C CNN
	1    8610 1190
	0    1    1    0   
$EndComp
$Comp
L Device:LED_BGCR D6
U 1 1 61060E72
P 9170 1680
F 0 "D6" H 9170 1210 50  0000 C CNN
F 1 "LED_BGCR" H 9170 1303 50  0000 C CNN
F 2 "misc:LED_D5.0mm-4_RGB_P2.54_Wide_Pins" H 9170 1630 50  0001 C CNN
F 3 "~" H 9170 1630 50  0001 C CNN
	1    9170 1680
	0    1    1    0   
$EndComp
$Comp
L Device:LED_BGCR D8
U 1 1 610657A3
P 9730 2080
F 0 "D8" H 9730 1610 50  0000 C CNN
F 1 "LED_BGCR" H 9730 1703 50  0000 C CNN
F 2 "misc:LED_D5.0mm-4_RGB_P2.54_Wide_Pins" H 9730 2030 50  0001 C CNN
F 3 "~" H 9730 2030 50  0001 C CNN
	1    9730 2080
	0    1    1    0   
$EndComp
$Comp
L Device:LED_BGCR D10
U 1 1 61069E22
P 10320 2400
F 0 "D10" H 10320 1930 50  0000 C CNN
F 1 "LED_BGCR" H 10320 2023 50  0000 C CNN
F 2 "misc:LED_D5.0mm-4_RGB_P2.54_Wide_Pins" H 10320 2350 50  0001 C CNN
F 3 "~" H 10320 2350 50  0001 C CNN
	1    10320 2400
	0    1    1    0   
$EndComp
$Comp
L 74xx:74HC595 U4
U 1 1 60E9ABD7
P 7160 1600
F 0 "U4" H 7160 2386 50  0000 C CNN
F 1 "74HC595" H 7160 2293 50  0000 C CNN
F 2 "Package_DIP:DIP-16_W7.62mm_LongPads" H 7160 1600 50  0001 C CNN
F 3 "http://www.ti.com/lit/ds/symlink/sn74hc595.pdf" H 7160 1600 50  0001 C CNN
	1    7160 1600
	1    0    0    -1  
$EndComp
$Comp
L power:GND2 #PWR04
U 1 1 61161FAC
P 7160 2300
F 0 "#PWR04" H 7160 2050 50  0001 C CNN
F 1 "GND2" V 7165 2170 50  0001 R CNN
F 2 "" H 7160 2300 50  0001 C CNN
F 3 "" H 7160 2300 50  0001 C CNN
	1    7160 2300
	1    0    0    -1  
$EndComp
Wire Wire Line
	7560 1200 7830 1200
Wire Wire Line
	7830 1200 7830 1080
Wire Wire Line
	8030 1080 8030 1300
Wire Wire Line
	8030 1300 7560 1300
Wire Wire Line
	7560 1400 8230 1400
Wire Wire Line
	8230 1400 8230 1080
Wire Wire Line
	7560 1500 8410 1500
Wire Wire Line
	8410 1500 8410 1390
Wire Wire Line
	7560 1600 8610 1600
Wire Wire Line
	8610 1600 8610 1390
Wire Wire Line
	9370 2280 9370 1880
Wire Wire Line
	9530 2380 9530 2280
Wire Wire Line
	9730 2480 9730 2280
Wire Wire Line
	9930 2580 9930 2280
Wire Wire Line
	10120 2680 10120 2600
Wire Wire Line
	10320 2780 10320 2600
Wire Wire Line
	10520 2880 10520 2600
Text Label 7560 2100 0    50   ~ 0
D1
Text Label 8680 3080 0    50   ~ 0
D2
Text Label 7880 2180 2    50   ~ 0
D1
$Comp
L 74xx:74HC595 U7
U 1 1 611E2E29
P 8280 2580
F 0 "U7" H 8280 3366 50  0000 C CNN
F 1 "74HC595" H 8280 3273 50  0000 C CNN
F 2 "Package_DIP:DIP-16_W7.62mm_LongPads" H 8280 2580 50  0001 C CNN
F 3 "http://www.ti.com/lit/ds/symlink/sn74hc595.pdf" H 8280 2580 50  0001 C CNN
	1    8280 2580
	1    0    0    -1  
$EndComp
$Comp
L power:GND2 #PWR012
U 1 1 61212984
P 8280 3280
F 0 "#PWR012" H 8280 3030 50  0001 C CNN
F 1 "GND2" V 8285 3150 50  0001 R CNN
F 2 "" H 8280 3280 50  0001 C CNN
F 3 "" H 8280 3280 50  0001 C CNN
	1    8280 3280
	1    0    0    -1  
$EndComp
Text Label 7880 2480 2    50   ~ 0
+5v_Robot
Text Label 7880 2680 2    50   ~ 0
SS
Text Label 7880 2380 2    50   ~ 0
CLCK
$Comp
L power:GND2 #PWR09
U 1 1 61211916
P 7880 2780
F 0 "#PWR09" H 7880 2530 50  0001 C CNN
F 1 "GND2" V 7885 2650 50  0001 R CNN
F 2 "" H 7880 2780 50  0001 C CNN
F 3 "" H 7880 2780 50  0001 C CNN
	1    7880 2780
	0    1    1    0   
$EndComp
Text Label 8280 1980 0    50   ~ 0
+5v_Robot
$Comp
L power:GND2 #PWR010
U 1 1 611F7DE6
P 7980 1980
F 0 "#PWR010" H 7980 1730 50  0001 C CNN
F 1 "GND2" V 7985 1850 50  0001 R CNN
F 2 "" H 7980 1980 50  0001 C CNN
F 3 "" H 7980 1980 50  0001 C CNN
	1    7980 1980
	0    1    1    0   
$EndComp
$Comp
L Device:C C7
U 1 1 611F64EC
P 8130 1980
F 0 "C7" H 8245 2027 50  0000 L CNN
F 1 "100nF" H 8245 1934 50  0000 L CNN
F 2 "Capacitor_THT:C_Disc_D3.4mm_W2.1mm_P2.50mm" H 8168 1830 50  0001 C CNN
F 3 "~" H 8130 1980 50  0001 C CNN
	1    8130 1980
	0    1    -1   0   
$EndComp
NoConn ~ 8680 2180
Wire Wire Line
	7560 1700 8810 1700
Wire Wire Line
	8810 1700 8810 1390
Wire Wire Line
	7560 1800 8840 1800
Wire Wire Line
	8840 1800 8840 1880
Wire Wire Line
	8840 1880 8970 1880
Wire Wire Line
	7560 1900 9170 1900
Wire Wire Line
	9170 1880 9170 1900
Wire Wire Line
	8680 2280 9370 2280
Wire Wire Line
	8680 2380 9530 2380
Wire Wire Line
	8680 2480 9730 2480
Wire Wire Line
	8680 2580 9930 2580
Wire Wire Line
	8680 2680 10120 2680
Wire Wire Line
	8680 2780 10320 2780
Wire Wire Line
	8680 2880 10520 2880
Text Label 7060 3900 2    50   ~ 0
+5v_Robot
$Comp
L Device:C C1
U 1 1 60F81AF9
P 7210 3900
F 0 "C1" H 7325 3947 50  0000 L CNN
F 1 "100nF" H 7325 3854 50  0000 L CNN
F 2 "Capacitor_THT:C_Disc_D3.4mm_W2.1mm_P2.50mm" H 7248 3750 50  0001 C CNN
F 3 "~" H 7210 3900 50  0001 C CNN
	1    7210 3900
	0    1    -1   0   
$EndComp
$Comp
L power:GND2 #PWR05
U 1 1 60F81AFF
P 7360 3900
F 0 "#PWR05" H 7360 3650 50  0001 C CNN
F 1 "GND2" V 7365 3770 50  0001 R CNN
F 2 "" H 7360 3900 50  0001 C CNN
F 3 "" H 7360 3900 50  0001 C CNN
	1    7360 3900
	-1   0    0    1   
$EndComp
$Comp
L power:GND2 #PWR02
U 1 1 60F81B06
P 6660 4700
F 0 "#PWR02" H 6660 4450 50  0001 C CNN
F 1 "GND2" V 6665 4570 50  0001 R CNN
F 2 "" H 6660 4700 50  0001 C CNN
F 3 "" H 6660 4700 50  0001 C CNN
	1    6660 4700
	0    1    1    0   
$EndComp
Text Label 6660 4300 2    50   ~ 0
CLCK
Text Label 6660 4600 2    50   ~ 0
SS
Text Label 6660 4400 2    50   ~ 0
+5v_Robot
$Comp
L Device:LED_BGCR D1
U 1 1 60F81B15
P 7930 3780
F 0 "D1" H 7930 3310 50  0000 C CNN
F 1 "LED_BGCR" H 7930 3403 50  0000 C CNN
F 2 "misc:LED_D5.0mm-4_RGB_P2.54_Wide_Pins" H 7930 3730 50  0001 C CNN
F 3 "~" H 7930 3730 50  0001 C CNN
	1    7930 3780
	0    1    1    0   
$EndComp
$Comp
L Device:LED_BGCR D3
U 1 1 60F81B21
P 8510 4090
F 0 "D3" H 8510 3620 50  0000 C CNN
F 1 "LED_BGCR" H 8510 3713 50  0000 C CNN
F 2 "misc:LED_D5.0mm-4_RGB_P2.54_Wide_Pins" H 8510 4040 50  0001 C CNN
F 3 "~" H 8510 4040 50  0001 C CNN
	1    8510 4090
	0    1    1    0   
$EndComp
$Comp
L Device:LED_BGCR D5
U 1 1 60F81B2D
P 9070 4580
F 0 "D5" H 9070 4110 50  0000 C CNN
F 1 "LED_BGCR" H 9070 4203 50  0000 C CNN
F 2 "misc:LED_D5.0mm-4_RGB_P2.54_Wide_Pins" H 9070 4530 50  0001 C CNN
F 3 "~" H 9070 4530 50  0001 C CNN
	1    9070 4580
	0    1    1    0   
$EndComp
$Comp
L Device:LED_BGCR D7
U 1 1 60F81B39
P 9630 4980
F 0 "D7" H 9630 4510 50  0000 C CNN
F 1 "LED_BGCR" H 9630 4603 50  0000 C CNN
F 2 "misc:LED_D5.0mm-4_RGB_P2.54_Wide_Pins" H 9630 4930 50  0001 C CNN
F 3 "~" H 9630 4930 50  0001 C CNN
	1    9630 4980
	0    1    1    0   
$EndComp
$Comp
L Device:LED_BGCR D9
U 1 1 60F81B45
P 10220 5300
F 0 "D9" H 10220 4830 50  0000 C CNN
F 1 "LED_BGCR" H 10220 4923 50  0000 C CNN
F 2 "misc:LED_D5.0mm-4_RGB_P2.54_Wide_Pins" H 10220 5250 50  0001 C CNN
F 3 "~" H 10220 5250 50  0001 C CNN
	1    10220 5300
	0    1    1    0   
$EndComp
$Comp
L 74xx:74HC595 U2
U 1 1 60F81B4B
P 7060 4500
F 0 "U2" H 7060 5286 50  0000 C CNN
F 1 "74HC595" H 7060 5193 50  0000 C CNN
F 2 "Package_DIP:DIP-16_W7.62mm_LongPads" H 7060 4500 50  0001 C CNN
F 3 "http://www.ti.com/lit/ds/symlink/sn74hc595.pdf" H 7060 4500 50  0001 C CNN
	1    7060 4500
	1    0    0    -1  
$EndComp
$Comp
L power:GND2 #PWR03
U 1 1 60F81B51
P 7060 5200
F 0 "#PWR03" H 7060 4950 50  0001 C CNN
F 1 "GND2" V 7065 5070 50  0001 R CNN
F 2 "" H 7060 5200 50  0001 C CNN
F 3 "" H 7060 5200 50  0001 C CNN
	1    7060 5200
	1    0    0    -1  
$EndComp
Wire Wire Line
	7460 4100 7730 4100
Wire Wire Line
	7730 4100 7730 3980
Wire Wire Line
	7930 3980 7930 4200
Wire Wire Line
	7930 4200 7460 4200
Wire Wire Line
	7460 4300 8130 4300
Wire Wire Line
	8130 4300 8130 3980
Wire Wire Line
	7460 4400 8310 4400
Wire Wire Line
	8310 4400 8310 4290
Wire Wire Line
	7460 4500 8510 4500
Wire Wire Line
	8510 4500 8510 4290
Wire Wire Line
	9270 5180 9270 4780
Wire Wire Line
	9430 5280 9430 5180
Wire Wire Line
	9630 5380 9630 5180
Wire Wire Line
	9830 5480 9830 5180
Wire Wire Line
	10020 5580 10020 5500
Wire Wire Line
	10220 5680 10220 5500
Wire Wire Line
	10420 5780 10420 5500
$Comp
L 74xx:74HC595 U5
U 1 1 60F81B6B
P 8180 5480
F 0 "U5" H 8180 6266 50  0000 C CNN
F 1 "74HC595" H 8180 6173 50  0000 C CNN
F 2 "Package_DIP:DIP-16_W7.62mm_LongPads" H 8180 5480 50  0001 C CNN
F 3 "http://www.ti.com/lit/ds/symlink/sn74hc595.pdf" H 8180 5480 50  0001 C CNN
	1    8180 5480
	1    0    0    -1  
$EndComp
$Comp
L power:GND2 #PWR011
U 1 1 60F81B71
P 8180 6180
F 0 "#PWR011" H 8180 5930 50  0001 C CNN
F 1 "GND2" V 8185 6050 50  0001 R CNN
F 2 "" H 8180 6180 50  0001 C CNN
F 3 "" H 8180 6180 50  0001 C CNN
	1    8180 6180
	1    0    0    -1  
$EndComp
Text Label 7780 5380 2    50   ~ 0
+5v_Robot
Text Label 7780 5580 2    50   ~ 0
SS
Text Label 7780 5280 2    50   ~ 0
CLCK
$Comp
L power:GND2 #PWR06
U 1 1 60F81B7A
P 7780 5680
F 0 "#PWR06" H 7780 5430 50  0001 C CNN
F 1 "GND2" V 7785 5550 50  0001 R CNN
F 2 "" H 7780 5680 50  0001 C CNN
F 3 "" H 7780 5680 50  0001 C CNN
	1    7780 5680
	0    1    1    0   
$EndComp
Text Label 8180 4880 0    50   ~ 0
+5v_Robot
$Comp
L power:GND2 #PWR07
U 1 1 60F81B81
P 7880 4880
F 0 "#PWR07" H 7880 4630 50  0001 C CNN
F 1 "GND2" V 7885 4750 50  0001 R CNN
F 2 "" H 7880 4880 50  0001 C CNN
F 3 "" H 7880 4880 50  0001 C CNN
	1    7880 4880
	-1   0    0    1   
$EndComp
$Comp
L Device:C C4
U 1 1 60F81B87
P 8030 4880
F 0 "C4" H 8145 4927 50  0000 L CNN
F 1 "100nF" H 8145 4834 50  0000 L CNN
F 2 "Capacitor_THT:C_Disc_D3.4mm_W2.1mm_P2.50mm" H 8068 4730 50  0001 C CNN
F 3 "~" H 8030 4880 50  0001 C CNN
	1    8030 4880
	0    1    -1   0   
$EndComp
NoConn ~ 8580 5080
Wire Wire Line
	7460 4600 8710 4600
Wire Wire Line
	8710 4600 8710 4290
Wire Wire Line
	7460 4700 8740 4700
Wire Wire Line
	8740 4700 8740 4780
Wire Wire Line
	8740 4780 8870 4780
Wire Wire Line
	7460 4800 9070 4800
Wire Wire Line
	9070 4780 9070 4800
Wire Wire Line
	8580 5180 9270 5180
Wire Wire Line
	8580 5280 9430 5280
Wire Wire Line
	8580 5380 9630 5380
Wire Wire Line
	8580 5480 9830 5480
Wire Wire Line
	8580 5580 10020 5580
Wire Wire Line
	8580 5680 10220 5680
Wire Wire Line
	8580 5780 10420 5780
Text Label 6660 4100 2    50   ~ 0
D2
Text Label 7460 5000 0    50   ~ 0
D3
Text Label 7780 5080 2    50   ~ 0
D3
NoConn ~ 8580 5980
$Comp
L Device:R R2
U 1 1 60E8E60B
P 8180 680
F 0 "R2" V 7970 680 50  0000 C CNN
F 1 "1K" V 8063 680 50  0000 C CNN
F 2 "misc:Resistor_Horizontal_RM7mm_Big_Pads" V 8110 680 50  0001 C CNN
F 3 "~" H 8180 680 50  0001 C CNN
	1    8180 680 
	0    1    1    0   
$EndComp
$Comp
L power:GND2 #PWR018
U 1 1 60EA86DF
P 10030 1880
F 0 "#PWR018" H 10030 1630 50  0001 C CNN
F 1 "GND2" V 10035 1750 50  0001 R CNN
F 2 "" H 10030 1880 50  0001 C CNN
F 3 "" H 10030 1880 50  0001 C CNN
	1    10030 1880
	0    -1   -1   0   
$EndComp
$Comp
L Device:R R8
U 1 1 60EA89BD
P 9880 1880
F 0 "R8" V 9670 1880 50  0000 C CNN
F 1 "1K" V 9763 1880 50  0000 C CNN
F 2 "misc:Resistor_Horizontal_RM7mm_Big_Pads" V 9810 1880 50  0001 C CNN
F 3 "~" H 9880 1880 50  0001 C CNN
	1    9880 1880
	0    1    1    0   
$EndComp
$Comp
L power:GND2 #PWR08
U 1 1 60EBDC35
P 8230 3580
F 0 "#PWR08" H 8230 3330 50  0001 C CNN
F 1 "GND2" V 8235 3450 50  0001 R CNN
F 2 "" H 8230 3580 50  0001 C CNN
F 3 "" H 8230 3580 50  0001 C CNN
	1    8230 3580
	0    -1   -1   0   
$EndComp
$Comp
L Device:R R1
U 1 1 60EBDC3B
P 8080 3580
F 0 "R1" V 7870 3580 50  0000 C CNN
F 1 "1K" V 7963 3580 50  0000 C CNN
F 2 "misc:Resistor_Horizontal_RM7mm_Big_Pads" V 8010 3580 50  0001 C CNN
F 3 "~" H 8080 3580 50  0001 C CNN
	1    8080 3580
	0    1    1    0   
$EndComp
$Comp
L power:GND2 #PWR013
U 1 1 60EBDC41
P 8810 3890
F 0 "#PWR013" H 8810 3640 50  0001 C CNN
F 1 "GND2" V 8815 3760 50  0001 R CNN
F 2 "" H 8810 3890 50  0001 C CNN
F 3 "" H 8810 3890 50  0001 C CNN
	1    8810 3890
	0    -1   -1   0   
$EndComp
$Comp
L Device:R R3
U 1 1 60EBDC47
P 8660 3890
F 0 "R3" V 8450 3890 50  0000 C CNN
F 1 "1K" V 8543 3890 50  0000 C CNN
F 2 "misc:Resistor_Horizontal_RM7mm_Big_Pads" V 8590 3890 50  0001 C CNN
F 3 "~" H 8660 3890 50  0001 C CNN
	1    8660 3890
	0    1    1    0   
$EndComp
$Comp
L power:GND2 #PWR014
U 1 1 60EC37A6
P 8910 990
F 0 "#PWR014" H 8910 740 50  0001 C CNN
F 1 "GND2" V 8915 860 50  0001 R CNN
F 2 "" H 8910 990 50  0001 C CNN
F 3 "" H 8910 990 50  0001 C CNN
	1    8910 990 
	0    -1   -1   0   
$EndComp
$Comp
L Device:R R4
U 1 1 60EC37AC
P 8760 990
F 0 "R4" V 8550 990 50  0000 C CNN
F 1 "1K" V 8643 990 50  0000 C CNN
F 2 "misc:Resistor_Horizontal_RM7mm_Big_Pads" V 8690 990 50  0001 C CNN
F 3 "~" H 8760 990 50  0001 C CNN
	1    8760 990 
	0    1    1    0   
$EndComp
$Comp
L power:GND2 #PWR016
U 1 1 60EC37B2
P 9470 1480
F 0 "#PWR016" H 9470 1230 50  0001 C CNN
F 1 "GND2" V 9475 1350 50  0001 R CNN
F 2 "" H 9470 1480 50  0001 C CNN
F 3 "" H 9470 1480 50  0001 C CNN
	1    9470 1480
	0    -1   -1   0   
$EndComp
$Comp
L Device:R R6
U 1 1 60EC37B8
P 9320 1480
F 0 "R6" V 9110 1480 50  0000 C CNN
F 1 "1K" V 9203 1480 50  0000 C CNN
F 2 "misc:Resistor_Horizontal_RM7mm_Big_Pads" V 9250 1480 50  0001 C CNN
F 3 "~" H 9320 1480 50  0001 C CNN
	1    9320 1480
	0    1    1    0   
$EndComp
$Comp
L power:GND2 #PWR020
U 1 1 60EC37BE
P 10620 2200
F 0 "#PWR020" H 10620 1950 50  0001 C CNN
F 1 "GND2" V 10625 2070 50  0001 R CNN
F 2 "" H 10620 2200 50  0001 C CNN
F 3 "" H 10620 2200 50  0001 C CNN
	1    10620 2200
	0    -1   -1   0   
$EndComp
$Comp
L Device:R R10
U 1 1 60EC37C4
P 10470 2200
F 0 "R10" V 10260 2200 50  0000 C CNN
F 1 "1K" V 10353 2200 50  0000 C CNN
F 2 "misc:Resistor_Horizontal_RM7mm_Big_Pads" V 10400 2200 50  0001 C CNN
F 3 "~" H 10470 2200 50  0001 C CNN
	1    10470 2200
	0    1    1    0   
$EndComp
$Comp
L power:GND2 #PWR017
U 1 1 60EC37CA
P 9930 4780
F 0 "#PWR017" H 9930 4530 50  0001 C CNN
F 1 "GND2" V 9935 4650 50  0001 R CNN
F 2 "" H 9930 4780 50  0001 C CNN
F 3 "" H 9930 4780 50  0001 C CNN
	1    9930 4780
	0    -1   -1   0   
$EndComp
$Comp
L Device:R R7
U 1 1 60EC37D0
P 9780 4780
F 0 "R7" V 9570 4780 50  0000 C CNN
F 1 "1K" V 9663 4780 50  0000 C CNN
F 2 "misc:Resistor_Horizontal_RM7mm_Big_Pads" V 9710 4780 50  0001 C CNN
F 3 "~" H 9780 4780 50  0001 C CNN
	1    9780 4780
	0    1    1    0   
$EndComp
$Comp
L power:GND2 #PWR015
U 1 1 60EC7D15
P 9370 4380
F 0 "#PWR015" H 9370 4130 50  0001 C CNN
F 1 "GND2" V 9375 4250 50  0001 R CNN
F 2 "" H 9370 4380 50  0001 C CNN
F 3 "" H 9370 4380 50  0001 C CNN
	1    9370 4380
	0    -1   -1   0   
$EndComp
$Comp
L Device:R R5
U 1 1 60EC7D1B
P 9220 4380
F 0 "R5" V 9010 4380 50  0000 C CNN
F 1 "1K" V 9103 4380 50  0000 C CNN
F 2 "misc:Resistor_Horizontal_RM7mm_Big_Pads" V 9150 4380 50  0001 C CNN
F 3 "~" H 9220 4380 50  0001 C CNN
	1    9220 4380
	0    1    1    0   
$EndComp
$Comp
L power:GND2 #PWR019
U 1 1 60EC7D21
P 10520 5100
F 0 "#PWR019" H 10520 4850 50  0001 C CNN
F 1 "GND2" V 10525 4970 50  0001 R CNN
F 2 "" H 10520 5100 50  0001 C CNN
F 3 "" H 10520 5100 50  0001 C CNN
	1    10520 5100
	0    -1   -1   0   
$EndComp
$Comp
L Device:R R9
U 1 1 60EC7D27
P 10370 5100
F 0 "R9" V 10160 5100 50  0000 C CNN
F 1 "1K" V 10253 5100 50  0000 C CNN
F 2 "misc:Resistor_Horizontal_RM7mm_Big_Pads" V 10300 5100 50  0001 C CNN
F 3 "~" H 10370 5100 50  0001 C CNN
	1    10370 5100
	0    1    1    0   
$EndComp
$EndSCHEMATC
