EESchema Schematic File Version 4
EELAYER 30 0
EELAYER END
$Descr A4 11693 8268
encoding utf-8
Sheet 1 1
Title ""
Date ""
Rev ""
Comp ""
Comment1 ""
Comment2 ""
Comment3 ""
Comment4 ""
$EndDescr
$Comp
L Device:C C2
U 1 1 60DCC66D
P 2160 4790
F 0 "C2" H 2275 4837 50  0000 L CNN
F 1 "100nF" H 2275 4744 50  0000 L CNN
F 2 "Capacitor_THT:C_Disc_D3.4mm_W2.1mm_P2.50mm" H 2198 4640 50  0001 C CNN
F 3 "~" H 2160 4790 50  0001 C CNN
	1    2160 4790
	0    1    -1   0   
$EndComp
$Comp
L Connector:Conn_01x05_Female J2
U 1 1 60DCD83D
P 1410 5090
F 0 "J2" H 1660 4950 50  0000 C CNN
F 1 "Right_Motor" H 1630 5050 50  0000 C CNN
F 2 "Connector_JST:JST_EH_B5B-EH-A_1x05_P2.50mm_Vertical" H 1410 5090 50  0001 C CNN
F 3 "~" H 1410 5090 50  0001 C CNN
	1    1410 5090
	-1   0    0    1   
$EndComp
$Comp
L Regulator_Linear:L7805 U6
U 1 1 60E2CE28
P 6780 3340
F 0 "U6" V 6733 3445 50  0000 L CNN
F 1 "L7805" V 6826 3445 50  0000 L CNN
F 2 "Package_TO_SOT_THT:TO-220-3_Vertical" H 6805 3190 50  0001 L CIN
F 3 "http://www.st.com/content/ccc/resource/technical/document/datasheet/41/4f/b3/b0/12/d4/47/88/CD00000444.pdf/files/CD00000444.pdf/jcr:content/translations/en.CD00000444.pdf" H 6780 3290 50  0001 C CNN
	1    6780 3340
	0    1    1    0   
$EndComp
$Comp
L Device:C C6
U 1 1 60E2D0C6
P 6780 3790
F 0 "C6" H 6895 3837 50  0000 L CNN
F 1 "100nF" H 6895 3744 50  0000 L CNN
F 2 "Capacitor_THT:C_Disc_D3.4mm_W2.1mm_P2.50mm" H 6818 3640 50  0001 C CNN
F 3 "~" H 6780 3790 50  0001 C CNN
	1    6780 3790
	1    0    0    -1  
$EndComp
$Comp
L Device:C C5
U 1 1 60E2D0D0
P 6780 2890
F 0 "C5" H 6895 2937 50  0000 L CNN
F 1 "330nF" H 6895 2844 50  0000 L CNN
F 2 "Capacitor_THT:C_Rect_L7.2mm_W4.5mm_P5.00mm_FKS2_FKP2_MKS2_MKP2" H 6818 2740 50  0001 C CNN
F 3 "~" H 6780 2890 50  0001 C CNN
	1    6780 2890
	1    0    0    -1  
$EndComp
Wire Wire Line
	6780 3040 7430 3040
Connection ~ 6780 3040
Text Label 6780 3640 0    50   ~ 0
+5v_Robot
$Comp
L power:PWR_FLAG #FLG0103
U 1 1 60DEF9C9
P 7430 3140
F 0 "#FLG0103" H 7430 3215 50  0001 C CNN
F 1 "PWR_FLAG" H 7430 3316 50  0000 C CNN
F 2 "" H 7430 3140 50  0001 C CNN
F 3 "~" H 7430 3140 50  0001 C CNN
	1    7430 3140
	-1   0    0    1   
$EndComp
Connection ~ 7430 3040
$Comp
L power:PWR_FLAG #FLG0104
U 1 1 60DECC2E
P 7430 3040
F 0 "#FLG0104" H 7430 3115 50  0001 C CNN
F 1 "PWR_FLAG" H 7430 3216 50  0000 C CNN
F 2 "" H 7430 3040 50  0001 C CNN
F 3 "~" H 7430 3040 50  0001 C CNN
	1    7430 3040
	1    0    0    -1  
$EndComp
$Comp
L Connector:Conn_01x02_Female J4
U 1 1 60DD8C5D
P 7630 3040
F 0 "J4" H 7658 3016 50  0000 L CNN
F 1 "Conn_01x02_Female" H 7658 2923 50  0000 L CNN
F 2 "misc:WireHoles_1x02_P5.08mm_big_pads" H 7630 3040 50  0001 C CNN
F 3 "~" H 7630 3040 50  0001 C CNN
	1    7630 3040
	1    0    0    -1  
$EndComp
$Comp
L power:+7.5V #PWR0102
U 1 1 60DD65B9
P 7430 3040
F 0 "#PWR0102" H 7430 2890 50  0001 C CNN
F 1 "+7.5V" V 7445 3170 50  0000 L CNN
F 2 "" H 7430 3040 50  0001 C CNN
F 3 "" H 7430 3040 50  0001 C CNN
	1    7430 3040
	0    -1   -1   0   
$EndComp
$Comp
L power:GND2 #PWR0113
U 1 1 60F43529
P 7430 3140
F 0 "#PWR0113" H 7430 2890 50  0001 C CNN
F 1 "GND2" V 7435 3010 50  0000 R CNN
F 2 "" H 7430 3140 50  0001 C CNN
F 3 "" H 7430 3140 50  0001 C CNN
	1    7430 3140
	0    1    1    0   
$EndComp
Connection ~ 7430 3140
$Comp
L power:GND2 #PWR0114
U 1 1 60F43EF1
P 6780 2740
F 0 "#PWR0114" H 6780 2490 50  0001 C CNN
F 1 "GND2" V 6785 2610 50  0001 R CNN
F 2 "" H 6780 2740 50  0001 C CNN
F 3 "" H 6780 2740 50  0001 C CNN
	1    6780 2740
	0    1    1    0   
$EndComp
$Comp
L power:GND2 #PWR0115
U 1 1 60F4449C
P 6480 3340
F 0 "#PWR0115" H 6480 3090 50  0001 C CNN
F 1 "GND2" V 6485 3210 50  0001 R CNN
F 2 "" H 6480 3340 50  0001 C CNN
F 3 "" H 6480 3340 50  0001 C CNN
	1    6480 3340
	0    1    1    0   
$EndComp
$Comp
L power:GND2 #PWR0116
U 1 1 60F4487A
P 6780 3940
F 0 "#PWR0116" H 6780 3690 50  0001 C CNN
F 1 "GND2" V 6785 3810 50  0001 R CNN
F 2 "" H 6780 3940 50  0001 C CNN
F 3 "" H 6780 3940 50  0001 C CNN
	1    6780 3940
	0    1    1    0   
$EndComp
Text Label 3470 4440 2    50   ~ 0
+5v_Robot
$Comp
L power:GND2 #PWR0118
U 1 1 60F493FC
P 5070 3240
F 0 "#PWR0118" H 5070 2990 50  0001 C CNN
F 1 "GND2" V 5075 3110 50  0001 R CNN
F 2 "" H 5070 3240 50  0001 C CNN
F 3 "" H 5070 3240 50  0001 C CNN
	1    5070 3240
	0    -1   -1   0   
$EndComp
Text Label 1610 4890 1    50   ~ 0
+5v_Robot
$Comp
L Connector:Conn_01x05_Female J1
U 1 1 60FA5680
P 1410 5590
F 0 "J1" H 1600 5530 50  0000 C CNN
F 1 "Left_Motor" H 1610 5640 50  0000 C CNN
F 2 "Connector_JST:JST_EH_B5B-EH-A_1x05_P2.50mm_Vertical" H 1410 5590 50  0001 C CNN
F 3 "~" H 1410 5590 50  0001 C CNN
	1    1410 5590
	-1   0    0    -1  
$EndComp
NoConn ~ 3470 2640
NoConn ~ 3470 2740
NoConn ~ 3470 2840
NoConn ~ 3470 2940
NoConn ~ 3470 3040
NoConn ~ 3470 3140
NoConn ~ 3470 4140
NoConn ~ 3470 4240
NoConn ~ 3470 4340
NoConn ~ 5070 4440
NoConn ~ 5070 4340
NoConn ~ 5070 4240
NoConn ~ 5070 3040
NoConn ~ 5070 2640
NoConn ~ 5070 2940
$Comp
L power:GND2 #PWR0122
U 1 1 61000D73
P 2010 4790
F 0 "#PWR0122" H 2010 4540 50  0001 C CNN
F 1 "GND2" V 2015 4660 50  0001 R CNN
F 2 "" H 2010 4790 50  0001 C CNN
F 3 "" H 2010 4790 50  0001 C CNN
	1    2010 4790
	-1   0    0    1   
$EndComp
$Comp
L Device:LED D1
U 1 1 60DE0C4A
P 5220 2740
F 0 "D1" H 5320 2740 50  0000 C CNN
F 1 "RED_LED_rr" H 4420 2740 50  0000 C CNN
F 2 "LED_THT:LED_D5.0mm_Clear" H 5220 2740 50  0001 C CNN
F 3 "~" H 5220 2740 50  0001 C CNN
	1    5220 2740
	-1   0    0    1   
$EndComp
$Comp
L Device:LED D2
U 1 1 60DE1713
P 5220 4140
F 0 "D2" H 5320 4140 50  0000 C CNN
F 1 "RED_LED_rl" H 4410 4140 50  0000 C CNN
F 2 "LED_THT:LED_D5.0mm_Clear" H 5220 4140 50  0001 C CNN
F 3 "~" H 5220 4140 50  0001 C CNN
	1    5220 4140
	-1   0    0    1   
$EndComp
$Comp
L Device:LED D3
U 1 1 60DE1E95
P 5220 2840
F 0 "D3" H 5320 2840 50  0000 C CNN
F 1 "GREEN_LED_fr" H 4370 2840 50  0000 C CNN
F 2 "LED_THT:LED_D5.0mm_Clear" H 5220 2840 50  0001 C CNN
F 3 "~" H 5220 2840 50  0001 C CNN
	1    5220 2840
	-1   0    0    1   
$EndComp
$Comp
L Device:LED D4
U 1 1 60DE2853
P 5220 4040
F 0 "D4" H 5320 4040 50  0000 C CNN
F 1 "GREEN_LED_fl" H 4360 4030 50  0000 C CNN
F 2 "LED_THT:LED_D5.0mm_Clear" H 5220 4040 50  0001 C CNN
F 3 "~" H 5220 4040 50  0001 C CNN
	1    5220 4040
	-1   0    0    1   
$EndComp
$Comp
L power:GND2 #PWR0101
U 1 1 60DFDF6C
P 5670 2840
F 0 "#PWR0101" H 5670 2590 50  0001 C CNN
F 1 "GND2" V 5675 2710 50  0001 R CNN
F 2 "" H 5670 2840 50  0001 C CNN
F 3 "" H 5670 2840 50  0001 C CNN
	1    5670 2840
	0    -1   -1   0   
$EndComp
$Comp
L Device:R R3
U 1 1 60E0B0F2
P 5520 2840
F 0 "R3" V 5520 2690 50  0000 C CNN
F 1 "1K" V 5510 2840 50  0000 C CNN
F 2 "Resistor_THT:R_Axial_DIN0207_L6.3mm_D2.5mm_P7.62mm_Horizontal" V 5450 2840 50  0001 C CNN
F 3 "~" H 5520 2840 50  0001 C CNN
	1    5520 2840
	0    -1   -1   0   
$EndComp
$Comp
L power:GND2 #PWR0103
U 1 1 60E0B0F8
P 5670 2740
F 0 "#PWR0103" H 5670 2490 50  0001 C CNN
F 1 "GND2" V 5675 2610 50  0001 R CNN
F 2 "" H 5670 2740 50  0001 C CNN
F 3 "" H 5670 2740 50  0001 C CNN
	1    5670 2740
	0    -1   -1   0   
$EndComp
$Comp
L Device:R R4
U 1 1 60E0E118
P 5520 2740
F 0 "R4" V 5520 2590 50  0000 C CNN
F 1 "1K" V 5510 2740 50  0000 C CNN
F 2 "Resistor_THT:R_Axial_DIN0207_L6.3mm_D2.5mm_P7.62mm_Horizontal" V 5450 2740 50  0001 C CNN
F 3 "~" H 5520 2740 50  0001 C CNN
	1    5520 2740
	0    -1   -1   0   
$EndComp
$Comp
L power:GND2 #PWR0104
U 1 1 60E3F3D7
P 5670 4140
F 0 "#PWR0104" H 5670 3890 50  0001 C CNN
F 1 "GND2" V 5675 4010 50  0001 R CNN
F 2 "" H 5670 4140 50  0001 C CNN
F 3 "" H 5670 4140 50  0001 C CNN
	1    5670 4140
	0    -1   -1   0   
$EndComp
$Comp
L Device:R R1
U 1 1 60E3F567
P 5520 4040
F 0 "R1" V 5520 3890 50  0000 C CNN
F 1 "1K" V 5510 4040 50  0000 C CNN
F 2 "Resistor_THT:R_Axial_DIN0207_L6.3mm_D2.5mm_P7.62mm_Horizontal" V 5450 4040 50  0001 C CNN
F 3 "~" H 5520 4040 50  0001 C CNN
	1    5520 4040
	0    -1   -1   0   
$EndComp
$Comp
L power:GND2 #PWR0105
U 1 1 60E3F571
P 5670 4040
F 0 "#PWR0105" H 5670 3790 50  0001 C CNN
F 1 "GND2" V 5675 3910 50  0001 R CNN
F 2 "" H 5670 4040 50  0001 C CNN
F 3 "" H 5670 4040 50  0001 C CNN
	1    5670 4040
	0    -1   -1   0   
$EndComp
$Comp
L Device:R R2
U 1 1 60E3F57B
P 5520 4140
F 0 "R2" V 5520 3990 50  0000 C CNN
F 1 "1K" V 5510 4140 50  0000 C CNN
F 2 "Resistor_THT:R_Axial_DIN0207_L6.3mm_D2.5mm_P7.62mm_Horizontal" V 5450 4140 50  0001 C CNN
F 3 "~" H 5520 4140 50  0001 C CNN
	1    5520 4140
	0    -1   -1   0   
$EndComp
Text Label 2410 5390 0    50   ~ 0
lm_1
Text Label 2410 5490 0    50   ~ 0
lm_2
Text Label 2410 5590 0    50   ~ 0
lm_3
Text Label 2410 5690 0    50   ~ 0
lm_4
Text Label 2410 4990 0    50   ~ 0
rm_4
Text Label 2410 5090 0    50   ~ 0
rm_3
Text Label 2410 5290 0    50   ~ 0
rm_1
Text Label 2410 5190 0    50   ~ 0
rm_2
$Comp
L ESP32-DEVKITC-32D:ESP32-DEVKITC-32D U3
U 1 1 60DD2EBC
P 4270 3540
F 0 "U3" H 4270 4710 50  0000 C CNN
F 1 "ESP32-Robot" H 4270 4617 50  0000 C CNN
F 2 "misc:MODULE_ESP32-DEVKITC-32D_big_pads" H 4270 3540 50  0001 L BNN
F 3 "" H 4270 3540 50  0001 L BNN
F 4 "4" H 4270 3540 50  0001 L BNN "PARTREV"
F 5 "Espressif Systems" H 4270 3540 50  0001 L BNN "MANUFACTURER"
	1    4270 3540
	1    0    0    -1  
$EndComp
Text Label 3470 3240 2    50   ~ 0
rm_4
Text Label 3470 3340 2    50   ~ 0
rm_3
Text Label 3470 3540 2    50   ~ 0
rm_1
Text Label 3470 3440 2    50   ~ 0
rm_2
Text Label 3470 3640 2    50   ~ 0
lm_1
Text Label 3470 3740 2    50   ~ 0
lm_2
Text Label 3470 3840 2    50   ~ 0
lm_3
Text Label 3470 4040 2    50   ~ 0
lm_4
$Comp
L power:GND2 #PWR01
U 1 1 60E99162
P 3470 3940
F 0 "#PWR01" H 3470 3690 50  0001 C CNN
F 1 "GND2" V 3475 3810 50  0001 R CNN
F 2 "" H 3470 3940 50  0001 C CNN
F 3 "" H 3470 3940 50  0001 C CNN
	1    3470 3940
	0    1    1    0   
$EndComp
NoConn ~ 5070 3140
NoConn ~ 5070 3340
NoConn ~ 5070 3440
NoConn ~ 5070 3540
NoConn ~ 5070 3640
NoConn ~ 5070 3740
NoConn ~ 5070 3840
NoConn ~ 5070 3940
$Comp
L Transistor_Array:ULN2803A U1
U 1 1 60E066B5
P 2010 5490
F 0 "U1" H 2010 6060 50  0000 C CNN
F 1 "ULN2803A" H 2010 5967 50  0000 C CNN
F 2 "misc:DIP-18_W7.62mm_big_pads" H 2060 4840 50  0001 L CNN
F 3 "http://www.ti.com/lit/ds/symlink/uln2803a.pdf" H 2110 5290 50  0001 C CNN
	1    2010 5490
	-1   0    0    1   
$EndComp
Connection ~ 2010 4790
Text Label 2310 4790 0    50   ~ 0
+5v_Robot
Text Label 1610 5790 3    50   ~ 0
+5v_Robot
$Comp
L Mechanical:MountingHole H1
U 1 1 60E2E93A
P 4000 6250
F 0 "H1" H 4100 6297 50  0000 L CNN
F 1 "MountingHole" H 4100 6204 50  0000 L CNN
F 2 "MountingHole:MountingHole_2.7mm_M2.5_DIN965" H 4000 6250 50  0001 C CNN
F 3 "~" H 4000 6250 50  0001 C CNN
	1    4000 6250
	1    0    0    -1  
$EndComp
$Comp
L Mechanical:MountingHole H2
U 1 1 60E2ED83
P 4000 6460
F 0 "H2" H 4100 6507 50  0000 L CNN
F 1 "MountingHole" H 4100 6414 50  0000 L CNN
F 2 "MountingHole:MountingHole_2.7mm_M2.5_DIN965" H 4000 6460 50  0001 C CNN
F 3 "~" H 4000 6460 50  0001 C CNN
	1    4000 6460
	1    0    0    -1  
$EndComp
$EndSCHEMATC
