EESchema Schematic File Version 4
EELAYER 30 0
EELAYER END
$Descr A4 11693 8268
encoding utf-8
Sheet 1 1
Title "Steerable StrandBeest Controller"
Date "2021-08-15"
Rev "1.0"
Comp "gratefulfrog.org"
Comment1 ""
Comment2 ""
Comment3 ""
Comment4 ""
$EndDescr
$Comp
L Regulator_Linear:L7805 U4
U 1 1 60E2CE28
P 5900 1460
F 0 "U4" V 5853 1565 50  0000 L CNN
F 1 "L7805" V 5946 1565 50  0000 L CNN
F 2 "Package_TO_SOT_THT:TO-220-3_Vertical" H 5925 1310 50  0001 L CIN
F 3 "http://www.st.com/content/ccc/resource/technical/document/datasheet/41/4f/b3/b0/12/d4/47/88/CD00000444.pdf/files/CD00000444.pdf/jcr:content/translations/en.CD00000444.pdf" H 5900 1410 50  0001 C CNN
	1    5900 1460
	0    1    1    0   
$EndComp
$Comp
L Device:C C3
U 1 1 60E2D0C6
P 5900 1910
F 0 "C3" H 6015 1957 50  0000 L CNN
F 1 "100nF" H 6015 1864 50  0000 L CNN
F 2 "misc:C_Disc_D3.0mm_W1.6mm_P2.50mm_big_pads" H 5938 1760 50  0001 C CNN
F 3 "~" H 5900 1910 50  0001 C CNN
	1    5900 1910
	1    0    0    -1  
$EndComp
$Comp
L Device:C C2
U 1 1 60E2D0D0
P 5900 1010
F 0 "C2" H 6015 1057 50  0000 L CNN
F 1 "330nF" H 6015 964 50  0000 L CNN
F 2 "misc:C_Disc_D3.0mm_W1.6mm_P2.50mm_big_pads" H 5938 860 50  0001 C CNN
F 3 "~" H 5900 1010 50  0001 C CNN
	1    5900 1010
	1    0    0    -1  
$EndComp
Wire Wire Line
	5900 1160 6550 1160
Connection ~ 5900 1160
Text Label 5900 1760 0    50   ~ 0
+5v
$Comp
L power:PWR_FLAG #FLG02
U 1 1 60DEF9C9
P 6550 1260
F 0 "#FLG02" H 6550 1335 50  0001 C CNN
F 1 "PWR_FLAG" H 6550 1436 50  0000 C CNN
F 2 "" H 6550 1260 50  0001 C CNN
F 3 "~" H 6550 1260 50  0001 C CNN
	1    6550 1260
	-1   0    0    1   
$EndComp
Connection ~ 6550 1160
$Comp
L power:PWR_FLAG #FLG01
U 1 1 60DECC2E
P 6550 1160
F 0 "#FLG01" H 6550 1235 50  0001 C CNN
F 1 "PWR_FLAG" H 6550 1336 50  0000 C CNN
F 2 "" H 6550 1160 50  0001 C CNN
F 3 "~" H 6550 1160 50  0001 C CNN
	1    6550 1160
	1    0    0    -1  
$EndComp
$Comp
L Connector:Conn_01x02_Female J1
U 1 1 60DD8C5D
P 6750 1160
F 0 "J1" H 6778 1136 50  0000 L CNN
F 1 "Conn_01x02_Female" H 6778 1043 50  0000 L CNN
F 2 "misc:TerminalBlock_TE_282834-2_1x02_P2.54mm_Horizontal_pads_ok" H 6750 1160 50  0001 C CNN
F 3 "~" H 6750 1160 50  0001 C CNN
	1    6750 1160
	1    0    0    -1  
$EndComp
$Comp
L power:+7.5V #PWR020
U 1 1 60DD65B9
P 6550 1160
F 0 "#PWR020" H 6550 1010 50  0001 C CNN
F 1 "+7.5V" V 6565 1290 50  0000 L CNN
F 2 "" H 6550 1160 50  0001 C CNN
F 3 "" H 6550 1160 50  0001 C CNN
	1    6550 1160
	0    -1   -1   0   
$EndComp
$Comp
L power:GND2 #PWR021
U 1 1 60F43529
P 6550 1260
F 0 "#PWR021" H 6550 1010 50  0001 C CNN
F 1 "GND2" V 6555 1130 50  0000 R CNN
F 2 "" H 6550 1260 50  0001 C CNN
F 3 "" H 6550 1260 50  0001 C CNN
	1    6550 1260
	0    1    1    0   
$EndComp
Connection ~ 6550 1260
$Comp
L power:GND2 #PWR017
U 1 1 60F43EF1
P 5900 860
F 0 "#PWR017" H 5900 610 50  0001 C CNN
F 1 "GND2" V 5905 730 50  0001 R CNN
F 2 "" H 5900 860 50  0001 C CNN
F 3 "" H 5900 860 50  0001 C CNN
	1    5900 860 
	0    1    1    0   
$EndComp
$Comp
L power:GND2 #PWR015
U 1 1 60F4449C
P 5600 1460
F 0 "#PWR015" H 5600 1210 50  0001 C CNN
F 1 "GND2" V 5605 1330 50  0001 R CNN
F 2 "" H 5600 1460 50  0001 C CNN
F 3 "" H 5600 1460 50  0001 C CNN
	1    5600 1460
	0    1    1    0   
$EndComp
$Comp
L power:GND2 #PWR018
U 1 1 60F4487A
P 5900 2060
F 0 "#PWR018" H 5900 1810 50  0001 C CNN
F 1 "GND2" V 5905 1930 50  0001 R CNN
F 2 "" H 5900 2060 50  0001 C CNN
F 3 "" H 5900 2060 50  0001 C CNN
	1    5900 2060
	0    1    1    0   
$EndComp
$Comp
L Device:CP1 C1
U 1 1 610BABCD
P 4820 2970
F 0 "C1" H 4705 2923 50  0000 R CNN
F 1 "47µF" H 4705 3016 50  0000 R CNN
F 2 "misc:CP_Radial_D5.0mm_P2.50mm_big_pads" H 4820 2970 50  0001 C CNN
F 3 "~" H 4820 2970 50  0001 C CNN
	1    4820 2970
	1    0    0    -1  
$EndComp
$Comp
L BOB_LED:NeoPixelStrip D2
U 1 1 610BCCF8
P 5340 2720
F 0 "D2" H 5340 3090 50  0000 C CNN
F 1 "NeoPixelStrip" H 5340 2997 50  0000 C CNN
F 2 "misc:NeoPixel_8_pixel_strip" H 5390 2420 50  0001 L TNN
F 3 "http://www.inolux-corp.com/datasheet/SMDLED/Addressable%20LED/IN-PI556FCH.pdf" H 5440 2345 50  0001 L TNN
	1    5340 2720
	1    0    0    -1  
$EndComp
$Comp
L power:GND2 #PWR011
U 1 1 61118C97
P 5040 2920
F 0 "#PWR011" H 5040 2670 50  0001 C CNN
F 1 "GND2" V 5045 2790 50  0001 R CNN
F 2 "" H 5040 2920 50  0001 C CNN
F 3 "" H 5040 2920 50  0001 C CNN
	1    5040 2920
	1    0    0    -1  
$EndComp
$Comp
L power:GND2 #PWR012
U 1 1 611324DA
P 5640 2620
F 0 "#PWR012" H 5640 2370 50  0001 C CNN
F 1 "GND2" V 5645 2490 50  0001 R CNN
F 2 "" H 5640 2620 50  0001 C CNN
F 3 "" H 5640 2620 50  0001 C CNN
	1    5640 2620
	-1   0    0    1   
$EndComp
$Comp
L power:GND2 #PWR010
U 1 1 61133479
P 5040 2620
F 0 "#PWR010" H 5040 2370 50  0001 C CNN
F 1 "GND2" V 5045 2490 50  0001 R CNN
F 2 "" H 5040 2620 50  0001 C CNN
F 3 "" H 5040 2620 50  0001 C CNN
	1    5040 2620
	-1   0    0    1   
$EndComp
NoConn ~ 2420 4520
NoConn ~ 2420 4420
NoConn ~ 2420 4320
NoConn ~ 2420 4220
NoConn ~ 2420 4120
$Comp
L power:GND2 #PWR03
U 1 1 6116397D
P 2420 3320
F 0 "#PWR03" H 2420 3070 50  0001 C CNN
F 1 "GND2" V 2425 3190 50  0001 R CNN
F 2 "" H 2420 3320 50  0001 C CNN
F 3 "" H 2420 3320 50  0001 C CNN
	1    2420 3320
	0    -1   -1   0   
$EndComp
$Comp
L power:GND2 #PWR01
U 1 1 61164151
P 820 4020
F 0 "#PWR01" H 820 3770 50  0001 C CNN
F 1 "GND2" V 825 3890 50  0001 R CNN
F 2 "" H 820 4020 50  0001 C CNN
F 3 "" H 820 4020 50  0001 C CNN
	1    820  4020
	0    1    1    0   
$EndComp
$Comp
L power:GND2 #PWR02
U 1 1 61165499
P 820 4620
F 0 "#PWR02" H 820 4370 50  0001 C CNN
F 1 "GND2" V 825 4490 50  0001 R CNN
F 2 "" H 820 4620 50  0001 C CNN
F 3 "" H 820 4620 50  0001 C CNN
	1    820  4620
	0    1    1    0   
$EndComp
NoConn ~ 820  4320
NoConn ~ 820  4220
NoConn ~ 820  3420
NoConn ~ 820  3320
NoConn ~ 820  3220
NoConn ~ 820  3020
NoConn ~ 820  2920
NoConn ~ 820  2820
NoConn ~ 2420 3120
NoConn ~ 2420 3020
NoConn ~ 2420 2920
$Comp
L power:GND2 #PWR013
U 1 1 6117557C
P 5640 2920
F 0 "#PWR013" H 5640 2670 50  0001 C CNN
F 1 "GND2" V 5645 2790 50  0001 R CNN
F 2 "" H 5640 2920 50  0001 C CNN
F 3 "" H 5640 2920 50  0001 C CNN
	1    5640 2920
	1    0    0    -1  
$EndComp
Text Label 2420 4620 0    50   ~ 0
+3.3v
NoConn ~ 820  3120
NoConn ~ 820  3520
NoConn ~ 820  3620
NoConn ~ 820  3720
NoConn ~ 820  3820
$Comp
L ESP32-DEVKITC-32D:ESP32-DEVKITC-32D U1
U 1 1 60DD2EBC
P 1620 3720
F 0 "U1" H 1620 4890 50  0000 C CNN
F 1 "ESP32-Controller" H 1620 4797 50  0000 C CNN
F 2 "misc:MODULE_ESP32-DEVKITC-32D_big_pads" H 1620 3720 50  0001 L BNN
F 3 "" H 1620 3720 50  0001 L BNN
F 4 "4" H 1620 3720 50  0001 L BNN "PARTREV"
F 5 "Espressif Systems" H 1620 3720 50  0001 L BNN "MANUFACTURER"
	1    1620 3720
	-1   0    0    1   
$EndComp
$Comp
L Bob_Level_Shifter:MH_Level_converter_4_Channel U2
U 1 1 611EDB49
P 3980 3020
F 0 "U2" H 3980 2000 50  0000 C CNN
F 1 "MH_Level_converter_4_Channel" H 4030 2120 50  0000 C CNN
F 2 "misc:MH_Level_Converter" H 3980 2270 50  0001 C CNN
F 3 "" H 4090 3115 50  0001 C CNN
	1    3980 3020
	1    0    0    -1  
$EndComp
$Comp
L power:GND2 #PWR04
U 1 1 611FDCEF
P 3980 3720
F 0 "#PWR04" H 3980 3470 50  0001 C CNN
F 1 "GND2" V 3985 3590 50  0001 R CNN
F 2 "" H 3980 3720 50  0001 C CNN
F 3 "" H 3980 3720 50  0001 C CNN
	1    3980 3720
	1    0    0    -1  
$EndComp
$Comp
L power:GND2 #PWR05
U 1 1 6120011F
P 4080 3720
F 0 "#PWR05" H 4080 3470 50  0001 C CNN
F 1 "GND2" V 4085 3590 50  0001 R CNN
F 2 "" H 4080 3720 50  0001 C CNN
F 3 "" H 4080 3720 50  0001 C CNN
	1    4080 3720
	1    0    0    -1  
$EndComp
Text Label 3880 2320 2    50   ~ 0
+3.3v
NoConn ~ 4380 2920
NoConn ~ 4380 3120
NoConn ~ 4380 3320
NoConn ~ 3580 3320
NoConn ~ 3580 3120
NoConn ~ 3580 2920
NoConn ~ 13010 4380
NoConn ~ 2420 3420
NoConn ~ 2420 3220
Wire Wire Line
	5040 2820 4820 2820
$Comp
L power:GND2 #PWR0101
U 1 1 611A94E7
P 4820 3120
F 0 "#PWR0101" H 4820 2870 50  0001 C CNN
F 1 "GND2" V 4825 2990 50  0001 R CNN
F 2 "" H 4820 3120 50  0001 C CNN
F 3 "" H 4820 3120 50  0001 C CNN
	1    4820 3120
	1    0    0    -1  
$EndComp
Text Label 3580 2720 2    50   ~ 0
NeoPixel_DIN
Text Label 2420 4020 0    50   ~ 0
NeoPixel_DIN
Text Label 4080 2320 0    50   ~ 0
+5v
$Comp
L Device:R_POT RV1
U 1 1 611DD00D
P 3930 1830
F 0 "RV1" H 3860 1783 50  0000 R CNN
F 1 "R_POT" H 3860 1876 50  0000 R CNN
F 2 "misc:Potentiometer_Single_Vertical_5_pin_header_hand_soldered" H 3930 1830 50  0001 C CNN
F 3 "~" H 3930 1830 50  0001 C CNN
	1    3930 1830
	-1   0    0    1   
$EndComp
Text Label 2420 3920 0    50   ~ 0
Pot
Text Label 3780 1830 2    50   ~ 0
Pot
Text Label 3930 1680 1    50   ~ 0
+3.3v
$Comp
L power:GND2 #PWR0102
U 1 1 611F1224
P 3930 1980
F 0 "#PWR0102" H 3930 1730 50  0001 C CNN
F 1 "GND2" V 3935 1850 50  0001 R CNN
F 2 "" H 3930 1980 50  0001 C CNN
F 3 "" H 3930 1980 50  0001 C CNN
	1    3930 1980
	1    0    0    -1  
$EndComp
$Comp
L Switch:SW_MEC_5E SW1
U 1 1 6121D57C
P 3650 4610
F 0 "SW1" H 3650 5000 50  0000 C CNN
F 1 "Push_Left_Forward" H 3650 4907 50  0000 C CNN
F 2 "misc:SW_PUSH-12mm_2_54_P_big_pads" H 3650 4910 50  0001 C CNN
F 3 "http://www.apem.com/int/index.php?controller=attachment&id_attachment=1371" H 3650 4910 50  0001 C CNN
	1    3650 4610
	1    0    0    -1  
$EndComp
$Comp
L Switch:SW_MEC_5E SW2
U 1 1 6121F9C6
P 3660 5100
F 0 "SW2" H 3660 5490 50  0000 C CNN
F 1 "Push_Left_Reverse" H 3660 5397 50  0000 C CNN
F 2 "misc:SW_PUSH-12mm_2_54_P_big_pads" H 3660 5400 50  0001 C CNN
F 3 "http://www.apem.com/int/index.php?controller=attachment&id_attachment=1371" H 3660 5400 50  0001 C CNN
	1    3660 5100
	1    0    0    -1  
$EndComp
$Comp
L Switch:SW_MEC_5E SW3
U 1 1 61222754
P 4610 4600
F 0 "SW3" H 4610 4990 50  0000 C CNN
F 1 "Push_Right_Forward" H 4610 4897 50  0000 C CNN
F 2 "misc:SW_PUSH-12mm_2_54_P_big_pads" H 4610 4900 50  0001 C CNN
F 3 "http://www.apem.com/int/index.php?controller=attachment&id_attachment=1371" H 4610 4900 50  0001 C CNN
	1    4610 4600
	1    0    0    -1  
$EndComp
$Comp
L Switch:SW_MEC_5E SW4
U 1 1 6122275A
P 4620 5090
F 0 "SW4" H 4620 5480 50  0000 C CNN
F 1 "Push_Right_Reverse" H 4620 5387 50  0000 C CNN
F 2 "misc:SW_PUSH-12mm_2_54_P_big_pads" H 4620 5390 50  0001 C CNN
F 3 "http://www.apem.com/int/index.php?controller=attachment&id_attachment=1371" H 4620 5390 50  0001 C CNN
	1    4620 5090
	1    0    0    -1  
$EndComp
$Comp
L power:GND2 #PWR0103
U 1 1 61226F0D
P 3850 4610
F 0 "#PWR0103" H 3850 4360 50  0001 C CNN
F 1 "GND2" V 3855 4480 50  0001 R CNN
F 2 "" H 3850 4610 50  0001 C CNN
F 3 "" H 3850 4610 50  0001 C CNN
	1    3850 4610
	1    0    0    -1  
$EndComp
$Comp
L power:GND2 #PWR0104
U 1 1 61227AB6
P 3860 5100
F 0 "#PWR0104" H 3860 4850 50  0001 C CNN
F 1 "GND2" V 3865 4970 50  0001 R CNN
F 2 "" H 3860 5100 50  0001 C CNN
F 3 "" H 3860 5100 50  0001 C CNN
	1    3860 5100
	1    0    0    -1  
$EndComp
$Comp
L power:GND2 #PWR0105
U 1 1 61228019
P 4820 5090
F 0 "#PWR0105" H 4820 4840 50  0001 C CNN
F 1 "GND2" V 4825 4960 50  0001 R CNN
F 2 "" H 4820 5090 50  0001 C CNN
F 3 "" H 4820 5090 50  0001 C CNN
	1    4820 5090
	1    0    0    -1  
$EndComp
$Comp
L power:GND2 #PWR0106
U 1 1 612285FA
P 4810 4600
F 0 "#PWR0106" H 4810 4350 50  0001 C CNN
F 1 "GND2" V 4815 4470 50  0001 R CNN
F 2 "" H 4810 4600 50  0001 C CNN
F 3 "" H 4810 4600 50  0001 C CNN
	1    4810 4600
	1    0    0    -1  
$EndComp
Text Label 2420 3520 0    50   ~ 0
Right_Reverse
Text Label 4420 4990 2    50   ~ 0
Right_Reverse
Text Label 2420 3820 0    50   ~ 0
Left_Forward
Text Label 3450 4510 2    50   ~ 0
Left_Forward
Text Label 2420 3720 0    50   ~ 0
Left_Reverse
Text Label 3460 5000 2    50   ~ 0
Left_Reverse
Text Label 2420 3620 0    50   ~ 0
Right_Forward
Text Label 4410 4500 2    50   ~ 0
Right_Forward
Wire Wire Line
	4380 2720 5040 2720
Text Label 2420 2820 0    50   ~ 0
+5v
NoConn ~ 820  3920
NoConn ~ 820  4120
NoConn ~ 820  4420
NoConn ~ 820  4520
NoConn ~ 4810 4500
NoConn ~ 4410 4600
NoConn ~ 3850 4510
NoConn ~ 3860 5000
NoConn ~ 4820 4990
NoConn ~ 4420 5090
NoConn ~ 3460 5100
NoConn ~ 3450 4610
NoConn ~ 5640 2720
NoConn ~ 5640 2820
NoConn ~ 3670 4350
NoConn ~ -7300 1730
Text Label 4820 2820 2    50   ~ 0
+5v
$Comp
L Mechanical:MountingHole H1
U 1 1 6119D84A
P 5270 3560
F 0 "H1" H 5370 3607 50  0000 L CNN
F 1 "MountingHole" H 5370 3514 50  0000 L CNN
F 2 "MountingHole:MountingHole_2.7mm_M2.5_DIN965" H 5270 3560 50  0001 C CNN
F 3 "~" H 5270 3560 50  0001 C CNN
	1    5270 3560
	1    0    0    -1  
$EndComp
$Comp
L Mechanical:MountingHole H2
U 1 1 6119DE3A
P 5270 3780
F 0 "H2" H 5370 3827 50  0000 L CNN
F 1 "MountingHole" H 5370 3734 50  0000 L CNN
F 2 "MountingHole:MountingHole_2.7mm_M2.5_DIN965" H 5270 3780 50  0001 C CNN
F 3 "~" H 5270 3780 50  0001 C CNN
	1    5270 3780
	1    0    0    -1  
$EndComp
$EndSCHEMATC
