999
dxfrw 0.6.3
  0
SECTION
  2
HEADER
  9
$ACADVER
  1
AC1021
  9
$DWGCODEPAGE
  3
ANSI_1252
  9
$INSBASE
 10
0
 20
0
 30
0
  9
$EXTMIN
 10
-25.11760000000007
 20
-44.8888
 30
0
  9
$EXTMAX
 10
174.8823999999999
 20
145.1112
 30
0
  9
$LIMMIN
 10
0
 20
0
  9
$LIMMAX
 10
420
 20
297
  9
$ORTHOMODE
 70
    0
  9
$REGENMODE
 70
    1
  9
$FILLMODE
 70
    1
  9
$QTEXTMODE
 70
    0
  9
$MIRRTEXT
 70
    0
  9
$LTSCALE
 40
1
  9
$ATTMODE
 70
    0
  9
$TEXTSIZE
 40
2.5
  9
$TRACEWID
 40
15.68
  9
$TEXTSTYLE
  7
STANDARD
  9
$CLAYER
  8
rounders
  9
$CELTYPE
  6
BYLAYER
  9
$CECOLOR
 62
  256
  9
$CELTSCALE
 40
1
  9
$DISPSILH
 70
    0
  9
$DIMSCALE
 40
1
  9
$DIMASZ
 40
2.5
  9
$DIMEXO
 40
0.625
  9
$DIMDLI
 40
3.75
  9
$DIMRND
 40
0
  9
$DIMDLE
 40
0
  9
$DIMEXE
 40
1.25
  9
$DIMTP
 40
0
  9
$DIMTM
 40
0
  9
$DIMTXT
 40
2.5
  9
$DIMCEN
 40
2.5
  9
$DIMTSZ
 40
0
  9
$DIMTOL
 70
    0
  9
$DIMLIM
 70
    0
  9
$DIMTIH
 70
    0
  9
$DIMTOH
 70
    0
  9
$DIMSE1
 70
    0
  9
$DIMSE2
 70
    0
  9
$DIMTAD
 70
    1
  9
$DIMZIN
 70
    8
  9
$DIMBLK
  1

  9
$DIMASO
 70
    1
  9
$DIMSHO
 70
    1
  9
$DIMPOST
  1

  9
$DIMAPOST
  1

  9
$DIMALT
 70
    0
  9
$DIMALTD
 70
    3
  9
$DIMALTF
 40
0.03937
  9
$DIMLFAC
 40
1
  9
$DIMTOFL
 70
    1
  9
$DIMTVP
 40
0
  9
$DIMTIX
 70
    0
  9
$DIMSOXD
 70
    0
  9
$DIMSAH
 70
    0
  9
$DIMBLK1
  1

  9
$DIMBLK2
  1

  9
$DIMSTYLE
  2
Standard
  9
$DIMCLRD
 70
    0
  9
$DIMCLRE
 70
    0
  9
$DIMCLRT
 70
    0
  9
$DIMTFAC
 40
1
  9
$DIMGAP
 40
0.625
  9
$DIMJUST
 70
    0
  9
$DIMSD1
 70
    0
  9
$DIMSD2
 70
    0
  9
$DIMTOLJ
 70
    0
  9
$DIMTZIN
 70
    8
  9
$DIMALTZ
 70
    0
  9
$DIMALTTZ
 70
    0
  9
$DIMUPT
 70
    0
  9
$DIMDEC
 70
    2
  9
$DIMTDEC
 70
    2
  9
$DIMALTU
 70
    2
  9
$DIMALTTD
 70
    3
  9
$DIMTXSTY
  7
STANDARD
  9
$DIMAUNIT
 70
    0
  9
$DIMADEC
 70
    0
  9
$DIMALTRND
 40
0
  9
$DIMAZIN
 70
    0
  9
$DIMDSEP
 70
   44
  9
$DIMATFIT
 70
    3
  9
$DIMFRAC
 70
    0
  9
$DIMLDRBLK
  1
STANDARD
  9
$DIMLUNIT
 70
    2
  9
$DIMLWD
 70
   -2
  9
$DIMLWE
 70
   -2
  9
$DIMTMOVE
 70
    0
  9
$DIMFXL
 40
1
  9
$DIMFXLON
 70
    0
  9
$DIMJOGANG
 40
0.7854
  9
$DIMTFILL
 70
    0
  9
$DIMTFILLCLR
 70
    0
  9
$DIMARCSYM
 70
    0
  9
$DIMLTYPE
  6

  9
$DIMLTEX1
  6

  9
$DIMLTEX2
  6

  9
$LUNITS
 70
    2
  9
$LUPREC
 70
    4
  9
$SKETCHINC
 40
1
  9
$FILLETRAD
 40
0
  9
$AUNITS
 70
    0
  9
$AUPREC
 70
    2
  9
$MENU
  1
.
  9
$ELEVATION
 40
0
  9
$PELEVATION
 40
0
  9
$THICKNESS
 40
0
  9
$LIMCHECK
 70
    0
  9
$CHAMFERA
 40
0
  9
$CHAMFERB
 40
0
  9
$CHAMFERC
 40
0
  9
$CHAMFERD
 40
0
  9
$SKPOLY
 70
    0
  9
$USRTIMER
 70
    1
  9
$ANGBASE
 50
0
  9
$ANGDIR
 70
    0
  9
$PDMODE
 70
   34
  9
$PDSIZE
 40
0
  9
$PLINEWID
 40
0
  9
$SPLFRAME
 70
    0
  9
$SPLINETYPE
 70
    2
  9
$SPLINESEGS
 70
    8
  9
$HANDSEED
  5
20000
  9
$SURFTAB1
 70
    6
  9
$SURFTAB2
 70
    6
  9
$SURFTYPE
 70
    6
  9
$SURFU
 70
    6
  9
$SURFV
 70
    6
  9
$UCSBASE
  2

  9
$UCSNAME
  2

  9
$UCSORG
 10
0
 20
0
 30
0
  9
$UCSXDIR
 10
1
 20
0
 30
0
  9
$UCSYDIR
 10
0
 20
1
 30
0
  9
$UCSORTHOREF
  2

  9
$UCSORTHOVIEW
 70
    0
  9
$UCSORGTOP
 10
0
 20
0
 30
0
  9
$UCSORGBOTTOM
 10
0
 20
0
 30
0
  9
$UCSORGLEFT
 10
0
 20
0
 30
0
  9
$UCSORGRIGHT
 10
0
 20
0
 30
0
  9
$UCSORGFRONT
 10
0
 20
0
 30
0
  9
$UCSORGBACK
 10
0
 20
0
 30
0
  9
$PUCSBASE
  2

  9
$PUCSNAME
  2

  9
$PUCSORG
 10
0
 20
0
 30
0
  9
$PUCSXDIR
 10
1
 20
0
 30
0
  9
$PUCSYDIR
 10
0
 20
1
 30
0
  9
$PUCSORTHOREF
  2

  9
$PUCSORTHOVIEW
 70
    0
  9
$PUCSORGTOP
 10
0
 20
0
 30
0
  9
$PUCSORGBOTTOM
 10
0
 20
0
 30
0
  9
$PUCSORGLEFT
 10
0
 20
0
 30
0
  9
$PUCSORGRIGHT
 10
0
 20
0
 30
0
  9
$PUCSORGFRONT
 10
0
 20
0
 30
0
  9
$PUCSORGBACK
 10
0
 20
0
 30
0
  9
$USERI1
 70
    0
  9
$USERI2
 70
    0
  9
$USERI3
 70
    0
  9
$USERI4
 70
    0
  9
$USERI5
 70
    0
  9
$USERR1
 40
0
  9
$USERR2
 40
0
  9
$USERR3
 40
0
  9
$USERR4
 40
0
  9
$USERR5
 40
0
  9
$WORLDVIEW
 70
    1
  9
$SHADEDGE
 70
    3
  9
$SHADEDIF
 70
   70
  9
$TILEMODE
 70
    1
  9
$MAXACTVP
 70
   64
  9
$PINSBASE
 10
0
 20
0
 30
0
  9
$PLIMCHECK
 70
    0
  9
$PEXTMIN
 10
0
 20
0
 30
0
  9
$PEXTMAX
 10
0
 20
0
 30
0
  9
$GRIDMODE
 70
    1
  9
$SNAPSTYLE
 70
    0
  9
$PLIMMIN
 10
0
 20
0
  9
$PLIMMAX
 10
297
 20
210
  9
$UNITMODE
 70
    0
  9
$VISRETAIN
 70
    1
  9
$PLINEGEN
 70
    0
  9
$PSLTSCALE
 70
    1
  9
$TREEDEPTH
 70
 3020
  9
$CMLSTYLE
  2
Standard
  9
$CMLJUST
 70
    0
  9
$CMLSCALE
 40
20
  9
$PROXYGRAPHICS
 70
    1
  9
$MEASUREMENT
 70
    1
  9
$CELWEIGHT
370
   -1
  9
$ENDCAPS
280
    0
  9
$JOINSTYLE
280
    0
  9
$LWDISPLAY
290
    0
  9
$INSUNITS
 70
    4
  9
$HYPERLINKBASE
  1

  9
$STYLESHEET
  1

  9
$XEDIT
290
    1
  9
$CEPSNTYPE
380
    0
  9
$PSTYLEMODE
290
    1
  9
$EXTNAMES
290
    1
  9
$PSVPSCALE
 40
1
  9
$OLESTARTUP
290
    0
  9
$SORTENTS
280
  127
  9
$INDEXCTL
280
    0
  9
$HIDETEXT
280
    1
  9
$XCLIPFRAME
290
    0
  9
$HALOGAP
280
    0
  9
$OBSCOLOR
 70
  257
  9
$OBSLTYPE
280
    0
  9
$INTERSECTIONDISPLAY
280
    0
  9
$INTERSECTIONCOLOR
 70
  257
  9
$DIMASSOC
280
    1
  9
$PROJECTNAME
  1

  9
$CAMERADISPLAY
290
    0
  9
$LENSLENGTH
 40
50
  9
$CAMERAHEIGHT
 40
0
  9
$STEPSPERSEC
 40
2
  9
$STEPSIZE
 40
50
  9
$3DDWFPREC
 40
2
  9
$PSOLWIDTH
 40
5
  9
$PSOLHEIGHT
 40
80
  9
$LOFTANG1
 40
1.570796326794897
  9
$LOFTANG2
 40
1.570796326794897
  9
$LOFTMAG1
 40
0
  9
$LOFTMAG2
 40
0
  9
$LOFTPARAM
 70
    7
  9
$LOFTNORMALS
280
    1
  9
$LATITUDE
 40
1
  9
$LONGITUDE
 40
1
  9
$NORTHDIRECTION
 40
0
  9
$TIMEZONE
 70
-8000
  9
$LIGHTGLYPHDISPLAY
280
    1
  9
$TILEMODELIGHTSYNCH
280
    1
  9
$SOLIDHIST
280
    1
  9
$SHOWHIST
280
    1
  9
$DWFFRAME
280
    2
  9
$DGNFRAME
280
    0
  9
$REALWORLDSCALE
290
    1
  9
$INTERFERECOLOR
 62
    1
  9
$CSHADOW
280
    0
  9
$SHADOWPLANELOCATION
 40
0
  0
ENDSEC
  0
SECTION
  2
CLASSES
  0
ENDSEC
  0
SECTION
  2
TABLES
  0
TABLE
  2
VPORT
  5
8
330
0
100
AcDbSymbolTable
 70
    1
  0
VPORT
  5
31
330
2
100
AcDbSymbolTableRecord
100
AcDbViewportTableRecord
  2
*ACTIVE
 70
    0
 10
0
 20
0
 11
1
 21
1
 12
81.8996929278634
 22
61.70524809633544
 13
0
 23
0
 14
10
 24
10
 15
10
 25
10
 16
0
 26
0
 36
1
 17
0
 27
0
 37
0
 40
127.4493851589765
 41
1.735915492957746
 42
50
 43
0
 44
0
 50
0
 51
0
 71
    0
 72
  100
 73
    1
 74
    3
 75
    0
 76
    1
 77
    0
 78
    0
281
    0
 65
    1
110
0
120
0
130
0
111
1
121
0
131
0
112
0
122
1
132
0
 79
    0
146
0
348
10020
 60
    7
 61
    5
292
1
282
    1
141
0
142
0
 63
  250
421
3358443
  0
ENDTAB
  0
TABLE
  2
LTYPE
  5
5
330
0
100
AcDbSymbolTable
 70
    4
  0
LTYPE
  5
14
330
5
100
AcDbSymbolTableRecord
100
AcDbLinetypeTableRecord
  2
ByBlock
 70
    0
  3

 72
   65
 73
    0
 40
0
  0
LTYPE
  5
15
330
5
100
AcDbSymbolTableRecord
100
AcDbLinetypeTableRecord
  2
ByLayer
 70
    0
  3

 72
   65
 73
    0
 40
0
  0
LTYPE
  5
16
330
5
100
AcDbSymbolTableRecord
100
AcDbLinetypeTableRecord
  2
Continuous
 70
    0
  3
Solid line
 72
   65
 73
    0
 40
0
  0
LTYPE
  5
32
330
5
100
AcDbSymbolTableRecord
100
AcDbLinetypeTableRecord
  2
DOT
 70
    0
  3
Dot . . . . . . . . . . . . . . . . . . . . . .
 72
   65
 73
    2
 40
6.35
 49
0
 74
    0
 49
-6.35
 74
    0
  0
LTYPE
  5
33
330
5
100
AcDbSymbolTableRecord
100
AcDbLinetypeTableRecord
  2
DOTTINY
 70
    0
  3
Dot (.15x) .....................................
 72
   65
 73
    2
 40
0.9525
 49
0
 74
    0
 49
-0.9525
 74
    0
  0
LTYPE
  5
34
330
5
100
AcDbSymbolTableRecord
100
AcDbLinetypeTableRecord
  2
DOT2
 70
    0
  3
Dot (.5x) .....................................
 72
   65
 73
    2
 40
3.175
 49
0
 74
    0
 49
-3.175
 74
    0
  0
LTYPE
  5
35
330
5
100
AcDbSymbolTableRecord
100
AcDbLinetypeTableRecord
  2
DOTX2
 70
    0
  3
Dot (2x) .  .  .  .  .  .  .  .  .  .  .  .  .
 72
   65
 73
    2
 40
12.7
 49
0
 74
    0
 49
-12.7
 74
    0
  0
LTYPE
  5
36
330
5
100
AcDbSymbolTableRecord
100
AcDbLinetypeTableRecord
  2
DASHED
 70
    0
  3
Dashed _ _ _ _ _ _ _ _ _ _ _ _ _ _ _ _ _
 72
   65
 73
    2
 40
19.05
 49
12.7
 74
    0
 49
-6.35
 74
    0
  0
LTYPE
  5
37
330
5
100
AcDbSymbolTableRecord
100
AcDbLinetypeTableRecord
  2
DASHEDTINY
 70
    0
  3
Dashed (.15x) _ _ _ _ _ _ _ _ _ _ _ _ _ _ _ _ _
 72
   65
 73
    2
 40
2.8575
 49
1.905
 74
    0
 49
-0.9525
 74
    0
  0
LTYPE
  5
38
330
5
100
AcDbSymbolTableRecord
100
AcDbLinetypeTableRecord
  2
DASHED2
 70
    0
  3
Dashed (.5x) _ _ _ _ _ _ _ _ _ _ _ _ _ _ _ _ _
 72
   65
 73
    2
 40
9.524999999999999
 49
6.35
 74
    0
 49
-3.175
 74
    0
  0
LTYPE
  5
39
330
5
100
AcDbSymbolTableRecord
100
AcDbLinetypeTableRecord
  2
DASHEDX2
 70
    0
  3
Dashed (2x) ____  ____  ____  ____  ____  ___
 72
   65
 73
    2
 40
38.09999999999999
 49
25.4
 74
    0
 49
-12.7
 74
    0
  0
LTYPE
  5
3A
330
5
100
AcDbSymbolTableRecord
100
AcDbLinetypeTableRecord
  2
DASHDOT
 70
    0
  3
Dash dot __ . __ . __ . __ . __ . __ . __ . __
 72
   65
 73
    4
 40
25.4
 49
12.7
 74
    0
 49
-6.35
 74
    0
 49
0
 74
    0
 49
-6.35
 74
    0
  0
LTYPE
  5
3B
330
5
100
AcDbSymbolTableRecord
100
AcDbLinetypeTableRecord
  2
DASHDOTTINY
 70
    0
  3
Dash dot (.15x) _._._._._._._._._._._._._._._.
 72
   65
 73
    4
 40
3.81
 49
1.905
 74
    0
 49
-0.9525
 74
    0
 49
0
 74
    0
 49
-0.9525
 74
    0
  0
LTYPE
  5
3C
330
5
100
AcDbSymbolTableRecord
100
AcDbLinetypeTableRecord
  2
DASHDOT2
 70
    0
  3
Dash dot (.5x) _._._._._._._._._._._._._._._.
 72
   65
 73
    4
 40
12.7
 49
6.35
 74
    0
 49
-3.175
 74
    0
 49
0
 74
    0
 49
-3.175
 74
    0
  0
LTYPE
  5
3D
330
5
100
AcDbSymbolTableRecord
100
AcDbLinetypeTableRecord
  2
DASHDOTX2
 70
    0
  3
Dash dot (2x) ____  .  ____  .  ____  .  ___
 72
   65
 73
    4
 40
50.8
 49
25.4
 74
    0
 49
-12.7
 74
    0
 49
0
 74
    0
 49
-12.7
 74
    0
  0
LTYPE
  5
3E
330
5
100
AcDbSymbolTableRecord
100
AcDbLinetypeTableRecord
  2
DIVIDE
 70
    0
  3
Divide ____ . . ____ . . ____ . . ____ . . ____
 72
   65
 73
    6
 40
31.75
 49
12.7
 74
    0
 49
-6.35
 74
    0
 49
0
 74
    0
 49
-6.35
 74
    0
 49
0
 74
    0
 49
-6.35
 74
    0
  0
LTYPE
  5
3F
330
5
100
AcDbSymbolTableRecord
100
AcDbLinetypeTableRecord
  2
DIVIDETINY
 70
    0
  3
Divide (.15x) __..__..__..__..__..__..__..__.._
 72
   65
 73
    6
 40
4.7625
 49
1.905
 74
    0
 49
-0.9525
 74
    0
 49
0
 74
    0
 49
-0.9525
 74
    0
 49
0
 74
    0
 49
-0.9525
 74
    0
  0
LTYPE
  5
40
330
5
100
AcDbSymbolTableRecord
100
AcDbLinetypeTableRecord
  2
DIVIDE2
 70
    0
  3
Divide (.5x) __..__..__..__..__..__..__..__.._
 72
   65
 73
    6
 40
15.875
 49
6.35
 74
    0
 49
-3.175
 74
    0
 49
0
 74
    0
 49
-3.175
 74
    0
 49
0
 74
    0
 49
-3.175
 74
    0
  0
LTYPE
  5
41
330
5
100
AcDbSymbolTableRecord
100
AcDbLinetypeTableRecord
  2
DIVIDEX2
 70
    0
  3
Divide (2x) ________  .  .  ________  .  .  _
 72
   65
 73
    6
 40
63.5
 49
25.4
 74
    0
 49
-12.7
 74
    0
 49
0
 74
    0
 49
-12.7
 74
    0
 49
0
 74
    0
 49
-12.7
 74
    0
  0
LTYPE
  5
42
330
5
100
AcDbSymbolTableRecord
100
AcDbLinetypeTableRecord
  2
BORDER
 70
    0
  3
Border __ __ . __ __ . __ __ . __ __ . __ __ .
 72
   65
 73
    6
 40
44.45
 49
12.7
 74
    0
 49
-6.35
 74
    0
 49
12.7
 74
    0
 49
-6.35
 74
    0
 49
0
 74
    0
 49
-6.35
 74
    0
  0
LTYPE
  5
43
330
5
100
AcDbSymbolTableRecord
100
AcDbLinetypeTableRecord
  2
BORDERTINY
 70
    0
  3
Border (.15x) __.__.__.__.__.__.__.__.__.__.__.
 72
   65
 73
    6
 40
6.6675
 49
1.905
 74
    0
 49
-0.9525
 74
    0
 49
1.905
 74
    0
 49
-0.9525
 74
    0
 49
0
 74
    0
 49
-0.9525
 74
    0
  0
LTYPE
  5
44
330
5
100
AcDbSymbolTableRecord
100
AcDbLinetypeTableRecord
  2
BORDER2
 70
    0
  3
Border (.5x) __.__.__.__.__.__.__.__.__.__.__.
 72
   65
 73
    6
 40
22.225
 49
6.35
 74
    0
 49
-3.175
 74
    0
 49
6.35
 74
    0
 49
-3.175
 74
    0
 49
0
 74
    0
 49
-3.175
 74
    0
  0
LTYPE
  5
45
330
5
100
AcDbSymbolTableRecord
100
AcDbLinetypeTableRecord
  2
BORDERX2
 70
    0
  3
Border (2x) ____  ____  .  ____  ____  .  ___
 72
   65
 73
    6
 40
88.89999999999999
 49
25.4
 74
    0
 49
-12.7
 74
    0
 49
25.4
 74
    0
 49
-12.7
 74
    0
 49
0
 74
    0
 49
-12.7
 74
    0
  0
LTYPE
  5
46
330
5
100
AcDbSymbolTableRecord
100
AcDbLinetypeTableRecord
  2
CENTER
 70
    0
  3
Center ____ _ ____ _ ____ _ ____ _ ____ _ ____
 72
   65
 73
    4
 40
50.8
 49
31.75
 74
    0
 49
-6.35
 74
    0
 49
6.35
 74
    0
 49
-6.35
 74
    0
  0
LTYPE
  5
47
330
5
100
AcDbSymbolTableRecord
100
AcDbLinetypeTableRecord
  2
CENTERTINY
 70
    0
  3
Center (.15x) ___ _ ___ _ ___ _ ___ _ ___ _ ___
 72
   65
 73
    4
 40
7.619999999999999
 49
4.7625
 74
    0
 49
-0.9525
 74
    0
 49
0.9525
 74
    0
 49
-0.9525
 74
    0
  0
LTYPE
  5
48
330
5
100
AcDbSymbolTableRecord
100
AcDbLinetypeTableRecord
  2
CENTER2
 70
    0
  3
Center (.5x) ___ _ ___ _ ___ _ ___ _ ___ _ ___
 72
   65
 73
    4
 40
28.575
 49
19.05
 74
    0
 49
-3.175
 74
    0
 49
3.175
 74
    0
 49
-3.175
 74
    0
  0
LTYPE
  5
49
330
5
100
AcDbSymbolTableRecord
100
AcDbLinetypeTableRecord
  2
CENTERX2
 70
    0
  3
Center (2x) ________  __  ________  __  _____
 72
   65
 73
    4
 40
101.6
 49
63.5
 74
    0
 49
-12.7
 74
    0
 49
12.7
 74
    0
 49
-12.7
 74
    0
  0
ENDTAB
  0
TABLE
  2
LAYER
  5
2
330
0
100
AcDbSymbolTable
 70
    1
  0
LAYER
  5
10
330
2
100
AcDbSymbolTableRecord
100
AcDbLayerTableRecord
  2
0
 70
    1
 62
    7
  6
CONTINUOUS
370
    0
390
F
  0
LAYER
  5
4A
330
2
100
AcDbSymbolTableRecord
100
AcDbLayerTableRecord
  2
columns
 70
    0
 62
    2
  6
CONTINUOUS
370
    0
390
F
  0
LAYER
  5
4B
330
2
100
AcDbSymbolTableRecord
100
AcDbLayerTableRecord
  2
guides
 70
    5
 62
    3
  6
CONTINUOUS
370
    0
390
F
1001
LibreCad
1070
    1
  0
LAYER
  5
4C
330
2
100
AcDbSymbolTableRecord
100
AcDbLayerTableRecord
  2
holes
 70
    0
 62
    1
  6
CONTINUOUS
370
    0
390
F
  0
LAYER
  5
4D
330
2
100
AcDbSymbolTableRecord
100
AcDbLayerTableRecord
  2
rounders
 70
    0
 62
    5
  6
CONTINUOUS
370
    0
390
F
  0
LAYER
  5
4E
330
2
100
AcDbSymbolTableRecord
100
AcDbLayerTableRecord
  2
squares
 70
    0
 62
    4
  6
CONTINUOUS
370
    0
390
F
  0
LAYER
  5
4F
330
2
100
AcDbSymbolTableRecord
100
AcDbLayerTableRecord
  2
testGuides
 70
    5
 62
  216
420
8388736
  6
CONTINUOUS
370
    0
390
F
1001
LibreCad
1070
    1
  0
ENDTAB
  0
TABLE
  2
STYLE
  5
3
330
0
100
AcDbSymbolTable
 70
    3
  0
STYLE
  5
50
330
2
100
AcDbSymbolTableRecord
100
AcDbTextStyleTableRecord
  2
opengosttypeb-regular
 70
    0
 40
0
 41
1
 50
0
 71
    0
 42
1
  3
opengosttypeb-regular
  4

  0
STYLE
  5
51
330
2
100
AcDbSymbolTableRecord
100
AcDbTextStyleTableRecord
  2
Standard
 70
    0
 40
0
 41
1
 50
0
 71
    0
 42
1
  3
txt
  4

  0
ENDTAB
  0
TABLE
  2
VIEW
  5
6
330
0
100
AcDbSymbolTable
 70
    0
  0
ENDTAB
  0
TABLE
  2
UCS
  5
7
330
0
100
AcDbSymbolTable
 70
    0
  0
ENDTAB
  0
TABLE
  2
APPID
  5
9
330
0
100
AcDbSymbolTable
 70
    1
  0
APPID
  5
12
330
9
100
AcDbSymbolTableRecord
100
AcDbRegAppTableRecord
  2
ACAD
 70
    0
  0
APPID
  5
52
330
9
100
AcDbSymbolTableRecord
100
AcDbRegAppTableRecord
  2
LibreCad
 70
    0
  0
ENDTAB
  0
TABLE
  2
DIMSTYLE
  5
A
330
0
100
AcDbSymbolTable
 70
    1
100
AcDbDimStyleTable
 71
    1
  0
DIMSTYLE
105
53
330
A
100
AcDbSymbolTableRecord
100
AcDbDimStyleTableRecord
  2
Standard
 70
    0
 40
1
 41
2.5
 42
0.625
 43
0.38
 44
1.25
 45
0
 46
0
 47
0
 48
0
 49
1
140
2.5
141
0.09
142
0
143
25.4
144
1
145
0
146
1
147
0.625
148
0
 71
    0
 72
    0
 73
    0
 74
    1
 75
    0
 76
    0
 77
    0
 78
    8
 79
    0
170
    0
171
    2
172
    0
173
    0
174
    0
175
    0
176
    0
177
    0
178
    0
179
    0
271
    2
272
    4
273
    2
274
    2
275
    0
276
    0
277
    2
278
   44
279
    0
280
    0
281
    0
282
    0
283
    1
284
    0
285
    0
286
    0
288
    0
289
    3
340
STANDARD
341

371
   -2
372
   -2
  0
ENDTAB
  0
TABLE
  2
BLOCK_RECORD
  5
1
330
0
100
AcDbSymbolTable
 70
    2
  0
BLOCK_RECORD
  5
1F
330
1
100
AcDbSymbolTableRecord
100
AcDbBlockTableRecord
  2
*Model_Space
 70
    0
280
    1
281
    0
  0
BLOCK_RECORD
  5
1E
330
1
100
AcDbSymbolTableRecord
100
AcDbBlockTableRecord
  2
*Paper_Space
 70
    0
280
    1
281
    0
  0
BLOCK_RECORD
  5
54
330
1
100
AcDbSymbolTableRecord
100
AcDbBlockTableRecord
  2
*D4
 70
    0
280
    1
281
    0
  0
BLOCK_RECORD
  5
57
330
1
100
AcDbSymbolTableRecord
100
AcDbBlockTableRecord
  2
*D11
 70
    0
280
    1
281
    0
  0
BLOCK_RECORD
  5
5A
330
1
100
AcDbSymbolTableRecord
100
AcDbBlockTableRecord
  2
*D7
 70
    0
280
    1
281
    0
  0
BLOCK_RECORD
  5
5D
330
1
100
AcDbSymbolTableRecord
100
AcDbBlockTableRecord
  2
*D8
 70
    0
280
    1
281
    0
  0
BLOCK_RECORD
  5
60
330
1
100
AcDbSymbolTableRecord
100
AcDbBlockTableRecord
  2
*D9
 70
    0
280
    1
281
    0
  0
BLOCK_RECORD
  5
63
330
1
100
AcDbSymbolTableRecord
100
AcDbBlockTableRecord
  2
*D3
 70
    0
280
    1
281
    0
  0
BLOCK_RECORD
  5
66
330
1
100
AcDbSymbolTableRecord
100
AcDbBlockTableRecord
  2
*D6
 70
    0
280
    1
281
    0
  0
BLOCK_RECORD
  5
69
330
1
100
AcDbSymbolTableRecord
100
AcDbBlockTableRecord
  2
*D12
 70
    0
280
    1
281
    0
  0
BLOCK_RECORD
  5
6C
330
1
100
AcDbSymbolTableRecord
100
AcDbBlockTableRecord
  2
*D1
 70
    0
280
    1
281
    0
  0
BLOCK_RECORD
  5
6F
330
1
100
AcDbSymbolTableRecord
100
AcDbBlockTableRecord
  2
*D5
 70
    0
280
    1
281
    0
  0
BLOCK_RECORD
  5
72
330
1
100
AcDbSymbolTableRecord
100
AcDbBlockTableRecord
  2
*D2
 70
    0
280
    1
281
    0
  0
BLOCK_RECORD
  5
75
330
1
100
AcDbSymbolTableRecord
100
AcDbBlockTableRecord
  2
*D10
 70
    0
280
    1
281
    0
  0
BLOCK_RECORD
  5
78
330
1
100
AcDbSymbolTableRecord
100
AcDbBlockTableRecord
  2
cam1
 70
    0
280
    1
281
    0
  0
BLOCK_RECORD
  5
7B
330
1
100
AcDbSymbolTableRecord
100
AcDbBlockTableRecord
  2
cam3
 70
    0
280
    1
281
    0
  0
BLOCK_RECORD
  5
7E
330
1
100
AcDbSymbolTableRecord
100
AcDbBlockTableRecord
  2
cam2
 70
    0
280
    1
281
    0
  0
BLOCK_RECORD
  5
81
330
1
100
AcDbSymbolTableRecord
100
AcDbBlockTableRecord
  2
cam2fixed
 70
    0
280
    1
281
    0
  0
BLOCK_RECORD
  5
84
330
1
100
AcDbSymbolTableRecord
100
AcDbBlockTableRecord
  2
Base1
 70
    0
280
    1
281
    0
  0
BLOCK_RECORD
  5
87
330
1
100
AcDbSymbolTableRecord
100
AcDbBlockTableRecord
  2
Base2
 70
    0
280
    1
281
    0
  0
BLOCK_RECORD
  5
8A
330
1
100
AcDbSymbolTableRecord
100
AcDbBlockTableRecord
  2
Base3
 70
    0
280
    1
281
    0
  0
ENDTAB
  0
ENDSEC
  0
SECTION
  2
BLOCKS
  0
BLOCK
  5
20
330
1F
100
AcDbEntity
  8
0
100
AcDbBlockBegin
  2
*Model_Space
 70
    0
 10
0
 20
0
 30
0
  3
*Model_Space
  1

  0
ENDBLK
  5
21
330
1F
100
AcDbEntity
  8
0
100
AcDbBlockEnd
  0
BLOCK
  5
1C
330
1B
100
AcDbEntity
  8
0
100
AcDbBlockBegin
  2
*Paper_Space
 70
    0
 10
0
 20
0
 30
0
  3
*Paper_Space
  1

  0
ENDBLK
  5
1D
330
1F
100
AcDbEntity
  8
0
100
AcDbBlockEnd
  0
BLOCK
  5
55
330
54
100
AcDbEntity
  8
0
100
AcDbBlockBegin
  2
*D4
 70
    1
 10
0
 20
0
  3
*D4
  1

  0
LINE
  5
8D
100
AcDbEntity
  8
testGuides
  6
ByBlock
 62
    0
370
   -2
100
AcDbLine
 10
103.8823999999997
 20
62.61108401220027
 11
103.8823999999997
 21
77.61108401220027
  0
SOLID
  5
8E
100
AcDbEntity
  8
testGuides
  6
ByBlock
 62
    0
370
   -2
100
AcDbTrace
 10
103.8823999999997
 20
67.61108401220027
 30
0
 11
104.2986846577725
 21
65.11108401220027
 31
0
 12
103.4661153422269
 22
65.11108401220027
 32
0
 13
103.4661153422269
 23
65.11108401220027
 33
0
  0
SOLID
  5
8F
100
AcDbEntity
  8
testGuides
  6
ByBlock
 62
    0
370
   -2
100
AcDbTrace
 10
103.8823999999997
 20
72.61108401220027
 30
0
 11
103.4661153422269
 21
75.11108401220027
 31
0
 12
104.2986846577725
 22
75.11108401220027
 32
0
 13
104.2986846577725
 23
75.11108401220027
 33
0
  0
MTEXT
  5
90
100
AcDbEntity
  8
testGuides
  6
CONTINUOUS
 62
    0
370
   -2
100
AcDbMText
 10
102.0073999999997
 20
70.11108401220027
 30
0
 40
2.5
 41
1.111111111111266
 71
    5
 72
    1
  1
5
  7
STANDARD
210
0
220
0
230
1
 50
90
 73
    2
 44
1
  0
LINE
  5
91
100
AcDbEntity
  8
testGuides
  6
ByBlock
 62
    0
370
   -2
100
AcDbLine
 10
103.0072840122002
 20
67.61108401220027
 11
105.1323999999997
 21
67.61108401220027
  0
LINE
  5
92
100
AcDbEntity
  8
testGuides
  6
ByBlock
 62
    0
370
   -2
100
AcDbLine
 10
103.0072840122002
 20
72.61108401220027
 11
105.1323999999997
 21
72.61108401220027
  0
ENDBLK
  5
56
330
54
100
AcDbEntity
  8
0
100
AcDbBlockEnd
  0
BLOCK
  5
58
330
57
100
AcDbEntity
  8
0
100
AcDbBlockBegin
  2
*D11
 70
    1
 10
0
 20
0
  3
*D11
  1

  0
LINE
  5
93
100
AcDbEntity
  8
testGuides
  6
ByBlock
 62
    0
370
   -2
100
AcDbLine
 10
42.38239999999993
 20
66.11120000000004
 11
57.38239999999994
 21
66.11120000000004
  0
SOLID
  5
94
100
AcDbEntity
  8
testGuides
  6
ByBlock
 62
    0
370
   -2
100
AcDbTrace
 10
47.38239999999993
 20
66.11120000000004
 30
0
 11
44.88239999999993
 21
65.6949153422272
 31
0
 12
44.88239999999993
 22
66.52748465777287
 32
0
 13
44.88239999999993
 23
66.52748465777287
 33
0
  0
SOLID
  5
95
100
AcDbEntity
  8
testGuides
  6
ByBlock
 62
    0
370
   -2
100
AcDbTrace
 10
52.38239999999994
 20
66.11120000000004
 30
0
 11
54.88239999999994
 21
66.52748465777287
 31
0
 12
54.88239999999994
 22
65.6949153422272
 32
0
 13
54.88239999999994
 23
65.6949153422272
 33
0
  0
MTEXT
  5
96
100
AcDbEntity
  8
testGuides
  6
CONTINUOUS
 62
    0
370
   -2
100
AcDbMText
 10
49.88239999999993
 20
67.98620000000004
 30
0
 40
2.5
 41
1.111111111111266
 71
    5
 72
    1
  1
5
  7
STANDARD
210
0
220
0
230
1
 50
0
 73
    2
 44
1
  0
LINE
  5
97
100
AcDbEntity
  8
testGuides
  6
ByBlock
 62
    0
370
   -2
100
AcDbLine
 10
47.38239999999993
 20
66.98620000000001
 11
47.38239999999993
 21
64.86120000000004
  0
LINE
  5
98
100
AcDbEntity
  8
testGuides
  6
ByBlock
 62
    0
370
   -2
100
AcDbLine
 10
52.38239999999994
 20
66.98620000000001
 11
52.38239999999994
 21
64.86120000000004
  0
ENDBLK
  5
59
330
57
100
AcDbEntity
  8
0
100
AcDbBlockEnd
  0
BLOCK
  5
5B
330
5A
100
AcDbEntity
  8
0
100
AcDbBlockBegin
  2
*D7
 70
    1
 10
0
 20
0
  3
*D7
  1

  0
LINE
  5
99
100
AcDbEntity
  8
testGuides
  6
ByBlock
 62
    0
370
   -2
100
AcDbLine
 10
67.35326416008448
 20
64.895933249142
 11
82.85326416008449
 21
64.895933249142
  0
SOLID
  5
9A
100
AcDbEntity
  8
testGuides
  6
ByBlock
 62
    0
370
   -2
100
AcDbTrace
 10
72.35326416008448
 20
64.895933249142
 30
0
 11
69.85326416008448
 21
64.47964859136917
 31
0
 12
69.85326416008448
 22
65.31221790691484
 32
0
 13
69.85326416008448
 23
65.31221790691484
 33
0
  0
SOLID
  5
9B
100
AcDbEntity
  8
testGuides
  6
ByBlock
 62
    0
370
   -2
100
AcDbTrace
 10
77.85326416008449
 20
64.895933249142
 30
0
 11
80.35326416008449
 21
65.31221790691484
 31
0
 12
80.35326416008449
 22
64.47964859136917
 32
0
 13
80.35326416008449
 23
64.47964859136917
 33
0
  0
MTEXT
  5
9C
100
AcDbEntity
  8
testGuides
  6
CONTINUOUS
 62
    0
370
   -2
100
AcDbMText
 10
75.10326416008448
 20
66.770933249142
 30
0
 40
2.5
 41
4.027777777778088
 71
    5
 72
    1
  1
5,5
  7
STANDARD
210
0
220
0
230
1
 50
0
 73
    2
 44
1
  0
LINE
  5
9D
100
AcDbEntity
  8
testGuides
  6
ByBlock
 62
    0
370
   -2
100
AcDbLine
 10
72.35326416008448
 20
65.52093324914205
 11
72.35326416008448
 21
66.145933249142
  0
LINE
  5
9E
100
AcDbEntity
  8
testGuides
  6
ByBlock
 62
    0
370
   -2
100
AcDbLine
 10
77.85326416008449
 20
65.52093324914202
 11
77.85326416008449
 21
66.145933249142
  0
ENDBLK
  5
5C
330
5A
100
AcDbEntity
  8
0
100
AcDbBlockEnd
  0
BLOCK
  5
5E
330
5D
100
AcDbEntity
  8
0
100
AcDbBlockBegin
  2
*D8
 70
    1
 10
0
 20
0
  3
*D8
  1

  0
LINE
  5
9F
100
AcDbEntity
  8
testGuides
  6
ByBlock
 62
    0
370
   -2
100
AcDbLine
 10
78.46599023817018
 20
77.86119999999998
 11
78.46599023817018
 21
62.36119999999998
  0
SOLID
  5
A0
100
AcDbEntity
  8
testGuides
  6
ByBlock
 62
    0
370
   -2
100
AcDbTrace
 10
78.46599023817018
 20
72.86119999999998
 30
0
 11
78.04970558039734
 21
75.36119999999998
 31
0
 12
78.88227489594301
 22
75.36119999999998
 32
0
 13
78.88227489594301
 23
75.36119999999998
 33
0
  0
SOLID
  5
A1
100
AcDbEntity
  8
testGuides
  6
ByBlock
 62
    0
370
   -2
100
AcDbTrace
 10
78.46599023817018
 20
67.36119999999998
 30
0
 11
78.88227489594301
 21
64.86119999999998
 31
0
 12
78.04970558039734
 22
64.86119999999998
 32
0
 13
78.04970558039734
 23
64.86119999999998
 33
0
  0
MTEXT
  5
A2
100
AcDbEntity
  8
testGuides
  6
CONTINUOUS
 62
    0
370
   -2
100
AcDbMText
 10
76.59099023817018
 20
70.11119999999998
 30
0
 40
2.5
 41
4.027777777778088
 71
    5
 72
    1
  1
5,5
  7
STANDARD
210
0
220
0
230
1
 50
90
 73
    2
 44
1
  0
LINE
  5
A3
100
AcDbEntity
  8
testGuides
  6
ByBlock
 62
    0
370
   -2
100
AcDbLine
 10
78.25740000000005
 20
72.86119999999998
 11
79.71599023817018
 21
72.86119999999998
  0
LINE
  5
A4
100
AcDbEntity
  8
testGuides
  6
ByBlock
 62
    0
370
   -2
100
AcDbLine
 10
78.25740000000005
 20
67.36119999999998
 11
79.71599023817018
 21
67.36119999999998
  0
ENDBLK
  5
5F
330
5D
100
AcDbEntity
  8
0
100
AcDbBlockEnd
  0
BLOCK
  5
61
330
60
100
AcDbEntity
  8
0
100
AcDbBlockBegin
  2
*D9
 70
    1
 10
0
 20
0
  3
*D9
  1

  0
LINE
  5
A5
100
AcDbEntity
  8
testGuides
  6
ByBlock
 62
    0
370
   -2
100
AcDbLine
 10
79.04478500206312
 20
32.61108401220027
 11
79.04478500206312
 21
47.61108401220027
  0
SOLID
  5
A6
100
AcDbEntity
  8
testGuides
  6
ByBlock
 62
    0
370
   -2
100
AcDbTrace
 10
79.04478500206312
 20
37.61108401220027
 30
0
 11
79.46106965983596
 21
35.11108401220027
 31
0
 12
78.62850034429029
 22
35.11108401220027
 32
0
 13
78.62850034429029
 23
35.11108401220027
 33
0
  0
SOLID
  5
A7
100
AcDbEntity
  8
testGuides
  6
ByBlock
 62
    0
370
   -2
100
AcDbTrace
 10
79.04478500206312
 20
42.61108401220027
 30
0
 11
78.62850034429029
 21
45.11108401220027
 31
0
 12
79.46106965983596
 22
45.11108401220027
 32
0
 13
79.46106965983596
 23
45.11108401220027
 33
0
  0
MTEXT
  5
A8
100
AcDbEntity
  8
testGuides
  6
CONTINUOUS
 62
    0
370
   -2
100
AcDbMText
 10
77.16978500206312
 20
40.11108401220027
 30
0
 40
2.5
 41
1.111111111111266
 71
    5
 72
    1
  1
5
  7
STANDARD
210
0
220
0
230
1
 50
90
 73
    2
 44
1
  0
LINE
  5
A9
100
AcDbEntity
  8
testGuides
  6
ByBlock
 62
    0
370
   -2
100
AcDbLine
 10
78.00739999999995
 20
37.61108401220027
 11
80.29478500206312
 21
37.61108401220027
  0
LINE
  5
AA
100
AcDbEntity
  8
testGuides
  6
ByBlock
 62
    0
370
   -2
100
AcDbLine
 10
78.00739999999995
 20
42.61108401220027
 11
80.29478500206312
 21
42.61108401220027
  0
ENDBLK
  5
62
330
60
100
AcDbEntity
  8
0
100
AcDbBlockEnd
  0
BLOCK
  5
64
330
63
100
AcDbEntity
  8
0
100
AcDbBlockBegin
  2
*D3
 70
    1
 10
0
 20
0
  3
*D3
  1

  0
LINE
  5
AB
100
AcDbEntity
  8
testGuides
  6
ByBlock
 62
    0
370
   -2
100
AcDbLine
 10
92.38228401220016
 20
66.11120000000014
 11
107.3822840122002
 21
66.11120000000014
  0
SOLID
  5
AC
100
AcDbEntity
  8
testGuides
  6
ByBlock
 62
    0
370
   -2
100
AcDbTrace
 10
97.38228401220016
 20
66.11120000000014
 30
0
 11
94.88228401220016
 21
65.6949153422273
 31
0
 12
94.88228401220016
 22
66.52748465777297
 32
0
 13
94.88228401220016
 23
66.52748465777297
 33
0
  0
SOLID
  5
AD
100
AcDbEntity
  8
testGuides
  6
ByBlock
 62
    0
370
   -2
100
AcDbTrace
 10
102.3822840122002
 20
66.11120000000014
 30
0
 11
104.8822840122002
 21
66.52748465777297
 31
0
 12
104.8822840122002
 22
65.6949153422273
 32
0
 13
104.8822840122002
 23
65.6949153422273
 33
0
  0
MTEXT
  5
AE
100
AcDbEntity
  8
testGuides
  6
CONTINUOUS
 62
    0
370
   -2
100
AcDbMText
 10
99.88228401220016
 20
67.98620000000014
 30
0
 40
2.5
 41
1.111111111111266
 71
    5
 72
    1
  1
5
  7
STANDARD
210
0
220
0
230
1
 50
0
 73
    2
 44
1
  0
LINE
  5
AF
100
AcDbEntity
  8
testGuides
  6
ByBlock
 62
    0
370
   -2
100
AcDbLine
 10
97.38228401220016
 20
66.98608401220027
 11
97.38228401220016
 21
64.86120000000014
  0
LINE
  5
B0
100
AcDbEntity
  8
testGuides
  6
ByBlock
 62
    0
370
   -2
100
AcDbLine
 10
102.3822840122002
 20
66.98608401220027
 11
102.3822840122002
 21
64.86120000000014
  0
ENDBLK
  5
65
330
63
100
AcDbEntity
  8
0
100
AcDbBlockEnd
  0
BLOCK
  5
67
330
66
100
AcDbEntity
  8
0
100
AcDbBlockBegin
  2
*D6
 70
    1
 10
0
 20
0
  3
*D6
  1

  0
LINE
  5
B1
100
AcDbEntity
  8
testGuides
  6
ByBlock
 62
    0
370
   -2
100
AcDbLine
 10
67.38239999999993
 20
36.1112000000002
 11
82.38239999999995
 21
36.1112000000002
  0
SOLID
  5
B2
100
AcDbEntity
  8
testGuides
  6
ByBlock
 62
    0
370
   -2
100
AcDbTrace
 10
72.38239999999993
 20
36.1112000000002
 30
0
 11
69.88239999999993
 21
35.69491534222736
 31
0
 12
69.88239999999993
 22
36.52748465777304
 32
0
 13
69.88239999999993
 23
36.52748465777304
 33
0
  0
SOLID
  5
B3
100
AcDbEntity
  8
testGuides
  6
ByBlock
 62
    0
370
   -2
100
AcDbTrace
 10
77.38239999999995
 20
36.1112000000002
 30
0
 11
79.88239999999995
 21
36.52748465777304
 31
0
 12
79.88239999999995
 22
35.69491534222736
 32
0
 13
79.88239999999995
 23
35.69491534222736
 33
0
  0
MTEXT
  5
B4
100
AcDbEntity
  8
testGuides
  6
CONTINUOUS
 62
    0
370
   -2
100
AcDbMText
 10
74.88239999999993
 20
37.9862000000002
 30
0
 40
2.5
 41
1.111111111111266
 71
    5
 72
    1
  1
5
  7
STANDARD
210
0
220
0
230
1
 50
0
 73
    2
 44
1
  0
LINE
  5
B5
100
AcDbEntity
  8
testGuides
  6
ByBlock
 62
    0
370
   -2
100
AcDbLine
 10
72.38239999999993
 20
36.98608401220027
 11
72.38239999999993
 21
34.8612000000002
  0
LINE
  5
B6
100
AcDbEntity
  8
testGuides
  6
ByBlock
 62
    0
370
   -2
100
AcDbLine
 10
77.38239999999995
 20
36.98608401220027
 11
77.38239999999995
 21
34.8612000000002
  0
ENDBLK
  5
68
330
66
100
AcDbEntity
  8
0
100
AcDbBlockEnd
  0
BLOCK
  5
6A
330
69
100
AcDbEntity
  8
0
100
AcDbBlockBegin
  2
*D12
 70
    1
 10
0
 20
0
  3
*D12
  1

  0
LINE
  5
B7
100
AcDbEntity
  8
testGuides
  6
ByBlock
 62
    0
370
   -2
100
AcDbLine
 10
59.88239999999992
 20
62.61120000000001
 11
59.88239999999992
 21
77.61120000000001
  0
SOLID
  5
B8
100
AcDbEntity
  8
testGuides
  6
ByBlock
 62
    0
370
   -2
100
AcDbTrace
 10
59.88239999999992
 20
67.61120000000001
 30
0
 11
60.29868465777276
 21
65.11120000000001
 31
0
 12
59.46611534222708
 22
65.11120000000001
 32
0
 13
59.46611534222708
 23
65.11120000000001
 33
0
  0
SOLID
  5
B9
100
AcDbEntity
  8
testGuides
  6
ByBlock
 62
    0
370
   -2
100
AcDbTrace
 10
59.88239999999992
 20
72.61120000000001
 30
0
 11
59.46611534222708
 21
75.11120000000001
 31
0
 12
60.29868465777276
 22
75.11120000000001
 32
0
 13
60.29868465777276
 23
75.11120000000001
 33
0
  0
MTEXT
  5
BA
100
AcDbEntity
  8
testGuides
  6
CONTINUOUS
 62
    0
370
   -2
100
AcDbMText
 10
58.00739999999992
 20
70.11120000000001
 30
0
 40
2.5
 41
1.111111111111266
 71
    5
 72
    1
  1
5
  7
STANDARD
210
0
220
0
230
1
 50
90
 73
    2
 44
1
  0
LINE
  5
BB
100
AcDbEntity
  8
testGuides
  6
ByBlock
 62
    0
370
   -2
100
AcDbLine
 10
53.00739999999994
 20
67.61120000000001
 11
61.13239999999992
 21
67.61120000000001
  0
LINE
  5
BC
100
AcDbEntity
  8
testGuides
  6
ByBlock
 62
    0
370
   -2
100
AcDbLine
 10
53.00739999999994
 20
72.61120000000001
 11
61.13239999999992
 21
72.61120000000001
  0
ENDBLK
  5
6B
330
69
100
AcDbEntity
  8
0
100
AcDbBlockEnd
  0
BLOCK
  5
6D
330
6C
100
AcDbEntity
  8
0
100
AcDbBlockBegin
  2
*D1
 70
    1
 10
0
 20
0
  3
*D1
  1

  0
LINE
  5
BD
100
AcDbEntity
  8
guides
  6
ByBlock
 62
    0
370
   -2
100
AcDbLine
 10
12.56278249782704
 20
78.1112
 11
12.56278249782704
 21
30.45200000000001
  0
SOLID
  5
BE
100
AcDbEntity
  8
guides
  6
ByBlock
 62
    0
370
   -2
100
AcDbTrace
 10
12.56278249782704
 20
78.1112
 30
0
 11
12.97906715559988
 21
75.6112
 31
0
 12
12.1464978400542
 22
75.6112
 32
0
 13
12.1464978400542
 23
75.6112
 33
0
  0
SOLID
  5
BF
100
AcDbEntity
  8
guides
  6
ByBlock
 62
    0
370
   -2
100
AcDbTrace
 10
12.56278249782704
 20
30.45200000000001
 30
0
 11
12.1464978400542
 21
32.95200000000001
 31
0
 12
12.97906715559988
 22
32.95200000000001
 32
0
 13
12.97906715559988
 23
32.95200000000001
 33
0
  0
MTEXT
  5
C0
100
AcDbEntity
  8
guides
  6
CONTINUOUS
 62
    0
370
   -2
100
AcDbMText
 10
10.68778249782704
 20
54.2816
 30
0
 40
2.5
 41
8.194444444444756
 71
    5
 72
    1
  1
47,66
  7
STANDARD
210
0
220
0
230
1
 50
90
 73
    2
 44
1
  0
LINE
  5
C1
100
AcDbEntity
  8
guides
  6
ByBlock
 62
    0
370
   -2
100
AcDbLine
 10
49.25739999999994
 20
78.1112
 11
11.31278249782704
 21
78.1112
  0
LINE
  5
C2
100
AcDbEntity
  8
guides
  6
ByBlock
 62
    0
370
   -2
100
AcDbLine
 10
46.66920000000002
 20
30.452
 11
11.31278249782704
 21
30.45200000000001
  0
ENDBLK
  5
6E
330
6C
100
AcDbEntity
  8
0
100
AcDbBlockEnd
  0
BLOCK
  5
70
330
6F
100
AcDbEntity
  8
0
100
AcDbBlockBegin
  2
*D5
 70
    1
 10
0
 20
0
  3
*D5
  1

  0
LINE
  5
C3
100
AcDbEntity
  8
testGuides
  6
ByBlock
 62
    0
370
   -2
100
AcDbLine
 10
92.13239999999992
 20
37.36120000000001
 11
107.6323999999999
 21
37.36120000000001
  0
SOLID
  5
C4
100
AcDbEntity
  8
testGuides
  6
ByBlock
 62
    0
370
   -2
100
AcDbTrace
 10
97.13239999999992
 20
37.36120000000001
 30
0
 11
94.63239999999992
 21
36.94491534222717
 31
0
 12
94.63239999999992
 22
37.77748465777285
 32
0
 13
94.63239999999992
 23
37.77748465777285
 33
0
  0
SOLID
  5
C5
100
AcDbEntity
  8
testGuides
  6
ByBlock
 62
    0
370
   -2
100
AcDbTrace
 10
102.6323999999999
 20
37.36120000000001
 30
0
 11
105.1323999999999
 21
37.77748465777285
 31
0
 12
105.1323999999999
 22
36.94491534222717
 32
0
 13
105.1323999999999
 23
36.94491534222717
 33
0
  0
MTEXT
  5
C6
100
AcDbEntity
  8
testGuides
  6
CONTINUOUS
 62
    0
370
   -2
100
AcDbMText
 10
99.88239999999992
 20
39.23620000000001
 30
0
 40
2.5
 41
4.027777777778088
 71
    5
 72
    1
  1
5,5
  7
STANDARD
210
0
220
0
230
1
 50
0
 73
    2
 44
1
  0
LINE
  5
C7
100
AcDbEntity
  8
testGuides
  6
ByBlock
 62
    0
370
   -2
100
AcDbLine
 10
97.13239999999992
 20
37.98620000000001
 11
97.13239999999992
 21
38.61120000000001
  0
LINE
  5
C8
100
AcDbEntity
  8
testGuides
  6
ByBlock
 62
    0
370
   -2
100
AcDbLine
 10
102.6323999999999
 20
37.98620000000001
 11
102.6323999999999
 21
38.61120000000001
  0
ENDBLK
  5
71
330
6F
100
AcDbEntity
  8
0
100
AcDbBlockEnd
  0
BLOCK
  5
73
330
72
100
AcDbEntity
  8
0
100
AcDbBlockBegin
  2
*D2
 70
    1
 10
0
 20
0
  3
*D2
  1

  0
LINE
  5
C9
100
AcDbEntity
  8
guides
  6
ByBlock
 62
    0
370
   -2
100
AcDbLine
 10
30.12819874536136
 20
70.11120000000001
 11
30.12819874536136
 21
40.11120000000002
  0
SOLID
  5
CA
100
AcDbEntity
  8
guides
  6
ByBlock
 62
    0
370
   -2
100
AcDbTrace
 10
30.12819874536136
 20
70.11120000000001
 30
0
 11
30.5444834031342
 21
67.61120000000001
 31
0
 12
29.71191408758852
 22
67.61120000000001
 32
0
 13
29.71191408758852
 23
67.61120000000001
 33
0
  0
SOLID
  5
CB
100
AcDbEntity
  8
guides
  6
ByBlock
 62
    0
370
   -2
100
AcDbTrace
 10
30.12819874536136
 20
40.11120000000002
 30
0
 11
29.71191408758852
 21
42.61120000000002
 31
0
 12
30.5444834031342
 22
42.61120000000002
 32
0
 13
30.5444834031342
 23
42.61120000000002
 33
0
  0
MTEXT
  5
CC
100
AcDbEntity
  8
guides
  6
CONTINUOUS
 62
    0
370
   -2
100
AcDbMText
 10
28.25319874536136
 20
55.11120000000001
 30
0
 40
2.5
 41
3.055555555555711
 71
    5
 72
    1
  1
30
  7
STANDARD
210
0
220
0
230
1
 50
90
 73
    2
 44
1
  0
LINE
  5
CD
100
AcDbEntity
  8
guides
  6
ByBlock
 62
    0
370
   -2
100
AcDbLine
 10
49.25739999999994
 20
70.11120000000001
 11
28.87819874536136
 21
70.11120000000001
  0
LINE
  5
CE
100
AcDbEntity
  8
guides
  6
ByBlock
 62
    0
370
   -2
100
AcDbLine
 10
46.75739999999993
 20
40.11120000000002
 11
28.87819874536136
 21
40.11120000000002
  0
ENDBLK
  5
74
330
72
100
AcDbEntity
  8
0
100
AcDbBlockEnd
  0
BLOCK
  5
76
330
75
100
AcDbEntity
  8
0
100
AcDbBlockBegin
  2
*D10
 70
    1
 10
0
 20
0
  3
*D10
  1

  0
LINE
  5
CF
100
AcDbEntity
  8
testGuides
  6
ByBlock
 62
    0
370
   -2
100
AcDbLine
 10
96.03533808666791
 20
47.86120000000001
 11
96.03533808666791
 21
32.36120000000001
  0
SOLID
  5
D0
100
AcDbEntity
  8
testGuides
  6
ByBlock
 62
    0
370
   -2
100
AcDbTrace
 10
96.03533808666791
 20
42.86120000000001
 30
0
 11
95.61905342889507
 21
45.36120000000001
 31
0
 12
96.45162274444074
 22
45.36120000000001
 32
0
 13
96.45162274444074
 23
45.36120000000001
 33
0
  0
SOLID
  5
D1
100
AcDbEntity
  8
testGuides
  6
ByBlock
 62
    0
370
   -2
100
AcDbTrace
 10
96.03533808666791
 20
37.36120000000001
 30
0
 11
96.45162274444074
 21
34.86120000000001
 31
0
 12
95.61905342889507
 22
34.86120000000001
 32
0
 13
95.61905342889507
 23
34.86120000000001
 33
0
  0
MTEXT
  5
D2
100
AcDbEntity
  8
testGuides
  6
CONTINUOUS
 62
    0
370
   -2
100
AcDbMText
 10
94.16033808666791
 20
40.11120000000001
 30
0
 40
2.5
 41
4.027777777778088
 71
    5
 72
    1
  1
5,5
  7
STANDARD
210
0
220
0
230
1
 50
90
 73
    2
 44
1
  0
LINE
  5
D3
100
AcDbEntity
  8
testGuides
  6
ByBlock
 62
    0
370
   -2
100
AcDbLine
 10
96.50739999999992
 20
42.86120000000001
 11
94.78533808666791
 21
42.86120000000001
  0
LINE
  5
D4
100
AcDbEntity
  8
testGuides
  6
ByBlock
 62
    0
370
   -2
100
AcDbLine
 10
96.50739999999992
 20
37.36120000000001
 11
94.78533808666791
 21
37.36120000000001
  0
ENDBLK
  5
77
330
75
100
AcDbEntity
  8
0
100
AcDbBlockEnd
  0
BLOCK
  5
79
330
78
100
AcDbEntity
  8
0
100
AcDbBlockBegin
  2
cam1
 70
    0
 10
0
 20
0
  3
cam1
  1

  0
LINE
  5
D5
100
AcDbEntity
  8
0
  6
ByLayer
 62
  256
370
   -1
100
AcDbLine
 10
2.588199999999951
 20
-9.65920000000003
 11
4.99999999999995
 21
-8.660200000000032
  0
LINE
  5
D6
100
AcDbEntity
  8
0
  6
ByLayer
 62
  256
370
   -1
100
AcDbLine
 10
4.99999999999995
 20
-8.660200000000032
 11
7.071099999999952
 21
-7.071000000000033
  0
LINE
  5
D7
100
AcDbEntity
  8
0
  6
ByLayer
 62
  256
370
   -1
100
AcDbLine
 10
7.071099999999952
 20
-7.071000000000033
 11
8.660199999999953
 21
-5.000000000000036
  0
LINE
  5
D8
100
AcDbEntity
  8
0
  6
ByLayer
 62
  256
370
   -1
100
AcDbLine
 10
8.660199999999953
 20
-5.000000000000036
 11
9.659199999999956
 21
-2.588200000000029
  0
LINE
  5
D9
100
AcDbEntity
  8
0
  6
ByLayer
 62
  256
370
   -1
100
AcDbLine
 10
9.659199999999956
 20
-2.588200000000029
 11
9.99999999999995
 21
-3.552713678800501e-14
  0
LINE
  5
DA
100
AcDbEntity
  8
0
  6
ByLayer
 62
  256
370
   -1
100
AcDbLine
 10
9.99999999999995
 20
-3.552713678800501e-14
 11
7.99999999999995
 21
29.99999999999996
  0
LINE
  5
DB
100
AcDbEntity
  8
0
  6
ByLayer
 62
  256
370
   -1
100
AcDbLine
 10
7.99999999999995
 20
29.99999999999996
 11
7.727399999999953
 21
32.07059999999996
  0
LINE
  5
DC
100
AcDbEntity
  8
0
  6
ByLayer
 62
  256
370
   -1
100
AcDbLine
 10
7.727399999999953
 20
32.07059999999996
 11
6.928199999999954
 21
33.99999999999996
  0
LINE
  5
DD
100
AcDbEntity
  8
0
  6
ByLayer
 62
  256
370
   -1
100
AcDbLine
 10
6.928199999999954
 20
33.99999999999996
 11
5.656799999999954
 21
35.65689999999997
  0
LINE
  5
DE
100
AcDbEntity
  8
0
  6
ByLayer
 62
  256
370
   -1
100
AcDbLine
 10
5.656799999999954
 20
35.65689999999997
 11
3.99999999999995
 21
36.92819999999997
  0
LINE
  5
DF
100
AcDbEntity
  8
0
  6
ByLayer
 62
  256
370
   -1
100
AcDbLine
 10
3.99999999999995
 20
36.92819999999997
 11
2.070499999999953
 21
37.72739999999997
  0
LINE
  5
E0
100
AcDbEntity
  8
0
  6
ByLayer
 62
  256
370
   -1
100
AcDbLine
 10
2.070499999999953
 20
37.72739999999997
 11
-4.973799150320701e-14
 21
37.99999999999996
  0
LINE
  5
E1
100
AcDbEntity
  8
0
  6
ByLayer
 62
  256
370
   -1
100
AcDbLine
 10
-4.973799150320701e-14
 20
37.99999999999996
 11
-2.070600000000049
 21
37.72739999999997
  0
LINE
  5
E2
100
AcDbEntity
  8
0
  6
ByLayer
 62
  256
370
   -1
100
AcDbLine
 10
-2.070600000000049
 20
37.72739999999997
 11
-4.00000000000005
 21
36.92819999999997
  0
LINE
  5
E3
100
AcDbEntity
  8
0
  6
ByLayer
 62
  256
370
   -1
100
AcDbLine
 10
-4.00000000000005
 20
36.92819999999997
 11
-5.65690000000005
 21
35.65689999999997
  0
LINE
  5
E4
100
AcDbEntity
  8
0
  6
ByLayer
 62
  256
370
   -1
100
AcDbLine
 10
-5.65690000000005
 20
35.65689999999997
 11
-6.928200000000047
 21
33.99999999999996
  0
LINE
  5
E5
100
AcDbEntity
  8
0
  6
ByLayer
 62
  256
370
   -1
100
AcDbLine
 10
-6.928200000000047
 20
33.99999999999996
 11
-7.727400000000046
 21
32.07059999999996
  0
LINE
  5
E6
100
AcDbEntity
  8
0
  6
ByLayer
 62
  256
370
   -1
100
AcDbLine
 10
-7.727400000000046
 20
32.07059999999996
 11
-8.00000000000005
 21
29.99999999999996
  0
LINE
  5
E7
100
AcDbEntity
  8
0
  6
ByLayer
 62
  256
370
   -1
100
AcDbLine
 10
-8.00000000000005
 20
29.99999999999996
 11
-10.00000000000005
 21
-3.552713678800501e-14
  0
LINE
  5
E8
100
AcDbEntity
  8
0
  6
ByLayer
 62
  256
370
   -1
100
AcDbLine
 10
-10.00000000000005
 20
-3.552713678800501e-14
 11
-9.659300000000044
 21
-2.588200000000029
  0
LINE
  5
E9
100
AcDbEntity
  8
0
  6
ByLayer
 62
  256
370
   -1
100
AcDbLine
 10
-9.659300000000044
 20
-2.588200000000029
 11
-8.660300000000049
 21
-5.000000000000036
  0
LINE
  5
EA
100
AcDbEntity
  8
0
  6
ByLayer
 62
  256
370
   -1
100
AcDbLine
 10
-8.660300000000049
 20
-5.000000000000036
 11
-7.071100000000044
 21
-7.071000000000033
  0
LINE
  5
EB
100
AcDbEntity
  8
0
  6
ByLayer
 62
  256
370
   -1
100
AcDbLine
 10
-7.071100000000044
 20
-7.071000000000033
 11
-5.00000000000005
 21
-8.660200000000032
  0
LINE
  5
EC
100
AcDbEntity
  8
0
  6
ByLayer
 62
  256
370
   -1
100
AcDbLine
 10
-5.00000000000005
 20
-8.660200000000032
 11
-2.58820000000005
 21
-9.65920000000003
  0
LINE
  5
ED
100
AcDbEntity
  8
0
  6
ByLayer
 62
  256
370
   -1
100
AcDbLine
 10
-2.58820000000005
 20
-9.65920000000003
 11
-4.973799150320701e-14
 21
-10.00000000000003
  0
LINE
  5
EE
100
AcDbEntity
  8
0
  6
ByLayer
 62
  256
370
   -1
100
AcDbLine
 10
-4.973799150320701e-14
 20
-10.00000000000003
 11
2.588199999999951
 21
-9.65920000000003
  0
ENDBLK
  5
7A
330
78
100
AcDbEntity
  8
0
100
AcDbBlockEnd
  0
BLOCK
  5
7C
330
7B
100
AcDbEntity
  8
0
100
AcDbBlockBegin
  2
cam3
 70
    0
 10
0
 20
0
  3
cam3
  1

  0
LINE
  5
EF
100
AcDbEntity
  8
0
  6
ByLayer
 62
  256
370
   -1
100
AcDbLine
 10
2.588225125290336
 20
-9.65927500053547
 11
5.000025125290335
 21
-8.660275000535467
  0
LINE
  5
F0
100
AcDbEntity
  8
0
  6
ByLayer
 62
  256
370
   -1
100
AcDbLine
 10
5.000025125290335
 20
-8.660275000535467
 11
7.071025125290333
 21
-7.071075000535465
  0
LINE
  5
F1
100
AcDbEntity
  8
0
  6
ByLayer
 62
  256
370
   -1
100
AcDbLine
 10
7.071025125290333
 20
-7.071075000535465
 11
8.660225125290339
 21
-4.999975000535471
  0
LINE
  5
F2
100
AcDbEntity
  8
0
  6
ByLayer
 62
  256
370
   -1
100
AcDbLine
 10
8.660225125290339
 20
-4.999975000535471
 11
9.659225125290334
 21
-2.588175000535472
  0
LINE
  5
F3
100
AcDbEntity
  8
0
  6
ByLayer
 62
  256
370
   -1
100
AcDbLine
 10
9.659225125290334
 20
-2.588175000535472
 11
10.00002512529034
 21
2.499946452871882e-05
  0
LINE
  5
F4
100
AcDbEntity
  8
0
  6
ByLayer
 62
  256
370
   -1
100
AcDbLine
 10
10.00002512529034
 20
2.499946452871882e-05
 11
8.000025125290335
 21
30.00002499946454
  0
LINE
  5
F5
100
AcDbEntity
  8
0
  6
ByLayer
 62
  256
370
   -1
100
AcDbLine
 10
8.000025125290335
 20
30.00002499946454
 11
7.727425125290338
 21
32.07052499946453
  0
LINE
  5
F6
100
AcDbEntity
  8
0
  6
ByLayer
 62
  256
370
   -1
100
AcDbLine
 10
7.727425125290338
 20
32.07052499946453
 11
6.928225125290339
 21
34.00002499946454
  0
LINE
  5
F7
100
AcDbEntity
  8
0
  6
ByLayer
 62
  256
370
   -1
100
AcDbLine
 10
6.928225125290339
 20
34.00002499946454
 11
5.656825125290339
 21
35.65682499946453
  0
LINE
  5
F8
100
AcDbEntity
  8
0
  6
ByLayer
 62
  256
370
   -1
100
AcDbLine
 10
5.656825125290339
 20
35.65682499946453
 11
4.000025125290335
 21
36.92822499946453
  0
LINE
  5
F9
100
AcDbEntity
  8
0
  6
ByLayer
 62
  256
370
   -1
100
AcDbLine
 10
4.000025125290335
 20
36.92822499946453
 11
2.070525125290345
 21
37.72742499946452
  0
LINE
  5
FA
100
AcDbEntity
  8
0
  6
ByLayer
 62
  256
370
   -1
100
AcDbLine
 10
2.070525125290345
 20
37.72742499946452
 11
2.512529033538158e-05
 21
38.00002499946454
  0
LINE
  5
FB
100
AcDbEntity
  8
0
  6
ByLayer
 62
  256
370
   -1
100
AcDbLine
 10
2.512529033538158e-05
 20
38.00002499946454
 11
-2.070574874709664
 21
37.72742499946452
  0
LINE
  5
FC
100
AcDbEntity
  8
0
  6
ByLayer
 62
  256
370
   -1
100
AcDbLine
 10
-2.070574874709664
 20
37.72742499946452
 11
-3.999974874709665
 21
36.92822499946453
  0
LINE
  5
FD
100
AcDbEntity
  8
0
  6
ByLayer
 62
  256
370
   -1
100
AcDbLine
 10
-3.999974874709665
 20
36.92822499946453
 11
-5.656874874709658
 21
35.65682499946453
  0
LINE
  5
FE
100
AcDbEntity
  8
0
  6
ByLayer
 62
  256
370
   -1
100
AcDbLine
 10
-5.656874874709658
 20
35.65682499946453
 11
-6.928174874709654
 21
34.00002499946454
  0
LINE
  5
FF
100
AcDbEntity
  8
0
  6
ByLayer
 62
  256
370
   -1
100
AcDbLine
 10
-6.928174874709654
 20
34.00002499946454
 11
-7.727374874709653
 21
32.07052499946453
  0
LINE
  5
100
100
AcDbEntity
  8
0
  6
ByLayer
 62
  256
370
   -1
100
AcDbLine
 10
-7.727374874709653
 20
32.07052499946453
 11
-7.999974874709665
 21
30.00002499946454
  0
LINE
  5
101
100
AcDbEntity
  8
0
  6
ByLayer
 62
  256
370
   -1
100
AcDbLine
 10
-7.999974874709665
 20
30.00002499946454
 11
-9.999974874709665
 21
2.499946452871882e-05
  0
LINE
  5
102
100
AcDbEntity
  8
0
  6
ByLayer
 62
  256
370
   -1
100
AcDbLine
 10
-9.999974874709665
 20
2.499946452871882e-05
 11
-9.659274874709666
 21
-2.588175000535472
  0
LINE
  5
103
100
AcDbEntity
  8
0
  6
ByLayer
 62
  256
370
   -1
100
AcDbLine
 10
-9.659274874709666
 20
-2.588175000535472
 11
-8.660274874709657
 21
-4.999975000535471
  0
LINE
  5
104
100
AcDbEntity
  8
0
  6
ByLayer
 62
  256
370
   -1
100
AcDbLine
 10
-8.660274874709657
 20
-4.999975000535471
 11
-7.071074874709666
 21
-7.071075000535465
  0
LINE
  5
105
100
AcDbEntity
  8
0
  6
ByLayer
 62
  256
370
   -1
100
AcDbLine
 10
-7.071074874709666
 20
-7.071075000535465
 11
-4.999974874709665
 21
-8.660275000535467
  0
LINE
  5
106
100
AcDbEntity
  8
0
  6
ByLayer
 62
  256
370
   -1
100
AcDbLine
 10
-4.999974874709665
 20
-8.660275000535467
 11
-2.588174874709665
 21
-9.65927500053547
  0
LINE
  5
107
100
AcDbEntity
  8
0
  6
ByLayer
 62
  256
370
   -1
100
AcDbLine
 10
-2.588174874709665
 20
-9.65927500053547
 11
2.512529033538158e-05
 21
-9.999975000535468
  0
LINE
  5
108
100
AcDbEntity
  8
0
  6
ByLayer
 62
  256
370
   -1
100
AcDbLine
 10
2.512529033538158e-05
 20
-9.999975000535468
 11
2.588225125290336
 21
-9.65927500053547
  0
ENDBLK
  5
7D
330
7B
100
AcDbEntity
  8
0
100
AcDbBlockEnd
  0
BLOCK
  5
7F
330
7E
100
AcDbEntity
  8
0
100
AcDbBlockBegin
  2
cam2
 70
    0
 10
0
 20
0
  3
cam2
  1

  0
LINE
  5
109
100
AcDbEntity
  8
0
  6
ByLayer
 62
  256
370
   -1
100
AcDbLine
 10
2.070300000000017
 20
-7.727449999999994
 11
4.000300000000024
 21
-6.928249999999995
  0
LINE
  5
10A
100
AcDbEntity
  8
0
  6
ByLayer
 62
  256
370
   -1
100
AcDbLine
 10
4.000300000000024
 20
-6.928249999999995
 11
5.657300000000021
 21
-5.656849999999999
  0
LINE
  5
10B
100
AcDbEntity
  8
0
  6
ByLayer
 62
  256
370
   -1
100
AcDbLine
 10
5.657300000000021
 20
-5.656849999999999
 11
6.928300000000021
 21
-4.000049999999995
  0
LINE
  5
10C
100
AcDbEntity
  8
0
  6
ByLayer
 62
  256
370
   -1
100
AcDbLine
 10
6.928300000000021
 20
-4.000049999999995
 11
7.727300000000014
 21
-2.070549999999997
  0
LINE
  5
10D
100
AcDbEntity
  8
0
  6
ByLayer
 62
  256
370
   -1
100
AcDbLine
 10
7.727300000000014
 20
-2.070549999999997
 11
8.000300000000024
 21
-4.99999999945544e-05
  0
LINE
  5
10E
100
AcDbEntity
  8
0
  6
ByLayer
 62
  256
370
   -1
100
AcDbLine
 10
8.000300000000024
 20
-4.99999999945544e-05
 11
10.00030000000002
 21
29.99995
  0
LINE
  5
10F
100
AcDbEntity
  8
0
  6
ByLayer
 62
  256
370
   -1
100
AcDbLine
 10
10.00030000000002
 20
29.99995
 11
9.659300000000016
 21
32.58815
  0
LINE
  5
110
100
AcDbEntity
  8
0
  6
ByLayer
 62
  256
370
   -1
100
AcDbLine
 10
9.659300000000016
 20
32.58815
 11
8.660300000000021
 21
34.99995
  0
LINE
  5
111
100
AcDbEntity
  8
0
  6
ByLayer
 62
  256
370
   -1
100
AcDbLine
 10
8.660300000000021
 20
34.99995
 11
7.071300000000022
 21
37.07105
  0
LINE
  5
112
100
AcDbEntity
  8
0
  6
ByLayer
 62
  256
370
   -1
100
AcDbLine
 10
7.071300000000022
 20
37.07105
 11
5.000300000000024
 21
38.66025
  0
LINE
  5
113
100
AcDbEntity
  8
0
  6
ByLayer
 62
  256
370
   -1
100
AcDbLine
 10
5.000300000000024
 20
38.66025
 11
2.588300000000018
 21
39.65925
  0
LINE
  5
114
100
AcDbEntity
  8
0
  6
ByLayer
 62
  256
370
   -1
100
AcDbLine
 10
2.588300000000018
 20
39.65925
 11
0.0003000000000241698
 21
39.99995
  0
LINE
  5
115
100
AcDbEntity
  8
0
  6
ByLayer
 62
  256
370
   -1
100
AcDbLine
 10
0.0003000000000241698
 20
39.99995
 11
-2.58799999999998
 21
39.65925
  0
LINE
  5
116
100
AcDbEntity
  8
0
  6
ByLayer
 62
  256
370
   -1
100
AcDbLine
 10
-2.58799999999998
 20
39.65925
 11
-4.999899999999982
 21
38.66025
  0
LINE
  5
117
100
AcDbEntity
  8
0
  6
ByLayer
 62
  256
370
   -1
100
AcDbLine
 10
-4.999899999999982
 20
38.66025
 11
-7.07089999999998
 21
37.07105
  0
LINE
  5
118
100
AcDbEntity
  8
0
  6
ByLayer
 62
  256
370
   -1
100
AcDbLine
 10
-7.07089999999998
 20
37.07105
 11
-8.660099999999986
 21
34.99995
  0
LINE
  5
119
100
AcDbEntity
  8
0
  6
ByLayer
 62
  256
370
   -1
100
AcDbLine
 10
-8.660099999999986
 20
34.99995
 11
-9.659099999999981
 21
32.58815
  0
LINE
  5
11A
100
AcDbEntity
  8
0
  6
ByLayer
 62
  256
370
   -1
100
AcDbLine
 10
-9.659099999999981
 20
32.58815
 11
-9.999899999999982
 21
29.99995
  0
LINE
  5
11B
100
AcDbEntity
  8
0
  6
ByLayer
 62
  256
370
   -1
100
AcDbLine
 10
-9.999899999999982
 20
29.99995
 11
-7.999899999999982
 21
-4.99999999945544e-05
  0
LINE
  5
11C
100
AcDbEntity
  8
0
  6
ByLayer
 62
  256
370
   -1
100
AcDbLine
 10
-7.999899999999982
 20
-4.99999999945544e-05
 11
-7.727299999999985
 21
-2.070549999999997
  0
LINE
  5
11D
100
AcDbEntity
  8
0
  6
ByLayer
 62
  256
370
   -1
100
AcDbLine
 10
-7.727299999999985
 20
-2.070549999999997
 11
-6.928099999999986
 21
-4.000049999999995
  0
LINE
  5
11E
100
AcDbEntity
  8
0
  6
ByLayer
 62
  256
370
   -1
100
AcDbLine
 10
-6.928099999999986
 20
-4.000049999999995
 11
-5.656699999999987
 21
-5.656849999999999
  0
LINE
  5
11F
100
AcDbEntity
  8
0
  6
ByLayer
 62
  256
370
   -1
100
AcDbLine
 10
-5.656699999999987
 20
-5.656849999999999
 11
-3.999899999999982
 21
-6.928249999999995
  0
LINE
  5
120
100
AcDbEntity
  8
0
  6
ByLayer
 62
  256
370
   -1
100
AcDbLine
 10
-3.999899999999982
 20
-6.928249999999995
 11
-2.070399999999978
 21
-7.727449999999994
  0
LINE
  5
121
100
AcDbEntity
  8
0
  6
ByLayer
 62
  256
370
   -1
100
AcDbLine
 10
-2.070399999999978
 20
-7.727449999999994
 11
0.0003000000000241698
 21
-8.000049999999995
  0
LINE
  5
122
100
AcDbEntity
  8
0
  6
ByLayer
 62
  256
370
   -1
100
AcDbLine
 10
0.0003000000000241698
 20
-8.000049999999995
 11
2.070300000000017
 21
-7.727449999999994
  0
LINE
  5
123
100
AcDbEntity
  8
0
  6
ByLayer
 62
  256
370
   -1
100
AcDbLine
 10
-2.828299999999984
 20
-2.828449999999997
 11
-2.828299999999984
 21
2.828450000000004
  0
LINE
  5
124
100
AcDbEntity
  8
0
  6
ByLayer
 62
  256
370
   -1
100
AcDbLine
 10
-2.828299999999984
 20
2.828450000000004
 11
2.828300000000013
 21
2.828450000000004
  0
LINE
  5
125
100
AcDbEntity
  8
0
  6
ByLayer
 62
  256
370
   -1
100
AcDbLine
 10
2.828300000000013
 20
2.828450000000004
 11
2.828300000000013
 21
-2.828449999999997
  0
LINE
  5
126
100
AcDbEntity
  8
0
  6
ByLayer
 62
  256
370
   -1
100
AcDbLine
 10
2.828300000000013
 20
-2.828449999999997
 11
-2.828299999999984
 21
-2.828449999999997
  0
ENDBLK
  5
80
330
7E
100
AcDbEntity
  8
0
100
AcDbBlockEnd
  0
BLOCK
  5
82
330
81
100
AcDbEntity
  8
0
100
AcDbBlockBegin
  2
cam2fixed
 70
    0
 10
0
 20
0
  3
cam2fixed
  1

  0
LINE
  5
127
100
AcDbEntity
  8
0
  6
ByLayer
 62
  256
370
   -1
100
AcDbLine
 10
2.070300000000017
 20
-9.76290001591067
 11
4.00030000000001
 21
-8.963700015910671
  0
LINE
  5
128
100
AcDbEntity
  8
0
  6
ByLayer
 62
  256
370
   -1
100
AcDbLine
 10
4.00030000000001
 20
-8.963700015910671
 11
5.657300000000021
 21
-7.692300015910675
  0
LINE
  5
129
100
AcDbEntity
  8
0
  6
ByLayer
 62
  256
370
   -1
100
AcDbLine
 10
5.657300000000021
 20
-7.692300015910675
 11
6.928300000000007
 21
-6.035500015910671
  0
LINE
  5
12A
100
AcDbEntity
  8
0
  6
ByLayer
 62
  256
370
   -1
100
AcDbLine
 10
6.928300000000007
 20
-6.035500015910671
 11
7.727300000000014
 21
-4.106000015910674
  0
LINE
  5
12B
100
AcDbEntity
  8
0
  6
ByLayer
 62
  256
370
   -1
100
AcDbLine
 10
7.727300000000014
 20
-4.106000015910674
 11
8.00030000000001
 21
-2.035500015910671
  0
LINE
  5
12C
100
AcDbEntity
  8
0
  6
ByLayer
 62
  256
370
   -1
100
AcDbLine
 10
8.00030000000001
 20
-2.035500015910671
 11
10.00030000000001
 21
27.96449998408933
  0
LINE
  5
12D
100
AcDbEntity
  8
0
  6
ByLayer
 62
  256
370
   -1
100
AcDbLine
 10
10.00030000000001
 20
27.96449998408933
 11
9.659300000000002
 21
30.55269998408933
  0
LINE
  5
12E
100
AcDbEntity
  8
0
  6
ByLayer
 62
  256
370
   -1
100
AcDbLine
 10
9.659300000000002
 20
30.55269998408933
 11
8.660300000000035
 21
32.96449998408933
  0
LINE
  5
12F
100
AcDbEntity
  8
0
  6
ByLayer
 62
  256
370
   -1
100
AcDbLine
 10
8.660300000000035
 20
32.96449998408933
 11
7.071300000000036
 21
35.03559998408933
  0
LINE
  5
130
100
AcDbEntity
  8
0
  6
ByLayer
 62
  256
370
   -1
100
AcDbLine
 10
7.071300000000036
 20
35.03559998408933
 11
5.00030000000001
 21
36.62479998408932
  0
LINE
  5
131
100
AcDbEntity
  8
0
  6
ByLayer
 62
  256
370
   -1
100
AcDbLine
 10
5.00030000000001
 20
36.62479998408932
 11
2.588300000000018
 21
37.62379998408933
  0
LINE
  5
132
100
AcDbEntity
  8
0
  6
ByLayer
 62
  256
370
   -1
100
AcDbLine
 10
2.588300000000018
 20
37.62379998408933
 11
0.0003000000000241698
 21
37.96449998408933
  0
LINE
  5
133
100
AcDbEntity
  8
0
  6
ByLayer
 62
  256
370
   -1
100
AcDbLine
 10
0.0003000000000241698
 20
37.96449998408933
 11
-2.58799999999998
 21
37.62379998408933
  0
LINE
  5
134
100
AcDbEntity
  8
0
  6
ByLayer
 62
  256
370
   -1
100
AcDbLine
 10
-2.58799999999998
 20
37.62379998408933
 11
-4.999899999999982
 21
36.62479998408932
  0
LINE
  5
135
100
AcDbEntity
  8
0
  6
ByLayer
 62
  256
370
   -1
100
AcDbLine
 10
-4.999899999999982
 20
36.62479998408932
 11
-7.07089999999998
 21
35.03559998408933
  0
LINE
  5
136
100
AcDbEntity
  8
0
  6
ByLayer
 62
  256
370
   -1
100
AcDbLine
 10
-7.07089999999998
 20
35.03559998408933
 11
-8.660099999999986
 21
32.96449998408933
  0
LINE
  5
137
100
AcDbEntity
  8
0
  6
ByLayer
 62
  256
370
   -1
100
AcDbLine
 10
-8.660099999999986
 20
32.96449998408933
 11
-9.659099999999981
 21
30.55269998408933
  0
LINE
  5
138
100
AcDbEntity
  8
0
  6
ByLayer
 62
  256
370
   -1
100
AcDbLine
 10
-9.659099999999981
 20
30.55269998408933
 11
-9.999899999999982
 21
27.96449998408933
  0
LINE
  5
139
100
AcDbEntity
  8
0
  6
ByLayer
 62
  256
370
   -1
100
AcDbLine
 10
-9.999899999999982
 20
27.96449998408933
 11
-7.999899999999982
 21
-2.035500015910671
  0
LINE
  5
13A
100
AcDbEntity
  8
0
  6
ByLayer
 62
  256
370
   -1
100
AcDbLine
 10
-7.999899999999982
 20
-2.035500015910671
 11
-7.727299999999985
 21
-4.106000015910674
  0
LINE
  5
13B
100
AcDbEntity
  8
0
  6
ByLayer
 62
  256
370
   -1
100
AcDbLine
 10
-7.727299999999985
 20
-4.106000015910674
 11
-6.928099999999986
 21
-6.035500015910671
  0
LINE
  5
13C
100
AcDbEntity
  8
0
  6
ByLayer
 62
  256
370
   -1
100
AcDbLine
 10
-6.928099999999986
 20
-6.035500015910671
 11
-5.656699999999987
 21
-7.692300015910675
  0
LINE
  5
13D
100
AcDbEntity
  8
0
  6
ByLayer
 62
  256
370
   -1
100
AcDbLine
 10
-5.656699999999987
 20
-7.692300015910675
 11
-3.999899999999982
 21
-8.963700015910671
  0
LINE
  5
13E
100
AcDbEntity
  8
0
  6
ByLayer
 62
  256
370
   -1
100
AcDbLine
 10
-3.999899999999982
 20
-8.963700015910671
 11
-2.070399999999978
 21
-9.76290001591067
  0
LINE
  5
13F
100
AcDbEntity
  8
0
  6
ByLayer
 62
  256
370
   -1
100
AcDbLine
 10
-2.070399999999978
 20
-9.76290001591067
 11
0.0003000000000241698
 21
-10.03550001591067
  0
LINE
  5
140
100
AcDbEntity
  8
0
  6
ByLayer
 62
  256
370
   -1
100
AcDbLine
 10
0.0003000000000241698
 20
-10.03550001591067
 11
2.070300000000017
 21
-9.76290001591067
  0
ENDBLK
  5
83
330
81
100
AcDbEntity
  8
0
100
AcDbBlockEnd
  0
BLOCK
  5
85
330
84
100
AcDbEntity
  8
0
100
AcDbBlockBegin
  2
Base1
 70
    0
 10
0
 20
0
  3
Base1
  1

  0
LINE
  5
141
100
AcDbEntity
  8
rounders
  6
ByLayer
 62
  256
370
   -1
100
AcDbLine
 10
-7.982202425117741
 20
30.53333333333333
 11
-9.977753031397185
 21
0.6666666666666714
  0
ARC
  5
142
100
AcDbEntity
  8
rounders
  6
ByLayer
 62
  256
370
   -1
100
AcDbCircle
 10
0
 20
0
 40
10
100
AcDbArc
 50
176.1774462707257
 51
360
  0
LINE
  5
143
100
AcDbEntity
  8
rounders
  6
ByLayer
 62
  256
370
   -1
100
AcDbLine
 10
10
 20
0
 11
7.982202425117734
 21
30.53333333333333
  0
ARC
  5
144
100
AcDbEntity
  8
rounders
  6
ByLayer
 62
  256
370
   -1
100
AcDbCircle
 10
0
 20
30
 40
8
100
AcDbArc
 50
3.822562423649904
 51
176.1774462707257
  0
ENDBLK
  5
86
330
84
100
AcDbEntity
  8
0
100
AcDbBlockEnd
  0
BLOCK
  5
88
330
87
100
AcDbEntity
  8
0
100
AcDbBlockBegin
  2
Base2
 70
    0
 10
0
 20
0
  3
Base2
  1

  0
LINE
  5
145
100
AcDbEntity
  8
rounders
  6
ByLayer
 62
  256
370
   -1
100
AcDbLine
 10
-9.977753031397185
 20
0.6666666666666856
 11
-7.982202425117634
 21
30.53333333333336
  0
LINE
  5
146
100
AcDbEntity
  8
rounders
  6
ByLayer
 62
  256
370
   -1
100
AcDbLine
 10
7.982202425117862
 20
30.5333333333333
 11
9.977753031397185
 21
0.666666666666643
  0
ARC
  5
147
100
AcDbEntity
  8
rounders
  6
ByLayer
 62
  256
370
   -1
100
AcDbCircle
 10
0
 20
0
 40
10
100
AcDbArc
 50
176.1774462707255
 51
3.822553729274176
  0
ARC
  5
148
100
AcDbEntity
  8
rounders
  6
ByLayer
 62
  256
370
   -1
100
AcDbCircle
 10
1.13686837721616e-13
 20
30
 40
8
100
AcDbArc
 50
3.822553729274226
 51
176.1774462707254
  0
ENDBLK
  5
89
330
87
100
AcDbEntity
  8
0
100
AcDbBlockEnd
  0
BLOCK
  5
8B
330
8A
100
AcDbEntity
  8
0
100
AcDbBlockBegin
  2
Base3
 70
    0
 10
0
 20
0
  3
Base3
  1

  0
LINE
  5
149
100
AcDbEntity
  8
rounders
  6
ByLayer
 62
  256
370
   -1
100
AcDbLine
 10
10.14735303139729
 20
0.6666666666666714
 11
10.14735293784798
 21
0.6666680667836289
  0
LINE
  5
14A
100
AcDbEntity
  8
rounders
  6
ByLayer
 62
  256
370
   -1
100
AcDbLine
 10
9.977752937847882
 20
0.6666680667836289
 11
7.982202425117777
 21
30.53333333333333
  0
ARC
  5
14B
100
AcDbEntity
  8
rounders
  6
ByLayer
 62
  256
370
   -1
100
AcDbCircle
 10
0
 20
0
 40
10
100
AcDbArc
 50
180
 51
3.822553729274329
  0
ARC
  5
14C
100
AcDbEntity
  8
rounders
  6
ByLayer
 62
  256
370
   -1
100
AcDbCircle
 10
0
 20
30
 40
8
100
AcDbArc
 50
3.822553729274329
 51
176.1774462707257
  0
LINE
  5
14D
100
AcDbEntity
  8
rounders
  6
ByLayer
 62
  256
370
   -1
100
AcDbLine
 10
-7.982202425117748
 20
30.53333333333333
 11
-10
 21
0
  0
ENDBLK
  5
8C
330
8A
100
AcDbEntity
  8
0
100
AcDbBlockEnd
  0
ENDSEC
  0
SECTION
  2
ENTITIES
  0
LINE
  5
14E
100
AcDbEntity
  8
guides
  6
ByLayer
 62
  256
370
   -1
100
AcDbLine
 10
-25.11760000000004
 20
30.1112
 11
124.8824
 21
30.1112
  0
LINE
  5
14F
100
AcDbEntity
  8
guides
  6
ByLayer
 62
  256
370
   -1
100
AcDbLine
 10
49.88239999999994
 20
-34.88879999999999
 11
49.88239999999995
 21
115.1112
  0
LINE
  5
150
100
AcDbEntity
  8
guides
  6
ByLayer
 62
  256
370
   -1
100
AcDbLine
 10
49.88239999999993
 20
-44.8888
 11
49.88239999999994
 21
105.1112
  0
LINE
  5
151
100
AcDbEntity
  8
guides
  6
ByLayer
 62
  256
370
   -1
100
AcDbLine
 10
-25.11760000000007
 20
40.11120000000001
 11
124.8823999999999
 21
40.11120000000001
  0
LINE
  5
152
100
AcDbEntity
  8
guides
  6
ByLayer
 62
  256
370
   -1
100
AcDbLine
 10
-25.11760000000006
 20
78.1112
 11
124.8823999999999
 21
78.1112
  0
DIMENSION
  5
153
100
AcDbEntity
  8
guides
  6
ByLayer
 62
  256
370
   -1
100
AcDbDimension
  2
*D1
 10
12.56278249782704
 20
30.452
 30
0
 11
10.68778249782704
 21
54.2816
 31
0
 70
   32
 71
    5
 72
    0
  3
Standard
 53
0
210
0
220
0
230
1
100
AcDbAlignedDimension
 13
49.88239999999994
 23
78.1112
 33
0
 14
47.29420000000002
 24
30.452
 34
0
 50
90
100
AcDbRotatedDimension
  0
MTEXT
  5
154
100
AcDbEntity
  8
guides
  6
ByLayer
 62
  256
370
   -1
100
AcDbMText
 10
49.88239999999993
 20
15.10978678539929
 30
0
 40
5
 41
23.75190486012353
 71
    5
 72
    1
  1
stage 1
  7
opengosttypeb-regular
210
0
220
0
230
1
 50
0
 73
    2
 44
1
  0
LINE
  5
155
100
AcDbEntity
  8
guides
  6
ByLayer
 62
  256
370
   -1
100
AcDbLine
 10
-25.11760000000007
 20
70.11120000000001
 11
124.8823999999999
 21
70.11120000000001
  0
LINE
  5
156
100
AcDbEntity
  8
guides
  6
ByLayer
 62
  256
370
   -1
100
AcDbLine
 10
-25.11760000000007
 20
37.36120000000001
 11
124.8823999999999
 21
37.36120000000001
  0
LINE
  5
157
100
AcDbEntity
  8
guides
  6
ByLayer
 62
  256
370
   -1
100
AcDbLine
 10
-25.11760000000007
 20
42.86120000000001
 11
124.8823999999999
 21
42.86120000000001
  0
LINE
  5
158
100
AcDbEntity
  8
guides
  6
ByLayer
 62
  256
370
   -1
100
AcDbLine
 10
74.88239999999993
 20
-34.8888
 11
74.88239999999995
 21
115.1112
  0
MTEXT
  5
159
100
AcDbEntity
  8
guides
  6
ByLayer
 62
  256
370
   -1
100
AcDbMText
 10
74.88239999999993
 20
15.04350563028341
 30
0
 40
5
 41
24.86301597123464
 71
    5
 72
    1
  1
stage 2
  7
opengosttypeb-regular
210
0
220
0
230
1
 50
0
 73
    2
 44
1
  0
CIRCLE
  5
15A
100
AcDbEntity
  8
columns
  6
ByLayer
 62
  256
370
   -1
100
AcDbCircle
 10
99.88239999999992
 20
70.11120000000001
 40
4
  0
LWPOLYLINE
  5
15B
100
AcDbEntity
  8
holes
  6
ByLayer
 62
  256
370
   -1
100
AcDbPolyline
 90
    4
 70
    1
 43
0
 10
97.13239999999992
 20
37.36120000000001
 10
102.6323999999999
 20
37.36120000000001
 10
102.6323999999999
 20
42.86120000000001
 10
97.13239999999992
 20
42.86120000000001
  0
MTEXT
  5
15C
100
AcDbEntity
  8
guides
  6
ByLayer
 62
  256
370
   -1
100
AcDbMText
 10
99.88239999999992
 20
13.08282454477948
 30
0
 40
5
 41
24.86301597123495
 71
    5
 72
    1
  1
stage 3
  7
opengosttypeb-regular
210
0
220
0
230
1
 50
0
 73
    2
 44
1
  0
LINE
  5
15D
100
AcDbEntity
  8
guides
  6
ByLayer
 62
  256
370
   -1
100
AcDbLine
 10
72.13239999999993
 20
-34.88879999999999
 11
72.13239999999995
 21
115.1112
  0
LINE
  5
15E
100
AcDbEntity
  8
guides
  6
ByLayer
 62
  256
370
   -1
100
AcDbLine
 10
77.63239999999993
 20
-34.88879999999999
 11
77.63239999999995
 21
115.1112
  0
LINE
  5
15F
100
AcDbEntity
  8
guides
  6
ByLayer
 62
  256
370
   -1
100
AcDbLine
 10
-2.867600000000067
 20
67.36120000000001
 11
147.1323999999999
 21
67.36120000000001
  0
LINE
  5
160
100
AcDbEntity
  8
guides
  6
ByLayer
 62
  256
370
   -1
100
AcDbLine
 10
-0.117600000000067
 20
72.8612
 11
149.8823999999999
 21
72.8612
  0
LINE
  5
161
100
AcDbEntity
  8
guides
  6
ByLayer
 62
  256
370
   -1
100
AcDbLine
 10
97.13239999999992
 20
-34.88879999999999
 11
97.13239999999993
 21
115.1112
  0
LINE
  5
162
100
AcDbEntity
  8
guides
  6
ByLayer
 62
  256
370
   -1
100
AcDbLine
 10
102.6323999999999
 20
-34.88879999999999
 11
102.6323999999999
 21
115.1112
  0
DIMENSION
  5
163
100
AcDbEntity
  8
guides
  6
ByLayer
 62
  256
370
   -1
100
AcDbDimension
  2
*D2
 10
30.12819874536136
 20
40.11120000000002
 30
0
 11
28.25319874536136
 21
55.11120000000001
 31
0
 70
   32
 71
    5
  3
Standard
 53
0
210
0
220
0
230
1
100
AcDbAlignedDimension
 13
49.88239999999994
 23
70.11120000000001
 33
0
 14
47.38239999999993
 24
40.11120000000002
 34
0
 50
90
100
AcDbRotatedDimension
  0
LINE
  5
164
100
AcDbEntity
  8
guides
  6
ByLayer
 62
  256
370
   -1
100
AcDbLine
 10
24.88239999999992
 20
70.11120000000001
 11
174.8823999999999
 21
70.11120000000001
  0
LINE
  5
165
100
AcDbEntity
  8
guides
  6
ByLayer
 62
  256
370
   -1
100
AcDbLine
 10
99.88239999999992
 20
-4.888799999999989
 11
99.88239999999993
 21
145.1112
  0
LINE
  5
166
100
AcDbEntity
  8
testGuides
  6
ByLayer
 62
  256
370
   -1
100
AcDbLine
 10
97.13239999999992
 20
37.36120000000001
 11
102.6323999999999
 21
42.86120000000001
  0
LINE
  5
167
100
AcDbEntity
  8
testGuides
  6
ByLayer
 62
  256
370
   -1
100
AcDbLine
 10
99.88239999999992
 20
-34.88879999999999
 11
99.88239999999993
 21
115.1112
  0
LINE
  5
168
100
AcDbEntity
  8
squares
  6
ByLayer
 62
  256
370
   -1
100
AcDbLine
 10
97.38228401220016
 20
67.61108401220027
 11
102.3822840122002
 21
67.61108401220027
  0
LINE
  5
169
100
AcDbEntity
  8
squares
  6
ByLayer
 62
  256
370
   -1
100
AcDbLine
 10
102.3822840122002
 20
67.61108401220027
 11
102.3822840122002
 21
72.61108401220027
  0
LINE
  5
16A
100
AcDbEntity
  8
squares
  6
ByLayer
 62
  256
370
   -1
100
AcDbLine
 10
102.3822840122002
 20
72.61108401220027
 11
97.38228401220016
 21
72.61108401220027
  0
LINE
  5
16B
100
AcDbEntity
  8
squares
  6
ByLayer
 62
  256
370
   -1
100
AcDbLine
 10
97.38228401220016
 20
72.61108401220027
 11
97.38228401220016
 21
67.61108401220027
  0
DIMENSION
  5
16C
100
AcDbEntity
  8
testGuides
  6
ByLayer
 62
  256
370
   -1
100
AcDbDimension
  2
*D3
 10
102.3822840122002
 20
66.11120000000014
 30
0
 11
99.88228401220016
 21
67.98620000000014
 31
0
 70
   32
 71
    5
  3
Standard
 53
0
210
0
220
0
230
1
100
AcDbAlignedDimension
 13
97.38228401220016
 23
67.61108401220027
 33
0
 14
102.3822840122002
 24
67.61108401220027
 34
0
100
AcDbRotatedDimension
  0
DIMENSION
  5
16D
100
AcDbEntity
  8
testGuides
  6
ByLayer
 62
  256
370
   -1
100
AcDbDimension
  2
*D4
 10
103.8823999999997
 20
72.61108401220027
 30
0
 11
102.0073999999997
 21
70.11108401220027
 31
0
 70
   32
 71
    5
  3
Standard
 53
0
210
0
220
0
230
1
100
AcDbAlignedDimension
 13
102.3822840122002
 23
67.61108401220027
 33
0
 14
102.3822840122002
 24
72.61108401220027
 34
0
 50
90
100
AcDbRotatedDimension
  0
DIMENSION
  5
16E
100
AcDbEntity
  8
testGuides
  6
ByLayer
 62
  256
370
   -1
100
AcDbDimension
  2
*D5
 10
102.6323999999999
 20
37.36120000000001
 30
0
 11
99.88239999999992
 21
39.23620000000001
 31
0
 70
   32
 71
    5
  3
Standard
 53
0
210
0
220
0
230
1
100
AcDbAlignedDimension
 13
97.13239999999992
 23
37.36120000000001
 33
0
 14
102.6323999999999
 24
37.36120000000001
 34
0
100
AcDbRotatedDimension
  0
LINE
  5
16F
100
AcDbEntity
  8
testGuides
  6
ByLayer
 62
  256
370
   -1
100
AcDbLine
 10
74.88239999999993
 20
-34.8888
 11
74.88239999999995
 21
115.1112
  0
LINE
  5
170
100
AcDbEntity
  8
testGuides
  6
ByLayer
 62
  256
370
   -1
100
AcDbLine
 10
-0.117600000000067
 20
40.1112
 11
149.8823999999999
 21
40.1112
  0
LINE
  5
171
100
AcDbEntity
  8
testGuides
  6
ByLayer
 62
  256
370
   -1
100
AcDbLine
 10
72.38239999999993
 20
37.61108401220027
 11
77.38239999999995
 21
42.61108401220027
  0
LINE
  5
172
100
AcDbEntity
  8
testGuides
  6
ByLayer
 62
  256
370
   -1
100
AcDbLine
 10
72.13240000000005
 20
72.86120000000001
 11
77.63240000000005
 21
67.36119999999998
  0
DIMENSION
  5
173
100
AcDbEntity
  8
testGuides
  6
ByLayer
 62
  256
370
   -1
100
AcDbDimension
  2
*D6
 10
77.38239999999995
 20
36.1112000000002
 30
0
 11
74.88239999999993
 21
37.9862000000002
 31
0
 70
   32
 71
    5
  3
Standard
 53
0
210
0
220
0
230
1
100
AcDbAlignedDimension
 13
72.38239999999993
 23
37.61108401220027
 33
0
 14
77.38239999999995
 24
37.61108401220027
 34
0
100
AcDbRotatedDimension
  0
DIMENSION
  5
174
100
AcDbEntity
  8
testGuides
  6
ByLayer
 62
  256
370
   -1
100
AcDbDimension
  2
*D7
 10
77.85326416008449
 20
64.895933249142
 30
0
 11
75.10326416008448
 21
66.770933249142
 31
0
 70
   32
 71
    5
  3
Standard
 53
0
210
0
220
0
230
1
100
AcDbAlignedDimension
 13
72.35326416008448
 23
64.89593324914205
 33
0
 14
77.85326416008449
 24
64.89593324914202
 34
0
100
AcDbRotatedDimension
  0
DIMENSION
  5
175
100
AcDbEntity
  8
testGuides
  6
ByLayer
 62
  256
370
   -1
100
AcDbDimension
  2
*D8
 10
78.46599023817018
 20
67.36119999999998
 30
0
 11
76.59099023817018
 21
70.11119999999998
 31
0
 70
   32
 71
    5
  3
Standard
 53
0
210
0
220
0
230
1
100
AcDbAlignedDimension
 13
77.63240000000005
 23
72.86119999999998
 33
0
 14
77.63240000000005
 24
67.36119999999998
 34
0
 50
90
100
AcDbRotatedDimension
  0
DIMENSION
  5
176
100
AcDbEntity
  8
testGuides
  6
ByLayer
 62
  256
370
   -1
100
AcDbDimension
  2
*D9
 10
79.04478500206312
 20
42.61108401220027
 30
0
 11
77.16978500206312
 21
40.11108401220027
 31
0
 70
   32
 71
    5
  3
Standard
 53
0
210
0
220
0
230
1
100
AcDbAlignedDimension
 13
77.38239999999995
 23
37.61108401220027
 33
0
 14
77.38239999999995
 24
42.61108401220027
 34
0
 50
90
100
AcDbRotatedDimension
  0
DIMENSION
  5
177
100
AcDbEntity
  8
testGuides
  6
ByLayer
 62
  256
370
   -1
100
AcDbDimension
  2
*D10
 10
96.03533808666791
 20
37.36120000000001
 30
0
 11
94.16033808666791
 21
40.11120000000001
 31
0
 70
   32
 71
    5
  3
Standard
 53
0
210
0
220
0
230
1
100
AcDbAlignedDimension
 13
97.13239999999992
 23
42.86120000000001
 33
0
 14
97.13239999999992
 24
37.36120000000001
 34
0
 50
90
100
AcDbRotatedDimension
  0
LINE
  5
178
100
AcDbEntity
  8
testGuides
  6
ByLayer
 62
  256
370
   -1
100
AcDbLine
 10
49.88239999999993
 20
-34.88879999999999
 11
49.88239999999993
 21
115.1112
  0
DIMENSION
  5
179
100
AcDbEntity
  8
testGuides
  6
ByLayer
 62
  256
370
   -1
100
AcDbDimension
  2
*D11
 10
52.38239999999994
 20
66.11120000000004
 30
0
 11
49.88239999999993
 21
67.98620000000004
 31
0
 70
   32
 71
    5
  3
Standard
 53
0
210
0
220
0
230
1
100
AcDbAlignedDimension
 13
47.38239999999993
 23
67.61120000000001
 33
0
 14
52.38239999999994
 24
67.61120000000001
 34
0
100
AcDbRotatedDimension
  0
DIMENSION
  5
17A
100
AcDbEntity
  8
testGuides
  6
ByLayer
 62
  256
370
   -1
100
AcDbDimension
  2
*D12
 10
59.88239999999992
 20
72.61120000000001
 30
0
 11
58.00739999999992
 21
70.11120000000001
 31
0
 70
   32
 71
    5
  3
Standard
 53
0
210
0
220
0
230
1
100
AcDbAlignedDimension
 13
52.38239999999994
 23
67.61120000000001
 33
0
 14
52.38239999999994
 24
72.61120000000001
 34
0
 50
90
100
AcDbRotatedDimension
  0
LINE
  5
17B
100
AcDbEntity
  8
guides
  6
ByLayer
 62
  256
370
   -1
100
AcDbLine
 10
47.13239999999993
 20
-44.8888
 11
47.13239999999994
 21
105.1112
  0
LINE
  5
17C
100
AcDbEntity
  8
guides
  6
ByLayer
 62
  256
370
   -1
100
AcDbLine
 10
52.63239999999994
 20
-34.88879999999999
 11
52.63239999999995
 21
115.1112
  0
INSERT
  5
17D
100
AcDbEntity
  8
rounders
  6
ByLayer
 62
  256
370
   -1
100
AcDbBlockReference
  2
Base3
 10
99.88239999999992
 20
40.11120000000001
 30
0
 41
1
 42
1
 43
0
 50
0
 70
    1
 71
    1
 44
0
 45
0
  0
ENDSEC
  0
SECTION
  2
OBJECTS
  0
DICTIONARY
  5
C
330
0
100
AcDbDictionary
281
    1
  3
ACAD_GROUP
350
D
  0
DICTIONARY
  5
D
330
C
100
AcDbDictionary
281
    1
  0
ENDSEC
  0
EOF
