  0
SECTION
  2
BLOCKS
  0
ENDSEC
  0
SECTION
  2
ENTITIES
  0
LINE
  8
0
 10
71.6716
 20
5.85582
 11
71.8223
 21
6.24457
  0
LINE
  8
0
 10
71.8223
 20
6.24457
 11
72.5755
 21
8.64774
  0
LINE
  8
0
 10
72.5755
 20
8.64774
 11
72.5992
 21
8.75737
  0
LINE
  8
0
 10
72.5992
 20
8.75737
 11
72.6744
 21
8.84048
  0
LINE
  8
0
 10
72.6744
 20
8.84048
 11
72.7812
 21
8.87482
  0
LINE
  8
0
 10
72.7812
 20
8.87482
 11
73.5721
 21
8.91582
  0
LINE
  8
0
 10
73.5721
 20
8.91582
 11
73.6818
 21
8.8927
  0
LINE
  8
0
 10
73.6818
 20
8.8927
 11
73.7653
 21
8.81781
  0
LINE
  8
0
 10
73.7653
 20
8.81781
 11
73.8002
 21
8.71121
  0
LINE
  8
0
 10
73.8002
 20
8.71121
 11
74.7978
 21
6.3988
  0
LINE
  8
0
 10
74.7978
 20
6.3988
 11
74.9879
 21
6.02771
  0
LINE
  8
0
 10
74.9879
 20
6.02771
 11
76.093
 21
6.12332
  0
LINE
  8
0
 10
76.093
 20
6.12332
 11
76.2165
 21
6.52156
  0
LINE
  8
0
 10
76.2165
 20
6.52156
 11
76.8022
 21
8.97095
  0
LINE
  8
0
 10
76.8022
 20
8.97095
 11
76.8182
 21
9.08194
  0
LINE
  8
0
 10
76.8182
 20
9.08194
 11
76.8875
 21
9.17006
  0
LINE
  8
0
 10
76.8875
 20
9.17006
 11
76.9917
 21
9.21169
  0
LINE
  8
0
 10
76.9917
 20
9.21169
 11
77.7779
 21
9.30714
  0
LINE
  8
0
 10
77.7779
 20
9.30714
 11
77.8889
 21
9.29166
  0
LINE
  8
0
 10
77.8889
 20
9.29166
 11
77.9774
 21
9.2227
  0
LINE
  8
0
 10
77.9774
 20
9.2227
 11
78.0195
 21
9.11876
  0
LINE
  8
0
 10
78.0195
 20
9.11876
 11
79.1743
 21
6.88069
  0
LINE
  8
0
 10
79.1743
 20
6.88069
 11
79.3895
 21
6.52359
  0
LINE
  8
0
 10
79.3895
 20
6.52359
 11
80.4855
 21
6.69524
  0
LINE
  8
0
 10
80.4855
 20
6.69524
 11
80.5812
 21
7.10103
  0
LINE
  8
0
 10
80.5812
 20
7.10103
 11
80.9964
 21
9.58501
  0
LINE
  8
0
 10
80.9964
 20
9.58501
 11
81.0048
 21
9.69684
  0
LINE
  8
0
 10
81.0048
 20
9.69684
 11
81.0679
 21
9.78952
  0
LINE
  8
0
 10
81.0679
 20
9.78952
 11
81.1689
 21
9.83824
  0
LINE
  8
0
 10
81.1689
 20
9.83824
 11
81.9466
 21
9.98772
  0
LINE
  8
0
 10
81.9466
 20
9.98772
 11
82.0585
 21
9.97992
  0
LINE
  8
0
 10
82.0585
 20
9.97992
 11
82.1515
 21
9.91722
  0
LINE
  8
0
 10
82.1515
 20
9.91722
 11
82.2007
 21
9.81644
  0
LINE
  8
0
 10
82.2007
 20
9.81644
 11
83.5071
 21
7.66338
  0
LINE
  8
0
 10
83.5071
 20
7.66338
 11
83.7465
 21
7.32198
  0
LINE
  8
0
 10
83.7465
 20
7.32198
 11
84.828
 21
7.56882
  0
LINE
  8
0
 10
84.828
 20
7.56882
 11
84.8955
 21
7.98026
  0
LINE
  8
0
 10
84.8955
 20
7.98026
 11
85.1384
 21
10.487
  0
LINE
  8
0
 10
85.1384
 20
10.487
 11
85.1389
 21
10.5991
  0
LINE
  8
0
 10
85.1389
 20
10.5991
 11
85.1955
 21
10.6959
  0
LINE
  8
0
 10
85.1955
 20
10.6959
 11
85.2929
 21
10.7515
  0
LINE
  8
0
 10
85.2929
 20
10.7515
 11
86.0585
 21
10.9543
  0
LINE
  8
0
 10
86.0585
 20
10.9543
 11
86.1707
 21
10.9542
  0
LINE
  8
0
 10
86.1707
 20
10.9542
 11
86.2677
 21
10.8981
  0
LINE
  8
0
 10
86.2677
 20
10.8981
 11
86.3238
 21
10.8009
  0
LINE
  8
0
 10
86.3238
 20
10.8009
 11
87.7757
 21
8.74312
  0
LINE
  8
0
 10
87.7757
 20
8.74312
 11
88.038
 21
8.41904
  0
LINE
  8
0
 10
88.038
 20
8.41904
 11
89.0999
 21
8.73991
  0
LINE
  8
0
 10
89.0999
 20
8.73991
 11
89.1388
 21
9.15503
  0
LINE
  8
0
 10
89.1388
 20
9.15503
 11
89.2082
 21
11.6725
  0
LINE
  8
0
 10
89.2082
 20
11.6725
 11
89.201
 21
11.7844
  0
LINE
  8
0
 10
89.201
 20
11.7844
 11
89.2508
 21
11.8849
  0
LINE
  8
0
 10
89.2508
 20
11.8849
 11
89.3441
 21
11.9471
  0
LINE
  8
0
 10
89.3441
 20
11.9471
 11
90.0939
 21
12.2022
  0
LINE
  8
0
 10
90.0939
 20
12.2022
 11
90.2058
 21
12.2099
  0
LINE
  8
0
 10
90.2058
 20
12.2099
 11
90.3065
 21
12.1606
  0
LINE
  8
0
 10
90.3065
 20
12.1606
 11
90.3691
 21
12.0675
  0
LINE
  8
0
 10
90.3691
 20
12.0675
 11
91.9595
 21
10.1148
  0
LINE
  8
0
 10
91.9595
 20
10.1148
 11
92.2436
 21
9.80957
  0
LINE
  8
0
 10
92.2436
 20
9.80957
 11
93.2808
 21
10.2029
  0
LINE
  8
0
 10
93.2808
 20
10.2029
 11
93.291
 21
10.6198
  0
LINE
  8
0
 10
93.291
 20
10.6198
 11
93.1865
 21
13.136
  0
LINE
  8
0
 10
93.1865
 20
13.136
 11
93.1717
 21
13.2472
  0
LINE
  8
0
 10
93.1717
 20
13.2472
 11
93.2144
 21
13.3509
  0
LINE
  8
0
 10
93.2144
 20
13.3509
 11
93.3032
 21
13.4193
  0
LINE
  8
0
 10
93.3032
 20
13.4193
 11
94.0336
 21
13.7255
  0
LINE
  8
0
 10
94.0336
 20
13.7255
 11
94.1447
 21
13.7409
  0
LINE
  8
0
 10
94.1447
 20
13.7409
 11
94.2486
 21
13.6987
  0
LINE
  8
0
 10
94.2486
 20
13.6987
 11
94.3174
 21
13.6102
  0
LINE
  8
0
 10
94.3174
 20
13.6102
 11
96.0388
 21
11.7718
  0
LINE
  8
0
 10
96.0388
 20
11.7718
 11
96.3432
 21
11.4869
  0
LINE
  8
0
 10
96.3432
 20
11.4869
 11
97.3508
 21
11.9509
  0
LINE
  8
0
 10
97.3508
 20
11.9509
 11
97.3322
 21
12.3674
  0
LINE
  8
0
 10
97.3322
 20
12.3674
 11
97.0544
 21
14.8705
  0
LINE
  8
0
 10
97.0544
 20
14.8705
 11
97.0319
 21
14.9804
  0
LINE
  8
0
 10
97.0319
 20
14.9804
 11
97.0674
 21
15.0868
  0
LINE
  8
0
 10
97.0674
 20
15.0868
 11
97.1513
 21
15.1612
  0
LINE
  8
0
 10
97.1513
 20
15.1612
 11
97.8588
 21
15.5171
  0
LINE
  8
0
 10
97.8588
 20
15.5171
 11
97.9685
 21
15.5401
  0
LINE
  8
0
 10
97.9685
 20
15.5401
 11
98.0751
 21
15.5051
  0
LINE
  8
0
 10
98.0751
 20
15.5051
 11
98.1499
 21
15.4216
  0
LINE
  8
0
 10
98.1499
 20
15.4216
 11
99.994
 21
13.7064
  0
LINE
  8
0
 10
99.994
 20
13.7064
 11
100.317
 21
13.4432
  0
LINE
  8
0
 10
100.317
 20
13.4432
 11
101.291
 21
13.9755
  0
LINE
  8
0
 10
101.291
 20
13.9755
 11
101.243
 21
14.3898
  0
LINE
  8
0
 10
101.243
 20
14.3898
 11
100.793
 21
16.8677
  0
LINE
  8
0
 10
100.793
 20
16.8677
 11
100.763
 21
16.9758
  0
LINE
  8
0
 10
100.763
 20
16.9758
 11
100.791
 21
17.0844
  0
LINE
  8
0
 10
100.791
 20
17.0844
 11
100.87
 21
17.1644
  0
LINE
  8
0
 10
100.87
 20
17.1644
 11
101.551
 21
17.5682
  0
LINE
  8
0
 10
101.551
 20
17.5682
 11
101.659
 21
17.5988
  0
LINE
  8
0
 10
101.659
 20
17.5988
 11
101.768
 21
17.5713
  0
LINE
  8
0
 10
101.768
 20
17.5713
 11
101.848
 21
17.4931
  0
LINE
  8
0
 10
101.848
 20
17.4931
 11
103.806
 21
15.9091
  0
LINE
  8
0
 10
103.806
 20
15.9091
 11
104.147
 21
15.6689
  0
LINE
  8
0
 10
104.147
 20
15.6689
 11
105.081
 21
16.2672
  0
LINE
  8
0
 10
105.081
 20
16.2672
 11
105.005
 21
16.6772
  0
LINE
  8
0
 10
105.005
 20
16.6772
 11
104.386
 21
19.1181
  0
LINE
  8
0
 10
104.386
 20
19.1181
 11
104.348
 21
19.2239
  0
LINE
  8
0
 10
104.348
 20
19.2239
 11
104.369
 21
19.3341
  0
LINE
  8
0
 10
104.369
 20
19.3341
 11
104.442
 21
19.4194
  0
LINE
  8
0
 10
104.442
 20
19.4194
 11
105.093
 21
19.8693
  0
LINE
  8
0
 10
105.093
 20
19.8693
 11
105.199
 21
19.9072
  0
LINE
  8
0
 10
105.199
 20
19.9072
 11
105.309
 21
19.8872
  0
LINE
  8
0
 10
105.309
 20
19.8872
 11
105.395
 21
19.8148
  0
LINE
  8
0
 10
105.395
 20
19.8148
 11
107.458
 21
18.3697
  0
LINE
  8
0
 10
107.458
 20
18.3697
 11
107.814
 21
18.1535
  0
LINE
  8
0
 10
107.814
 20
18.1535
 11
108.705
 21
18.8148
  0
LINE
  8
0
 10
108.705
 20
18.8148
 11
108.601
 21
19.2186
  0
LINE
  8
0
 10
108.601
 20
19.2186
 11
107.814
 21
21.611
  0
LINE
  8
0
 10
107.814
 20
21.611
 11
107.77
 21
21.7139
  0
LINE
  8
0
 10
107.77
 20
21.7139
 11
107.782
 21
21.8253
  0
LINE
  8
0
 10
107.782
 20
21.8253
 11
107.849
 21
21.9154
  0
LINE
  8
0
 10
107.849
 20
21.9154
 11
108.468
 21
22.4092
  0
LINE
  8
0
 10
108.468
 20
22.4092
 11
108.571
 21
22.4543
  0
LINE
  8
0
 10
108.571
 20
22.4543
 11
108.683
 21
22.442
  0
LINE
  8
0
 10
108.683
 20
22.442
 11
108.773
 21
22.3756
  0
LINE
  8
0
 10
108.773
 20
22.3756
 11
110.93
 21
21.0763
  0
LINE
  8
0
 10
110.93
 20
21.0763
 11
111.301
 21
20.8852
  0
LINE
  8
0
 10
111.301
 20
20.8852
 11
112.144
 21
21.6064
  0
LINE
  8
0
 10
112.144
 20
21.6064
 11
112.012
 21
22.0021
  0
LINE
  8
0
 10
112.012
 20
22.0021
 11
111.063
 21
24.3345
  0
LINE
  8
0
 10
111.063
 20
24.3345
 11
111.011
 21
24.4341
  0
LINE
  8
0
 10
111.011
 20
24.4341
 11
111.016
 21
24.5461
  0
LINE
  8
0
 10
111.016
 20
24.5461
 11
111.076
 21
24.6406
  0
LINE
  8
0
 10
111.076
 20
24.6406
 11
111.66
 21
25.1759
  0
LINE
  8
0
 10
111.66
 20
25.1759
 11
111.759
 21
25.228
  0
LINE
  8
0
 10
111.759
 20
25.228
 11
111.871
 21
25.2234
  0
LINE
  8
0
 10
111.871
 20
25.2234
 11
111.966
 21
25.1634
  0
LINE
  8
0
 10
111.966
 20
25.1634
 11
114.208
 21
24.0161
  0
LINE
  8
0
 10
114.208
 20
24.0161
 11
114.591
 21
23.851
  0
LINE
  8
0
 10
114.591
 20
23.851
 11
115.382
 21
24.6286
  0
LINE
  8
0
 10
115.382
 20
24.6286
 11
115.224
 21
25.0143
  0
LINE
  8
0
 10
115.224
 20
25.0143
 11
114.115
 21
27.2756
  0
LINE
  8
0
 10
114.115
 20
27.2756
 11
114.057
 21
27.3714
  0
LINE
  8
0
 10
114.057
 20
27.3714
 11
114.054
 21
27.4835
  0
LINE
  8
0
 10
114.054
 20
27.4835
 11
114.108
 21
27.5819
  0
LINE
  8
0
 10
114.108
 20
27.5819
 11
114.653
 21
28.1562
  0
LINE
  8
0
 10
114.653
 20
28.1562
 11
114.749
 21
28.215
  0
LINE
  8
0
 10
114.749
 20
28.215
 11
114.861
 21
28.2182
  0
LINE
  8
0
 10
114.861
 20
28.2182
 11
114.96
 21
28.1649
  0
LINE
  8
0
 10
114.96
 20
28.1649
 11
117.275
 21
27.1749
  0
LINE
  8
0
 10
117.275
 20
27.1749
 11
117.669
 21
27.0367
  0
LINE
  8
0
 10
117.669
 20
27.0367
 11
118.404
 21
27.867
  0
LINE
  8
0
 10
118.404
 20
27.867
 11
118.22
 21
28.2408
  0
LINE
  8
0
 10
118.22
 20
28.2408
 11
116.958
 21
30.4203
  0
LINE
  8
0
 10
116.958
 20
30.4203
 11
116.893
 21
30.5118
  0
LINE
  8
0
 10
116.893
 20
30.5118
 11
116.883
 21
30.6235
  0
LINE
  8
0
 10
116.883
 20
30.6235
 11
116.929
 21
30.7254
  0
LINE
  8
0
 10
116.929
 20
30.7254
 11
117.434
 21
31.336
  0
LINE
  8
0
 10
117.434
 20
31.336
 11
117.525
 21
31.4012
  0
LINE
  8
0
 10
117.525
 20
31.4012
 11
117.637
 21
31.4121
  0
LINE
  8
0
 10
117.637
 20
31.4121
 11
117.739
 21
31.3657
  0
LINE
  8
0
 10
117.739
 20
31.3657
 11
120.117
 21
30.5379
  0
LINE
  8
0
 10
120.117
 20
30.5379
 11
120.519
 21
30.4271
  0
LINE
  8
0
 10
120.519
 20
30.4271
 11
121.196
 21
31.3062
  0
LINE
  8
0
 10
121.196
 20
31.3062
 11
120.986
 21
31.6664
  0
LINE
  8
0
 10
120.986
 20
31.6664
 11
119.577
 21
33.7536
  0
LINE
  8
0
 10
119.577
 20
33.7536
 11
119.506
 21
33.8405
  0
LINE
  8
0
 10
119.506
 20
33.8405
 11
119.488
 21
33.9512
  0
LINE
  8
0
 10
119.488
 20
33.9512
 11
119.527
 21
34.056
  0
LINE
  8
0
 10
119.527
 20
34.056
 11
119.988
 21
34.7
  0
LINE
  8
0
 10
119.988
 20
34.7
 11
120.075
 21
34.7713
  0
LINE
  8
0
 10
120.075
 20
34.7713
 11
120.185
 21
34.7899
  0
LINE
  8
0
 10
120.185
 20
34.7899
 11
120.29
 21
34.7507
  0
LINE
  8
0
 10
120.29
 20
34.7507
 11
122.72
 21
34.0889
  0
LINE
  8
0
 10
122.72
 20
34.0889
 11
123.129
 21
34.0061
  0
LINE
  8
0
 10
123.129
 20
34.0061
 11
123.743
 21
34.9298
  0
LINE
  8
0
 10
123.743
 20
34.9298
 11
123.509
 21
35.2746
  0
LINE
  8
0
 10
123.509
 20
35.2746
 11
121.959
 21
37.2597
  0
LINE
  8
0
 10
121.959
 20
37.2597
 11
121.882
 21
37.3414
  0
LINE
  8
0
 10
121.882
 20
37.3414
 11
121.857
 21
37.4506
  0
LINE
  8
0
 10
121.857
 20
37.4506
 11
121.889
 21
37.558
  0
LINE
  8
0
 10
121.889
 20
37.558
 11
122.305
 21
38.2322
  0
LINE
  8
0
 10
122.305
 20
38.2322
 11
122.386
 21
38.3093
  0
LINE
  8
0
 10
122.386
 20
38.3093
 11
122.495
 21
38.3355
  0
LINE
  8
0
 10
122.495
 20
38.3355
 11
122.603
 21
38.3036
  0
LINE
  8
0
 10
122.603
 20
38.3036
 11
125.072
 21
37.8111
  0
LINE
  8
0
 10
125.072
 20
37.8111
 11
125.486
 21
37.7567
  0
LINE
  8
0
 10
125.486
 20
37.7567
 11
126.035
 21
38.7205
  0
LINE
  8
0
 10
126.035
 20
38.7205
 11
125.777
 21
39.0484
  0
LINE
  8
0
 10
125.777
 20
39.0484
 11
124.094
 21
40.9218
  0
LINE
  8
0
 10
124.094
 20
40.9218
 11
124.012
 21
40.998
  0
LINE
  8
0
 10
124.012
 20
40.998
 11
123.979
 21
41.1051
  0
LINE
  8
0
 10
123.979
 20
41.1051
 11
124.004
 21
41.2145
  0
LINE
  8
0
 10
124.004
 20
41.2145
 11
124.372
 21
41.9157
  0
LINE
  8
0
 10
124.372
 20
41.9157
 11
124.448
 21
41.9984
  0
LINE
  8
0
 10
124.448
 20
41.9984
 11
124.555
 21
42.032
  0
LINE
  8
0
 10
124.555
 20
42.032
 11
124.664
 21
42.0076
  0
LINE
  8
0
 10
124.664
 20
42.0076
 11
127.162
 21
41.6866
  0
LINE
  8
0
 10
127.162
 20
41.6866
 11
127.578
 21
41.6609
  0
LINE
  8
0
 10
127.578
 20
41.6609
 11
128.059
 21
42.6603
  0
LINE
  8
0
 10
128.059
 20
42.6603
 11
127.78
 21
42.9696
  0
LINE
  8
0
 10
127.78
 20
42.9696
 11
125.971
 21
44.7224
  0
LINE
  8
0
 10
125.971
 20
44.7224
 11
125.884
 21
44.7928
  0
LINE
  8
0
 10
125.884
 20
44.7928
 11
125.844
 21
44.8974
  0
LINE
  8
0
 10
125.844
 20
44.8974
 11
125.861
 21
45.0082
  0
LINE
  8
0
 10
125.861
 20
45.0082
 11
126.18
 21
45.7332
  0
LINE
  8
0
 10
126.18
 20
45.7332
 11
126.25
 21
45.8208
  0
LINE
  8
0
 10
126.25
 20
45.8208
 11
126.354
 21
45.8617
  0
LINE
  8
0
 10
126.354
 20
45.8617
 11
126.465
 21
45.845
  0
LINE
  8
0
 10
126.465
 20
45.845
 11
128.979
 21
45.6971
  0
LINE
  8
0
 10
128.979
 20
45.6971
 11
129.396
 21
45.7001
  0
LINE
  8
0
 10
129.396
 20
45.7001
 11
129.807
 21
46.7304
  0
LINE
  8
0
 10
129.807
 20
46.7304
 11
129.507
 21
47.0196
  0
LINE
  8
0
 10
129.507
 20
47.0196
 11
127.582
 21
48.6435
  0
LINE
  8
0
 10
127.582
 20
48.6435
 11
127.49
 21
48.7077
  0
LINE
  8
0
 10
127.49
 20
48.7077
 11
127.442
 21
48.8093
  0
LINE
  8
0
 10
127.442
 20
48.8093
 11
127.452
 21
48.921
  0
LINE
  8
0
 10
127.452
 20
48.921
 11
127.72
 21
49.6662
  0
LINE
  8
0
 10
127.72
 20
49.6662
 11
127.784
 21
49.7585
  0
LINE
  8
0
 10
127.784
 20
49.7585
 11
127.885
 21
49.8065
  0
LINE
  8
0
 10
127.885
 20
49.8065
 11
127.997
 21
49.7974
  0
LINE
  8
0
 10
127.997
 20
49.7974
 11
130.515
 21
49.8233
  0
LINE
  8
0
 10
130.515
 20
49.8233
 11
130.931
 21
49.8551
  0
LINE
  8
0
 10
130.931
 20
49.8551
 11
131.27
 21
50.9113
  0
LINE
  8
0
 10
131.27
 20
50.9113
 11
130.951
 21
51.1792
  0
LINE
  8
0
 10
130.951
 20
51.1792
 11
128.918
 21
52.6664
  0
LINE
  8
0
 10
128.918
 20
52.6664
 11
128.822
 21
52.7241
  0
LINE
  8
0
 10
128.822
 20
52.7241
 11
128.768
 21
52.8221
  0
LINE
  8
0
 10
128.768
 20
52.8221
 11
128.769
 21
52.9342
  0
LINE
  8
0
 10
128.769
 20
52.9342
 11
128.985
 21
53.6962
  0
LINE
  8
0
 10
128.985
 20
53.6962
 11
129.043
 21
53.7926
  0
LINE
  8
0
 10
129.043
 20
53.7926
 11
129.14
 21
53.8475
  0
LINE
  8
0
 10
129.14
 20
53.8475
 11
129.253
 21
53.8462
  0
LINE
  8
0
 10
129.253
 20
53.8462
 11
131.763
 21
54.0458
  0
LINE
  8
0
 10
131.763
 20
54.0458
 11
132.176
 21
54.1062
  0
LINE
  8
0
 10
132.176
 20
54.1062
 11
132.441
 21
55.1832
  0
LINE
  8
0
 10
132.441
 20
55.1832
 11
132.104
 21
55.4284
  0
LINE
  8
0
 10
132.104
 20
55.4284
 11
129.974
 21
56.7719
  0
LINE
  8
0
 10
129.974
 20
56.7719
 11
129.874
 21
56.8228
  0
LINE
  8
0
 10
129.874
 20
56.8228
 11
129.813
 21
56.9168
  0
LINE
  8
0
 10
129.813
 20
56.9168
 11
129.807
 21
57.0288
  0
LINE
  8
0
 10
129.807
 20
57.0288
 11
129.97
 21
57.8039
  0
LINE
  8
0
 10
129.97
 20
57.8039
 11
130.02
 21
57.904
  0
LINE
  8
0
 10
130.02
 20
57.904
 11
130.114
 21
57.9655
  0
LINE
  8
0
 10
130.114
 20
57.9655
 11
130.226
 21
57.9719
  0
LINE
  8
0
 10
130.226
 20
57.9719
 11
132.717
 21
58.3442
  0
LINE
  8
0
 10
132.717
 20
58.3442
 11
133.124
 21
58.433
  0
LINE
  8
0
 10
133.124
 20
58.433
 11
133.315
 21
59.5258
  0
LINE
  8
0
 10
133.315
 20
59.5258
 11
132.961
 21
59.7471
  0
LINE
  8
0
 10
132.961
 20
59.7471
 11
130.743
 21
60.9404
  0
LINE
  8
0
 10
130.743
 20
60.9404
 11
130.64
 21
60.9843
  0
LINE
  8
0
 10
130.64
 20
60.9843
 11
130.573
 21
61.0739
  0
LINE
  8
0
 10
130.573
 20
61.0739
 11
130.559
 21
61.1852
  0
LINE
  8
0
 10
130.559
 20
61.1852
 11
130.668
 21
61.9697
  0
LINE
  8
0
 10
130.668
 20
61.9697
 11
130.712
 21
62.073
  0
LINE
  8
0
 10
130.712
 20
62.073
 11
130.801
 21
62.1409
  0
LINE
  8
0
 10
130.801
 20
62.1409
 11
130.912
 21
62.155
  0
LINE
  8
0
 10
130.912
 20
62.155
 11
133.371
 21
62.6983
  0
LINE
  8
0
 10
133.371
 20
62.6983
 11
133.772
 21
62.8149
  0
LINE
  8
0
 10
133.772
 20
62.8149
 11
133.886
 21
63.9182
  0
LINE
  8
0
 10
133.886
 20
63.9182
 11
133.519
 21
64.1147
  0
LINE
  8
0
 10
133.519
 20
64.1147
 11
131.224
 21
65.1521
  0
LINE
  8
0
 10
131.224
 20
65.1521
 11
131.118
 21
65.1888
  0
LINE
  8
0
 10
131.118
 20
65.1888
 11
131.044
 21
65.2735
  0
LINE
  8
0
 10
131.044
 20
65.2735
 11
131.023
 21
65.3836
  0
LINE
  8
0
 10
131.023
 20
65.3836
 11
131.078
 21
66.1737
  0
LINE
  8
0
 10
131.078
 20
66.1737
 11
131.114
 21
66.2798
  0
LINE
  8
0
 10
131.114
 20
66.2798
 11
131.198
 21
66.3537
  0
LINE
  8
0
 10
131.198
 20
66.3537
 11
131.308
 21
66.3754
  0
LINE
  8
0
 10
131.308
 20
66.3754
 11
133.724
 21
67.0871
  0
LINE
  8
0
 10
133.724
 20
67.0871
 11
134.115
 21
67.231
  0
LINE
  8
0
 10
134.115
 20
67.231
 11
134.154
 21
68.3396
  0
LINE
  8
0
 10
134.154
 20
68.3396
 11
133.773
 21
68.5102
  0
LINE
  8
0
 10
133.773
 20
68.5102
 11
131.412
 21
69.3869
  0
LINE
  8
0
 10
131.412
 20
69.3869
 11
131.304
 21
69.4161
  0
LINE
  8
0
 10
131.304
 20
69.4161
 11
131.225
 21
69.4956
  0
LINE
  8
0
 10
131.225
 20
69.4956
 11
131.196
 21
69.604
  0
LINE
  8
0
 10
131.196
 20
69.604
 11
131.196
 21
70.396
  0
LINE
  8
0
 10
131.196
 20
70.396
 11
131.225
 21
70.5044
  0
LINE
  8
0
 10
131.225
 20
70.5044
 11
131.304
 21
70.5839
  0
LINE
  8
0
 10
131.304
 20
70.5839
 11
131.412
 21
70.6131
  0
LINE
  8
0
 10
131.412
 20
70.6131
 11
133.773
 21
71.4897
  0
LINE
  8
0
 10
133.773
 20
71.4897
 11
134.154
 21
71.6603
  0
LINE
  8
0
 10
134.154
 20
71.6603
 11
134.115
 21
72.769
  0
LINE
  8
0
 10
134.115
 20
72.769
 11
133.724
 21
72.9129
  0
LINE
  8
0
 10
133.724
 20
72.9129
 11
131.308
 21
73.6246
  0
LINE
  8
0
 10
131.308
 20
73.6246
 11
131.198
 21
73.6463
  0
LINE
  8
0
 10
131.198
 20
73.6463
 11
131.114
 21
73.7202
  0
LINE
  8
0
 10
131.114
 20
73.7202
 11
131.078
 21
73.8263
  0
LINE
  8
0
 10
131.078
 20
73.8263
 11
131.023
 21
74.6164
  0
LINE
  8
0
 10
131.023
 20
74.6164
 11
131.044
 21
74.7265
  0
LINE
  8
0
 10
131.044
 20
74.7265
 11
131.118
 21
74.8112
  0
LINE
  8
0
 10
131.118
 20
74.8112
 11
131.224
 21
74.8479
  0
LINE
  8
0
 10
131.224
 20
74.8479
 11
133.519
 21
75.8853
  0
LINE
  8
0
 10
133.519
 20
75.8853
 11
133.886
 21
76.0818
  0
LINE
  8
0
 10
133.886
 20
76.0818
 11
133.772
 21
77.1851
  0
LINE
  8
0
 10
133.772
 20
77.1851
 11
133.371
 21
77.3017
  0
LINE
  8
0
 10
133.371
 20
77.3017
 11
130.912
 21
77.845
  0
LINE
  8
0
 10
130.912
 20
77.845
 11
130.801
 21
77.8591
  0
LINE
  8
0
 10
130.801
 20
77.8591
 11
130.712
 21
77.9269
  0
LINE
  8
0
 10
130.712
 20
77.9269
 11
130.668
 21
78.0303
  0
LINE
  8
0
 10
130.668
 20
78.0303
 11
130.559
 21
78.8148
  0
LINE
  8
0
 10
130.559
 20
78.8148
 11
130.573
 21
78.9261
  0
LINE
  8
0
 10
130.573
 20
78.9261
 11
130.64
 21
79.0157
  0
LINE
  8
0
 10
130.64
 20
79.0157
 11
130.743
 21
79.0596
  0
LINE
  8
0
 10
130.743
 20
79.0596
 11
132.961
 21
80.2529
  0
LINE
  8
0
 10
132.961
 20
80.2529
 11
133.315
 21
80.4742
  0
LINE
  8
0
 10
133.315
 20
80.4742
 11
133.124
 21
81.567
  0
LINE
  8
0
 10
133.124
 20
81.567
 11
132.717
 21
81.6557
  0
LINE
  8
0
 10
132.717
 20
81.6557
 11
130.226
 21
82.0281
  0
LINE
  8
0
 10
130.226
 20
82.0281
 11
130.114
 21
82.0345
  0
LINE
  8
0
 10
130.114
 20
82.0345
 11
130.02
 21
82.096
  0
LINE
  8
0
 10
130.02
 20
82.096
 11
129.97
 21
82.1961
  0
LINE
  8
0
 10
129.97
 20
82.1961
 11
129.807
 21
82.9712
  0
LINE
  8
0
 10
129.807
 20
82.9712
 11
129.813
 21
83.0832
  0
LINE
  8
0
 10
129.813
 20
83.0832
 11
129.874
 21
83.1772
  0
LINE
  8
0
 10
129.874
 20
83.1772
 11
129.974
 21
83.2281
  0
LINE
  8
0
 10
129.974
 20
83.2281
 11
132.104
 21
84.5716
  0
LINE
  8
0
 10
132.104
 20
84.5716
 11
132.441
 21
84.8167
  0
LINE
  8
0
 10
132.441
 20
84.8167
 11
132.176
 21
85.8938
  0
LINE
  8
0
 10
132.176
 20
85.8938
 11
131.763
 21
85.9542
  0
LINE
  8
0
 10
131.763
 20
85.9542
 11
129.253
 21
86.1538
  0
LINE
  8
0
 10
129.253
 20
86.1538
 11
129.14
 21
86.1525
  0
LINE
  8
0
 10
129.14
 20
86.1525
 11
129.043
 21
86.2074
  0
LINE
  8
0
 10
129.043
 20
86.2074
 11
128.985
 21
86.3038
  0
LINE
  8
0
 10
128.985
 20
86.3038
 11
128.769
 21
87.0658
  0
LINE
  8
0
 10
128.769
 20
87.0658
 11
128.768
 21
87.1779
  0
LINE
  8
0
 10
128.768
 20
87.1779
 11
128.822
 21
87.2759
  0
LINE
  8
0
 10
128.822
 20
87.2759
 11
128.918
 21
87.3336
  0
LINE
  8
0
 10
128.918
 20
87.3336
 11
130.951
 21
88.8208
  0
LINE
  8
0
 10
130.951
 20
88.8208
 11
131.27
 21
89.0887
  0
LINE
  8
0
 10
131.27
 20
89.0887
 11
130.931
 21
90.1449
  0
LINE
  8
0
 10
130.931
 20
90.1449
 11
130.515
 21
90.1766
  0
LINE
  8
0
 10
130.515
 20
90.1766
 11
127.997
 21
90.2026
  0
LINE
  8
0
 10
127.997
 20
90.2026
 11
127.885
 21
90.1935
  0
LINE
  8
0
 10
127.885
 20
90.1935
 11
127.784
 21
90.2415
  0
LINE
  8
0
 10
127.784
 20
90.2415
 11
127.72
 21
90.3338
  0
LINE
  8
0
 10
127.72
 20
90.3338
 11
127.452
 21
91.079
  0
LINE
  8
0
 10
127.452
 20
91.079
 11
127.442
 21
91.1907
  0
LINE
  8
0
 10
127.442
 20
91.1907
 11
127.49
 21
91.2923
  0
LINE
  8
0
 10
127.49
 20
91.2923
 11
127.582
 21
91.3565
  0
LINE
  8
0
 10
127.582
 20
91.3565
 11
129.507
 21
92.9803
  0
LINE
  8
0
 10
129.507
 20
92.9803
 11
129.807
 21
93.2696
  0
LINE
  8
0
 10
129.807
 20
93.2696
 11
129.396
 21
94.2999
  0
LINE
  8
0
 10
129.396
 20
94.2999
 11
128.979
 21
94.3029
  0
LINE
  8
0
 10
128.979
 20
94.3029
 11
126.465
 21
94.155
  0
LINE
  8
0
 10
126.465
 20
94.155
 11
126.354
 21
94.1383
  0
LINE
  8
0
 10
126.354
 20
94.1383
 11
126.25
 21
94.1792
  0
LINE
  8
0
 10
126.25
 20
94.1792
 11
126.18
 21
94.2668
  0
LINE
  8
0
 10
126.18
 20
94.2668
 11
125.861
 21
94.9918
  0
LINE
  8
0
 10
125.861
 20
94.9918
 11
125.844
 21
95.1026
  0
LINE
  8
0
 10
125.844
 20
95.1026
 11
125.884
 21
95.2072
  0
LINE
  8
0
 10
125.884
 20
95.2072
 11
125.971
 21
95.2776
  0
LINE
  8
0
 10
125.971
 20
95.2776
 11
127.78
 21
97.0304
  0
LINE
  8
0
 10
127.78
 20
97.0304
 11
128.059
 21
97.3397
  0
LINE
  8
0
 10
128.059
 20
97.3397
 11
127.578
 21
98.3391
  0
LINE
  8
0
 10
127.578
 20
98.3391
 11
127.162
 21
98.3134
  0
LINE
  8
0
 10
127.162
 20
98.3134
 11
124.664
 21
97.9924
  0
LINE
  8
0
 10
124.664
 20
97.9924
 11
124.555
 21
97.968
  0
LINE
  8
0
 10
124.555
 20
97.968
 11
124.448
 21
98.0016
  0
LINE
  8
0
 10
124.448
 20
98.0016
 11
124.372
 21
98.0842
  0
LINE
  8
0
 10
124.372
 20
98.0842
 11
124.004
 21
98.7855
  0
LINE
  8
0
 10
124.004
 20
98.7855
 11
123.979
 21
98.8949
  0
LINE
  8
0
 10
123.979
 20
98.8949
 11
124.012
 21
99.002
  0
LINE
  8
0
 10
124.012
 20
99.002
 11
124.094
 21
99.0782
  0
LINE
  8
0
 10
124.094
 20
99.0782
 11
125.777
 21
100.952
  0
LINE
  8
0
 10
125.777
 20
100.952
 11
126.035
 21
101.279
  0
LINE
  8
0
 10
126.035
 20
101.279
 11
125.486
 21
102.243
  0
LINE
  8
0
 10
125.486
 20
102.243
 11
125.072
 21
102.189
  0
LINE
  8
0
 10
125.072
 20
102.189
 11
122.603
 21
101.696
  0
LINE
  8
0
 10
122.603
 20
101.696
 11
122.495
 21
101.665
  0
LINE
  8
0
 10
122.495
 20
101.665
 11
122.386
 21
101.691
  0
LINE
  8
0
 10
122.386
 20
101.691
 11
122.305
 21
101.768
  0
LINE
  8
0
 10
122.305
 20
101.768
 11
121.889
 21
102.442
  0
LINE
  8
0
 10
121.889
 20
102.442
 11
121.857
 21
102.549
  0
LINE
  8
0
 10
121.857
 20
102.549
 11
121.882
 21
102.659
  0
LINE
  8
0
 10
121.882
 20
102.659
 11
121.959
 21
102.74
  0
LINE
  8
0
 10
121.959
 20
102.74
 11
123.509
 21
104.725
  0
LINE
  8
0
 10
123.509
 20
104.725
 11
123.743
 21
105.07
  0
LINE
  8
0
 10
123.743
 20
105.07
 11
123.129
 21
105.994
  0
LINE
  8
0
 10
123.129
 20
105.994
 11
122.72
 21
105.911
  0
LINE
  8
0
 10
122.72
 20
105.911
 11
120.29
 21
105.249
  0
LINE
  8
0
 10
120.29
 20
105.249
 11
120.185
 21
105.21
  0
LINE
  8
0
 10
120.185
 20
105.21
 11
120.075
 21
105.229
  0
LINE
  8
0
 10
120.075
 20
105.229
 11
119.988
 21
105.3
  0
LINE
  8
0
 10
119.988
 20
105.3
 11
119.527
 21
105.944
  0
LINE
  8
0
 10
119.527
 20
105.944
 11
119.488
 21
106.049
  0
LINE
  8
0
 10
119.488
 20
106.049
 11
119.506
 21
106.16
  0
LINE
  8
0
 10
119.506
 20
106.16
 11
119.577
 21
106.246
  0
LINE
  8
0
 10
119.577
 20
106.246
 11
120.986
 21
108.334
  0
LINE
  8
0
 10
120.986
 20
108.334
 11
121.196
 21
108.694
  0
LINE
  8
0
 10
121.196
 20
108.694
 11
120.519
 21
109.573
  0
LINE
  8
0
 10
120.519
 20
109.573
 11
120.117
 21
109.462
  0
LINE
  8
0
 10
120.117
 20
109.462
 11
117.739
 21
108.634
  0
LINE
  8
0
 10
117.739
 20
108.634
 11
117.637
 21
108.588
  0
LINE
  8
0
 10
117.637
 20
108.588
 11
117.525
 21
108.599
  0
LINE
  8
0
 10
117.525
 20
108.599
 11
117.434
 21
108.664
  0
LINE
  8
0
 10
117.434
 20
108.664
 11
116.929
 21
109.275
  0
LINE
  8
0
 10
116.929
 20
109.275
 11
116.883
 21
109.376
  0
LINE
  8
0
 10
116.883
 20
109.376
 11
116.893
 21
109.488
  0
LINE
  8
0
 10
116.893
 20
109.488
 11
116.958
 21
109.58
  0
LINE
  8
0
 10
116.958
 20
109.58
 11
118.22
 21
111.759
  0
LINE
  8
0
 10
118.22
 20
111.759
 11
118.404
 21
112.133
  0
LINE
  8
0
 10
118.404
 20
112.133
 11
117.669
 21
112.963
  0
LINE
  8
0
 10
117.669
 20
112.963
 11
117.275
 21
112.825
  0
LINE
  8
0
 10
117.275
 20
112.825
 11
114.96
 21
111.835
  0
LINE
  8
0
 10
114.96
 20
111.835
 11
114.861
 21
111.782
  0
LINE
  8
0
 10
114.861
 20
111.782
 11
114.749
 21
111.785
  0
LINE
  8
0
 10
114.749
 20
111.785
 11
114.653
 21
111.844
  0
LINE
  8
0
 10
114.653
 20
111.844
 11
114.108
 21
112.418
  0
LINE
  8
0
 10
114.108
 20
112.418
 11
114.054
 21
112.516
  0
LINE
  8
0
 10
114.054
 20
112.516
 11
114.057
 21
112.629
  0
LINE
  8
0
 10
114.057
 20
112.629
 11
114.115
 21
112.724
  0
LINE
  8
0
 10
114.115
 20
112.724
 11
115.224
 21
114.986
  0
LINE
  8
0
 10
115.224
 20
114.986
 11
115.382
 21
115.371
  0
LINE
  8
0
 10
115.382
 20
115.371
 11
114.591
 21
116.149
  0
LINE
  8
0
 10
114.591
 20
116.149
 11
114.208
 21
115.984
  0
LINE
  8
0
 10
114.208
 20
115.984
 11
111.966
 21
114.837
  0
LINE
  8
0
 10
111.966
 20
114.837
 11
111.871
 21
114.777
  0
LINE
  8
0
 10
111.871
 20
114.777
 11
111.759
 21
114.772
  0
LINE
  8
0
 10
111.759
 20
114.772
 11
111.66
 21
114.824
  0
LINE
  8
0
 10
111.66
 20
114.824
 11
111.076
 21
115.359
  0
LINE
  8
0
 10
111.076
 20
115.359
 11
111.016
 21
115.454
  0
LINE
  8
0
 10
111.016
 20
115.454
 11
111.011
 21
115.566
  0
LINE
  8
0
 10
111.011
 20
115.566
 11
111.063
 21
115.665
  0
LINE
  8
0
 10
111.063
 20
115.665
 11
112.012
 21
117.998
  0
LINE
  8
0
 10
112.012
 20
117.998
 11
112.144
 21
118.394
  0
LINE
  8
0
 10
112.144
 20
118.394
 11
111.301
 21
119.115
  0
LINE
  8
0
 10
111.301
 20
119.115
 11
110.93
 21
118.924
  0
LINE
  8
0
 10
110.93
 20
118.924
 11
108.773
 21
117.624
  0
LINE
  8
0
 10
108.773
 20
117.624
 11
108.683
 21
117.558
  0
LINE
  8
0
 10
108.683
 20
117.558
 11
108.571
 21
117.546
  0
LINE
  8
0
 10
108.571
 20
117.546
 11
108.468
 21
117.591
  0
LINE
  8
0
 10
108.468
 20
117.591
 11
107.849
 21
118.085
  0
LINE
  8
0
 10
107.849
 20
118.085
 11
107.782
 21
118.175
  0
LINE
  8
0
 10
107.782
 20
118.175
 11
107.77
 21
118.286
  0
LINE
  8
0
 10
107.77
 20
118.286
 11
107.814
 21
118.389
  0
LINE
  8
0
 10
107.814
 20
118.389
 11
108.601
 21
120.781
  0
LINE
  8
0
 10
108.601
 20
120.781
 11
108.705
 21
121.185
  0
LINE
  8
0
 10
108.705
 20
121.185
 11
107.814
 21
121.846
  0
LINE
  8
0
 10
107.814
 20
121.846
 11
107.458
 21
121.63
  0
LINE
  8
0
 10
107.458
 20
121.63
 11
105.395
 21
120.185
  0
LINE
  8
0
 10
105.395
 20
120.185
 11
105.309
 21
120.113
  0
LINE
  8
0
 10
105.309
 20
120.113
 11
105.199
 21
120.093
  0
LINE
  8
0
 10
105.199
 20
120.093
 11
105.093
 21
120.131
  0
LINE
  8
0
 10
105.093
 20
120.131
 11
104.442
 21
120.581
  0
LINE
  8
0
 10
104.442
 20
120.581
 11
104.369
 21
120.666
  0
LINE
  8
0
 10
104.369
 20
120.666
 11
104.348
 21
120.776
  0
LINE
  8
0
 10
104.348
 20
120.776
 11
104.386
 21
120.882
  0
LINE
  8
0
 10
104.386
 20
120.882
 11
105.005
 21
123.323
  0
LINE
  8
0
 10
105.005
 20
123.323
 11
105.081
 21
123.733
  0
LINE
  8
0
 10
105.081
 20
123.733
 11
104.147
 21
124.331
  0
LINE
  8
0
 10
104.147
 20
124.331
 11
103.806
 21
124.091
  0
LINE
  8
0
 10
103.806
 20
124.091
 11
101.848
 21
122.507
  0
LINE
  8
0
 10
101.848
 20
122.507
 11
101.768
 21
122.429
  0
LINE
  8
0
 10
101.768
 20
122.429
 11
101.659
 21
122.401
  0
LINE
  8
0
 10
101.659
 20
122.401
 11
101.551
 21
122.432
  0
LINE
  8
0
 10
101.551
 20
122.432
 11
100.87
 21
122.836
  0
LINE
  8
0
 10
100.87
 20
122.836
 11
100.791
 21
122.916
  0
LINE
  8
0
 10
100.791
 20
122.916
 11
100.763
 21
123.024
  0
LINE
  8
0
 10
100.763
 20
123.024
 11
100.793
 21
123.132
  0
LINE
  8
0
 10
100.793
 20
123.132
 11
101.243
 21
125.61
  0
LINE
  8
0
 10
101.243
 20
125.61
 11
101.291
 21
126.024
  0
LINE
  8
0
 10
101.291
 20
126.024
 11
100.317
 21
126.557
  0
LINE
  8
0
 10
100.317
 20
126.557
 11
99.994
 21
126.294
  0
LINE
  8
0
 10
99.994
 20
126.294
 11
98.1499
 21
124.578
  0
LINE
  8
0
 10
98.1499
 20
124.578
 11
98.0751
 21
124.495
  0
LINE
  8
0
 10
98.0751
 20
124.495
 11
97.9685
 21
124.46
  0
LINE
  8
0
 10
97.9685
 20
124.46
 11
97.8588
 21
124.483
  0
LINE
  8
0
 10
97.8588
 20
124.483
 11
97.1513
 21
124.839
  0
LINE
  8
0
 10
97.1513
 20
124.839
 11
97.0674
 21
124.913
  0
LINE
  8
0
 10
97.0674
 20
124.913
 11
97.0319
 21
125.02
  0
LINE
  8
0
 10
97.0319
 20
125.02
 11
97.0544
 21
125.129
  0
LINE
  8
0
 10
97.0544
 20
125.129
 11
97.3322
 21
127.633
  0
LINE
  8
0
 10
97.3322
 20
127.633
 11
97.3508
 21
128.049
  0
LINE
  8
0
 10
97.3508
 20
128.049
 11
96.3432
 21
128.513
  0
LINE
  8
0
 10
96.3432
 20
128.513
 11
96.0388
 21
128.228
  0
LINE
  8
0
 10
96.0388
 20
128.228
 11
94.3174
 21
126.39
  0
LINE
  8
0
 10
94.3174
 20
126.39
 11
94.2486
 21
126.301
  0
LINE
  8
0
 10
94.2486
 20
126.301
 11
94.1447
 21
126.259
  0
LINE
  8
0
 10
94.1447
 20
126.259
 11
94.0336
 21
126.274
  0
LINE
  8
0
 10
94.0336
 20
126.274
 11
93.3032
 21
126.581
  0
LINE
  8
0
 10
93.3032
 20
126.581
 11
93.2144
 21
126.649
  0
LINE
  8
0
 10
93.2144
 20
126.649
 11
93.1717
 21
126.753
  0
LINE
  8
0
 10
93.1717
 20
126.753
 11
93.1865
 21
126.864
  0
LINE
  8
0
 10
93.1865
 20
126.864
 11
93.291
 21
129.38
  0
LINE
  8
0
 10
93.291
 20
129.38
 11
93.2808
 21
129.797
  0
LINE
  8
0
 10
93.2808
 20
129.797
 11
92.2436
 21
130.19
  0
LINE
  8
0
 10
92.2436
 20
130.19
 11
91.9595
 21
129.885
  0
LINE
  8
0
 10
91.9595
 20
129.885
 11
90.3691
 21
127.932
  0
LINE
  8
0
 10
90.3691
 20
127.932
 11
90.3065
 21
127.839
  0
LINE
  8
0
 10
90.3065
 20
127.839
 11
90.2058
 21
127.79
  0
LINE
  8
0
 10
90.2058
 20
127.79
 11
90.0939
 21
127.798
  0
LINE
  8
0
 10
90.0939
 20
127.798
 11
89.3441
 21
128.053
  0
LINE
  8
0
 10
89.3441
 20
128.053
 11
89.2508
 21
128.115
  0
LINE
  8
0
 10
89.2508
 20
128.115
 11
89.201
 21
128.216
  0
LINE
  8
0
 10
89.201
 20
128.216
 11
89.2082
 21
128.327
  0
LINE
  8
0
 10
89.2082
 20
128.327
 11
89.1388
 21
130.845
  0
LINE
  8
0
 10
89.1388
 20
130.845
 11
89.0999
 21
131.26
  0
LINE
  8
0
 10
89.0999
 20
131.26
 11
88.038
 21
131.581
  0
LINE
  8
0
 10
88.038
 20
131.581
 11
87.7757
 21
131.257
  0
LINE
  8
0
 10
87.7757
 20
131.257
 11
86.3238
 21
129.199
  0
LINE
  8
0
 10
86.3238
 20
129.199
 11
86.2677
 21
129.102
  0
LINE
  8
0
 10
86.2677
 20
129.102
 11
86.1707
 21
129.046
  0
LINE
  8
0
 10
86.1707
 20
129.046
 11
86.0585
 21
129.046
  0
LINE
  8
0
 10
86.0585
 20
129.046
 11
85.2929
 21
129.249
  0
LINE
  8
0
 10
85.2929
 20
129.249
 11
85.1955
 21
129.304
  0
LINE
  8
0
 10
85.1955
 20
129.304
 11
85.1389
 21
129.401
  0
LINE
  8
0
 10
85.1389
 20
129.401
 11
85.1384
 21
129.513
  0
LINE
  8
0
 10
85.1384
 20
129.513
 11
84.8955
 21
132.02
  0
LINE
  8
0
 10
84.8955
 20
132.02
 11
84.828
 21
132.431
  0
LINE
  8
0
 10
84.828
 20
132.431
 11
83.7465
 21
132.678
  0
LINE
  8
0
 10
83.7465
 20
132.678
 11
83.5071
 21
132.337
  0
LINE
  8
0
 10
83.5071
 20
132.337
 11
82.2007
 21
130.184
  0
LINE
  8
0
 10
82.2007
 20
130.184
 11
82.1515
 21
130.083
  0
LINE
  8
0
 10
82.1515
 20
130.083
 11
82.0585
 21
130.02
  0
LINE
  8
0
 10
82.0585
 20
130.02
 11
81.9466
 21
130.012
  0
LINE
  8
0
 10
81.9466
 20
130.012
 11
81.1689
 21
130.162
  0
LINE
  8
0
 10
81.1689
 20
130.162
 11
81.0679
 21
130.21
  0
LINE
  8
0
 10
81.0679
 20
130.21
 11
81.0048
 21
130.303
  0
LINE
  8
0
 10
81.0048
 20
130.303
 11
80.9964
 21
130.415
  0
LINE
  8
0
 10
80.9964
 20
130.415
 11
80.5812
 21
132.899
  0
LINE
  8
0
 10
80.5812
 20
132.899
 11
80.4855
 21
133.305
  0
LINE
  8
0
 10
80.4855
 20
133.305
 11
79.3895
 21
133.476
  0
LINE
  8
0
 10
79.3895
 20
133.476
 11
79.1743
 21
133.119
  0
LINE
  8
0
 10
79.1743
 20
133.119
 11
78.0195
 21
130.881
  0
LINE
  8
0
 10
78.0195
 20
130.881
 11
77.9774
 21
130.777
  0
LINE
  8
0
 10
77.9774
 20
130.777
 11
77.8889
 21
130.708
  0
LINE
  8
0
 10
77.8889
 20
130.708
 11
77.7779
 21
130.693
  0
LINE
  8
0
 10
77.7779
 20
130.693
 11
76.9917
 21
130.788
  0
LINE
  8
0
 10
76.9917
 20
130.788
 11
76.8875
 21
130.83
  0
LINE
  8
0
 10
76.8875
 20
130.83
 11
76.8182
 21
130.918
  0
LINE
  8
0
 10
76.8182
 20
130.918
 11
76.8022
 21
131.029
  0
LINE
  8
0
 10
76.8022
 20
131.029
 11
76.2165
 21
133.478
  0
LINE
  8
0
 10
76.2165
 20
133.478
 11
76.093
 21
133.877
  0
LINE
  8
0
 10
76.093
 20
133.877
 11
74.9879
 21
133.972
  0
LINE
  8
0
 10
74.9879
 20
133.972
 11
74.7978
 21
133.601
  0
LINE
  8
0
 10
74.7978
 20
133.601
 11
73.8002
 21
131.289
  0
LINE
  8
0
 10
73.8002
 20
131.289
 11
73.7653
 21
131.182
  0
LINE
  8
0
 10
73.7653
 20
131.182
 11
73.6818
 21
131.107
  0
LINE
  8
0
 10
73.6818
 20
131.107
 11
73.5721
 21
131.084
  0
LINE
  8
0
 10
73.5721
 20
131.084
 11
72.7812
 21
131.125
  0
LINE
  8
0
 10
72.7812
 20
131.125
 11
72.6744
 21
131.16
  0
LINE
  8
0
 10
72.6744
 20
131.16
 11
72.5992
 21
131.243
  0
LINE
  8
0
 10
72.5992
 20
131.243
 11
72.5755
 21
131.352
  0
LINE
  8
0
 10
72.5755
 20
131.352
 11
71.8223
 21
133.755
  0
LINE
  8
0
 10
71.8223
 20
133.755
 11
71.6716
 21
134.144
  0
LINE
  8
0
 10
71.6716
 20
134.144
 11
70.5625
 21
134.163
  0
LINE
  8
0
 10
70.5625
 20
134.163
 11
70.3985
 21
133.78
  0
LINE
  8
0
 10
70.3985
 20
133.78
 11
69.5627
 21
131.404
  0
LINE
  8
0
 10
69.5627
 20
131.404
 11
69.5353
 21
131.296
  0
LINE
  8
0
 10
69.5353
 20
131.296
 11
69.4572
 21
131.215
  0
LINE
  8
0
 10
69.4572
 20
131.215
 11
69.3493
 21
131.184
  0
LINE
  8
0
 10
69.3493
 20
131.184
 11
68.5575
 21
131.171
  0
LINE
  8
0
 10
68.5575
 20
131.171
 11
68.4486
 21
131.198
  0
LINE
  8
0
 10
68.4486
 20
131.198
 11
68.3678
 21
131.275
  0
LINE
  8
0
 10
68.3678
 20
131.275
 11
68.3366
 21
131.383
  0
LINE
  8
0
 10
68.3366
 20
131.383
 11
67.4194
 21
133.729
  0
LINE
  8
0
 10
67.4194
 20
133.729
 11
67.2423
 21
134.106
  0
LINE
  8
0
 10
67.2423
 20
134.106
 11
66.1344
 21
134.049
  0
LINE
  8
0
 10
66.1344
 20
134.049
 11
65.9973
 21
133.655
  0
LINE
  8
0
 10
65.9973
 20
133.655
 11
65.3275
 21
131.227
  0
LINE
  8
0
 10
65.3275
 20
131.227
 11
65.3076
 21
131.117
  0
LINE
  8
0
 10
65.3076
 20
131.117
 11
65.2352
 21
131.031
  0
LINE
  8
0
 10
65.2352
 20
131.031
 11
65.1297
 21
130.993
  0
LINE
  8
0
 10
65.1297
 20
130.993
 11
64.3407
 21
130.925
  0
LINE
  8
0
 10
64.3407
 20
130.925
 11
64.2302
 21
130.944
  0
LINE
  8
0
 10
64.2302
 20
130.944
 11
64.1442
 21
131.016
  0
LINE
  8
0
 10
64.1442
 20
131.016
 11
64.1057
 21
131.121
  0
LINE
  8
0
 10
64.1057
 20
131.121
 11
63.0289
 21
133.398
  0
LINE
  8
0
 10
63.0289
 20
133.398
 11
62.8261
 21
133.762
  0
LINE
  8
0
 10
62.8261
 20
133.762
 11
61.7249
 21
133.629
  0
LINE
  8
0
 10
61.7249
 20
133.629
 11
61.6152
 21
133.226
  0
LINE
  8
0
 10
61.6152
 20
133.226
 11
61.1145
 21
130.758
  0
LINE
  8
0
 10
61.1145
 20
130.758
 11
61.1023
 21
130.647
  0
LINE
  8
0
 10
61.1023
 20
130.647
 11
61.036
 21
130.556
  0
LINE
  8
0
 10
61.036
 20
130.556
 11
60.9334
 21
130.511
  0
LINE
  8
0
 10
60.9334
 20
130.511
 11
60.1509
 21
130.389
  0
LINE
  8
0
 10
60.1509
 20
130.389
 11
60.0394
 21
130.4
  0
LINE
  8
0
 10
60.0394
 20
130.4
 11
59.9486
 21
130.466
  0
LINE
  8
0
 10
59.9486
 20
130.466
 11
59.903
 21
130.568
  0
LINE
  8
0
 10
59.903
 20
130.568
 11
58.6716
 21
132.765
  0
LINE
  8
0
 10
58.6716
 20
132.765
 11
58.4442
 21
133.115
  0
LINE
  8
0
 10
58.4442
 20
133.115
 11
57.3548
 21
132.905
  0
LINE
  8
0
 10
57.3548
 20
132.905
 11
57.2732
 21
132.497
  0
LINE
  8
0
 10
57.2732
 20
132.497
 11
56.9439
 21
130
  0
LINE
  8
0
 10
56.9439
 20
130
 11
56.9394
 21
129.888
  0
LINE
  8
0
 10
56.9394
 20
129.888
 11
56.8795
 21
129.793
  0
LINE
  8
0
 10
56.8795
 20
129.793
 11
56.7803
 21
129.741
  0
LINE
  8
0
 10
56.7803
 20
129.741
 11
56.0082
 21
129.564
  0
LINE
  8
0
 10
56.0082
 20
129.564
 11
55.8961
 21
129.568
  0
LINE
  8
0
 10
55.8961
 20
129.568
 11
55.801
 21
129.628
  0
LINE
  8
0
 10
55.801
 20
129.628
 11
55.7484
 21
129.727
  0
LINE
  8
0
 10
55.7484
 20
129.727
 11
54.3683
 21
131.834
  0
LINE
  8
0
 10
54.3683
 20
131.834
 11
54.1174
 21
132.167
  0
LINE
  8
0
 10
54.1174
 20
132.167
 11
53.0451
 21
131.883
  0
LINE
  8
0
 10
53.0451
 20
131.883
 11
52.9918
 21
131.469
  0
LINE
  8
0
 10
52.9918
 20
131.469
 11
52.8356
 21
128.955
  0
LINE
  8
0
 10
52.8356
 20
128.955
 11
52.8389
 21
128.843
  0
LINE
  8
0
 10
52.8389
 20
128.843
 11
52.7856
 21
128.745
  0
LINE
  8
0
 10
52.7856
 20
128.745
 11
52.6902
 21
128.686
  0
LINE
  8
0
 10
52.6902
 20
128.686
 11
51.9321
 21
128.457
  0
LINE
  8
0
 10
51.9321
 20
128.457
 11
51.82
 21
128.453
  0
LINE
  8
0
 10
51.82
 20
128.453
 11
51.721
 21
128.506
  0
LINE
  8
0
 10
51.721
 20
128.506
 11
51.6617
 21
128.601
  0
LINE
  8
0
 10
51.6617
 20
128.601
 11
50.1396
 21
130.607
  0
LINE
  8
0
 10
50.1396
 20
130.607
 11
49.8663
 21
130.922
  0
LINE
  8
0
 10
49.8663
 20
130.922
 11
48.8161
 21
130.565
  0
LINE
  8
0
 10
48.8161
 20
130.565
 11
48.7915
 21
130.148
  0
LINE
  8
0
 10
48.7915
 20
130.148
 11
48.8091
 21
127.63
  0
LINE
  8
0
 10
48.8091
 20
127.63
 11
48.8201
 21
127.518
  0
LINE
  8
0
 10
48.8201
 20
127.518
 11
48.7738
 21
127.416
  0
LINE
  8
0
 10
48.7738
 20
127.416
 11
48.6827
 21
127.351
  0
LINE
  8
0
 10
48.6827
 20
127.351
 11
47.9422
 21
127.07
  0
LINE
  8
0
 10
47.9422
 20
127.07
 11
47.8306
 21
127.059
  0
LINE
  8
0
 10
47.8306
 20
127.059
 11
47.7283
 21
127.104
  0
LINE
  8
0
 10
47.7283
 20
127.104
 11
47.6625
 21
127.195
  0
LINE
  8
0
 10
47.6625
 20
127.195
 11
46.0056
 21
129.092
  0
LINE
  8
0
 10
46.0056
 20
129.092
 11
45.7112
 21
129.387
  0
LINE
  8
0
 10
45.7112
 20
129.387
 11
44.6882
 21
128.958
  0
LINE
  8
0
 10
44.6882
 20
128.958
 11
44.6924
 21
128.541
  0
LINE
  8
0
 10
44.6924
 20
128.541
 11
44.8837
 21
126.03
  0
LINE
  8
0
 10
44.8837
 20
126.03
 11
44.9023
 21
125.92
  0
LINE
  8
0
 10
44.9023
 20
125.92
 11
44.8632
 21
125.814
  0
LINE
  8
0
 10
44.8632
 20
125.814
 11
44.7768
 21
125.743
  0
LINE
  8
0
 10
44.7768
 20
125.743
 11
44.0574
 21
125.412
  0
LINE
  8
0
 10
44.0574
 20
125.412
 11
43.9469
 21
125.393
  0
LINE
  8
0
 10
43.9469
 20
125.393
 11
43.8417
 21
125.431
  0
LINE
  8
0
 10
43.8417
 20
125.431
 11
43.7698
 21
125.517
  0
LINE
  8
0
 10
43.7698
 20
125.517
 11
41.986
 21
127.295
  0
LINE
  8
0
 10
41.986
 20
127.295
 11
41.672
 21
127.569
  0
LINE
  8
0
 10
41.672
 20
127.569
 11
40.681
 21
127.071
  0
LINE
  8
0
 10
40.681
 20
127.071
 11
40.7139
 21
126.655
  0
LINE
  8
0
 10
40.7139
 20
126.655
 11
41.0779
 21
124.163
  0
LINE
  8
0
 10
41.0779
 20
124.163
 11
41.1042
 21
124.054
  0
LINE
  8
0
 10
41.1042
 20
124.054
 11
41.0724
 21
123.947
  0
LINE
  8
0
 10
41.0724
 20
123.947
 11
40.9911
 21
123.869
  0
LINE
  8
0
 10
40.9911
 20
123.869
 11
40.2964
 21
123.489
  0
LINE
  8
0
 10
40.2964
 20
123.489
 11
40.1875
 21
123.462
  0
LINE
  8
0
 10
40.1875
 20
123.462
 11
40.0798
 21
123.494
  0
LINE
  8
0
 10
40.0798
 20
123.494
 11
40.0021
 21
123.575
  0
LINE
  8
0
 10
40.0021
 20
123.575
 11
38.0999
 21
125.225
  0
LINE
  8
0
 10
38.0999
 20
125.225
 11
37.7677
 21
125.477
  0
LINE
  8
0
 10
37.7677
 20
125.477
 11
36.8135
 21
124.911
  0
LINE
  8
0
 10
36.8135
 20
124.911
 11
36.875
 21
124.499
  0
LINE
  8
0
 10
36.875
 20
124.499
 11
37.4101
 21
122.038
  0
LINE
  8
0
 10
37.4101
 20
122.038
 11
37.4438
 21
121.931
  0
LINE
  8
0
 10
37.4438
 20
121.931
 11
37.4195
 21
121.822
  0
LINE
  8
0
 10
37.4195
 20
121.822
 11
37.3438
 21
121.739
  0
LINE
  8
0
 10
37.3438
 20
121.739
 11
36.6769
 21
121.312
  0
LINE
  8
0
 10
36.6769
 20
121.312
 11
36.5701
 21
121.278
  0
LINE
  8
0
 10
36.5701
 20
121.278
 11
36.4605
 21
121.301
  0
LINE
  8
0
 10
36.4605
 20
121.301
 11
36.3774
 21
121.377
  0
LINE
  8
0
 10
36.3774
 20
121.377
 11
34.3659
 21
122.892
  0
LINE
  8
0
 10
34.3659
 20
122.892
 11
34.0171
 21
123.12
  0
LINE
  8
0
 10
34.0171
 20
123.12
 11
33.1042
 21
122.49
  0
LINE
  8
0
 10
33.1042
 20
122.49
 11
33.194
 21
122.083
  0
LINE
  8
0
 10
33.194
 20
122.083
 11
33.8976
 21
119.665
  0
LINE
  8
0
 10
33.8976
 20
119.665
 11
33.9386
 21
119.561
  0
LINE
  8
0
 10
33.9386
 20
119.561
 11
33.922
 21
119.45
  0
LINE
  8
0
 10
33.922
 20
119.45
 11
33.8521
 21
119.362
  0
LINE
  8
0
 10
33.8521
 20
119.362
 11
33.2162
 21
118.89
  0
LINE
  8
0
 10
33.2162
 20
118.89
 11
33.1121
 21
118.848
  0
LINE
  8
0
 10
33.1121
 20
118.848
 11
33.0011
 21
118.865
  0
LINE
  8
0
 10
33.0011
 20
118.865
 11
32.913
 21
118.934
  0
LINE
  8
0
 10
32.913
 20
118.934
 11
30.8018
 21
120.307
  0
LINE
  8
0
 10
30.8018
 20
120.307
 11
30.438
 21
120.511
  0
LINE
  8
0
 10
30.438
 20
120.511
 11
29.5707
 21
119.819
  0
LINE
  8
0
 10
29.5707
 20
119.819
 11
29.6884
 21
119.419
  0
LINE
  8
0
 10
29.6884
 20
119.419
 11
30.5572
 21
117.055
  0
LINE
  8
0
 10
30.5572
 20
117.055
 11
30.6053
 21
116.954
  0
LINE
  8
0
 10
30.6053
 20
116.954
 11
30.5964
 21
116.842
  0
LINE
  8
0
 10
30.5964
 20
116.842
 11
30.5327
 21
116.75
  0
LINE
  8
0
 10
30.5327
 20
116.75
 11
29.9309
 21
116.235
  0
LINE
  8
0
 10
29.9309
 20
116.235
 11
29.8299
 21
116.186
  0
LINE
  8
0
 10
29.8299
 20
116.186
 11
29.718
 21
116.195
  0
LINE
  8
0
 10
29.718
 20
116.195
 11
29.6254
 21
116.258
  0
LINE
  8
0
 10
29.6254
 20
116.258
 11
27.4245
 21
117.482
  0
LINE
  8
0
 10
27.4245
 20
117.482
 11
27.0475
 21
117.66
  0
LINE
  8
0
 10
27.0475
 20
117.66
 11
26.23
 21
116.91
  0
LINE
  8
0
 10
26.23
 20
116.91
 11
26.375
 21
116.52
  0
LINE
  8
0
 10
26.375
 20
116.52
 11
27.4048
 21
114.221
  0
LINE
  8
0
 10
27.4048
 20
114.221
 11
27.4598
 21
114.124
  0
LINE
  8
0
 10
27.4598
 20
114.124
 11
27.4586
 21
114.011
  0
LINE
  8
0
 10
27.4586
 20
114.011
 11
27.4014
 21
113.915
  0
LINE
  8
0
 10
27.4014
 20
113.915
 11
26.8366
 21
113.36
  0
LINE
  8
0
 10
26.8366
 20
113.36
 11
26.7392
 21
113.304
  0
LINE
  8
0
 10
26.7392
 20
113.304
 11
26.627
 21
113.305
  0
LINE
  8
0
 10
26.627
 20
113.305
 11
26.5302
 21
113.362
  0
LINE
  8
0
 10
26.5302
 20
113.362
 11
24.2501
 21
114.431
  0
LINE
  8
0
 10
24.2501
 20
114.431
 11
23.8617
 21
114.583
  0
LINE
  8
0
 10
23.8617
 20
114.583
 11
23.0979
 21
113.778
  0
LINE
  8
0
 10
23.0979
 20
113.778
 11
23.2696
 21
113.398
  0
LINE
  8
0
 10
23.2696
 20
113.398
 11
24.4554
 21
111.177
  0
LINE
  8
0
 10
24.4554
 20
111.177
 11
24.5171
 21
111.083
  0
LINE
  8
0
 10
24.5171
 20
111.083
 11
24.5236
 21
110.971
  0
LINE
  8
0
 10
24.5236
 20
110.971
 11
24.4732
 21
110.871
  0
LINE
  8
0
 10
24.4732
 20
110.871
 11
23.948
 21
110.278
  0
LINE
  8
0
 10
23.948
 20
110.278
 11
23.8546
 21
110.216
  0
LINE
  8
0
 10
23.8546
 20
110.216
 11
23.7427
 21
110.209
  0
LINE
  8
0
 10
23.7427
 20
110.209
 11
23.6423
 21
110.259
  0
LINE
  8
0
 10
23.6423
 20
110.259
 11
21.2938
 21
111.168
  0
LINE
  8
0
 10
21.2938
 20
111.168
 11
20.8959
 21
111.293
  0
LINE
  8
0
 10
20.8959
 20
111.293
 11
20.1894
 21
110.437
  0
LINE
  8
0
 10
20.1894
 20
110.437
 11
20.3868
 21
110.07
  0
LINE
  8
0
 10
20.3868
 20
110.07
 11
21.7232
 21
107.936
  0
LINE
  8
0
 10
21.7232
 20
107.936
 11
21.7911
 21
107.846
  0
LINE
  8
0
 10
21.7911
 20
107.846
 11
21.8053
 21
107.735
  0
LINE
  8
0
 10
21.8053
 20
107.735
 11
21.762
 21
107.632
  0
LINE
  8
0
 10
21.762
 20
107.632
 11
21.279
 21
107.004
  0
LINE
  8
0
 10
21.279
 20
107.004
 11
21.1901
 21
106.936
  0
LINE
  8
0
 10
21.1901
 20
106.936
 11
21.0789
 21
106.921
  0
LINE
  8
0
 10
21.0789
 20
106.921
 11
20.9753
 21
106.964
  0
LINE
  8
0
 10
20.9753
 20
106.964
 11
18.5696
 21
107.709
  0
LINE
  8
0
 10
18.5696
 20
107.709
 11
18.1641
 21
107.806
  0
LINE
  8
0
 10
18.1641
 20
107.806
 11
17.5182
 21
106.904
  0
LINE
  8
0
 10
17.5182
 20
106.904
 11
17.7406
 21
106.551
  0
LINE
  8
0
 10
17.7406
 20
106.551
 11
19.221
 21
104.514
  0
LINE
  8
0
 10
19.221
 20
104.514
 11
19.2949
 21
104.43
  0
LINE
  8
0
 10
19.2949
 20
104.43
 11
19.3168
 21
104.32
  0
LINE
  8
0
 10
19.3168
 20
104.32
 11
19.2807
 21
104.213
  0
LINE
  8
0
 10
19.2807
 20
104.213
 11
18.8421
 21
103.554
  0
LINE
  8
0
 10
18.8421
 20
103.554
 11
18.7582
 21
103.48
  0
LINE
  8
0
 10
18.7582
 20
103.48
 11
18.6483
 21
103.457
  0
LINE
  8
0
 10
18.6483
 20
103.457
 11
18.5419
 21
103.493
  0
LINE
  8
0
 10
18.5419
 20
103.493
 11
16.0906
 21
104.07
  0
LINE
  8
0
 10
16.0906
 20
104.07
 11
15.6793
 21
104.139
  0
LINE
  8
0
 10
15.6793
 20
104.139
 11
15.0973
 21
103.195
  0
LINE
  8
0
 10
15.0973
 20
103.195
 11
15.3434
 21
102.858
  0
LINE
  8
0
 10
15.3434
 20
102.858
 11
16.9609
 21
100.928
  0
LINE
  8
0
 10
16.9609
 20
100.928
 11
17.0404
 21
100.849
  0
LINE
  8
0
 10
17.0404
 20
100.849
 11
17.0698
 21
100.74
  0
LINE
  8
0
 10
17.0698
 20
100.74
 11
17.0412
 21
100.632
  0
LINE
  8
0
 10
17.0412
 20
100.632
 11
16.6491
 21
99.9439
  0
LINE
  8
0
 10
16.6491
 20
99.9439
 11
16.5705
 21
99.864
  0
LINE
  8
0
 10
16.5705
 20
99.864
 11
16.4624
 21
99.834
  0
LINE
  8
0
 10
16.4624
 20
99.834
 11
16.3539
 21
99.8622
  0
LINE
  8
0
 10
16.3539
 20
99.8622
 11
13.8685
 21
100.269
  0
LINE
  8
0
 10
13.8685
 20
100.269
 11
13.4535
 21
100.309
  0
LINE
  8
0
 10
13.4535
 20
100.309
 11
12.938
 21
99.3271
  0
LINE
  8
0
 10
12.938
 20
99.3271
 11
13.2067
 21
99.0083
  0
LINE
  8
0
 10
13.2067
 20
99.0083
 11
14.9535
 21
97.1941
  0
LINE
  8
0
 10
14.9535
 20
97.1941
 11
15.0384
 21
97.1208
  0
LINE
  8
0
 10
15.0384
 20
97.1208
 11
15.0751
 21
97.0148
  0
LINE
  8
0
 10
15.0751
 20
97.0148
 11
15.054
 21
96.9047
  0
LINE
  8
0
 10
15.054
 20
96.9047
 11
14.7104
 21
96.1911
  0
LINE
  8
0
 10
14.7104
 20
96.1911
 11
14.6375
 21
96.106
  0
LINE
  8
0
 10
14.6375
 20
96.106
 11
14.5317
 21
96.0687
  0
LINE
  8
0
 10
14.5317
 20
96.0687
 11
14.4215
 21
96.0893
  0
LINE
  8
0
 10
14.4215
 20
96.0893
 11
11.914
 21
96.3239
  0
LINE
  8
0
 10
11.914
 20
96.3239
 11
11.4972
 21
96.3352
  0
LINE
  8
0
 10
11.4972
 20
96.3352
 11
11.0507
 21
95.3197
  0
LINE
  8
0
 10
11.0507
 20
95.3197
 11
11.3408
 21
95.0203
  0
LINE
  8
0
 10
11.3408
 20
95.0203
 11
13.2086
 21
93.3309
  0
LINE
  8
0
 10
13.2086
 20
93.3309
 11
13.2982
 21
93.2636
  0
LINE
  8
0
 10
13.2982
 20
93.2636
 11
13.3423
 21
93.1605
  0
LINE
  8
0
 10
13.3423
 20
93.1605
 11
13.3288
 21
93.0491
  0
LINE
  8
0
 10
13.3288
 20
93.0491
 11
13.0352
 21
92.3136
  0
LINE
  8
0
 10
13.0352
 20
92.3136
 11
12.9683
 21
92.2236
  0
LINE
  8
0
 10
12.9683
 20
92.2236
 11
12.8654
 21
92.1791
  0
LINE
  8
0
 10
12.8654
 20
92.1791
 11
12.754
 21
92.192
  0
LINE
  8
0
 10
12.754
 20
92.192
 11
10.2363
 21
92.2531
  0
LINE
  8
0
 10
10.2363
 20
92.2531
 11
9.81972
 21
92.2356
  0
LINE
  8
0
 10
9.81972
 20
92.2356
 11
9.44432
 21
91.1918
  0
LINE
  8
0
 10
9.44432
 20
91.1918
 11
9.75438
 21
90.913
  0
LINE
  8
0
 10
9.75438
 20
90.913
 11
11.7343
 21
89.3566
  0
LINE
  8
0
 10
11.7343
 20
89.3566
 11
11.8284
 21
89.2956
  0
LINE
  8
0
 10
11.8284
 20
89.2956
 11
11.8794
 21
89.1957
  0
LINE
  8
0
 10
11.8794
 20
89.1957
 11
11.8737
 21
89.0837
  0
LINE
  8
0
 10
11.8737
 20
89.0837
 11
11.6315
 21
88.3297
  0
LINE
  8
0
 10
11.6315
 20
88.3297
 11
11.571
 21
88.2353
  0
LINE
  8
0
 10
11.571
 20
88.2353
 11
11.4714
 21
88.1838
  0
LINE
  8
0
 10
11.4714
 20
88.1838
 11
11.3594
 21
88.189
  0
LINE
  8
0
 10
11.3594
 20
88.189
 11
8.84344
 21
88.0762
  0
LINE
  8
0
 10
8.84344
 20
88.0762
 11
8.42906
 21
88.0301
  0
LINE
  8
0
 10
8.42906
 20
88.0301
 11
8.12657
 21
86.9628
  0
LINE
  8
0
 10
8.12657
 20
86.9628
 11
8.45514
 21
86.7061
  0
LINE
  8
0
 10
8.45514
 20
86.7061
 11
10.5377
 21
85.29
  0
LINE
  8
0
 10
10.5377
 20
85.29
 11
10.6358
 21
85.2356
  0
LINE
  8
0
 10
10.6358
 20
85.2356
 11
10.6936
 21
85.1395
  0
LINE
  8
0
 10
10.6936
 20
85.1395
 11
10.6956
 21
85.0274
  0
LINE
  8
0
 10
10.6956
 20
85.0274
 11
10.506
 21
84.2585
  0
LINE
  8
0
 10
10.506
 20
84.2585
 11
10.4522
 21
84.1601
  0
LINE
  8
0
 10
10.4522
 20
84.1601
 11
10.3563
 21
84.1019
  0
LINE
  8
0
 10
10.3563
 20
84.1019
 11
10.2442
 21
84.0993
  0
LINE
  8
0
 10
10.2442
 20
84.0993
 11
7.7421
 21
83.8132
  0
LINE
  8
0
 10
7.7421
 20
83.8132
 11
7.33188
 21
83.7386
  0
LINE
  8
0
 10
7.33188
 20
83.7386
 11
7.10374
 21
82.653
  0
LINE
  8
0
 10
7.10374
 20
82.653
 11
7.44923
 21
82.4196
  0
LINE
  8
0
 10
7.44923
 20
82.4196
 11
9.62453
 21
81.1505
  0
LINE
  8
0
 10
9.62453
 20
81.1505
 11
9.72615
 21
81.1031
  0
LINE
  8
0
 10
9.72615
 20
81.1031
 11
9.79042
 21
81.0112
  0
LINE
  8
0
 10
9.79042
 20
81.0112
 11
9.80016
 21
80.8995
  0
LINE
  8
0
 10
9.80016
 20
80.8995
 11
9.66412
 21
80.1193
  0
LINE
  8
0
 10
9.66412
 20
80.1193
 11
9.61716
 21
80.0174
  0
LINE
  8
0
 10
9.61716
 20
80.0174
 11
9.52557
 21
79.9527
  0
LINE
  8
0
 10
9.52557
 20
79.9527
 11
9.41391
 21
79.9425
  0
LINE
  8
0
 10
9.41391
 20
79.9425
 11
6.93747
 21
79.4844
  0
LINE
  8
0
 10
6.93747
 20
79.4844
 11
6.53339
 21
79.3817
  0
LINE
  8
0
 10
6.53339
 20
79.3817
 11
6.38069
 21
78.2829
  0
LINE
  8
0
 10
6.38069
 20
78.2829
 11
6.74144
 21
78.0739
  0
LINE
  8
0
 10
6.74144
 20
78.0739
 11
8.99913
 21
76.9579
  0
LINE
  8
0
 10
8.99913
 20
76.9579
 11
9.10376
 21
76.9176
  0
LINE
  8
0
 10
9.10376
 20
76.9176
 11
9.17424
 21
76.8304
  0
LINE
  8
0
 10
9.17424
 20
76.8304
 11
9.19165
 21
76.7196
  0
LINE
  8
0
 10
9.19165
 20
76.7196
 11
9.10977
 21
75.9319
  0
LINE
  8
0
 10
9.10977
 20
75.9319
 11
9.06995
 21
75.827
  0
LINE
  8
0
 10
9.06995
 20
75.827
 11
8.98305
 21
75.7561
  0
LINE
  8
0
 10
8.98305
 20
75.7561
 11
8.87234
 21
75.7382
  0
LINE
  8
0
 10
8.87234
 20
75.7382
 11
6.43341
 21
75.1104
  0
LINE
  8
0
 10
6.43341
 20
75.1104
 11
6.03737
 21
74.98
  0
LINE
  8
0
 10
6.03737
 20
74.98
 11
5.96085
 21
73.8734
  0
LINE
  8
0
 10
5.96085
 20
73.8734
 11
6.33517
 21
73.6897
  0
LINE
  8
0
 10
6.33517
 20
73.6897
 11
8.66446
 21
72.7322
  0
LINE
  8
0
 10
8.66446
 20
72.7322
 11
8.77164
 21
72.6992
  0
LINE
  8
0
 10
8.77164
 20
72.6992
 11
8.84796
 21
72.617
  0
LINE
  8
0
 10
8.84796
 20
72.617
 11
8.87297
 21
72.5077
  0
LINE
  8
0
 10
8.87297
 20
72.5077
 11
8.84563
 21
71.7162
  0
LINE
  8
0
 10
8.84563
 20
71.7162
 11
8.81314
 21
71.6088
  0
LINE
  8
0
 10
8.81314
 20
71.6088
 11
8.73134
 21
71.5321
  0
LINE
  8
0
 10
8.73134
 20
71.5321
 11
8.62213
 21
71.5066
  0
LINE
  8
0
 10
8.62213
 20
71.5066
 11
6.23233
 21
70.712
  0
LINE
  8
0
 10
6.23233
 20
70.712
 11
5.84622
 21
70.5546
  0
LINE
  8
0
 10
5.84622
 20
70.5546
 11
5.84622
 21
69.4453
  0
LINE
  8
0
 10
5.84622
 20
69.4453
 11
6.23233
 21
69.288
  0
LINE
  8
0
 10
6.23233
 20
69.288
 11
8.62213
 21
68.4934
  0
LINE
  8
0
 10
8.62213
 20
68.4934
 11
8.73134
 21
68.4678
  0
LINE
  8
0
 10
8.73134
 20
68.4678
 11
8.81314
 21
68.3911
  0
LINE
  8
0
 10
8.81314
 20
68.3911
 11
8.84563
 21
68.2838
  0
LINE
  8
0
 10
8.84563
 20
68.2838
 11
8.87297
 21
67.4923
  0
LINE
  8
0
 10
8.87297
 20
67.4923
 11
8.84796
 21
67.383
  0
LINE
  8
0
 10
8.84796
 20
67.383
 11
8.77164
 21
67.3008
  0
LINE
  8
0
 10
8.77164
 20
67.3008
 11
8.66446
 21
67.2678
  0
LINE
  8
0
 10
8.66446
 20
67.2678
 11
6.33517
 21
66.3103
  0
LINE
  8
0
 10
6.33517
 20
66.3103
 11
5.96085
 21
66.1266
  0
LINE
  8
0
 10
5.96085
 20
66.1266
 11
6.03737
 21
65.02
  0
LINE
  8
0
 10
6.03737
 20
65.02
 11
6.43341
 21
64.8896
  0
LINE
  8
0
 10
6.43341
 20
64.8896
 11
8.87234
 21
64.2618
  0
LINE
  8
0
 10
8.87234
 20
64.2618
 11
8.98305
 21
64.2439
  0
LINE
  8
0
 10
8.98305
 20
64.2439
 11
9.06995
 21
64.173
  0
LINE
  8
0
 10
9.06995
 20
64.173
 11
9.10977
 21
64.0681
  0
LINE
  8
0
 10
9.10977
 20
64.0681
 11
9.19165
 21
63.2804
  0
LINE
  8
0
 10
9.19165
 20
63.2804
 11
9.17424
 21
63.1696
  0
LINE
  8
0
 10
9.17424
 20
63.1696
 11
9.10376
 21
63.0824
  0
LINE
  8
0
 10
9.10376
 20
63.0824
 11
8.99913
 21
63.0421
  0
LINE
  8
0
 10
8.99913
 20
63.0421
 11
6.74144
 21
61.9261
  0
LINE
  8
0
 10
6.74144
 20
61.9261
 11
6.38069
 21
61.7171
  0
LINE
  8
0
 10
6.38069
 20
61.7171
 11
6.53339
 21
60.6183
  0
LINE
  8
0
 10
6.53339
 20
60.6183
 11
6.93747
 21
60.5156
  0
LINE
  8
0
 10
6.93747
 20
60.5156
 11
9.41391
 21
60.0575
  0
LINE
  8
0
 10
9.41391
 20
60.0575
 11
9.52557
 21
60.0473
  0
LINE
  8
0
 10
9.52557
 20
60.0473
 11
9.61716
 21
59.9826
  0
LINE
  8
0
 10
9.61716
 20
59.9826
 11
9.66412
 21
59.8807
  0
LINE
  8
0
 10
9.66412
 20
59.8807
 11
9.80016
 21
59.1005
  0
LINE
  8
0
 10
9.80016
 20
59.1005
 11
9.79042
 21
58.9888
  0
LINE
  8
0
 10
9.79042
 20
58.9888
 11
9.72615
 21
58.8969
  0
LINE
  8
0
 10
9.72615
 20
58.8969
 11
9.62453
 21
58.8495
  0
LINE
  8
0
 10
9.62453
 20
58.8495
 11
7.44923
 21
57.5804
  0
LINE
  8
0
 10
7.44923
 20
57.5804
 11
7.10374
 21
57.347
  0
LINE
  8
0
 10
7.10374
 20
57.347
 11
7.33188
 21
56.2614
  0
LINE
  8
0
 10
7.33188
 20
56.2614
 11
7.7421
 21
56.1868
  0
LINE
  8
0
 10
7.7421
 20
56.1868
 11
10.2442
 21
55.9007
  0
LINE
  8
0
 10
10.2442
 20
55.9007
 11
10.3563
 21
55.8981
  0
LINE
  8
0
 10
10.3563
 20
55.8981
 11
10.4522
 21
55.8399
  0
LINE
  8
0
 10
10.4522
 20
55.8399
 11
10.506
 21
55.7415
  0
LINE
  8
0
 10
10.506
 20
55.7415
 11
10.6956
 21
54.9726
  0
LINE
  8
0
 10
10.6956
 20
54.9726
 11
10.6936
 21
54.8605
  0
LINE
  8
0
 10
10.6936
 20
54.8605
 11
10.6358
 21
54.7643
  0
LINE
  8
0
 10
10.6358
 20
54.7643
 11
10.5377
 21
54.71
  0
LINE
  8
0
 10
10.5377
 20
54.71
 11
8.45514
 21
53.2939
  0
LINE
  8
0
 10
8.45514
 20
53.2939
 11
8.12657
 21
53.0372
  0
LINE
  8
0
 10
8.12657
 20
53.0372
 11
8.42906
 21
51.9699
  0
LINE
  8
0
 10
8.42906
 20
51.9699
 11
8.84344
 21
51.9238
  0
LINE
  8
0
 10
8.84344
 20
51.9238
 11
11.3594
 21
51.811
  0
LINE
  8
0
 10
11.3594
 20
51.811
 11
11.4714
 21
51.8162
  0
LINE
  8
0
 10
11.4714
 20
51.8162
 11
11.571
 21
51.7647
  0
LINE
  8
0
 10
11.571
 20
51.7647
 11
11.6315
 21
51.6703
  0
LINE
  8
0
 10
11.6315
 20
51.6703
 11
11.8737
 21
50.9162
  0
LINE
  8
0
 10
11.8737
 20
50.9162
 11
11.8794
 21
50.8043
  0
LINE
  8
0
 10
11.8794
 20
50.8043
 11
11.8284
 21
50.7044
  0
LINE
  8
0
 10
11.8284
 20
50.7044
 11
11.7343
 21
50.6434
  0
LINE
  8
0
 10
11.7343
 20
50.6434
 11
9.75438
 21
49.087
  0
LINE
  8
0
 10
9.75438
 20
49.087
 11
9.44432
 21
48.8082
  0
LINE
  8
0
 10
9.44432
 20
48.8082
 11
9.81972
 21
47.7644
  0
LINE
  8
0
 10
9.81972
 20
47.7644
 11
10.2363
 21
47.7469
  0
LINE
  8
0
 10
10.2363
 20
47.7469
 11
12.754
 21
47.808
  0
LINE
  8
0
 10
12.754
 20
47.808
 11
12.8654
 21
47.8209
  0
LINE
  8
0
 10
12.8654
 20
47.8209
 11
12.9683
 21
47.7764
  0
LINE
  8
0
 10
12.9683
 20
47.7764
 11
13.0352
 21
47.6864
  0
LINE
  8
0
 10
13.0352
 20
47.6864
 11
13.3288
 21
46.9509
  0
LINE
  8
0
 10
13.3288
 20
46.9509
 11
13.3423
 21
46.8395
  0
LINE
  8
0
 10
13.3423
 20
46.8395
 11
13.2982
 21
46.7364
  0
LINE
  8
0
 10
13.2982
 20
46.7364
 11
13.2086
 21
46.6691
  0
LINE
  8
0
 10
13.2086
 20
46.6691
 11
11.3408
 21
44.9797
  0
LINE
  8
0
 10
11.3408
 20
44.9797
 11
11.0507
 21
44.6803
  0
LINE
  8
0
 10
11.0507
 20
44.6803
 11
11.4972
 21
43.6648
  0
LINE
  8
0
 10
11.4972
 20
43.6648
 11
11.914
 21
43.6761
  0
LINE
  8
0
 10
11.914
 20
43.6761
 11
14.4215
 21
43.9107
  0
LINE
  8
0
 10
14.4215
 20
43.9107
 11
14.5317
 21
43.9313
  0
LINE
  8
0
 10
14.5317
 20
43.9313
 11
14.6375
 21
43.894
  0
LINE
  8
0
 10
14.6375
 20
43.894
 11
14.7104
 21
43.8089
  0
LINE
  8
0
 10
14.7104
 20
43.8089
 11
15.054
 21
43.0953
  0
LINE
  8
0
 10
15.054
 20
43.0953
 11
15.0751
 21
42.9852
  0
LINE
  8
0
 10
15.0751
 20
42.9852
 11
15.0384
 21
42.8792
  0
LINE
  8
0
 10
15.0384
 20
42.8792
 11
14.9535
 21
42.8059
  0
LINE
  8
0
 10
14.9535
 20
42.8059
 11
13.2067
 21
40.9917
  0
LINE
  8
0
 10
13.2067
 20
40.9917
 11
12.938
 21
40.6729
  0
LINE
  8
0
 10
12.938
 20
40.6729
 11
13.4535
 21
39.6907
  0
LINE
  8
0
 10
13.4535
 20
39.6907
 11
13.8685
 21
39.7308
  0
LINE
  8
0
 10
13.8685
 20
39.7308
 11
16.3539
 21
40.1378
  0
LINE
  8
0
 10
16.3539
 20
40.1378
 11
16.4624
 21
40.166
  0
LINE
  8
0
 10
16.4624
 20
40.166
 11
16.5705
 21
40.136
  0
LINE
  8
0
 10
16.5705
 20
40.136
 11
16.6491
 21
40.0561
  0
LINE
  8
0
 10
16.6491
 20
40.0561
 11
17.0412
 21
39.368
  0
LINE
  8
0
 10
17.0412
 20
39.368
 11
17.0698
 21
39.2596
  0
LINE
  8
0
 10
17.0698
 20
39.2596
 11
17.0404
 21
39.1513
  0
LINE
  8
0
 10
17.0404
 20
39.1513
 11
16.9609
 21
39.0723
  0
LINE
  8
0
 10
16.9609
 20
39.0723
 11
15.3434
 21
37.1419
  0
LINE
  8
0
 10
15.3434
 20
37.1419
 11
15.0973
 21
36.8054
  0
LINE
  8
0
 10
15.0973
 20
36.8054
 11
15.6793
 21
35.8611
  0
LINE
  8
0
 10
15.6793
 20
35.8611
 11
16.0906
 21
35.9297
  0
LINE
  8
0
 10
16.0906
 20
35.9297
 11
18.5419
 21
36.5072
  0
LINE
  8
0
 10
18.5419
 20
36.5072
 11
18.6483
 21
36.5428
  0
LINE
  8
0
 10
18.6483
 20
36.5428
 11
18.7582
 21
36.5204
  0
LINE
  8
0
 10
18.7582
 20
36.5204
 11
18.8421
 21
36.4461
  0
LINE
  8
0
 10
18.8421
 20
36.4461
 11
19.2807
 21
35.7866
  0
LINE
  8
0
 10
19.2807
 20
35.7866
 11
19.3168
 21
35.6804
  0
LINE
  8
0
 10
19.3168
 20
35.6804
 11
19.2949
 21
35.5704
  0
LINE
  8
0
 10
19.2949
 20
35.5704
 11
19.221
 21
35.4861
  0
LINE
  8
0
 10
19.221
 20
35.4861
 11
17.7406
 21
33.4487
  0
LINE
  8
0
 10
17.7406
 20
33.4487
 11
17.5182
 21
33.096
  0
LINE
  8
0
 10
17.5182
 20
33.096
 11
18.1641
 21
32.1941
  0
LINE
  8
0
 10
18.1641
 20
32.1941
 11
18.5696
 21
32.2909
  0
LINE
  8
0
 10
18.5696
 20
32.2909
 11
20.9753
 21
33.0362
  0
LINE
  8
0
 10
20.9753
 20
33.0362
 11
21.0789
 21
33.079
  0
LINE
  8
0
 10
21.0789
 20
33.079
 11
21.1901
 21
33.0643
  0
LINE
  8
0
 10
21.1901
 20
33.0643
 11
21.279
 21
32.9959
  0
LINE
  8
0
 10
21.279
 20
32.9959
 11
21.762
 21
32.3683
  0
LINE
  8
0
 10
21.762
 20
32.3683
 11
21.8053
 21
32.2648
  0
LINE
  8
0
 10
21.8053
 20
32.2648
 11
21.7911
 21
32.1536
  0
LINE
  8
0
 10
21.7911
 20
32.1536
 11
21.7232
 21
32.0644
  0
LINE
  8
0
 10
21.7232
 20
32.0644
 11
20.3868
 21
29.9297
  0
LINE
  8
0
 10
20.3868
 20
29.9297
 11
20.1894
 21
29.5625
  0
LINE
  8
0
 10
20.1894
 20
29.5625
 11
20.8959
 21
28.7073
  0
LINE
  8
0
 10
20.8959
 20
28.7073
 11
21.2938
 21
28.8319
  0
LINE
  8
0
 10
21.2938
 20
28.8319
 11
23.6423
 21
29.7413
  0
LINE
  8
0
 10
23.6423
 20
29.7413
 11
23.7427
 21
29.7912
  0
LINE
  8
0
 10
23.7427
 20
29.7912
 11
23.8546
 21
29.7842
  0
LINE
  8
0
 10
23.8546
 20
29.7842
 11
23.948
 21
29.7221
  0
LINE
  8
0
 10
23.948
 20
29.7221
 11
24.4732
 21
29.1293
  0
LINE
  8
0
 10
24.4732
 20
29.1293
 11
24.5236
 21
29.0291
  0
LINE
  8
0
 10
24.5236
 20
29.0291
 11
24.5171
 21
28.9171
  0
LINE
  8
0
 10
24.5171
 20
28.9171
 11
24.4554
 21
28.8234
  0
LINE
  8
0
 10
24.4554
 20
28.8234
 11
23.2696
 21
26.6017
  0
LINE
  8
0
 10
23.2696
 20
26.6017
 11
23.0979
 21
26.2217
  0
LINE
  8
0
 10
23.0979
 20
26.2217
 11
23.8617
 21
25.4173
  0
LINE
  8
0
 10
23.8617
 20
25.4173
 11
24.2501
 21
25.569
  0
LINE
  8
0
 10
24.2501
 20
25.569
 11
26.5302
 21
26.6383
  0
LINE
  8
0
 10
26.5302
 20
26.6383
 11
26.627
 21
26.695
  0
LINE
  8
0
 10
26.627
 20
26.695
 11
26.7392
 21
26.6957
  0
LINE
  8
0
 10
26.7392
 20
26.6957
 11
26.8366
 21
26.6402
  0
LINE
  8
0
 10
26.8366
 20
26.6402
 11
27.4014
 21
26.0851
  0
LINE
  8
0
 10
27.4014
 20
26.0851
 11
27.4586
 21
25.9886
  0
LINE
  8
0
 10
27.4586
 20
25.9886
 11
27.4598
 21
25.8764
  0
LINE
  8
0
 10
27.4598
 20
25.8764
 11
27.4048
 21
25.7787
  0
LINE
  8
0
 10
27.4048
 20
25.7787
 11
26.375
 21
23.4805
  0
LINE
  8
0
 10
26.375
 20
23.4805
 11
26.23
 21
23.0895
  0
LINE
  8
0
 10
26.23
 20
23.0895
 11
27.0475
 21
22.3397
  0
LINE
  8
0
 10
27.0475
 20
22.3397
 11
27.4245
 21
22.5179
  0
LINE
  8
0
 10
27.4245
 20
22.5179
 11
29.6254
 21
23.742
  0
LINE
  8
0
 10
29.6254
 20
23.742
 11
29.718
 21
23.8052
  0
LINE
  8
0
 10
29.718
 20
23.8052
 11
29.8299
 21
23.8136
  0
LINE
  8
0
 10
29.8299
 20
23.8136
 11
29.9309
 21
23.765
  0
LINE
  8
0
 10
29.9309
 20
23.765
 11
30.5327
 21
23.2501
  0
LINE
  8
0
 10
30.5327
 20
23.2501
 11
30.5964
 21
23.1578
  0
LINE
  8
0
 10
30.5964
 20
23.1578
 11
30.6053
 21
23.046
  0
LINE
  8
0
 10
30.6053
 20
23.046
 11
30.5572
 21
22.9447
  0
LINE
  8
0
 10
30.5572
 20
22.9447
 11
29.6884
 21
20.5809
  0
LINE
  8
0
 10
29.6884
 20
20.5809
 11
29.5707
 21
20.1809
  0
LINE
  8
0
 10
29.5707
 20
20.1809
 11
30.438
 21
19.4893
  0
LINE
  8
0
 10
30.438
 20
19.4893
 11
30.8018
 21
19.693
  0
LINE
  8
0
 10
30.8018
 20
19.693
 11
32.913
 21
21.066
  0
LINE
  8
0
 10
32.913
 20
21.066
 11
33.0011
 21
21.1355
  0
LINE
  8
0
 10
33.0011
 20
21.1355
 11
33.1121
 21
21.1516
  0
LINE
  8
0
 10
33.1121
 20
21.1516
 11
33.2162
 21
21.1101
  0
LINE
  8
0
 10
33.2162
 20
21.1101
 11
33.8521
 21
20.638
  0
LINE
  8
0
 10
33.8521
 20
20.638
 11
33.922
 21
20.5503
  0
LINE
  8
0
 10
33.922
 20
20.5503
 11
33.9386
 21
20.4394
  0
LINE
  8
0
 10
33.9386
 20
20.4394
 11
33.8976
 21
20.335
  0
LINE
  8
0
 10
33.8976
 20
20.335
 11
33.194
 21
17.9169
  0
LINE
  8
0
 10
33.194
 20
17.9169
 11
33.1042
 21
17.5097
  0
LINE
  8
0
 10
33.1042
 20
17.5097
 11
34.0171
 21
16.8795
  0
LINE
  8
0
 10
34.0171
 20
16.8795
 11
34.3659
 21
17.1079
  0
LINE
  8
0
 10
34.3659
 20
17.1079
 11
36.3774
 21
18.6233
  0
LINE
  8
0
 10
36.3774
 20
18.6233
 11
36.4605
 21
18.6987
  0
LINE
  8
0
 10
36.4605
 20
18.6987
 11
36.5701
 21
18.7224
  0
LINE
  8
0
 10
36.5701
 20
18.7224
 11
36.6769
 21
18.6882
  0
LINE
  8
0
 10
36.6769
 20
18.6882
 11
37.3438
 21
18.261
  0
LINE
  8
0
 10
37.3438
 20
18.261
 11
37.4195
 21
18.1784
  0
LINE
  8
0
 10
37.4195
 20
18.1784
 11
37.4438
 21
18.0689
  0
LINE
  8
0
 10
37.4438
 20
18.0689
 11
37.4101
 21
17.9619
  0
LINE
  8
0
 10
37.4101
 20
17.9619
 11
36.875
 21
15.501
  0
LINE
  8
0
 10
36.875
 20
15.501
 11
36.8135
 21
15.0886
  0
LINE
  8
0
 10
36.8135
 20
15.0886
 11
37.7677
 21
14.5229
  0
LINE
  8
0
 10
37.7677
 20
14.5229
 11
38.0999
 21
14.7748
  0
LINE
  8
0
 10
38.0999
 20
14.7748
 11
40.0021
 21
16.4254
  0
LINE
  8
0
 10
40.0021
 20
16.4254
 11
40.0798
 21
16.5063
  0
LINE
  8
0
 10
40.0798
 20
16.5063
 11
40.1875
 21
16.5376
  0
LINE
  8
0
 10
40.1875
 20
16.5376
 11
40.2964
 21
16.5108
  0
LINE
  8
0
 10
40.2964
 20
16.5108
 11
40.9911
 21
16.1307
  0
LINE
  8
0
 10
40.9911
 20
16.1307
 11
41.0724
 21
16.0534
  0
LINE
  8
0
 10
41.0724
 20
16.0534
 11
41.1042
 21
15.9459
  0
LINE
  8
0
 10
41.1042
 20
15.9459
 11
41.0779
 21
15.8369
  0
LINE
  8
0
 10
41.0779
 20
15.8369
 11
40.7139
 21
13.3449
  0
LINE
  8
0
 10
40.7139
 20
13.3449
 11
40.681
 21
12.9292
  0
LINE
  8
0
 10
40.681
 20
12.9292
 11
41.672
 21
12.4307
  0
LINE
  8
0
 10
41.672
 20
12.4307
 11
41.986
 21
12.705
  0
LINE
  8
0
 10
41.986
 20
12.705
 11
43.7698
 21
14.4828
  0
LINE
  8
0
 10
43.7698
 20
14.4828
 11
43.8417
 21
14.5689
  0
LINE
  8
0
 10
43.8417
 20
14.5689
 11
43.9469
 21
14.6075
  0
LINE
  8
0
 10
43.9469
 20
14.6075
 11
44.0574
 21
14.5883
  0
LINE
  8
0
 10
44.0574
 20
14.5883
 11
44.7768
 21
14.257
  0
LINE
  8
0
 10
44.7768
 20
14.257
 11
44.8632
 21
14.1856
  0
LINE
  8
0
 10
44.8632
 20
14.1856
 11
44.9023
 21
14.0805
  0
LINE
  8
0
 10
44.9023
 20
14.0805
 11
44.8837
 21
13.9699
  0
LINE
  8
0
 10
44.8837
 20
13.9699
 11
44.6924
 21
11.4587
  0
LINE
  8
0
 10
44.6924
 20
11.4587
 11
44.6882
 21
11.0418
  0
LINE
  8
0
 10
44.6882
 20
11.0418
 11
45.7112
 21
10.6129
  0
LINE
  8
0
 10
45.7112
 20
10.6129
 11
46.0056
 21
10.9081
  0
LINE
  8
0
 10
46.0056
 20
10.9081
 11
47.6625
 21
12.8048
  0
LINE
  8
0
 10
47.6625
 20
12.8048
 11
47.7283
 21
12.8956
  0
LINE
  8
0
 10
47.7283
 20
12.8956
 11
47.8306
 21
12.9414
  0
LINE
  8
0
 10
47.8306
 20
12.9414
 11
47.9422
 21
12.9299
  0
LINE
  8
0
 10
47.9422
 20
12.9299
 11
48.6827
 21
12.649
  0
LINE
  8
0
 10
48.6827
 20
12.649
 11
48.7738
 21
12.5837
  0
LINE
  8
0
 10
48.7738
 20
12.5837
 11
48.8201
 21
12.4815
  0
LINE
  8
0
 10
48.8201
 20
12.4815
 11
48.8091
 21
12.3699
  0
LINE
  8
0
 10
48.8091
 20
12.3699
 11
48.7915
 21
9.85155
  0
LINE
  8
0
 10
48.7915
 20
9.85155
 11
48.8161
 21
9.43533
  0
LINE
  8
0
 10
48.8161
 20
9.43533
 11
49.8663
 21
9.078
  0
LINE
  8
0
 10
49.8663
 20
9.078
 11
50.1396
 21
9.39284
  0
LINE
  8
0
 10
50.1396
 20
9.39284
 11
51.6617
 21
11.3993
  0
LINE
  8
0
 10
51.6617
 20
11.3993
 11
51.721
 21
11.4945
  0
LINE
  8
0
 10
51.721
 20
11.4945
 11
51.82
 21
11.5472
  0
LINE
  8
0
 10
51.82
 20
11.5472
 11
51.9321
 21
11.5434
  0
LINE
  8
0
 10
51.9321
 20
11.5434
 11
52.6902
 21
11.3143
  0
LINE
  8
0
 10
52.6902
 20
11.3143
 11
52.7856
 21
11.2554
  0
LINE
  8
0
 10
52.7856
 20
11.2554
 11
52.8389
 21
11.1567
  0
LINE
  8
0
 10
52.8389
 20
11.1567
 11
52.8356
 21
11.0446
  0
LINE
  8
0
 10
52.8356
 20
11.0446
 11
52.9918
 21
8.53102
  0
LINE
  8
0
 10
52.9918
 20
8.53102
 11
53.0451
 21
8.11749
  0
LINE
  8
0
 10
53.0451
 20
8.11749
 11
54.1174
 21
7.83347
  0
LINE
  8
0
 10
54.1174
 20
7.83347
 11
54.3683
 21
8.1664
  0
LINE
  8
0
 10
54.3683
 20
8.1664
 11
55.7484
 21
10.2731
  0
LINE
  8
0
 10
55.7484
 20
10.2731
 11
55.801
 21
10.3721
  0
LINE
  8
0
 10
55.801
 20
10.3721
 11
55.8961
 21
10.4316
  0
LINE
  8
0
 10
55.8961
 20
10.4316
 11
56.0082
 21
10.4355
  0
LINE
  8
0
 10
56.0082
 20
10.4355
 11
56.7803
 21
10.2592
  0
LINE
  8
0
 10
56.7803
 20
10.2592
 11
56.8795
 21
10.2071
  0
LINE
  8
0
 10
56.8795
 20
10.2071
 11
56.9394
 21
10.1123
  0
LINE
  8
0
 10
56.9394
 20
10.1123
 11
56.9439
 21
10.0002
  0
LINE
  8
0
 10
56.9439
 20
10.0002
 11
57.2732
 21
7.5034
  0
LINE
  8
0
 10
57.2732
 20
7.5034
 11
57.3548
 21
7.09454
  0
LINE
  8
0
 10
57.3548
 20
7.09454
 11
58.4442
 21
6.88518
  0
LINE
  8
0
 10
58.4442
 20
6.88518
 11
58.6716
 21
7.23463
  0
LINE
  8
0
 10
58.6716
 20
7.23463
 11
59.903
 21
9.43152
  0
LINE
  8
0
 10
59.903
 20
9.43152
 11
59.9486
 21
9.53394
  0
LINE
  8
0
 10
59.9486
 20
9.53394
 11
60.0394
 21
9.59979
  0
LINE
  8
0
 10
60.0394
 20
9.59979
 11
60.1509
 21
9.61145
  0
LINE
  8
0
 10
60.1509
 20
9.61145
 11
60.9334
 21
9.48891
  0
LINE
  8
0
 10
60.9334
 20
9.48891
 11
61.036
 21
9.44371
  0
LINE
  8
0
 10
61.036
 20
9.44371
 11
61.1023
 21
9.35326
  0
LINE
  8
0
 10
61.1023
 20
9.35326
 11
61.1145
 21
9.24178
  0
LINE
  8
0
 10
61.1145
 20
9.24178
 11
61.6152
 21
6.77362
  0
LINE
  8
0
 10
61.6152
 20
6.77362
 11
61.7249
 21
6.37137
  0
LINE
  8
0
 10
61.7249
 20
6.37137
 11
62.8261
 21
6.23764
  0
LINE
  8
0
 10
62.8261
 20
6.23764
 11
63.0289
 21
6.60197
  0
LINE
  8
0
 10
63.0289
 20
6.60197
 11
64.1057
 21
8.87857
  0
LINE
  8
0
 10
64.1057
 20
8.87857
 11
64.1442
 21
8.98389
  0
LINE
  8
0
 10
64.1442
 20
8.98389
 11
64.2302
 21
9.05586
  0
LINE
  8
0
 10
64.2302
 20
9.05586
 11
64.3407
 21
9.07518
  0
LINE
  8
0
 10
64.3407
 20
9.07518
 11
65.1297
 21
9.00691
  0
LINE
  8
0
 10
65.1297
 20
9.00691
 11
65.2352
 21
8.9689
  0
LINE
  8
0
 10
65.2352
 20
8.9689
 11
65.3076
 21
8.88324
  0
LINE
  8
0
 10
65.3076
 20
8.88324
 11
65.3275
 21
8.77286
  0
LINE
  8
0
 10
65.3275
 20
8.77286
 11
65.9973
 21
6.34514
  0
LINE
  8
0
 10
65.9973
 20
6.34514
 11
66.1344
 21
5.9514
  0
LINE
  8
0
 10
66.1344
 20
5.9514
 11
67.2423
 21
5.894
  0
LINE
  8
0
 10
67.2423
 20
5.894
 11
67.4194
 21
6.27142
  0
LINE
  8
0
 10
67.4194
 20
6.27142
 11
68.3366
 21
8.6169
  0
LINE
  8
0
 10
68.3366
 20
8.6169
 11
68.3678
 21
8.72462
  0
LINE
  8
0
 10
68.3678
 20
8.72462
 11
68.4486
 21
8.80235
  0
LINE
  8
0
 10
68.4486
 20
8.80235
 11
68.5575
 21
8.82924
  0
LINE
  8
0
 10
68.5575
 20
8.82924
 11
69.3493
 21
8.81557
  0
LINE
  8
0
 10
69.3493
 20
8.81557
 11
69.4572
 21
8.78494
  0
LINE
  8
0
 10
69.4572
 20
8.78494
 11
69.5353
 21
8.70447
  0
LINE
  8
0
 10
69.5353
 20
8.70447
 11
69.5627
 21
8.59572
  0
LINE
  8
0
 10
69.5627
 20
8.59572
 11
70.3985
 21
6.22
  0
LINE
  8
0
 10
70.3985
 20
6.22
 11
70.5625
 21
5.83667
  0
LINE
  8
0
 10
70.5625
 20
5.83667
 11
71.6716
 21
5.85582
  0
LINE
  8
0
 10
96.1374
 20
77.3081
 11
96.1282
 21
77.3434
  0
LINE
  8
0
 10
96.1282
 20
77.3434
 11
96.0824
 21
77.3519
  0
LINE
  8
0
 10
96.0824
 20
77.3519
 11
95.5801
 21
77.7513
  0
LINE
  8
0
 10
95.5801
 20
77.7513
 11
95.2077
 21
78.919
  0
LINE
  8
0
 10
95.2077
 20
78.919
 11
94.6456
 21
80.3613
  0
LINE
  8
0
 10
94.6456
 20
80.3613
 11
94.741
 21
80.4578
  0
LINE
  8
0
 10
94.741
 20
80.4578
 11
94.9441
 21
80.6948
  0
LINE
  8
0
 10
94.9441
 20
80.6948
 11
94.5115
 21
81.6518
  0
LINE
  8
0
 10
94.5115
 20
81.6518
 11
94.1993
 21
81.656
  0
LINE
  8
0
 10
94.1993
 20
81.656
 11
94.0577
 21
81.6478
  0
LINE
  8
0
 10
94.0577
 20
81.6478
 11
93.8911
 21
82.0068
  0
LINE
  8
0
 10
93.8911
 20
82.0068
 11
93.0901
 21
83.4826
  0
LINE
  8
0
 10
93.0901
 20
83.4826
 11
92.5348
 21
84.3681
  0
LINE
  8
0
 10
92.5348
 20
84.3681
 11
92.6178
 21
84.487
  0
LINE
  8
0
 10
92.6178
 20
84.487
 11
92.778
 21
84.755
  0
LINE
  8
0
 10
92.778
 20
84.755
 11
92.1899
 21
85.6251
  0
LINE
  8
0
 10
92.1899
 20
85.6251
 11
91.8815
 21
85.5764
  0
LINE
  8
0
 10
91.8815
 20
85.5764
 11
91.7395
 21
85.5435
  0
LINE
  8
0
 10
91.7395
 20
85.5435
 11
91.2183
 21
86.2691
  0
LINE
  8
0
 10
91.2183
 20
86.2691
 11
90.1549
 21
87.5687
  0
LINE
  8
0
 10
90.1549
 20
87.5687
 11
89.7829
 21
87.969
  0
LINE
  8
0
 10
89.7829
 20
87.969
 11
89.8443
 21
88.0994
  0
LINE
  8
0
 10
89.8443
 20
88.0994
 11
89.9569
 21
88.3906
  0
LINE
  8
0
 10
89.9569
 20
88.3906
 11
89.2302
 21
89.1488
  0
LINE
  8
0
 10
89.2302
 20
89.1488
 11
88.9345
 21
89.0488
  0
LINE
  8
0
 10
88.9345
 20
89.0488
 11
88.8058
 21
88.9947
  0
LINE
  8
0
 10
88.8058
 20
88.9947
 11
87.7941
 21
89.955
  0
LINE
  8
0
 10
87.7941
 20
89.955
 11
86.506
 21
91.0323
  0
LINE
  8
0
 10
86.506
 20
91.0323
 11
86.4646
 21
91.0627
  0
LINE
  8
0
 10
86.4646
 20
91.0627
 11
86.5002
 21
91.1912
  0
LINE
  8
0
 10
86.5002
 20
91.1912
 11
86.5619
 21
91.4972
  0
LINE
  8
0
 10
86.5619
 20
91.4972
 11
85.7175
 21
92.1217
  0
LINE
  8
0
 10
85.7175
 20
92.1217
 11
85.443
 21
91.9731
  0
LINE
  8
0
 10
85.443
 20
91.9731
 11
85.3248
 21
91.9003
  0
LINE
  8
0
 10
85.3248
 20
91.9003
 11
85.1528
 21
92.0267
  0
LINE
  8
0
 10
85.1528
 20
92.0267
 11
83.7399
 21
92.9341
  0
LINE
  8
0
 10
83.7399
 20
92.9341
 11
82.6674
 21
93.5312
  0
LINE
  8
0
 10
82.6674
 20
93.5312
 11
82.6817
 21
93.6733
  0
LINE
  8
0
 10
82.6817
 20
93.6733
 11
82.6908
 21
93.9853
  0
LINE
  8
0
 10
82.6908
 20
93.9853
 11
81.753
 21
94.4581
  0
LINE
  8
0
 10
81.753
 20
94.4581
 11
81.377
 21
94.1783
  0
LINE
  8
0
 10
81.377
 20
94.1783
 11
80.7572
 21
94.4741
  0
LINE
  8
0
 10
80.7572
 20
94.4741
 11
79.1992
 21
95.1006
  0
LINE
  8
0
 10
79.1992
 20
95.1006
 11
78.5087
 21
95.3291
  0
LINE
  8
0
 10
78.5087
 20
95.3291
 11
78.4986
 21
95.4744
  0
LINE
  8
0
 10
78.4986
 20
95.4744
 11
78.4548
 21
95.7835
  0
LINE
  8
0
 10
78.4548
 20
95.7835
 11
77.4506
 21
96.091
  0
LINE
  8
0
 10
77.4506
 20
96.091
 11
77.1913
 21
95.86
  0
LINE
  8
0
 10
77.1913
 20
95.86
 11
73.9695
 21
100.386
  0
LINE
  8
0
 10
73.9695
 20
100.386
 11
73.9695
 21
122.805
  0
LINE
  8
0
 10
73.9695
 20
122.805
 11
77.9086
 21
126.358
  0
LINE
  8
0
 10
77.9086
 20
126.358
 11
78.4556
 21
126.295
  0
LINE
  8
0
 10
78.4556
 20
126.295
 11
81.9737
 21
125.654
  0
LINE
  8
0
 10
81.9737
 20
125.654
 11
85.4446
 21
124.792
  0
LINE
  8
0
 10
85.4446
 20
124.792
 11
88.8546
 21
123.715
  0
LINE
  8
0
 10
88.8546
 20
123.715
 11
92.1902
 21
122.426
  0
LINE
  8
0
 10
92.1902
 20
122.426
 11
95.4383
 21
120.93
  0
LINE
  8
0
 10
95.4383
 20
120.93
 11
98.586
 21
119.233
  0
LINE
  8
0
 10
98.586
 20
119.233
 11
101.621
 21
117.341
  0
LINE
  8
0
 10
101.621
 20
117.341
 11
104.531
 21
115.263
  0
LINE
  8
0
 10
104.531
 20
115.263
 11
107.305
 21
113.006
  0
LINE
  8
0
 10
107.305
 20
113.006
 11
109.932
 21
110.579
  0
LINE
  8
0
 10
109.932
 20
110.579
 11
112.401
 21
107.992
  0
LINE
  8
0
 10
112.401
 20
107.992
 11
114.703
 21
105.256
  0
LINE
  8
0
 10
114.703
 20
105.256
 11
116.828
 21
102.38
  0
LINE
  8
0
 10
116.828
 20
102.38
 11
118.769
 21
99.376
  0
LINE
  8
0
 10
118.769
 20
99.376
 11
120.518
 21
96.2563
  0
LINE
  8
0
 10
120.518
 20
96.2563
 11
122.067
 21
93.0331
  0
LINE
  8
0
 10
122.067
 20
93.0331
 11
123.41
 21
89.719
  0
LINE
  8
0
 10
123.41
 20
89.719
 11
124.543
 21
86.327
  0
LINE
  8
0
 10
124.543
 20
86.327
 11
125.46
 21
82.8706
  0
LINE
  8
0
 10
125.46
 20
82.8706
 11
126.159
 21
79.3634
  0
LINE
  8
0
 10
126.159
 20
79.3634
 11
126.286
 21
78.4205
  0
LINE
  8
0
 10
126.286
 20
78.4205
 11
122.809
 21
73.96
  0
LINE
  8
0
 10
122.809
 20
73.96
 11
100.391
 21
73.9252
  0
LINE
  8
0
 10
100.391
 20
73.9252
 11
96.1374
 21
77.3081
  0
LINE
  8
0
 10
17.2042
 20
73.96
 11
13.6512
 21
77.899
  0
LINE
  8
0
 10
13.6512
 20
77.899
 11
13.7146
 21
78.446
  0
LINE
  8
0
 10
13.7146
 20
78.446
 11
14.356
 21
81.9641
  0
LINE
  8
0
 10
14.356
 20
81.9641
 11
15.2171
 21
85.4351
  0
LINE
  8
0
 10
15.2171
 20
85.4351
 11
16.2944
 21
88.845
  0
LINE
  8
0
 10
16.2944
 20
88.845
 11
17.5836
 21
92.1807
  0
LINE
  8
0
 10
17.5836
 20
92.1807
 11
19.0798
 21
95.4287
  0
LINE
  8
0
 10
19.0798
 20
95.4287
 11
20.777
 21
98.5765
  0
LINE
  8
0
 10
20.777
 20
98.5765
 11
22.6685
 21
101.611
  0
LINE
  8
0
 10
22.6685
 20
101.611
 11
24.7468
 21
104.522
  0
LINE
  8
0
 10
24.7468
 20
104.522
 11
27.0038
 21
107.296
  0
LINE
  8
0
 10
27.0038
 20
107.296
 11
29.4304
 21
109.922
  0
LINE
  8
0
 10
29.4304
 20
109.922
 11
32.0172
 21
112.392
  0
LINE
  8
0
 10
32.0172
 20
112.392
 11
34.754
 21
114.693
  0
LINE
  8
0
 10
34.754
 20
114.693
 11
37.6299
 21
116.819
  0
LINE
  8
0
 10
37.6299
 20
116.819
 11
40.6336
 21
118.76
  0
LINE
  8
0
 10
40.6336
 20
118.76
 11
43.7532
 21
120.508
  0
LINE
  8
0
 10
43.7532
 20
120.508
 11
46.9764
 21
122.057
  0
LINE
  8
0
 10
46.9764
 20
122.057
 11
50.2906
 21
123.401
  0
LINE
  8
0
 10
50.2906
 20
123.401
 11
53.6825
 21
124.533
  0
LINE
  8
0
 10
53.6825
 20
124.533
 11
57.1389
 21
125.451
  0
LINE
  8
0
 10
57.1389
 20
125.451
 11
60.6461
 21
126.15
  0
LINE
  8
0
 10
60.6461
 20
126.15
 11
61.5891
 21
126.277
  0
LINE
  8
0
 10
61.5891
 20
126.277
 11
66.0495
 21
122.799
  0
LINE
  8
0
 10
66.0495
 20
122.799
 11
66.0843
 21
100.381
  0
LINE
  8
0
 10
66.0843
 20
100.381
 11
62.2582
 21
95.5706
  0
LINE
  8
0
 10
62.2582
 20
95.5706
 11
61.0906
 21
95.1981
  0
LINE
  8
0
 10
61.0906
 20
95.1981
 11
60.7076
 21
95.0488
  0
LINE
  8
0
 10
60.7076
 20
95.0488
 11
60.6108
 21
95.153
  0
LINE
  8
0
 10
60.6108
 20
95.153
 11
60.3826
 21
95.366
  0
LINE
  8
0
 10
60.3826
 20
95.366
 11
59.4081
 21
94.9744
  0
LINE
  8
0
 10
59.4081
 20
94.9744
 11
59.1001
 21
94.3907
  0
LINE
  8
0
 10
59.1001
 20
94.3907
 11
58.0027
 21
93.8816
  0
LINE
  8
0
 10
58.0027
 20
93.8816
 11
56.6019
 21
93.1212
  0
LINE
  8
0
 10
56.6019
 20
93.1212
 11
56.4951
 21
93.2028
  0
LINE
  8
0
 10
56.4951
 20
93.2028
 11
56.2342
 21
93.3741
  0
LINE
  8
0
 10
56.2342
 20
93.3741
 11
55.3399
 21
92.8235
  0
LINE
  8
0
 10
55.3399
 20
92.8235
 11
55.0642
 21
92.1596
  0
LINE
  8
0
 10
55.0642
 20
92.1596
 11
53.7404
 21
91.2087
  0
LINE
  8
0
 10
53.7404
 20
91.2087
 11
52.8963
 21
90.518
  0
LINE
  8
0
 10
52.8963
 20
90.518
 11
52.7682
 21
90.5851
  0
LINE
  8
0
 10
52.7682
 20
90.5851
 11
52.4821
 21
90.7099
  0
LINE
  8
0
 10
52.4821
 20
90.7099
 11
51.6937
 21
90.016
  0
LINE
  8
0
 10
51.6937
 20
90.016
 11
51.4492
 21
89.2241
  0
LINE
  8
0
 10
51.4492
 20
89.2241
 11
51.2106
 21
89.0024
  0
LINE
  8
0
 10
51.2106
 20
89.0024
 11
50.0545
 21
87.7845
  0
LINE
  8
0
 10
50.0545
 20
87.7845
 11
49.6749
 21
87.3307
  0
LINE
  8
0
 10
49.6749
 20
87.3307
 11
49.5374
 21
87.3752
  0
LINE
  8
0
 10
49.5374
 20
87.3752
 11
49.2342
 21
87.4498
  0
LINE
  8
0
 10
49.2342
 20
87.4498
 11
48.5744
 21
86.6327
  0
LINE
  8
0
 10
48.5744
 20
86.6327
 11
48.3807
 21
85.6846
  0
LINE
  8
0
 10
48.3807
 20
85.6846
 11
47.9829
 21
85.1433
  0
LINE
  8
0
 10
47.9829
 20
85.1433
 11
47.0755
 21
83.7303
  0
LINE
  8
0
 10
47.0755
 20
83.7303
 11
47.0287
 21
83.6463
  0
LINE
  8
0
 10
47.0287
 20
83.6463
 11
46.8954
 21
83.6654
  0
LINE
  8
0
 10
46.8954
 20
83.6654
 11
46.584
 21
83.6878
  0
LINE
  8
0
 10
46.584
 20
83.6878
 11
46.0718
 21
82.7709
  0
LINE
  8
0
 10
46.0718
 20
82.7709
 11
45.9617
 21
81.6409
  0
LINE
  8
0
 10
45.9617
 20
81.6409
 11
45.5355
 21
80.7477
  0
LINE
  8
0
 10
45.5355
 20
80.7477
 11
45.0604
 21
79.5664
  0
LINE
  8
0
 10
45.0604
 20
79.5664
 11
44.9184
 21
79.5626
  0
LINE
  8
0
 10
44.9184
 20
79.5626
 11
44.6077
 21
79.532
  0
LINE
  8
0
 10
44.6077
 20
79.532
 11
44.2579
 21
78.5417
  0
LINE
  8
0
 10
44.2579
 20
78.5417
 11
44.2848
 21
77.2781
  0
LINE
  8
0
 10
44.2848
 20
77.2781
 11
39.6236
 21
73.96
  0
LINE
  8
0
 10
39.6236
 20
73.96
 11
17.2042
 21
73.96
  0
LINE
  8
0
 10
61.5635
 20
13.705
 11
58.0454
 21
14.3465
  0
LINE
  8
0
 10
58.0454
 20
14.3465
 11
54.5745
 21
15.2075
  0
LINE
  8
0
 10
54.5745
 20
15.2075
 11
51.1645
 21
16.2848
  0
LINE
  8
0
 10
51.1645
 20
16.2848
 11
47.8289
 21
17.5741
  0
LINE
  8
0
 10
47.8289
 20
17.5741
 11
44.5808
 21
19.0703
  0
LINE
  8
0
 10
44.5808
 20
19.0703
 11
41.4331
 21
20.7675
  0
LINE
  8
0
 10
41.4331
 20
20.7675
 11
38.3981
 21
22.659
  0
LINE
  8
0
 10
38.3981
 20
22.659
 11
35.4879
 21
24.7373
  0
LINE
  8
0
 10
35.4879
 20
24.7373
 11
32.714
 21
26.9942
  0
LINE
  8
0
 10
32.714
 20
26.9942
 11
30.0872
 21
29.4209
  0
LINE
  8
0
 10
30.0872
 20
29.4209
 11
27.618
 21
32.0077
  0
LINE
  8
0
 10
27.618
 20
32.0077
 11
25.3161
 21
34.7445
  0
LINE
  8
0
 10
25.3161
 20
34.7445
 11
23.1906
 21
37.6204
  0
LINE
  8
0
 10
23.1906
 20
37.6204
 11
21.2498
 21
40.624
  0
LINE
  8
0
 10
21.2498
 20
40.624
 11
19.5015
 21
43.7437
  0
LINE
  8
0
 10
19.5015
 20
43.7437
 11
17.9525
 21
46.9669
  0
LINE
  8
0
 10
17.9525
 20
46.9669
 11
16.609
 21
50.281
  0
LINE
  8
0
 10
16.609
 20
50.281
 11
15.4762
 21
53.673
  0
LINE
  8
0
 10
15.4762
 20
53.673
 11
14.5586
 21
57.1294
  0
LINE
  8
0
 10
14.5586
 20
57.1294
 11
13.8599
 21
60.6366
  0
LINE
  8
0
 10
13.8599
 20
60.6366
 11
13.733
 21
61.5795
  0
LINE
  8
0
 10
13.733
 20
61.5795
 11
17.2106
 21
66.04
  0
LINE
  8
0
 10
17.2106
 20
66.04
 11
39.6281
 21
66.0748
  0
LINE
  8
0
 10
39.6281
 20
66.0748
 11
44.3007
 21
62.3586
  0
LINE
  8
0
 10
44.3007
 20
62.3586
 11
44.2579
 21
61.4583
  0
LINE
  8
0
 10
44.2579
 20
61.4583
 11
44.6077
 21
60.468
  0
LINE
  8
0
 10
44.6077
 20
60.468
 11
44.9184
 21
60.4374
  0
LINE
  8
0
 10
44.9184
 20
60.4374
 11
45.0638
 21
60.4335
  0
LINE
  8
0
 10
45.0638
 20
60.4335
 11
45.4212
 21
59.5164
  0
LINE
  8
0
 10
45.4212
 20
59.5164
 11
45.8471
 21
58.5986
  0
LINE
  8
0
 10
45.8471
 20
58.5986
 11
46.0718
 21
57.2291
  0
LINE
  8
0
 10
46.0718
 20
57.2291
 11
46.584
 21
56.3122
  0
LINE
  8
0
 10
46.584
 20
56.3122
 11
46.8954
 21
56.3345
  0
LINE
  8
0
 10
46.8954
 20
56.3345
 11
47.0314
 21
56.3541
  0
LINE
  8
0
 10
47.0314
 20
56.3541
 11
47.8211
 21
55.0947
  0
LINE
  8
0
 10
47.8211
 20
55.0947
 11
48.2171
 21
54.5435
  0
LINE
  8
0
 10
48.2171
 20
54.5435
 11
48.5744
 21
53.3673
  0
LINE
  8
0
 10
48.5744
 20
53.3673
 11
49.2342
 21
52.5502
  0
LINE
  8
0
 10
49.2342
 20
52.5502
 11
49.5374
 21
52.6248
  0
LINE
  8
0
 10
49.5374
 20
52.6248
 11
49.6706
 21
52.6679
  0
LINE
  8
0
 10
49.6706
 20
52.6679
 11
49.8642
 21
52.4313
  0
LINE
  8
0
 10
49.8642
 20
52.4313
 11
51.0071
 21
51.201
  0
LINE
  8
0
 10
51.0071
 20
51.201
 11
51.2853
 21
50.937
  0
LINE
  8
0
 10
51.2853
 20
50.937
 11
51.6937
 21
49.984
  0
LINE
  8
0
 10
51.6937
 20
49.984
 11
52.4821
 21
49.2901
  0
LINE
  8
0
 10
52.4821
 20
49.2901
 11
52.7682
 21
49.4149
  0
LINE
  8
0
 10
52.7682
 20
49.4149
 11
52.8974
 21
49.4826
  0
LINE
  8
0
 10
52.8974
 20
49.4826
 11
53.5131
 21
48.9677
  0
LINE
  8
0
 10
53.5131
 20
48.9677
 11
54.8663
 21
47.9733
  0
LINE
  8
0
 10
54.8663
 20
47.9733
 11
54.9169
 21
47.9408
  0
LINE
  8
0
 10
54.9169
 20
47.9408
 11
55.3399
 21
47.1765
  0
LINE
  8
0
 10
55.3399
 20
47.1765
 11
56.2342
 21
46.6259
  0
LINE
  8
0
 10
56.2342
 20
46.6259
 11
56.4951
 21
46.7972
  0
LINE
  8
0
 10
56.4951
 20
46.7972
 11
56.6076
 21
46.8831
  0
LINE
  8
0
 10
56.6076
 20
46.8831
 11
57.7463
 21
46.2491
  0
LINE
  8
0
 10
57.7463
 20
46.2491
 11
58.9691
 21
45.6656
  0
LINE
  8
0
 10
58.9691
 20
45.6656
 11
59.4081
 21
45.0256
  0
LINE
  8
0
 10
59.4081
 20
45.0256
 11
60.3826
 21
44.634
  0
LINE
  8
0
 10
60.3826
 20
44.634
 11
60.6108
 21
44.847
  0
LINE
  8
0
 10
60.6108
 20
44.847
 11
60.7031
 21
44.9463
  0
LINE
  8
0
 10
60.7031
 20
44.9463
 11
60.8198
 21
44.8994
  0
LINE
  8
0
 10
60.8198
 20
44.8994
 11
62.414
 21
44.3719
  0
LINE
  8
0
 10
62.414
 20
44.3719
 11
62.7199
 21
44.2916
  0
LINE
  8
0
 10
62.7199
 20
44.2916
 11
66.0495
 21
39.6141
  0
LINE
  8
0
 10
66.0495
 20
39.6141
 11
66.0495
 21
17.1947
  0
LINE
  8
0
 10
66.0495
 20
17.1947
 11
62.1105
 21
13.6417
  0
LINE
  8
0
 10
62.1105
 20
13.6417
 11
61.5635
 21
13.705
  0
LINE
  8
0
 10
73.9695
 20
17.201
 11
73.9348
 21
39.6186
  0
LINE
  8
0
 10
73.9348
 20
39.6186
 11
77.3838
 21
43.9553
  0
LINE
  8
0
 10
77.3838
 20
43.9553
 11
77.4506
 21
43.909
  0
LINE
  8
0
 10
77.4506
 20
43.909
 11
78.4548
 21
44.2165
  0
LINE
  8
0
 10
78.4548
 20
44.2165
 11
78.4986
 21
44.5256
  0
LINE
  8
0
 10
78.4986
 20
44.5256
 11
78.5085
 21
44.6679
  0
LINE
  8
0
 10
78.5085
 20
44.6679
 11
78.9285
 21
44.8019
  0
LINE
  8
0
 10
78.9285
 20
44.8019
 11
80.4931
 21
45.4116
  0
LINE
  8
0
 10
80.4931
 20
45.4116
 11
81.3133
 21
45.7922
  0
LINE
  8
0
 10
81.3133
 20
45.7922
 11
81.753
 21
45.5418
  0
LINE
  8
0
 10
81.753
 20
45.5418
 11
82.6908
 21
46.0146
  0
LINE
  8
0
 10
82.6908
 20
46.0146
 11
82.6817
 21
46.3267
  0
LINE
  8
0
 10
82.6817
 20
46.3267
 11
82.6671
 21
46.4716
  0
LINE
  8
0
 10
82.6671
 20
46.4716
 11
83.4922
 21
46.9194
  0
LINE
  8
0
 10
83.4922
 20
46.9194
 11
84.9148
 21
47.8116
  0
LINE
  8
0
 10
84.9148
 20
47.8116
 11
85.284
 21
48.0768
  0
LINE
  8
0
 10
85.284
 20
48.0768
 11
85.7175
 21
47.8783
  0
LINE
  8
0
 10
85.7175
 20
47.8783
 11
86.5619
 21
48.5028
  0
LINE
  8
0
 10
86.5619
 20
48.5028
 11
86.5002
 21
48.8088
  0
LINE
  8
0
 10
86.5002
 20
48.8088
 11
86.4632
 21
48.9423
  0
LINE
  8
0
 10
86.4632
 20
48.9423
 11
87.5782
 21
49.8547
  0
LINE
  8
0
 10
87.5782
 20
49.8547
 11
88.8073
 21
50.9965
  0
LINE
  8
0
 10
88.8073
 20
50.9965
 11
88.9345
 21
50.9512
  0
LINE
  8
0
 10
88.9345
 20
50.9512
 11
89.2302
 21
50.8512
  0
LINE
  8
0
 10
89.2302
 20
50.8512
 11
89.9569
 21
51.6094
  0
LINE
  8
0
 10
89.9569
 20
51.6094
 11
89.8443
 21
51.9006
  0
LINE
  8
0
 10
89.8443
 20
51.9006
 11
89.7851
 21
52.0264
  0
LINE
  8
0
 10
89.7851
 20
52.0264
 11
89.9646
 21
52.2155
  0
LINE
  8
0
 10
89.9646
 20
52.2155
 11
91.0419
 21
53.5035
  0
LINE
  8
0
 10
91.0419
 20
53.5035
 11
91.7417
 21
54.456
  0
LINE
  8
0
 10
91.7417
 20
54.456
 11
91.8815
 21
54.4236
  0
LINE
  8
0
 10
91.8815
 20
54.4236
 11
92.1899
 21
54.3749
  0
LINE
  8
0
 10
92.1899
 20
54.3749
 11
92.778
 21
55.245
  0
LINE
  8
0
 10
92.778
 20
55.245
 11
92.6178
 21
55.513
  0
LINE
  8
0
 10
92.6178
 20
55.513
 11
92.5344
 21
55.6325
  0
LINE
  8
0
 10
92.5344
 20
55.6325
 11
92.9436
 21
56.2697
  0
LINE
  8
0
 10
92.9436
 20
56.2697
 11
93.7605
 21
57.7368
  0
LINE
  8
0
 10
93.7605
 20
57.7368
 11
94.0542
 21
58.3524
  0
LINE
  8
0
 10
94.0542
 20
58.3524
 11
94.1993
 21
58.344
  0
LINE
  8
0
 10
94.1993
 20
58.344
 11
94.5115
 21
58.3482
  0
LINE
  8
0
 10
94.5115
 20
58.3482
 11
94.9441
 21
59.3051
  0
LINE
  8
0
 10
94.9441
 20
59.3051
 11
94.741
 21
59.5422
  0
LINE
  8
0
 10
94.741
 20
59.5422
 11
94.6409
 21
59.6434
  0
LINE
  8
0
 10
94.6409
 20
59.6434
 11
95.1102
 21
60.8103
  0
LINE
  8
0
 10
95.1102
 20
60.8103
 11
95.6377
 21
62.4045
  0
LINE
  8
0
 10
95.6377
 20
62.4045
 11
95.6849
 21
62.5844
  0
LINE
  8
0
 10
95.6849
 20
62.5844
 11
95.8212
 21
62.5997
  0
LINE
  8
0
 10
95.8212
 20
62.5997
 11
96.1282
 21
62.6566
  0
LINE
  8
0
 10
96.1282
 20
62.6566
 11
96.2387
 21
63.081
  0
LINE
  8
0
 10
96.2387
 20
63.081
 11
100.395
 21
66.04
  0
LINE
  8
0
 10
100.395
 20
66.04
 11
122.815
 21
66.04
  0
LINE
  8
0
 10
122.815
 20
66.04
 11
126.368
 21
62.101
  0
LINE
  8
0
 10
126.368
 20
62.101
 11
126.304
 21
61.554
  0
LINE
  8
0
 10
126.304
 20
61.554
 11
125.663
 21
58.0358
  0
LINE
  8
0
 10
125.663
 20
58.0358
 11
124.802
 21
54.5649
  0
LINE
  8
0
 10
124.802
 20
54.5649
 11
123.725
 21
51.1549
  0
LINE
  8
0
 10
123.725
 20
51.1549
 11
122.435
 21
47.8193
  0
LINE
  8
0
 10
122.435
 20
47.8193
 11
120.939
 21
44.5712
  0
LINE
  8
0
 10
120.939
 20
44.5712
 11
119.242
 21
41.4235
  0
LINE
  8
0
 10
119.242
 20
41.4235
 11
117.351
 21
38.3886
  0
LINE
  8
0
 10
117.351
 20
38.3886
 11
115.272
 21
35.4784
  0
LINE
  8
0
 10
115.272
 20
35.4784
 11
113.015
 21
32.7044
  0
LINE
  8
0
 10
113.015
 20
32.7044
 11
110.589
 21
30.0777
  0
LINE
  8
0
 10
110.589
 20
30.0777
 11
108.002
 21
27.6085
  0
LINE
  8
0
 10
108.002
 20
27.6085
 11
105.265
 21
25.3066
  0
LINE
  8
0
 10
105.265
 20
25.3066
 11
102.389
 21
23.181
  0
LINE
  8
0
 10
102.389
 20
23.181
 11
99.3855
 21
21.2403
  0
LINE
  8
0
 10
99.3855
 20
21.2403
 11
96.2659
 21
19.492
  0
LINE
  8
0
 10
96.2659
 20
19.492
 11
93.0427
 21
17.943
  0
LINE
  8
0
 10
93.0427
 20
17.943
 11
89.7285
 21
16.5995
  0
LINE
  8
0
 10
89.7285
 20
16.5995
 11
86.3366
 21
15.4667
  0
LINE
  8
0
 10
86.3366
 20
15.4667
 11
82.8802
 21
14.5491
  0
LINE
  8
0
 10
82.8802
 20
14.5491
 11
79.373
 21
13.8504
  0
LINE
  8
0
 10
79.373
 20
13.8504
 11
78.43
 21
13.7234
  0
LINE
  8
0
 10
78.43
 20
13.7234
 11
73.9695
 21
17.201
  0
ENDSEC
  0
SECTION
  2
OBJECTS
  0
DICTIONARY
  0
ENDSEC
  0
EOF
