  0
SECTION
  2
BLOCKS
  0
ENDSEC
  0
SECTION
  2
ENTITIES
  0
LINE
  8
0
 10
27.0826
 20
-4.95
 11
64.1538
 21
-4.95
  0
LINE
  8
0
 10
64.1538
 20
-4.95
 11
64.1538
 21
0
  0
LINE
  8
0
 10
64.1538
 20
0
 11
-64.1538
 21
0
  0
LINE
  8
0
 10
-64.1538
 20
0
 11
-64.1538
 21
-4.95
  0
LINE
  8
0
 10
-64.1538
 20
-4.95
 11
-27.1167
 21
-4.95
  0
LINE
  8
0
 10
-27.1167
 20
-4.95
 11
-27.1167
 21
-14.85
  0
LINE
  8
0
 10
-27.1167
 20
-14.85
 11
27.0826
 21
-14.85
  0
LINE
  8
0
 10
27.0826
 20
-14.85
 11
27.0826
 21
-4.95
  0
ENDSEC
  0
SECTION
  2
OBJECTS
  0
DICTIONARY
  0
ENDSEC
  0
EOF
