  0
SECTION
  2
BLOCKS
  0
ENDSEC
  0
SECTION
  2
ENTITIES
  0
LINE
  8
0
 10
-49.3931
 20
0
 11
-11.3123
 21
0
  0
LINE
  8
0
 10
-11.3123
 20
0
 11
-11.3123
 21
5
  0
LINE
  8
0
 10
-11.3123
 20
5
 11
-4.01231
 21
10
  0
LINE
  8
0
 10
-4.01231
 20
10
 11
-4.01231
 21
20
  0
LINE
  8
0
 10
-4.01231
 20
20
 11
-7.08338
 21
20
  0
LINE
  8
0
 10
-7.08338
 20
20
 11
-7.08338
 21
15
  0
LINE
  8
0
 10
-7.08338
 20
15
 11
-10.0123
 21
15
  0
LINE
  8
0
 10
-10.0123
 20
15
 11
-10.0123
 21
10
  0
LINE
  8
0
 10
-10.0123
 20
10
 11
-16.0123
 21
5
  0
LINE
  8
0
 10
-16.0123
 20
5
 11
-49.3931
 21
5
  0
LINE
  8
0
 10
-49.3931
 20
5
 11
-49.3931
 21
0
  0
LINE
  8
0
 10
3.98769
 20
10
 11
11.2877
 21
5
  0
LINE
  8
0
 10
11.2877
 20
5
 11
11.2877
 21
0
  0
LINE
  8
0
 10
11.2877
 20
0
 11
52.382
 21
0
  0
LINE
  8
0
 10
52.382
 20
0
 11
52.382
 21
5
  0
LINE
  8
0
 10
52.382
 20
5
 11
15.9877
 21
5
  0
LINE
  8
0
 10
15.9877
 20
5
 11
9.98769
 21
10
  0
LINE
  8
0
 10
9.98769
 20
10
 11
9.98769
 21
15
  0
LINE
  8
0
 10
9.98769
 20
15
 11
7.05876
 21
15
  0
LINE
  8
0
 10
7.05876
 20
15
 11
7.05876
 21
20
  0
LINE
  8
0
 10
7.05876
 20
20
 11
3.98769
 21
20
  0
LINE
  8
0
 10
3.98769
 20
20
 11
3.98769
 21
10
  0
ENDSEC
  0
SECTION
  2
OBJECTS
  0
DICTIONARY
  0
ENDSEC
  0
EOF
