999
dxfrw 0.6.3
  0
SECTION
  2
HEADER
  9
$ACADVER
  1
AC1021
  9
$DWGCODEPAGE
  3
ANSI_1252
  9
$INSBASE
 10
0
 20
0
 30
0
  9
$EXTMIN
 10
-128.3914786902424
 20
-92.13619999999996
 30
0
  9
$EXTMAX
 10
100.4085
 20
136.2904071608553
 30
0
  9
$LIMMIN
 10
0
 20
0
  9
$LIMMAX
 10
420
 20
297
  9
$ORTHOMODE
 70
    0
  9
$REGENMODE
 70
    1
  9
$FILLMODE
 70
    1
  9
$QTEXTMODE
 70
    0
  9
$MIRRTEXT
 70
    0
  9
$LTSCALE
 40
1
  9
$ATTMODE
 70
    0
  9
$TEXTSIZE
 40
2.5
  9
$TRACEWID
 40
15.68
  9
$TEXTSTYLE
  7
STANDARD
  9
$CLAYER
  8
Guides
  9
$CELTYPE
  6
BYLAYER
  9
$CECOLOR
 62
  256
  9
$CELTSCALE
 40
1
  9
$DISPSILH
 70
    0
  9
$DIMSCALE
 40
1
  9
$DIMASZ
 40
2.5
  9
$DIMEXO
 40
0.625
  9
$DIMDLI
 40
3.75
  9
$DIMRND
 40
0
  9
$DIMDLE
 40
0
  9
$DIMEXE
 40
1.25
  9
$DIMTP
 40
0
  9
$DIMTM
 40
0
  9
$DIMTXT
 40
2.5
  9
$DIMCEN
 40
2.5
  9
$DIMTSZ
 40
0
  9
$DIMTOL
 70
    0
  9
$DIMLIM
 70
    0
  9
$DIMTIH
 70
    0
  9
$DIMTOH
 70
    0
  9
$DIMSE1
 70
    0
  9
$DIMSE2
 70
    0
  9
$DIMTAD
 70
    1
  9
$DIMZIN
 70
    8
  9
$DIMBLK
  1

  9
$DIMASO
 70
    1
  9
$DIMSHO
 70
    1
  9
$DIMPOST
  1

  9
$DIMAPOST
  1

  9
$DIMALT
 70
    0
  9
$DIMALTD
 70
    3
  9
$DIMALTF
 40
0.03937
  9
$DIMLFAC
 40
1
  9
$DIMTOFL
 70
    1
  9
$DIMTVP
 40
0
  9
$DIMTIX
 70
    0
  9
$DIMSOXD
 70
    0
  9
$DIMSAH
 70
    0
  9
$DIMBLK1
  1

  9
$DIMBLK2
  1

  9
$DIMSTYLE
  2
Standard
  9
$DIMCLRD
 70
    0
  9
$DIMCLRE
 70
    0
  9
$DIMCLRT
 70
    0
  9
$DIMTFAC
 40
1
  9
$DIMGAP
 40
0.625
  9
$DIMJUST
 70
    0
  9
$DIMSD1
 70
    0
  9
$DIMSD2
 70
    0
  9
$DIMTOLJ
 70
    0
  9
$DIMTZIN
 70
    8
  9
$DIMALTZ
 70
    0
  9
$DIMALTTZ
 70
    0
  9
$DIMUPT
 70
    0
  9
$DIMDEC
 70
    2
  9
$DIMTDEC
 70
    2
  9
$DIMALTU
 70
    2
  9
$DIMALTTD
 70
    3
  9
$DIMTXSTY
  7
STANDARD
  9
$DIMAUNIT
 70
    0
  9
$DIMADEC
 70
    0
  9
$DIMALTRND
 40
0
  9
$DIMAZIN
 70
    0
  9
$DIMDSEP
 70
   44
  9
$DIMATFIT
 70
    3
  9
$DIMFRAC
 70
    0
  9
$DIMLDRBLK
  1
STANDARD
  9
$DIMLUNIT
 70
    2
  9
$DIMLWD
 70
   -2
  9
$DIMLWE
 70
   -2
  9
$DIMTMOVE
 70
    0
  9
$DIMFXL
 40
1
  9
$DIMFXLON
 70
    0
  9
$DIMJOGANG
 40
0.7854
  9
$DIMTFILL
 70
    0
  9
$DIMTFILLCLR
 70
    0
  9
$DIMARCSYM
 70
    0
  9
$DIMLTYPE
  6

  9
$DIMLTEX1
  6

  9
$DIMLTEX2
  6

  9
$LUNITS
 70
    2
  9
$LUPREC
 70
    4
  9
$SKETCHINC
 40
1
  9
$FILLETRAD
 40
0
  9
$AUNITS
 70
    0
  9
$AUPREC
 70
    2
  9
$MENU
  1
.
  9
$ELEVATION
 40
0
  9
$PELEVATION
 40
0
  9
$THICKNESS
 40
0
  9
$LIMCHECK
 70
    0
  9
$CHAMFERA
 40
0
  9
$CHAMFERB
 40
0
  9
$CHAMFERC
 40
0
  9
$CHAMFERD
 40
0
  9
$SKPOLY
 70
    0
  9
$USRTIMER
 70
    1
  9
$ANGBASE
 50
0
  9
$ANGDIR
 70
    0
  9
$PDMODE
 70
   34
  9
$PDSIZE
 40
0
  9
$PLINEWID
 40
0
  9
$SPLFRAME
 70
    0
  9
$SPLINETYPE
 70
    2
  9
$SPLINESEGS
 70
    8
  9
$HANDSEED
  5
20000
  9
$SURFTAB1
 70
    6
  9
$SURFTAB2
 70
    6
  9
$SURFTYPE
 70
    6
  9
$SURFU
 70
    6
  9
$SURFV
 70
    6
  9
$UCSBASE
  2

  9
$UCSNAME
  2

  9
$UCSORG
 10
0
 20
0
 30
0
  9
$UCSXDIR
 10
1
 20
0
 30
0
  9
$UCSYDIR
 10
0
 20
1
 30
0
  9
$UCSORTHOREF
  2

  9
$UCSORTHOVIEW
 70
    0
  9
$UCSORGTOP
 10
0
 20
0
 30
0
  9
$UCSORGBOTTOM
 10
0
 20
0
 30
0
  9
$UCSORGLEFT
 10
0
 20
0
 30
0
  9
$UCSORGRIGHT
 10
0
 20
0
 30
0
  9
$UCSORGFRONT
 10
0
 20
0
 30
0
  9
$UCSORGBACK
 10
0
 20
0
 30
0
  9
$PUCSBASE
  2

  9
$PUCSNAME
  2

  9
$PUCSORG
 10
0
 20
0
 30
0
  9
$PUCSXDIR
 10
1
 20
0
 30
0
  9
$PUCSYDIR
 10
0
 20
1
 30
0
  9
$PUCSORTHOREF
  2

  9
$PUCSORTHOVIEW
 70
    0
  9
$PUCSORGTOP
 10
0
 20
0
 30
0
  9
$PUCSORGBOTTOM
 10
0
 20
0
 30
0
  9
$PUCSORGLEFT
 10
0
 20
0
 30
0
  9
$PUCSORGRIGHT
 10
0
 20
0
 30
0
  9
$PUCSORGFRONT
 10
0
 20
0
 30
0
  9
$PUCSORGBACK
 10
0
 20
0
 30
0
  9
$USERI1
 70
    0
  9
$USERI2
 70
    0
  9
$USERI3
 70
    0
  9
$USERI4
 70
    0
  9
$USERI5
 70
    0
  9
$USERR1
 40
0
  9
$USERR2
 40
0
  9
$USERR3
 40
0
  9
$USERR4
 40
0
  9
$USERR5
 40
0
  9
$WORLDVIEW
 70
    1
  9
$SHADEDGE
 70
    3
  9
$SHADEDIF
 70
   70
  9
$TILEMODE
 70
    1
  9
$MAXACTVP
 70
   64
  9
$PINSBASE
 10
0
 20
0
 30
0
  9
$PLIMCHECK
 70
    0
  9
$PEXTMIN
 10
0
 20
0
 30
0
  9
$PEXTMAX
 10
0
 20
0
 30
0
  9
$SNAPSTYLE
 70
    0
  9
$PLIMMIN
 10
0
 20
0
  9
$PLIMMAX
 10
297
 20
210
  9
$UNITMODE
 70
    0
  9
$VISRETAIN
 70
    1
  9
$PLINEGEN
 70
    0
  9
$PSLTSCALE
 70
    1
  9
$TREEDEPTH
 70
 3020
  9
$CMLSTYLE
  2
Standard
  9
$CMLJUST
 70
    0
  9
$CMLSCALE
 40
20
  9
$PROXYGRAPHICS
 70
    1
  9
$MEASUREMENT
 70
    1
  9
$CELWEIGHT
370
   -1
  9
$ENDCAPS
280
    0
  9
$JOINSTYLE
280
    0
  9
$LWDISPLAY
290
    0
  9
$INSUNITS
 70
    4
  9
$HYPERLINKBASE
  1

  9
$STYLESHEET
  1

  9
$XEDIT
290
    1
  9
$CEPSNTYPE
380
    0
  9
$PSTYLEMODE
290
    1
  9
$EXTNAMES
290
    1
  9
$PSVPSCALE
 40
1
  9
$OLESTARTUP
290
    0
  9
$SORTENTS
280
  127
  9
$INDEXCTL
280
    0
  9
$HIDETEXT
280
    1
  9
$XCLIPFRAME
290
    0
  9
$HALOGAP
280
    0
  9
$OBSCOLOR
 70
  257
  9
$OBSLTYPE
280
    0
  9
$INTERSECTIONDISPLAY
280
    0
  9
$INTERSECTIONCOLOR
 70
  257
  9
$DIMASSOC
280
    1
  9
$PROJECTNAME
  1

  9
$CAMERADISPLAY
290
    0
  9
$LENSLENGTH
 40
50
  9
$CAMERAHEIGHT
 40
0
  9
$STEPSPERSEC
 40
2
  9
$STEPSIZE
 40
50
  9
$3DDWFPREC
 40
2
  9
$PSOLWIDTH
 40
5
  9
$PSOLHEIGHT
 40
80
  9
$LOFTANG1
 40
1.570796326794897
  9
$LOFTANG2
 40
1.570796326794897
  9
$LOFTMAG1
 40
0
  9
$LOFTMAG2
 40
0
  9
$LOFTPARAM
 70
    7
  9
$LOFTNORMALS
280
    1
  9
$LATITUDE
 40
1
  9
$LONGITUDE
 40
1
  9
$NORTHDIRECTION
 40
0
  9
$TIMEZONE
 70
-8000
  9
$LIGHTGLYPHDISPLAY
280
    1
  9
$TILEMODELIGHTSYNCH
280
    1
  9
$SOLIDHIST
280
    1
  9
$SHOWHIST
280
    1
  9
$DWFFRAME
280
    2
  9
$DGNFRAME
280
    0
  9
$REALWORLDSCALE
290
    1
  9
$INTERFERECOLOR
 62
    1
  9
$CSHADOW
280
    0
  9
$SHADOWPLANELOCATION
 40
0
  0
ENDSEC
  0
SECTION
  2
CLASSES
  0
ENDSEC
  0
SECTION
  2
TABLES
  0
TABLE
  2
VPORT
  5
8
330
0
100
AcDbSymbolTable
 70
    1
  0
VPORT
  5
31
330
2
100
AcDbSymbolTableRecord
100
AcDbViewportTableRecord
  2
*ACTIVE
 70
    0
 10
0
 20
0
 11
1
 21
1
 12
63.05154441842359
 22
40.38888966304714
 13
0
 23
0
 14
10
 24
10
 15
10
 25
10
 16
0
 26
0
 36
1
 17
0
 27
0
 37
0
 40
127.4493851589488
 41
1.735915492957746
 42
50
 43
0
 44
0
 50
0
 51
0
 71
    0
 72
  100
 73
    1
 74
    3
 75
    0
 76
    1
 77
    0
 78
    0
281
    0
 65
    1
110
0
120
0
130
0
111
1
121
0
131
0
112
0
122
1
132
0
 79
    0
146
0
348
10020
 60
    7
 61
    5
292
1
282
    1
141
0
142
0
 63
  250
421
3358443
  0
ENDTAB
  0
TABLE
  2
LTYPE
  5
5
330
0
100
AcDbSymbolTable
 70
    4
  0
LTYPE
  5
14
330
5
100
AcDbSymbolTableRecord
100
AcDbLinetypeTableRecord
  2
ByBlock
 70
    0
  3

 72
   65
 73
    0
 40
0
  0
LTYPE
  5
15
330
5
100
AcDbSymbolTableRecord
100
AcDbLinetypeTableRecord
  2
ByLayer
 70
    0
  3

 72
   65
 73
    0
 40
0
  0
LTYPE
  5
16
330
5
100
AcDbSymbolTableRecord
100
AcDbLinetypeTableRecord
  2
Continuous
 70
    0
  3
Solid line
 72
   65
 73
    0
 40
0
  0
LTYPE
  5
32
330
5
100
AcDbSymbolTableRecord
100
AcDbLinetypeTableRecord
  2
DOT
 70
    0
  3
Dot . . . . . . . . . . . . . . . . . . . . . .
 72
   65
 73
    2
 40
6.35
 49
0
 74
    0
 49
-6.35
 74
    0
  0
LTYPE
  5
33
330
5
100
AcDbSymbolTableRecord
100
AcDbLinetypeTableRecord
  2
DOTTINY
 70
    0
  3
Dot (.15x) .....................................
 72
   65
 73
    2
 40
0.9525
 49
0
 74
    0
 49
-0.9525
 74
    0
  0
LTYPE
  5
34
330
5
100
AcDbSymbolTableRecord
100
AcDbLinetypeTableRecord
  2
DOT2
 70
    0
  3
Dot (.5x) .....................................
 72
   65
 73
    2
 40
3.175
 49
0
 74
    0
 49
-3.175
 74
    0
  0
LTYPE
  5
35
330
5
100
AcDbSymbolTableRecord
100
AcDbLinetypeTableRecord
  2
DOTX2
 70
    0
  3
Dot (2x) .  .  .  .  .  .  .  .  .  .  .  .  .
 72
   65
 73
    2
 40
12.7
 49
0
 74
    0
 49
-12.7
 74
    0
  0
LTYPE
  5
36
330
5
100
AcDbSymbolTableRecord
100
AcDbLinetypeTableRecord
  2
DASHED
 70
    0
  3
Dashed _ _ _ _ _ _ _ _ _ _ _ _ _ _ _ _ _
 72
   65
 73
    2
 40
19.05
 49
12.7
 74
    0
 49
-6.35
 74
    0
  0
LTYPE
  5
37
330
5
100
AcDbSymbolTableRecord
100
AcDbLinetypeTableRecord
  2
DASHEDTINY
 70
    0
  3
Dashed (.15x) _ _ _ _ _ _ _ _ _ _ _ _ _ _ _ _ _
 72
   65
 73
    2
 40
2.8575
 49
1.905
 74
    0
 49
-0.9525
 74
    0
  0
LTYPE
  5
38
330
5
100
AcDbSymbolTableRecord
100
AcDbLinetypeTableRecord
  2
DASHED2
 70
    0
  3
Dashed (.5x) _ _ _ _ _ _ _ _ _ _ _ _ _ _ _ _ _
 72
   65
 73
    2
 40
9.524999999999999
 49
6.35
 74
    0
 49
-3.175
 74
    0
  0
LTYPE
  5
39
330
5
100
AcDbSymbolTableRecord
100
AcDbLinetypeTableRecord
  2
DASHEDX2
 70
    0
  3
Dashed (2x) ____  ____  ____  ____  ____  ___
 72
   65
 73
    2
 40
38.09999999999999
 49
25.4
 74
    0
 49
-12.7
 74
    0
  0
LTYPE
  5
3A
330
5
100
AcDbSymbolTableRecord
100
AcDbLinetypeTableRecord
  2
DASHDOT
 70
    0
  3
Dash dot __ . __ . __ . __ . __ . __ . __ . __
 72
   65
 73
    4
 40
25.4
 49
12.7
 74
    0
 49
-6.35
 74
    0
 49
0
 74
    0
 49
-6.35
 74
    0
  0
LTYPE
  5
3B
330
5
100
AcDbSymbolTableRecord
100
AcDbLinetypeTableRecord
  2
DASHDOTTINY
 70
    0
  3
Dash dot (.15x) _._._._._._._._._._._._._._._.
 72
   65
 73
    4
 40
3.81
 49
1.905
 74
    0
 49
-0.9525
 74
    0
 49
0
 74
    0
 49
-0.9525
 74
    0
  0
LTYPE
  5
3C
330
5
100
AcDbSymbolTableRecord
100
AcDbLinetypeTableRecord
  2
DASHDOT2
 70
    0
  3
Dash dot (.5x) _._._._._._._._._._._._._._._.
 72
   65
 73
    4
 40
12.7
 49
6.35
 74
    0
 49
-3.175
 74
    0
 49
0
 74
    0
 49
-3.175
 74
    0
  0
LTYPE
  5
3D
330
5
100
AcDbSymbolTableRecord
100
AcDbLinetypeTableRecord
  2
DASHDOTX2
 70
    0
  3
Dash dot (2x) ____  .  ____  .  ____  .  ___
 72
   65
 73
    4
 40
50.8
 49
25.4
 74
    0
 49
-12.7
 74
    0
 49
0
 74
    0
 49
-12.7
 74
    0
  0
LTYPE
  5
3E
330
5
100
AcDbSymbolTableRecord
100
AcDbLinetypeTableRecord
  2
DIVIDE
 70
    0
  3
Divide ____ . . ____ . . ____ . . ____ . . ____
 72
   65
 73
    6
 40
31.75
 49
12.7
 74
    0
 49
-6.35
 74
    0
 49
0
 74
    0
 49
-6.35
 74
    0
 49
0
 74
    0
 49
-6.35
 74
    0
  0
LTYPE
  5
3F
330
5
100
AcDbSymbolTableRecord
100
AcDbLinetypeTableRecord
  2
DIVIDETINY
 70
    0
  3
Divide (.15x) __..__..__..__..__..__..__..__.._
 72
   65
 73
    6
 40
4.7625
 49
1.905
 74
    0
 49
-0.9525
 74
    0
 49
0
 74
    0
 49
-0.9525
 74
    0
 49
0
 74
    0
 49
-0.9525
 74
    0
  0
LTYPE
  5
40
330
5
100
AcDbSymbolTableRecord
100
AcDbLinetypeTableRecord
  2
DIVIDE2
 70
    0
  3
Divide (.5x) __..__..__..__..__..__..__..__.._
 72
   65
 73
    6
 40
15.875
 49
6.35
 74
    0
 49
-3.175
 74
    0
 49
0
 74
    0
 49
-3.175
 74
    0
 49
0
 74
    0
 49
-3.175
 74
    0
  0
LTYPE
  5
41
330
5
100
AcDbSymbolTableRecord
100
AcDbLinetypeTableRecord
  2
DIVIDEX2
 70
    0
  3
Divide (2x) ________  .  .  ________  .  .  _
 72
   65
 73
    6
 40
63.5
 49
25.4
 74
    0
 49
-12.7
 74
    0
 49
0
 74
    0
 49
-12.7
 74
    0
 49
0
 74
    0
 49
-12.7
 74
    0
  0
LTYPE
  5
42
330
5
100
AcDbSymbolTableRecord
100
AcDbLinetypeTableRecord
  2
BORDER
 70
    0
  3
Border __ __ . __ __ . __ __ . __ __ . __ __ .
 72
   65
 73
    6
 40
44.45
 49
12.7
 74
    0
 49
-6.35
 74
    0
 49
12.7
 74
    0
 49
-6.35
 74
    0
 49
0
 74
    0
 49
-6.35
 74
    0
  0
LTYPE
  5
43
330
5
100
AcDbSymbolTableRecord
100
AcDbLinetypeTableRecord
  2
BORDERTINY
 70
    0
  3
Border (.15x) __.__.__.__.__.__.__.__.__.__.__.
 72
   65
 73
    6
 40
6.6675
 49
1.905
 74
    0
 49
-0.9525
 74
    0
 49
1.905
 74
    0
 49
-0.9525
 74
    0
 49
0
 74
    0
 49
-0.9525
 74
    0
  0
LTYPE
  5
44
330
5
100
AcDbSymbolTableRecord
100
AcDbLinetypeTableRecord
  2
BORDER2
 70
    0
  3
Border (.5x) __.__.__.__.__.__.__.__.__.__.__.
 72
   65
 73
    6
 40
22.225
 49
6.35
 74
    0
 49
-3.175
 74
    0
 49
6.35
 74
    0
 49
-3.175
 74
    0
 49
0
 74
    0
 49
-3.175
 74
    0
  0
LTYPE
  5
45
330
5
100
AcDbSymbolTableRecord
100
AcDbLinetypeTableRecord
  2
BORDERX2
 70
    0
  3
Border (2x) ____  ____  .  ____  ____  .  ___
 72
   65
 73
    6
 40
88.89999999999999
 49
25.4
 74
    0
 49
-12.7
 74
    0
 49
25.4
 74
    0
 49
-12.7
 74
    0
 49
0
 74
    0
 49
-12.7
 74
    0
  0
LTYPE
  5
46
330
5
100
AcDbSymbolTableRecord
100
AcDbLinetypeTableRecord
  2
CENTER
 70
    0
  3
Center ____ _ ____ _ ____ _ ____ _ ____ _ ____
 72
   65
 73
    4
 40
50.8
 49
31.75
 74
    0
 49
-6.35
 74
    0
 49
6.35
 74
    0
 49
-6.35
 74
    0
  0
LTYPE
  5
47
330
5
100
AcDbSymbolTableRecord
100
AcDbLinetypeTableRecord
  2
CENTERTINY
 70
    0
  3
Center (.15x) ___ _ ___ _ ___ _ ___ _ ___ _ ___
 72
   65
 73
    4
 40
7.619999999999999
 49
4.7625
 74
    0
 49
-0.9525
 74
    0
 49
0.9525
 74
    0
 49
-0.9525
 74
    0
  0
LTYPE
  5
48
330
5
100
AcDbSymbolTableRecord
100
AcDbLinetypeTableRecord
  2
CENTER2
 70
    0
  3
Center (.5x) ___ _ ___ _ ___ _ ___ _ ___ _ ___
 72
   65
 73
    4
 40
28.575
 49
19.05
 74
    0
 49
-3.175
 74
    0
 49
3.175
 74
    0
 49
-3.175
 74
    0
  0
LTYPE
  5
49
330
5
100
AcDbSymbolTableRecord
100
AcDbLinetypeTableRecord
  2
CENTERX2
 70
    0
  3
Center (2x) ________  __  ________  __  _____
 72
   65
 73
    4
 40
101.6
 49
63.5
 74
    0
 49
-12.7
 74
    0
 49
12.7
 74
    0
 49
-12.7
 74
    0
  0
ENDTAB
  0
TABLE
  2
LAYER
  5
2
330
0
100
AcDbSymbolTable
 70
    1
  0
LAYER
  5
10
330
2
100
AcDbSymbolTableRecord
100
AcDbLayerTableRecord
  2
0
 70
    0
 62
    7
  6
CONTINUOUS
370
    0
390
F
  0
LAYER
  5
4A
330
2
100
AcDbSymbolTableRecord
100
AcDbLayerTableRecord
  2
Guides
 70
    0
 62
    3
  6
CONTINUOUS
370
    0
390
F
1001
LibreCad
1070
    1
  0
ENDTAB
  0
TABLE
  2
STYLE
  5
3
330
0
100
AcDbSymbolTable
 70
    3
  0
STYLE
  5
4B
330
2
100
AcDbSymbolTableRecord
100
AcDbTextStyleTableRecord
  2
Standard
 70
    0
 40
0
 41
1
 50
0
 71
    0
 42
1
  3
txt
  4

  0
ENDTAB
  0
TABLE
  2
VIEW
  5
6
330
0
100
AcDbSymbolTable
 70
    0
  0
ENDTAB
  0
TABLE
  2
UCS
  5
7
330
0
100
AcDbSymbolTable
 70
    0
  0
ENDTAB
  0
TABLE
  2
APPID
  5
9
330
0
100
AcDbSymbolTable
 70
    1
  0
APPID
  5
12
330
9
100
AcDbSymbolTableRecord
100
AcDbRegAppTableRecord
  2
ACAD
 70
    0
  0
APPID
  5
4C
330
9
100
AcDbSymbolTableRecord
100
AcDbRegAppTableRecord
  2
LibreCad
 70
    0
  0
ENDTAB
  0
TABLE
  2
DIMSTYLE
  5
A
330
0
100
AcDbSymbolTable
 70
    1
100
AcDbDimStyleTable
 71
    1
  0
DIMSTYLE
105
4D
330
A
100
AcDbSymbolTableRecord
100
AcDbDimStyleTableRecord
  2
Standard
 70
    0
 40
1
 41
2.5
 42
0.625
 43
0.38
 44
1.25
 45
0
 46
0
 47
0
 48
0
 49
1
140
2.5
141
0.09
142
0
143
25.4
144
1
145
0
146
1
147
0.625
148
0
 71
    0
 72
    0
 73
    0
 74
    1
 75
    0
 76
    0
 77
    0
 78
    1
 79
    0
170
    0
171
    2
172
    0
173
    0
174
    0
175
    0
176
    0
177
    0
178
    0
179
    0
271
    2
272
    4
273
    2
274
    2
275
    0
276
    0
277
    2
278
    0
279
    0
280
    0
281
    0
282
    0
283
    1
284
    0
285
    0
286
    0
288
    0
289
    3
340
standard
341

371
   -2
372
   -2
  0
ENDTAB
  0
TABLE
  2
BLOCK_RECORD
  5
1
330
0
100
AcDbSymbolTable
 70
    2
  0
BLOCK_RECORD
  5
1F
330
1
100
AcDbSymbolTableRecord
100
AcDbBlockTableRecord
  2
*Model_Space
 70
    0
280
    1
281
    0
  0
BLOCK_RECORD
  5
1E
330
1
100
AcDbSymbolTableRecord
100
AcDbBlockTableRecord
  2
*Paper_Space
 70
    0
280
    1
281
    0
  0
BLOCK_RECORD
  5
4E
330
1
100
AcDbSymbolTableRecord
100
AcDbBlockTableRecord
  2
*D1
 70
    0
280
    1
281
    0
  0
BLOCK_RECORD
  5
51
330
1
100
AcDbSymbolTableRecord
100
AcDbBlockTableRecord
  2
*D6
 70
    0
280
    1
281
    0
  0
BLOCK_RECORD
  5
54
330
1
100
AcDbSymbolTableRecord
100
AcDbBlockTableRecord
  2
*D5
 70
    0
280
    1
281
    0
  0
BLOCK_RECORD
  5
57
330
1
100
AcDbSymbolTableRecord
100
AcDbBlockTableRecord
  2
*D7
 70
    0
280
    1
281
    0
  0
BLOCK_RECORD
  5
5A
330
1
100
AcDbSymbolTableRecord
100
AcDbBlockTableRecord
  2
*D2
 70
    0
280
    1
281
    0
  0
BLOCK_RECORD
  5
5D
330
1
100
AcDbSymbolTableRecord
100
AcDbBlockTableRecord
  2
*D4
 70
    0
280
    1
281
    0
  0
BLOCK_RECORD
  5
60
330
1
100
AcDbSymbolTableRecord
100
AcDbBlockTableRecord
  2
*D10
 70
    0
280
    1
281
    0
  0
BLOCK_RECORD
  5
63
330
1
100
AcDbSymbolTableRecord
100
AcDbBlockTableRecord
  2
*D3
 70
    0
280
    1
281
    0
  0
BLOCK_RECORD
  5
66
330
1
100
AcDbSymbolTableRecord
100
AcDbBlockTableRecord
  2
*D9
 70
    0
280
    1
281
    0
  0
BLOCK_RECORD
  5
69
330
1
100
AcDbSymbolTableRecord
100
AcDbBlockTableRecord
  2
*D8
 70
    0
280
    1
281
    0
  0
ENDTAB
  0
ENDSEC
  0
SECTION
  2
BLOCKS
  0
BLOCK
  5
20
330
1F
100
AcDbEntity
  8
0
100
AcDbBlockBegin
  2
*Model_Space
 70
    0
 10
0
 20
0
 30
0
  3
*Model_Space
  1

  0
ENDBLK
  5
21
330
1F
100
AcDbEntity
  8
0
100
AcDbBlockEnd
  0
BLOCK
  5
1C
330
1B
100
AcDbEntity
  8
0
100
AcDbBlockBegin
  2
*Paper_Space
 70
    0
 10
0
 20
0
 30
0
  3
*Paper_Space
  1

  0
ENDBLK
  5
1D
330
1F
100
AcDbEntity
  8
0
100
AcDbBlockEnd
  0
BLOCK
  5
4F
330
4E
100
AcDbEntity
  8
0
100
AcDbBlockBegin
  2
*D1
 70
    1
 10
0
 20
0
  3
*D1
  1

  0
LINE
  5
6C
100
AcDbEntity
  8
Guides
  6
ByBlock
 62
    0
370
   -2
100
AcDbLine
 10
-46.66916920844223
 20
-29.4253086530305
 11
-60.11378533341264
 21
-30.64690484334287
  0
SOLID
  5
6D
100
AcDbEntity
  8
Guides
  6
ByBlock
 62
    0
370
   -2
100
AcDbTrace
 10
-51.64865666213498
 20
-29.87775168647952
 30
0
 11
-49.19658195395681
 21
-29.23695332364609
 31
0
 12
-49.12124391662039
 22
-30.06610701586394
 32
0
 13
-49.12124391662039
 23
-30.06610701586394
 33
0
  0
SOLID
  5
6E
100
AcDbEntity
  8
Guides
  6
ByBlock
 62
    0
370
   -2
100
AcDbTrace
 10
-55.1342978797199
 20
-30.19446180989384
 30
0
 11
-57.58637258789807
 21
-30.83526017272728
 31
0
 12
-57.66171062523448
 22
-30.00610648050943
 32
0
 13
-57.66171062523448
 23
-30.00610648050943
 33
0
  0
MTEXT
  5
6F
100
AcDbEntity
  8
Guides
  6
CONTINUOUS
 62
    0
370
   -2
100
AcDbMText
 10
-46.35471851020978
 20
-27.51401334075483
 30
0
 40
2.5
 41
9.722222222222532
 71
    5
 72
    1
  1
3.5000
  7
standard
210
0
220
0
230
1
 50
5.191716889888005
 73
    2
 44
1
  0
ENDBLK
  5
50
330
4E
100
AcDbEntity
  8
0
100
AcDbBlockEnd
  0
BLOCK
  5
52
330
51
100
AcDbEntity
  8
0
100
AcDbBlockBegin
  2
*D6
 70
    1
 10
0
 20
0
  3
*D6
  1

  0
LINE
  5
70
100
AcDbEntity
  8
Guides
  6
ByBlock
 62
    0
370
   -2
100
AcDbLine
 10
-46.64376133275586
 20
29.88716008181809
 11
-60.13913866724413
 21
30.24041721165462
  0
SOLID
  5
71
100
AcDbEntity
  8
Guides
  6
ByBlock
 62
    0
370
   -2
100
AcDbTrace
 10
-51.64204923441818
 20
30.01799605583162
 30
0
 11
-49.1320122818537
 21
30.36872018254358
 31
0
 12
-49.15379828532034
 22
29.53643595510612
 32
0
 13
-49.15379828532034
 23
29.53643595510612
 33
0
  0
SOLID
  5
72
100
AcDbEntity
  8
Guides
  6
ByBlock
 62
    0
370
   -2
100
AcDbTrace
 10
-55.1408507655818
 20
30.10958123764109
 30
0
 11
-57.65088771814629
 21
29.75885711092913
 31
0
 12
-57.62910171467964
 22
30.59114133836658
 32
0
 13
-57.62910171467964
 23
30.59114133836658
 33
0
  0
MTEXT
  5
73
100
AcDbEntity
  8
Guides
  6
CONTINUOUS
 62
    0
370
   -2
100
AcDbMText
 10
-46.10875318539458
 20
31.74879788080125
 30
0
 40
2.5
 41
9.722222222222532
 71
    5
 72
    1
  1
3.5000
  7
standard
210
0
220
0
230
1
 50
358.5005590261745
 73
    2
 44
1
  0
ENDBLK
  5
53
330
51
100
AcDbEntity
  8
0
100
AcDbBlockEnd
  0
BLOCK
  5
55
330
54
100
AcDbEntity
  8
0
100
AcDbBlockBegin
  2
*D5
 70
    1
 10
0
 20
0
  3
*D5
  1

  0
LINE
  5
74
100
AcDbEntity
  8
Guides
  6
ByBlock
 62
    0
370
   -2
100
AcDbLine
 10
-46.64194112288392
 20
15.04085293034604
 11
-60.14105887711605
 21
14.88651609943764
  0
SOLID
  5
75
100
AcDbEntity
  8
Guides
  6
ByBlock
 62
    0
370
   -2
100
AcDbTrace
 10
-51.64161436519212
 20
14.9836911411207
 30
0
 11
-49.14653685921109
 21
15.42852948866343
 31
0
 12
-49.13701862886495
 22
14.59601458280331
 32
0
 13
-49.13701862886495
 23
14.59601458280331
 33
0
  0
SOLID
  5
76
100
AcDbEntity
  8
Guides
  6
ByBlock
 62
    0
370
   -2
100
AcDbTrace
 10
-55.14138563480785
 20
14.94367788866297
 30
0
 11
-57.63646314078888
 21
14.49883954112025
 31
0
 12
-57.64598137113502
 22
15.33135444698036
 32
0
 13
-57.64598137113502
 23
15.33135444698036
 33
0
  0
MTEXT
  5
77
100
AcDbEntity
  8
Guides
  6
CONTINUOUS
 62
    0
370
   -2
100
AcDbMText
 10
-46.17729745084108
 20
16.9212877923863
 30
0
 40
2.5
 41
9.722222222222532
 71
    5
 72
    1
  1
3.5000
  7
standard
210
0
220
0
230
1
 50
0.6550401237610215
 73
    2
 44
1
  0
ENDBLK
  5
56
330
54
100
AcDbEntity
  8
0
100
AcDbBlockEnd
  0
BLOCK
  5
58
330
57
100
AcDbEntity
  8
0
100
AcDbBlockBegin
  2
*D7
 70
    1
 10
0
 20
0
  3
*D7
  1

  0
LINE
  5
78
100
AcDbEntity
  8
Guides
  6
ByBlock
 62
    0
370
   -2
100
AcDbLine
 10
32.15812288381986
 20
2.935129226802505
 11
18.65887711618014
 21
2.792427773197475
  0
SOLID
  5
79
100
AcDbEntity
  8
Guides
  6
ByBlock
 62
    0
370
   -2
100
AcDbTrace
 10
27.15840222913848
 20
2.882276836578419
 30
0
 11
29.65386222864379
 21
3.32496443202923
 31
0
 12
29.66266288431455
 22
2.492441631351694
 32
0
 13
29.66266288431455
 23
2.492441631351694
 33
0
  0
SOLID
  5
7A
100
AcDbEntity
  8
Guides
  6
ByBlock
 62
    0
370
   -2
100
AcDbTrace
 10
23.65859777086152
 20
2.845280163421561
 30
0
 11
21.16313777135621
 21
2.40259256797075
 31
0
 12
21.15433711568545
 22
3.235115368648286
 32
0
 13
21.15433711568545
 23
3.235115368648286
 33
0
  0
MTEXT
  5
7B
100
AcDbEntity
  8
Guides
  6
CONTINUOUS
 62
    0
370
   -2
100
AcDbMText
 10
32.62438719002445
 20
4.815162899135365
 30
0
 40
2.5
 41
9.722222222222532
 71
    5
 72
    1
  1
3.5000
  7
standard
210
0
220
0
230
1
 50
0.6056550585727466
 73
    2
 44
1
  0
ENDBLK
  5
59
330
57
100
AcDbEntity
  8
0
100
AcDbBlockEnd
  0
BLOCK
  5
5B
330
5A
100
AcDbEntity
  8
0
100
AcDbBlockBegin
  2
*D2
 70
    1
 10
0
 20
0
  3
*D2
  1

  0
LINE
  5
7C
100
AcDbEntity
  8
Guides
  6
ByBlock
 62
    0
370
   -2
100
AcDbLine
 10
-46.64154222561246
 20
-17.10091491444698
 11
-60.14135777438756
 21
-17.17148508555294
  0
SOLID
  5
7D
100
AcDbEntity
  8
Guides
  6
ByBlock
 62
    0
370
   -2
100
AcDbTrace
 10
-51.64147391034398
 20
-17.1270520148566
 30
0
 11
-49.14368416275806
 21
-16.69770449459858
 31
0
 12
-49.13933197319839
 22
-17.530262434705
 32
0
 13
-49.13933197319839
 23
-17.530262434705
 33
0
  0
SOLID
  5
7E
100
AcDbEntity
  8
Guides
  6
ByBlock
 62
    0
370
   -2
100
AcDbTrace
 10
-55.14142608965604
 20
-17.14534798514332
 30
0
 11
-57.63921583724196
 21
-17.57469550540134
 31
0
 12
-57.64356802680164
 22
-16.74213756529492
 32
0
 13
-57.64356802680164
 23
-16.74213756529492
 33
0
  0
MTEXT
  5
7F
100
AcDbEntity
  8
Guides
  6
CONTINUOUS
 62
    0
370
   -2
100
AcDbMText
 10
-46.16523916891701
 20
-15.2233994256884
 30
0
 40
2.5
 41
9.722222222222532
 71
    5
 72
    1
  1
3.5000
  7
standard
210
0
220
0
230
1
 50
0.2995104725132062
 73
    2
 44
1
  0
ENDBLK
  5
5C
330
5A
100
AcDbEntity
  8
0
100
AcDbBlockEnd
  0
BLOCK
  5
5E
330
5D
100
AcDbEntity
  8
0
100
AcDbBlockBegin
  2
*D4
 70
    1
 10
0
 20
0
  3
*D4
  1

  0
LINE
  5
80
100
AcDbEntity
  8
Guides
  6
ByBlock
 62
    0
370
   -2
100
AcDbLine
 10
-46.64267359601556
 20
2.736775268504443
 11
-60.14028248130683
 21
2.990850807873849
  0
SOLID
  5
81
100
AcDbEntity
  8
Guides
  6
ByBlock
 62
    0
370
   -2
100
AcDbTrace
 10
-51.64178799797529
 20
2.830877320122742
 30
0
 11
-49.13439614892469
 21
3.20003721991101
 31
0
 12
-49.15006544506615
 22
2.367615368716176
 32
0
 13
-49.15006544506615
 23
2.367615368716176
 33
0
  0
SOLID
  5
82
100
AcDbEntity
  8
Guides
  6
ByBlock
 62
    0
370
   -2
100
AcDbTrace
 10
-55.1411680793471
 20
2.89674875625555
 30
0
 11
-57.6485599283977
 21
2.527588856467282
 31
0
 12
-57.63289063225623
 22
3.360010707662116
 32
0
 13
-57.63289063225623
 23
3.360010707662116
 33
0
  0
MTEXT
  5
83
100
AcDbEntity
  8
Guides
  6
CONTINUOUS
 62
    0
370
   -2
100
AcDbMText
 10
-46.1213603153569
 20
4.602294358665339
 30
0
 40
2.5
 41
9.722222222222532
 71
    5
 72
    1
  1
3.5000
  7
standard
210
0
220
0
230
1
 50
358.921606250772
 73
    2
 44
1
  0
ENDBLK
  5
5F
330
5D
100
AcDbEntity
  8
0
100
AcDbBlockEnd
  0
BLOCK
  5
61
330
60
100
AcDbEntity
  8
0
100
AcDbBlockBegin
  2
*D10
 70
    1
 10
0
 20
0
  3
*D10
  1

  0
LINE
  5
84
100
AcDbEntity
  8
Guides
  6
ByBlock
 62
    0
370
   -2
100
AcDbLine
 10
28.45771422327411
 20
15.03742608644504
 11
21.9593857767259
 21
14.89002391284373
  0
SOLID
  5
85
100
AcDbEntity
  8
Guides
  6
ByBlock
 62
    0
370
   -2
100
AcDbTrace
 10
28.45771422327411
 20
15.03742608644504
 30
0
 11
25.96779732281597
 21
14.56455533760349
 31
0
 12
25.94891693407979
 22
15.39691054790097
 32
0
 13
25.94891693407979
 23
15.39691054790097
 33
0
  0
SOLID
  5
86
100
AcDbEntity
  8
Guides
  6
ByBlock
 62
    0
370
   -2
100
AcDbTrace
 10
21.9593857767259
 20
14.89002391284373
 30
0
 11
24.44930267718404
 21
15.36289466168529
 31
0
 12
24.46818306592023
 22
14.5305394513878
 32
0
 13
24.46818306592023
 23
14.5305394513878
 33
0
  0
MTEXT
  5
87
100
AcDbEntity
  8
Guides
  6
CONTINUOUS
 62
    0
370
   -2
100
AcDbMText
 10
33.89989465692889
 20
17.0363538617795
 30
0
 40
2.5
 41
9.722222222222532
 71
    5
 72
    1
  1
6.5000
  7
standard
210
0
220
0
230
1
 50
1.29942253367644
 73
    2
 44
1
  0
ENDBLK
  5
62
330
60
100
AcDbEntity
  8
0
100
AcDbBlockEnd
  0
BLOCK
  5
64
330
63
100
AcDbEntity
  8
0
100
AcDbBlockBegin
  2
*D3
 70
    1
 10
0
 20
0
  3
*D3
  1

  0
LINE
  5
88
100
AcDbEntity
  8
Guides
  6
ByBlock
 62
    0
370
   -2
100
AcDbLine
 10
-46.64182673692793
 20
-6.869604239245635
 11
-60.14117326307204
 21
-7.002432576134921
  0
SOLID
  5
89
100
AcDbEntity
  8
Guides
  6
ByBlock
 62
    0
370
   -2
100
AcDbTrace
 10
-51.6415847095739
 20
-6.918799919575
 30
0
 11
-49.14580160464087
 21
-6.477937572092326
 31
0
 12
-49.13760984186095
 22
-7.310466586728309
 32
0
 13
-49.13760984186095
 23
-7.310466586728309
 33
0
  0
SOLID
  5
8A
100
AcDbEntity
  8
Guides
  6
ByBlock
 62
    0
370
   -2
100
AcDbTrace
 10
-55.14141529042607
 20
-6.953236895805555
 30
0
 11
-57.6371983953591
 21
-7.394099243288229
 31
0
 12
-57.64539015813902
 22
-6.561570228652246
 32
0
 13
-57.64539015813902
 23
-6.561570228652246
 33
0
  0
MTEXT
  5
8B
100
AcDbEntity
  8
Guides
  6
CONTINUOUS
 62
    0
370
   -2
100
AcDbMText
 10
-46.17418753637737
 20
-4.98991208613804
 30
0
 40
2.5
 41
9.722222222222532
 71
    5
 72
    1
  1
3.5000
  7
standard
210
0
220
0
230
1
 50
0.5637500668546328
 73
    2
 44
1
  0
ENDBLK
  5
65
330
63
100
AcDbEntity
  8
0
100
AcDbBlockEnd
  0
BLOCK
  5
67
330
66
100
AcDbEntity
  8
0
100
AcDbBlockBegin
  2
*D9
 70
    1
 10
0
 20
0
  3
*D9
  1

  0
LINE
  5
8C
100
AcDbEntity
  8
Guides
  6
ByBlock
 62
    0
370
   -2
100
AcDbLine
 10
28.45856356718677
 20
30.08286632660968
 11
21.95867303069126
 21
30.04514347443493
  0
SOLID
  5
8D
100
AcDbEntity
  8
Guides
  6
ByBlock
 62
    0
370
   -2
100
AcDbTrace
 10
28.45856356718677
 20
30.08286632660968
 30
0
 11
25.9610215830897
 21
29.65207988999694
 31
0
 12
25.95618975397961
 22
30.48463518462646
 32
0
 13
25.95618975397961
 23
30.48463518462646
 33
0
  0
SOLID
  5
8E
100
AcDbEntity
  8
Guides
  6
ByBlock
 62
    0
370
   -2
100
AcDbTrace
 10
21.95867303069126
 20
30.04514347443493
 30
0
 11
24.45621501478833
 21
30.47592991104767
 31
0
 12
24.46104684389842
 22
29.64337461641815
 32
0
 13
24.46104684389842
 23
29.64337461641815
 33
0
  0
MTEXT
  5
8F
100
AcDbEntity
  8
Guides
  6
CONTINUOUS
 62
    0
370
   -2
100
AcDbMText
 10
33.93370069725558
 20
31.98967348266934
 30
0
 40
2.5
 41
9.722222222222532
 71
    5
 72
    1
  1
6.5000
  7
standard
210
0
220
0
230
1
 50
0.3325188236484115
 73
    2
 44
1
  0
ENDBLK
  5
68
330
66
100
AcDbEntity
  8
0
100
AcDbBlockEnd
  0
BLOCK
  5
6A
330
69
100
AcDbEntity
  8
0
100
AcDbBlockBegin
  2
*D8
 70
    1
 10
0
 20
0
  3
*D8
  1

  0
LINE
  5
90
100
AcDbEntity
  8
Guides
  6
ByBlock
 62
    0
370
   -2
100
AcDbLine
 10
32.15847347721621
 20
-6.955127390909161
 11
18.65852652278379
 21
-6.917282609090852
  0
SOLID
  5
91
100
AcDbEntity
  8
Guides
  6
ByBlock
 62
    0
370
   -2
100
AcDbTrace
 10
27.15849312372272
 20
-6.941110805050528
 30
0
 11
29.65965027839893
 21
-6.531836075914851
 31
0
 12
29.65731632254001
 22
-7.364402120044836
 32
0
 13
29.65731632254001
 23
-7.364402120044836
 33
0
  0
SOLID
  5
92
100
AcDbEntity
  8
Guides
  6
ByBlock
 62
    0
370
   -2
100
AcDbTrace
 10
23.65850687627728
 20
-6.931299194949485
 30
0
 11
21.15734972160107
 21
-7.340573924085161
 31
0
 12
21.15968367746
 22
-6.508007879955175
 32
0
 13
21.15968367746
 23
-6.508007879955175
 33
0
  0
MTEXT
  5
93
100
AcDbEntity
  8
Guides
  6
CONTINUOUS
 62
    0
370
   -2
100
AcDbMText
 10
32.64983889794745
 20
-5.081497481974249
 30
0
 40
2.5
 41
9.722222222222532
 71
    5
 72
    1
  1
3.5000
  7
standard
210
0
220
0
230
1
 50
359.8393815470507
 73
    2
 44
1
  0
ENDBLK
  5
6B
330
69
100
AcDbEntity
  8
0
100
AcDbBlockEnd
  0
ENDSEC
  0
SECTION
  2
ENTITIES
  0
LINE
  5
94
100
AcDbEntity
  8
0
  6
ByLayer
 62
  256
370
   -1
100
AcDbLine
 10
27.771
 20
23.5497
 11
29.3697
 21
24.4349
  0
LINE
  5
95
100
AcDbEntity
  8
0
  6
ByLayer
 62
  256
370
   -1
100
AcDbLine
 10
29.3697
 20
24.4349
 11
30.6848
 21
25.7036
  0
LINE
  5
96
100
AcDbEntity
  8
0
  6
ByLayer
 62
  256
370
   -1
100
AcDbLine
 10
30.6848
 20
25.7036
 11
31.6266
 21
27.2696
  0
LINE
  5
97
100
AcDbEntity
  8
0
  6
ByLayer
 62
  256
370
   -1
100
AcDbLine
 10
31.6266
 20
27.2696
 11
32.1311
 21
29.0259
  0
LINE
  5
98
100
AcDbEntity
  8
0
  6
ByLayer
 62
  256
370
   -1
100
AcDbLine
 10
32.1311
 20
29.0259
 11
32.1639
 21
30.853
  0
LINE
  5
99
100
AcDbEntity
  8
0
  6
ByLayer
 62
  256
370
   -1
100
AcDbLine
 10
32.1639
 20
30.853
 11
31.7226
 21
32.6263
  0
LINE
  5
9A
100
AcDbEntity
  8
0
  6
ByLayer
 62
  256
370
   -1
100
AcDbLine
 10
31.7226
 20
32.6263
 11
30.8374
 21
34.2249
  0
LINE
  5
9B
100
AcDbEntity
  8
0
  6
ByLayer
 62
  256
370
   -1
100
AcDbLine
 10
30.8374
 20
34.2249
 11
29.5686
 21
35.54
  0
LINE
  5
9C
100
AcDbEntity
  8
0
  6
ByLayer
 62
  256
370
   -1
100
AcDbLine
 10
29.5686
 20
35.54
 11
28.0027
 21
36.4819
  0
LINE
  5
9D
100
AcDbEntity
  8
0
  6
ByLayer
 62
  256
370
   -1
100
AcDbLine
 10
28.0027
 20
36.4819
 11
26.2464
 21
36.9864
  0
LINE
  5
9E
100
AcDbEntity
  8
0
  6
ByLayer
 62
  256
370
   -1
100
AcDbLine
 10
26.2464
 20
36.9864
 11
24.4193
 21
37.0191
  0
LINE
  5
9F
100
AcDbEntity
  8
0
  6
ByLayer
 62
  256
370
   -1
100
AcDbLine
 10
24.4193
 20
37.0191
 11
22.646
 21
36.5779
  0
LINE
  5
A0
100
AcDbEntity
  8
0
  6
ByLayer
 62
  256
370
   -1
100
AcDbLine
 10
22.646
 20
36.5779
 11
21.0473
 21
35.6927
  0
LINE
  5
A1
100
AcDbEntity
  8
0
  6
ByLayer
 62
  256
370
   -1
100
AcDbLine
 10
21.0473
 20
35.6927
 11
19.7323
 21
34.4239
  0
LINE
  5
A2
100
AcDbEntity
  8
0
  6
ByLayer
 62
  256
370
   -1
100
AcDbLine
 10
19.7323
 20
34.4239
 11
18.9142
 21
33.0638
  0
LINE
  5
A3
100
AcDbEntity
  8
0
  6
ByLayer
 62
  256
370
   -1
100
AcDbLine
 10
18.9142
 20
33.0638
 11
-50.7866
 21
33.0638
  0
LINE
  5
A4
100
AcDbEntity
  8
0
  6
ByLayer
 62
  256
370
   -1
100
AcDbLine
 10
-50.7866
 20
33.0638
 11
-51.3915
 21
33.5279
  0
LINE
  5
A5
100
AcDbEntity
  8
0
  6
ByLayer
 62
  256
370
   -1
100
AcDbLine
 10
-51.3915
 20
33.5279
 11
-52.3562
 21
33.9275
  0
LINE
  5
A6
100
AcDbEntity
  8
0
  6
ByLayer
 62
  256
370
   -1
100
AcDbLine
 10
-52.3562
 20
33.9275
 11
-53.3915
 21
34.0638
  0
LINE
  5
A7
100
AcDbEntity
  8
0
  6
ByLayer
 62
  256
370
   -1
100
AcDbLine
 10
-53.3915
 20
34.0638
 11
-54.4267
 21
33.9275
  0
LINE
  5
A8
100
AcDbEntity
  8
0
  6
ByLayer
 62
  256
370
   -1
100
AcDbLine
 10
-54.4267
 20
33.9275
 11
-55.3915
 21
33.5279
  0
LINE
  5
A9
100
AcDbEntity
  8
0
  6
ByLayer
 62
  256
370
   -1
100
AcDbLine
 10
-55.3915
 20
33.5279
 11
-56.2199
 21
32.8922
  0
LINE
  5
AA
100
AcDbEntity
  8
0
  6
ByLayer
 62
  256
370
   -1
100
AcDbLine
 10
-56.2199
 20
32.8922
 11
-56.8556
 21
32.0638
  0
LINE
  5
AB
100
AcDbEntity
  8
0
  6
ByLayer
 62
  256
370
   -1
100
AcDbLine
 10
-56.8556
 20
32.0638
 11
-57.2552
 21
31.099
  0
LINE
  5
AC
100
AcDbEntity
  8
0
  6
ByLayer
 62
  256
370
   -1
100
AcDbLine
 10
-57.2552
 20
31.099
 11
-57.3915
 21
30.0638
  0
LINE
  5
AD
100
AcDbEntity
  8
0
  6
ByLayer
 62
  256
370
   -1
100
AcDbLine
 10
-57.3915
 20
30.0638
 11
-57.2552
 21
29.0285
  0
LINE
  5
AE
100
AcDbEntity
  8
0
  6
ByLayer
 62
  256
370
   -1
100
AcDbLine
 10
-57.2552
 20
29.0285
 11
-56.8556
 21
28.0638
  0
LINE
  5
AF
100
AcDbEntity
  8
0
  6
ByLayer
 62
  256
370
   -1
100
AcDbLine
 10
-56.8556
 20
28.0638
 11
-56.2199
 21
27.2354
  0
LINE
  5
B0
100
AcDbEntity
  8
0
  6
ByLayer
 62
  256
370
   -1
100
AcDbLine
 10
-56.2199
 20
27.2354
 11
-55.3915
 21
26.5997
  0
LINE
  5
B1
100
AcDbEntity
  8
0
  6
ByLayer
 62
  256
370
   -1
100
AcDbLine
 10
-55.3915
 20
26.5997
 11
-54.4267
 21
26.2001
  0
LINE
  5
B2
100
AcDbEntity
  8
0
  6
ByLayer
 62
  256
370
   -1
100
AcDbLine
 10
-54.4267
 20
26.2001
 11
-53.3915
 21
26.0638
  0
LINE
  5
B3
100
AcDbEntity
  8
0
  6
ByLayer
 62
  256
370
   -1
100
AcDbLine
 10
-53.3915
 20
26.0638
 11
-52.3562
 21
26.2001
  0
LINE
  5
B4
100
AcDbEntity
  8
0
  6
ByLayer
 62
  256
370
   -1
100
AcDbLine
 10
-52.3562
 20
26.2001
 11
-51.3915
 21
26.5997
  0
LINE
  5
B5
100
AcDbEntity
  8
0
  6
ByLayer
 62
  256
370
   -1
100
AcDbLine
 10
-51.3915
 20
26.5997
 11
-50.7866
 21
27.0638
  0
LINE
  5
B6
100
AcDbEntity
  8
0
  6
ByLayer
 62
  256
370
   -1
100
AcDbLine
 10
-50.7866
 20
27.0638
 11
18.9367
 21
27.0638
  0
LINE
  5
B7
100
AcDbEntity
  8
0
  6
ByLayer
 62
  256
370
   -1
100
AcDbLine
 10
18.9367
 20
27.0638
 11
19.5796
 21
25.9026
  0
LINE
  5
B8
100
AcDbEntity
  8
0
  6
ByLayer
 62
  256
370
   -1
100
AcDbLine
 10
19.5796
 20
25.9026
 11
20.8484
 21
24.5875
  0
LINE
  5
B9
100
AcDbEntity
  8
0
  6
ByLayer
 62
  256
370
   -1
100
AcDbLine
 10
20.8484
 20
24.5875
 11
22.4143
 21
23.6456
  0
LINE
  5
BA
100
AcDbEntity
  8
0
  6
ByLayer
 62
  256
370
   -1
100
AcDbLine
 10
22.4143
 20
23.6456
 11
24.1707
 21
23.1411
  0
LINE
  5
BB
100
AcDbEntity
  8
0
  6
ByLayer
 62
  256
370
   -1
100
AcDbLine
 10
24.1707
 20
23.1411
 11
25.9977
 21
23.1084
  0
LINE
  5
BC
100
AcDbEntity
  8
0
  6
ByLayer
 62
  256
370
   -1
100
AcDbLine
 10
25.9977
 20
23.1084
 11
27.771
 21
23.5497
  0
LINE
  5
BD
100
AcDbEntity
  8
0
  6
ByLayer
 62
  256
370
   -1
100
AcDbLine
 10
27.771
 20
8.449680000000001
 11
29.3697
 21
9.334849999999999
  0
LINE
  5
BE
100
AcDbEntity
  8
0
  6
ByLayer
 62
  256
370
   -1
100
AcDbLine
 10
29.3697
 20
9.334849999999999
 11
30.6848
 21
10.6037
  0
LINE
  5
BF
100
AcDbEntity
  8
0
  6
ByLayer
 62
  256
370
   -1
100
AcDbLine
 10
30.6848
 20
10.6037
 11
31.6266
 21
12.1696
  0
LINE
  5
C0
100
AcDbEntity
  8
0
  6
ByLayer
 62
  256
370
   -1
100
AcDbLine
 10
31.6266
 20
12.1696
 11
32.1311
 21
13.9259
  0
LINE
  5
C1
100
AcDbEntity
  8
0
  6
ByLayer
 62
  256
370
   -1
100
AcDbLine
 10
32.1311
 20
13.9259
 11
32.1639
 21
15.753
  0
LINE
  5
C2
100
AcDbEntity
  8
0
  6
ByLayer
 62
  256
370
   -1
100
AcDbLine
 10
32.1639
 20
15.753
 11
31.7226
 21
17.5263
  0
LINE
  5
C3
100
AcDbEntity
  8
0
  6
ByLayer
 62
  256
370
   -1
100
AcDbLine
 10
31.7226
 20
17.5263
 11
30.8374
 21
19.1249
  0
LINE
  5
C4
100
AcDbEntity
  8
0
  6
ByLayer
 62
  256
370
   -1
100
AcDbLine
 10
30.8374
 20
19.1249
 11
29.5686
 21
20.44
  0
LINE
  5
C5
100
AcDbEntity
  8
0
  6
ByLayer
 62
  256
370
   -1
100
AcDbLine
 10
29.5686
 20
20.44
 11
28.0027
 21
21.3819
  0
LINE
  5
C6
100
AcDbEntity
  8
0
  6
ByLayer
 62
  256
370
   -1
100
AcDbLine
 10
28.0027
 20
21.3819
 11
26.2464
 21
21.8864
  0
LINE
  5
C7
100
AcDbEntity
  8
0
  6
ByLayer
 62
  256
370
   -1
100
AcDbLine
 10
26.2464
 20
21.8864
 11
24.4193
 21
21.9191
  0
LINE
  5
C8
100
AcDbEntity
  8
0
  6
ByLayer
 62
  256
370
   -1
100
AcDbLine
 10
24.4193
 20
21.9191
 11
22.646
 21
21.4779
  0
LINE
  5
C9
100
AcDbEntity
  8
0
  6
ByLayer
 62
  256
370
   -1
100
AcDbLine
 10
22.646
 20
21.4779
 11
21.0473
 21
20.5927
  0
LINE
  5
CA
100
AcDbEntity
  8
0
  6
ByLayer
 62
  256
370
   -1
100
AcDbLine
 10
21.0473
 20
20.5927
 11
19.7323
 21
19.3239
  0
LINE
  5
CB
100
AcDbEntity
  8
0
  6
ByLayer
 62
  256
370
   -1
100
AcDbLine
 10
19.7323
 20
19.3239
 11
18.9142
 21
17.9638
  0
LINE
  5
CC
100
AcDbEntity
  8
0
  6
ByLayer
 62
  256
370
   -1
100
AcDbLine
 10
18.9142
 20
17.9638
 11
-50.7866
 21
17.9638
  0
LINE
  5
CD
100
AcDbEntity
  8
0
  6
ByLayer
 62
  256
370
   -1
100
AcDbLine
 10
-50.7866
 20
17.9638
 11
-51.3915
 21
18.4279
  0
LINE
  5
CE
100
AcDbEntity
  8
0
  6
ByLayer
 62
  256
370
   -1
100
AcDbLine
 10
-51.3915
 20
18.4279
 11
-52.3562
 21
18.8275
  0
LINE
  5
CF
100
AcDbEntity
  8
0
  6
ByLayer
 62
  256
370
   -1
100
AcDbLine
 10
-52.3562
 20
18.8275
 11
-53.3915
 21
18.9638
  0
LINE
  5
D0
100
AcDbEntity
  8
0
  6
ByLayer
 62
  256
370
   -1
100
AcDbLine
 10
-53.3915
 20
18.9638
 11
-54.4267
 21
18.8275
  0
LINE
  5
D1
100
AcDbEntity
  8
0
  6
ByLayer
 62
  256
370
   -1
100
AcDbLine
 10
-54.4267
 20
18.8275
 11
-55.3915
 21
18.4279
  0
LINE
  5
D2
100
AcDbEntity
  8
0
  6
ByLayer
 62
  256
370
   -1
100
AcDbLine
 10
-55.3915
 20
18.4279
 11
-56.2199
 21
17.7922
  0
LINE
  5
D3
100
AcDbEntity
  8
0
  6
ByLayer
 62
  256
370
   -1
100
AcDbLine
 10
-56.2199
 20
17.7922
 11
-56.8556
 21
16.9638
  0
LINE
  5
D4
100
AcDbEntity
  8
0
  6
ByLayer
 62
  256
370
   -1
100
AcDbLine
 10
-56.8556
 20
16.9638
 11
-57.2552
 21
15.9991
  0
LINE
  5
D5
100
AcDbEntity
  8
0
  6
ByLayer
 62
  256
370
   -1
100
AcDbLine
 10
-57.2552
 20
15.9991
 11
-57.3915
 21
14.9638
  0
LINE
  5
D6
100
AcDbEntity
  8
0
  6
ByLayer
 62
  256
370
   -1
100
AcDbLine
 10
-57.3915
 20
14.9638
 11
-57.2552
 21
13.9285
  0
LINE
  5
D7
100
AcDbEntity
  8
0
  6
ByLayer
 62
  256
370
   -1
100
AcDbLine
 10
-57.2552
 20
13.9285
 11
-56.8556
 21
12.9638
  0
LINE
  5
D8
100
AcDbEntity
  8
0
  6
ByLayer
 62
  256
370
   -1
100
AcDbLine
 10
-56.8556
 20
12.9638
 11
-56.2199
 21
12.1353
  0
LINE
  5
D9
100
AcDbEntity
  8
0
  6
ByLayer
 62
  256
370
   -1
100
AcDbLine
 10
-56.2199
 20
12.1353
 11
-55.3915
 21
11.4997
  0
LINE
  5
DA
100
AcDbEntity
  8
0
  6
ByLayer
 62
  256
370
   -1
100
AcDbLine
 10
-55.3915
 20
11.4997
 11
-54.4267
 21
11.1001
  0
LINE
  5
DB
100
AcDbEntity
  8
0
  6
ByLayer
 62
  256
370
   -1
100
AcDbLine
 10
-54.4267
 20
11.1001
 11
-53.3915
 21
10.9638
  0
LINE
  5
DC
100
AcDbEntity
  8
0
  6
ByLayer
 62
  256
370
   -1
100
AcDbLine
 10
-53.3915
 20
10.9638
 11
-52.3562
 21
11.1001
  0
LINE
  5
DD
100
AcDbEntity
  8
0
  6
ByLayer
 62
  256
370
   -1
100
AcDbLine
 10
-52.3562
 20
11.1001
 11
-51.3915
 21
11.4997
  0
LINE
  5
DE
100
AcDbEntity
  8
0
  6
ByLayer
 62
  256
370
   -1
100
AcDbLine
 10
-51.3915
 20
11.4997
 11
-50.7866
 21
11.9638
  0
LINE
  5
DF
100
AcDbEntity
  8
0
  6
ByLayer
 62
  256
370
   -1
100
AcDbLine
 10
-50.7866
 20
11.9638
 11
18.9367
 21
11.9638
  0
LINE
  5
E0
100
AcDbEntity
  8
0
  6
ByLayer
 62
  256
370
   -1
100
AcDbLine
 10
18.9367
 20
11.9638
 11
19.5796
 21
10.8026
  0
LINE
  5
E1
100
AcDbEntity
  8
0
  6
ByLayer
 62
  256
370
   -1
100
AcDbLine
 10
19.5796
 20
10.8026
 11
20.8484
 21
9.48753
  0
LINE
  5
E2
100
AcDbEntity
  8
0
  6
ByLayer
 62
  256
370
   -1
100
AcDbLine
 10
20.8484
 20
9.48753
 11
22.4143
 21
8.545640000000001
  0
LINE
  5
E3
100
AcDbEntity
  8
0
  6
ByLayer
 62
  256
370
   -1
100
AcDbLine
 10
22.4143
 20
8.545640000000001
 11
24.1707
 21
8.04114
  0
LINE
  5
E4
100
AcDbEntity
  8
0
  6
ByLayer
 62
  256
370
   -1
100
AcDbLine
 10
24.1707
 20
8.04114
 11
25.9977
 21
8.00841
  0
LINE
  5
E5
100
AcDbEntity
  8
0
  6
ByLayer
 62
  256
370
   -1
100
AcDbLine
 10
25.9977
 20
8.00841
 11
27.771
 21
8.449680000000001
  0
LINE
  5
E6
100
AcDbEntity
  8
0
  6
ByLayer
 62
  256
370
   -1
100
AcDbLine
 10
-52.3562
 20
-0.999908
 11
-51.3915
 21
-0.600311
  0
LINE
  5
E7
100
AcDbEntity
  8
0
  6
ByLayer
 62
  256
370
   -1
100
AcDbLine
 10
-51.3915
 20
-0.600311
 11
-50.7866
 21
-0.1362
  0
LINE
  5
E8
100
AcDbEntity
  8
0
  6
ByLayer
 62
  256
370
   -1
100
AcDbLine
 10
-50.7866
 20
-0.1362
 11
22.8133
 21
-0.1362
  0
LINE
  5
E9
100
AcDbEntity
  8
0
  6
ByLayer
 62
  256
370
   -1
100
AcDbLine
 10
22.8133
 20
-0.1362
 11
23.2843
 21
-0.525528
  0
LINE
  5
EA
100
AcDbEntity
  8
0
  6
ByLayer
 62
  256
370
   -1
100
AcDbLine
 10
23.2843
 20
-0.525528
 11
24.2339
 21
-0.959839
  0
LINE
  5
EB
100
AcDbEntity
  8
0
  6
ByLayer
 62
  256
370
   -1
100
AcDbLine
 10
24.2339
 20
-0.959839
 11
25.2635
 21
-1.13358
  0
LINE
  5
EC
100
AcDbEntity
  8
0
  6
ByLayer
 62
  256
370
   -1
100
AcDbLine
 10
25.2635
 20
-1.13358
 11
26.303
 21
-1.0349
  0
LINE
  5
ED
100
AcDbEntity
  8
0
  6
ByLayer
 62
  256
370
   -1
100
AcDbLine
 10
26.303
 20
-1.0349
 11
27.2816
 21
-0.670532
  0
LINE
  5
EE
100
AcDbEntity
  8
0
  6
ByLayer
 62
  256
370
   -1
100
AcDbLine
 10
27.2816
 20
-0.670532
 11
28.1325
 21
-0.06530759999999999
  0
LINE
  5
EF
100
AcDbEntity
  8
0
  6
ByLayer
 62
  256
370
   -1
100
AcDbLine
 10
28.1325
 20
-0.06530759999999999
 11
28.7978
 21
0.739502
  0
LINE
  5
F0
100
AcDbEntity
  8
0
  6
ByLayer
 62
  256
370
   -1
100
AcDbLine
 10
28.7978
 20
0.739502
 11
29.2321
 21
1.68912
  0
LINE
  5
F1
100
AcDbEntity
  8
0
  6
ByLayer
 62
  256
370
   -1
100
AcDbLine
 10
29.2321
 20
1.68912
 11
29.4059
 21
2.71877
  0
LINE
  5
F2
100
AcDbEntity
  8
0
  6
ByLayer
 62
  256
370
   -1
100
AcDbLine
 10
29.4059
 20
2.71877
 11
29.3072
 21
3.7583
  0
LINE
  5
F3
100
AcDbEntity
  8
0
  6
ByLayer
 62
  256
370
   -1
100
AcDbLine
 10
29.3072
 20
3.7583
 11
28.9429
 21
4.73688
  0
LINE
  5
F4
100
AcDbEntity
  8
0
  6
ByLayer
 62
  256
370
   -1
100
AcDbLine
 10
28.9429
 20
4.73688
 11
28.3376
 21
5.5878
  0
LINE
  5
F5
100
AcDbEntity
  8
0
  6
ByLayer
 62
  256
370
   -1
100
AcDbLine
 10
28.3376
 20
5.5878
 11
27.5328
 21
6.2531
  0
LINE
  5
F6
100
AcDbEntity
  8
0
  6
ByLayer
 62
  256
370
   -1
100
AcDbLine
 10
27.5328
 20
6.2531
 11
26.5832
 21
6.68741
  0
LINE
  5
F7
100
AcDbEntity
  8
0
  6
ByLayer
 62
  256
370
   -1
100
AcDbLine
 10
26.5832
 20
6.68741
 11
25.5535
 21
6.86115
  0
LINE
  5
F8
100
AcDbEntity
  8
0
  6
ByLayer
 62
  256
370
   -1
100
AcDbLine
 10
25.5535
 20
6.86115
 11
24.514
 21
6.76247
  0
LINE
  5
F9
100
AcDbEntity
  8
0
  6
ByLayer
 62
  256
370
   -1
100
AcDbLine
 10
24.514
 20
6.76247
 11
23.5354
 21
6.3981
  0
LINE
  5
FA
100
AcDbEntity
  8
0
  6
ByLayer
 62
  256
370
   -1
100
AcDbLine
 10
23.5354
 20
6.3981
 11
22.7842
 21
5.86378
  0
LINE
  5
FB
100
AcDbEntity
  8
0
  6
ByLayer
 62
  256
370
   -1
100
AcDbLine
 10
22.7842
 20
5.86378
 11
-50.7866
 21
5.86378
  0
LINE
  5
FC
100
AcDbEntity
  8
0
  6
ByLayer
 62
  256
370
   -1
100
AcDbLine
 10
-50.7866
 20
5.86378
 11
-51.3915
 21
6.32788
  0
LINE
  5
FD
100
AcDbEntity
  8
0
  6
ByLayer
 62
  256
370
   -1
100
AcDbLine
 10
-51.3915
 20
6.32788
 11
-52.3562
 21
6.72748
  0
LINE
  5
FE
100
AcDbEntity
  8
0
  6
ByLayer
 62
  256
370
   -1
100
AcDbLine
 10
-52.3562
 20
6.72748
 11
-53.3915
 21
6.86378
  0
LINE
  5
FF
100
AcDbEntity
  8
0
  6
ByLayer
 62
  256
370
   -1
100
AcDbLine
 10
-53.3915
 20
6.86378
 11
-54.4267
 21
6.72748
  0
LINE
  5
100
100
AcDbEntity
  8
0
  6
ByLayer
 62
  256
370
   -1
100
AcDbLine
 10
-54.4267
 20
6.72748
 11
-55.3915
 21
6.32788
  0
LINE
  5
101
100
AcDbEntity
  8
0
  6
ByLayer
 62
  256
370
   -1
100
AcDbLine
 10
-55.3915
 20
6.32788
 11
-56.2199
 21
5.6922
  0
LINE
  5
102
100
AcDbEntity
  8
0
  6
ByLayer
 62
  256
370
   -1
100
AcDbLine
 10
-56.2199
 20
5.6922
 11
-56.8556
 21
4.86378
  0
LINE
  5
103
100
AcDbEntity
  8
0
  6
ByLayer
 62
  256
370
   -1
100
AcDbLine
 10
-56.8556
 20
4.86378
 11
-57.2552
 21
3.89905
  0
LINE
  5
104
100
AcDbEntity
  8
0
  6
ByLayer
 62
  256
370
   -1
100
AcDbLine
 10
-57.2552
 20
3.89905
 11
-57.3915
 21
2.86378
  0
LINE
  5
105
100
AcDbEntity
  8
0
  6
ByLayer
 62
  256
370
   -1
100
AcDbLine
 10
-57.3915
 20
2.86378
 11
-57.2552
 21
1.82851
  0
LINE
  5
106
100
AcDbEntity
  8
0
  6
ByLayer
 62
  256
370
   -1
100
AcDbLine
 10
-57.2552
 20
1.82851
 11
-56.8556
 21
0.863785
  0
LINE
  5
107
100
AcDbEntity
  8
0
  6
ByLayer
 62
  256
370
   -1
100
AcDbLine
 10
-56.8556
 20
0.863785
 11
-56.2199
 21
0.0353546
  0
LINE
  5
108
100
AcDbEntity
  8
0
  6
ByLayer
 62
  256
370
   -1
100
AcDbLine
 10
-56.2199
 20
0.0353546
 11
-55.3915
 21
-0.600311
  0
LINE
  5
109
100
AcDbEntity
  8
0
  6
ByLayer
 62
  256
370
   -1
100
AcDbLine
 10
-55.3915
 20
-0.600311
 11
-54.4267
 21
-0.999908
  0
LINE
  5
10A
100
AcDbEntity
  8
0
  6
ByLayer
 62
  256
370
   -1
100
AcDbLine
 10
-54.4267
 20
-0.999908
 11
-53.3915
 21
-1.1362
  0
LINE
  5
10B
100
AcDbEntity
  8
0
  6
ByLayer
 62
  256
370
   -1
100
AcDbLine
 10
-53.3915
 20
-1.1362
 11
-52.3562
 21
-0.999908
  0
LINE
  5
10C
100
AcDbEntity
  8
0
  6
ByLayer
 62
  256
370
   -1
100
AcDbLine
 10
-52.3562
 20
-10.7999
 11
-51.3915
 21
-10.4003
  0
LINE
  5
10D
100
AcDbEntity
  8
0
  6
ByLayer
 62
  256
370
   -1
100
AcDbLine
 10
-51.3915
 20
-10.4003
 11
-50.7866
 21
-9.936199999999999
  0
LINE
  5
10E
100
AcDbEntity
  8
0
  6
ByLayer
 62
  256
370
   -1
100
AcDbLine
 10
-50.7866
 20
-9.936199999999999
 11
22.8133
 21
-9.936199999999999
  0
LINE
  5
10F
100
AcDbEntity
  8
0
  6
ByLayer
 62
  256
370
   -1
100
AcDbLine
 10
22.8133
 20
-9.936199999999999
 11
23.2843
 21
-10.3255
  0
LINE
  5
110
100
AcDbEntity
  8
0
  6
ByLayer
 62
  256
370
   -1
100
AcDbLine
 10
23.2843
 20
-10.3255
 11
24.2339
 21
-10.7598
  0
LINE
  5
111
100
AcDbEntity
  8
0
  6
ByLayer
 62
  256
370
   -1
100
AcDbLine
 10
24.2339
 20
-10.7598
 11
25.2635
 21
-10.9336
  0
LINE
  5
112
100
AcDbEntity
  8
0
  6
ByLayer
 62
  256
370
   -1
100
AcDbLine
 10
25.2635
 20
-10.9336
 11
26.303
 21
-10.8349
  0
LINE
  5
113
100
AcDbEntity
  8
0
  6
ByLayer
 62
  256
370
   -1
100
AcDbLine
 10
26.303
 20
-10.8349
 11
27.2816
 21
-10.4705
  0
LINE
  5
114
100
AcDbEntity
  8
0
  6
ByLayer
 62
  256
370
   -1
100
AcDbLine
 10
27.2816
 20
-10.4705
 11
28.1325
 21
-9.865309999999999
  0
LINE
  5
115
100
AcDbEntity
  8
0
  6
ByLayer
 62
  256
370
   -1
100
AcDbLine
 10
28.1325
 20
-9.865309999999999
 11
28.7978
 21
-9.06047
  0
LINE
  5
116
100
AcDbEntity
  8
0
  6
ByLayer
 62
  256
370
   -1
100
AcDbLine
 10
28.7978
 20
-9.06047
 11
29.2321
 21
-8.11087
  0
LINE
  5
117
100
AcDbEntity
  8
0
  6
ByLayer
 62
  256
370
   -1
100
AcDbLine
 10
29.2321
 20
-8.11087
 11
29.4059
 21
-7.08122
  0
LINE
  5
118
100
AcDbEntity
  8
0
  6
ByLayer
 62
  256
370
   -1
100
AcDbLine
 10
29.4059
 20
-7.08122
 11
29.3072
 21
-6.04169
  0
LINE
  5
119
100
AcDbEntity
  8
0
  6
ByLayer
 62
  256
370
   -1
100
AcDbLine
 10
29.3072
 20
-6.04169
 11
28.9429
 21
-5.06311
  0
LINE
  5
11A
100
AcDbEntity
  8
0
  6
ByLayer
 62
  256
370
   -1
100
AcDbLine
 10
28.9429
 20
-5.06311
 11
28.3376
 21
-4.21217
  0
LINE
  5
11B
100
AcDbEntity
  8
0
  6
ByLayer
 62
  256
370
   -1
100
AcDbLine
 10
28.3376
 20
-4.21217
 11
27.5328
 21
-3.54689
  0
LINE
  5
11C
100
AcDbEntity
  8
0
  6
ByLayer
 62
  256
370
   -1
100
AcDbLine
 10
27.5328
 20
-3.54689
 11
26.5832
 21
-3.11258
  0
LINE
  5
11D
100
AcDbEntity
  8
0
  6
ByLayer
 62
  256
370
   -1
100
AcDbLine
 10
26.5832
 20
-3.11258
 11
25.5535
 21
-2.93884
  0
LINE
  5
11E
100
AcDbEntity
  8
0
  6
ByLayer
 62
  256
370
   -1
100
AcDbLine
 10
25.5535
 20
-2.93884
 11
24.514
 21
-3.03751
  0
LINE
  5
11F
100
AcDbEntity
  8
0
  6
ByLayer
 62
  256
370
   -1
100
AcDbLine
 10
24.514
 20
-3.03751
 11
23.5354
 21
-3.40187
  0
LINE
  5
120
100
AcDbEntity
  8
0
  6
ByLayer
 62
  256
370
   -1
100
AcDbLine
 10
23.5354
 20
-3.40187
 11
22.7842
 21
-3.9362
  0
LINE
  5
121
100
AcDbEntity
  8
0
  6
ByLayer
 62
  256
370
   -1
100
AcDbLine
 10
22.7842
 20
-3.9362
 11
-50.7866
 21
-3.9362
  0
LINE
  5
122
100
AcDbEntity
  8
0
  6
ByLayer
 62
  256
370
   -1
100
AcDbLine
 10
-50.7866
 20
-3.9362
 11
-51.3915
 21
-3.47211
  0
LINE
  5
123
100
AcDbEntity
  8
0
  6
ByLayer
 62
  256
370
   -1
100
AcDbLine
 10
-51.3915
 20
-3.47211
 11
-52.3562
 21
-3.07251
  0
LINE
  5
124
100
AcDbEntity
  8
0
  6
ByLayer
 62
  256
370
   -1
100
AcDbLine
 10
-52.3562
 20
-3.07251
 11
-53.3915
 21
-2.9362
  0
LINE
  5
125
100
AcDbEntity
  8
0
  6
ByLayer
 62
  256
370
   -1
100
AcDbLine
 10
-53.3915
 20
-2.9362
 11
-54.4267
 21
-3.07251
  0
LINE
  5
126
100
AcDbEntity
  8
0
  6
ByLayer
 62
  256
370
   -1
100
AcDbLine
 10
-54.4267
 20
-3.07251
 11
-55.3915
 21
-3.47211
  0
LINE
  5
127
100
AcDbEntity
  8
0
  6
ByLayer
 62
  256
370
   -1
100
AcDbLine
 10
-55.3915
 20
-3.47211
 11
-56.2199
 21
-4.10777
  0
LINE
  5
128
100
AcDbEntity
  8
0
  6
ByLayer
 62
  256
370
   -1
100
AcDbLine
 10
-56.2199
 20
-4.10777
 11
-56.8556
 21
-4.9362
  0
LINE
  5
129
100
AcDbEntity
  8
0
  6
ByLayer
 62
  256
370
   -1
100
AcDbLine
 10
-56.8556
 20
-4.9362
 11
-57.2552
 21
-5.90092
  0
LINE
  5
12A
100
AcDbEntity
  8
0
  6
ByLayer
 62
  256
370
   -1
100
AcDbLine
 10
-57.2552
 20
-5.90092
 11
-57.3915
 21
-6.9362
  0
LINE
  5
12B
100
AcDbEntity
  8
0
  6
ByLayer
 62
  256
370
   -1
100
AcDbLine
 10
-57.3915
 20
-6.9362
 11
-57.2552
 21
-7.97148
  0
LINE
  5
12C
100
AcDbEntity
  8
0
  6
ByLayer
 62
  256
370
   -1
100
AcDbLine
 10
-57.2552
 20
-7.97148
 11
-56.8556
 21
-8.936199999999999
  0
LINE
  5
12D
100
AcDbEntity
  8
0
  6
ByLayer
 62
  256
370
   -1
100
AcDbLine
 10
-56.8556
 20
-8.936199999999999
 11
-56.2199
 21
-9.76463
  0
LINE
  5
12E
100
AcDbEntity
  8
0
  6
ByLayer
 62
  256
370
   -1
100
AcDbLine
 10
-56.2199
 20
-9.76463
 11
-55.3915
 21
-10.4003
  0
LINE
  5
12F
100
AcDbEntity
  8
0
  6
ByLayer
 62
  256
370
   -1
100
AcDbLine
 10
-55.3915
 20
-10.4003
 11
-54.4267
 21
-10.7999
  0
LINE
  5
130
100
AcDbEntity
  8
0
  6
ByLayer
 62
  256
370
   -1
100
AcDbLine
 10
-54.4267
 20
-10.7999
 11
-53.3915
 21
-10.9362
  0
LINE
  5
131
100
AcDbEntity
  8
0
  6
ByLayer
 62
  256
370
   -1
100
AcDbLine
 10
-53.3915
 20
-10.9362
 11
-52.3562
 21
-10.7999
  0
LINE
  5
132
100
AcDbEntity
  8
0
  6
ByLayer
 62
  256
370
   -1
100
AcDbLine
 10
48.4203
 20
-23.8977
 11
50.1085
 21
-23.1984
  0
LINE
  5
133
100
AcDbEntity
  8
0
  6
ByLayer
 62
  256
370
   -1
100
AcDbLine
 10
50.1085
 20
-23.1984
 11
51.5583
 21
-22.086
  0
LINE
  5
134
100
AcDbEntity
  8
0
  6
ByLayer
 62
  256
370
   -1
100
AcDbLine
 10
51.5583
 20
-22.086
 11
52.6707
 21
-20.6362
  0
LINE
  5
135
100
AcDbEntity
  8
0
  6
ByLayer
 62
  256
370
   -1
100
AcDbLine
 10
52.6707
 20
-20.6362
 11
53.37
 21
-18.9479
  0
LINE
  5
136
100
AcDbEntity
  8
0
  6
ByLayer
 62
  256
370
   -1
100
AcDbLine
 10
53.37
 20
-18.9479
 11
53.6085
 21
-17.1362
  0
LINE
  5
137
100
AcDbEntity
  8
0
  6
ByLayer
 62
  256
370
   -1
100
AcDbLine
 10
53.6085
 20
-17.1362
 11
53.37
 21
-15.3245
  0
LINE
  5
138
100
AcDbEntity
  8
0
  6
ByLayer
 62
  256
370
   -1
100
AcDbLine
 10
53.37
 20
-15.3245
 11
52.6707
 21
-13.6362
  0
LINE
  5
139
100
AcDbEntity
  8
0
  6
ByLayer
 62
  256
370
   -1
100
AcDbLine
 10
52.6707
 20
-13.6362
 11
51.5583
 21
-12.1865
  0
LINE
  5
13A
100
AcDbEntity
  8
0
  6
ByLayer
 62
  256
370
   -1
100
AcDbLine
 10
51.5583
 20
-12.1865
 11
50.1085
 21
-11.074
  0
LINE
  5
13B
100
AcDbEntity
  8
0
  6
ByLayer
 62
  256
370
   -1
100
AcDbLine
 10
50.1085
 20
-11.074
 11
48.4203
 21
-10.3747
  0
LINE
  5
13C
100
AcDbEntity
  8
0
  6
ByLayer
 62
  256
370
   -1
100
AcDbLine
 10
48.4203
 20
-10.3747
 11
46.6085
 21
-10.1362
  0
LINE
  5
13D
100
AcDbEntity
  8
0
  6
ByLayer
 62
  256
370
   -1
100
AcDbLine
 10
46.6085
 20
-10.1362
 11
44.7968
 21
-10.3747
  0
LINE
  5
13E
100
AcDbEntity
  8
0
  6
ByLayer
 62
  256
370
   -1
100
AcDbLine
 10
44.7968
 20
-10.3747
 11
43.1085
 21
-11.074
  0
LINE
  5
13F
100
AcDbEntity
  8
0
  6
ByLayer
 62
  256
370
   -1
100
AcDbLine
 10
43.1085
 20
-11.074
 11
41.6588
 21
-12.1865
  0
LINE
  5
140
100
AcDbEntity
  8
0
  6
ByLayer
 62
  256
370
   -1
100
AcDbLine
 10
41.6588
 20
-12.1865
 11
40.5463
 21
-13.6362
  0
LINE
  5
141
100
AcDbEntity
  8
0
  6
ByLayer
 62
  256
370
   -1
100
AcDbLine
 10
40.5463
 20
-13.6362
 11
40.3392
 21
-14.1362
  0
LINE
  5
142
100
AcDbEntity
  8
0
  6
ByLayer
 62
  256
370
   -1
100
AcDbLine
 10
40.3392
 20
-14.1362
 11
-50.7902
 21
-14.1362
  0
LINE
  5
143
100
AcDbEntity
  8
0
  6
ByLayer
 62
  256
370
   -1
100
AcDbLine
 10
-50.7902
 20
-14.1362
 11
-51.0245
 21
-13.9117
  0
LINE
  5
144
100
AcDbEntity
  8
0
  6
ByLayer
 62
  256
370
   -1
100
AcDbLine
 10
-51.0245
 20
-13.9117
 11
-51.9397
 21
-13.409
  0
LINE
  5
145
100
AcDbEntity
  8
0
  6
ByLayer
 62
  256
370
   -1
100
AcDbLine
 10
-51.9397
 20
-13.409
 11
-52.9539
 21
-13.1602
  0
LINE
  5
146
100
AcDbEntity
  8
0
  6
ByLayer
 62
  256
370
   -1
100
AcDbLine
 10
-52.9539
 20
-13.1602
 11
-53.9978
 21
-13.1824
  0
LINE
  5
147
100
AcDbEntity
  8
0
  6
ByLayer
 62
  256
370
   -1
100
AcDbLine
 10
-53.9978
 20
-13.1824
 11
-55.0005
 21
-13.4741
  0
LINE
  5
148
100
AcDbEntity
  8
0
  6
ByLayer
 62
  256
370
   -1
100
AcDbLine
 10
-55.0005
 20
-13.4741
 11
-55.8935
 21
-14.0153
  0
LINE
  5
149
100
AcDbEntity
  8
0
  6
ByLayer
 62
  256
370
   -1
100
AcDbLine
 10
-55.8935
 20
-14.0153
 11
-56.616
 21
-14.7692
  0
LINE
  5
14A
100
AcDbEntity
  8
0
  6
ByLayer
 62
  256
370
   -1
100
AcDbLine
 10
-56.616
 20
-14.7692
 11
-57.1187
 21
-15.6844
  0
LINE
  5
14B
100
AcDbEntity
  8
0
  6
ByLayer
 62
  256
370
   -1
100
AcDbLine
 10
-57.1187
 20
-15.6844
 11
-57.3674
 21
-16.6986
  0
LINE
  5
14C
100
AcDbEntity
  8
0
  6
ByLayer
 62
  256
370
   -1
100
AcDbLine
 10
-57.3674
 20
-16.6986
 11
-57.3452
 21
-17.7426
  0
LINE
  5
14D
100
AcDbEntity
  8
0
  6
ByLayer
 62
  256
370
   -1
100
AcDbLine
 10
-57.3452
 20
-17.7426
 11
-57.0536
 21
-18.7452
  0
LINE
  5
14E
100
AcDbEntity
  8
0
  6
ByLayer
 62
  256
370
   -1
100
AcDbLine
 10
-57.0536
 20
-18.7452
 11
-56.5123
 21
-19.6382
  0
LINE
  5
14F
100
AcDbEntity
  8
0
  6
ByLayer
 62
  256
370
   -1
100
AcDbLine
 10
-56.5123
 20
-19.6382
 11
-55.7584
 21
-20.3607
  0
LINE
  5
150
100
AcDbEntity
  8
0
  6
ByLayer
 62
  256
370
   -1
100
AcDbLine
 10
-55.7584
 20
-20.3607
 11
-54.8432
 21
-20.8635
  0
LINE
  5
151
100
AcDbEntity
  8
0
  6
ByLayer
 62
  256
370
   -1
100
AcDbLine
 10
-54.8432
 20
-20.8635
 11
-53.8291
 21
-21.1122
  0
LINE
  5
152
100
AcDbEntity
  8
0
  6
ByLayer
 62
  256
370
   -1
100
AcDbLine
 10
-53.8291
 20
-21.1122
 11
-52.7851
 21
-21.09
  0
LINE
  5
153
100
AcDbEntity
  8
0
  6
ByLayer
 62
  256
370
   -1
100
AcDbLine
 10
-52.7851
 20
-21.09
 11
-51.7824
 21
-20.7983
  0
LINE
  5
154
100
AcDbEntity
  8
0
  6
ByLayer
 62
  256
370
   -1
100
AcDbLine
 10
-51.7824
 20
-20.7983
 11
-50.8894
 21
-20.2571
  0
LINE
  5
155
100
AcDbEntity
  8
0
  6
ByLayer
 62
  256
370
   -1
100
AcDbLine
 10
-50.8894
 20
-20.2571
 11
-50.7736
 21
-20.1362
  0
LINE
  5
156
100
AcDbEntity
  8
0
  6
ByLayer
 62
  256
370
   -1
100
AcDbLine
 10
-50.7736
 20
-20.1362
 11
40.3392
 21
-20.1362
  0
LINE
  5
157
100
AcDbEntity
  8
0
  6
ByLayer
 62
  256
370
   -1
100
AcDbLine
 10
40.3392
 20
-20.1362
 11
40.5463
 21
-20.6362
  0
LINE
  5
158
100
AcDbEntity
  8
0
  6
ByLayer
 62
  256
370
   -1
100
AcDbLine
 10
40.5463
 20
-20.6362
 11
41.6588
 21
-22.086
  0
LINE
  5
159
100
AcDbEntity
  8
0
  6
ByLayer
 62
  256
370
   -1
100
AcDbLine
 10
41.6588
 20
-22.086
 11
43.1085
 21
-23.1984
  0
LINE
  5
15A
100
AcDbEntity
  8
0
  6
ByLayer
 62
  256
370
   -1
100
AcDbLine
 10
43.1085
 20
-23.1984
 11
44.7968
 21
-23.8977
  0
LINE
  5
15B
100
AcDbEntity
  8
0
  6
ByLayer
 62
  256
370
   -1
100
AcDbLine
 10
44.7968
 20
-23.8977
 11
46.6085
 21
-24.1362
  0
LINE
  5
15C
100
AcDbEntity
  8
0
  6
ByLayer
 62
  256
370
   -1
100
AcDbLine
 10
46.6085
 20
-24.1362
 11
48.4203
 21
-23.8977
  0
LINE
  5
15D
100
AcDbEntity
  8
0
  6
ByLayer
 62
  256
370
   -1
100
AcDbLine
 10
45.3346
 20
-21.1384
 11
44.3422
 21
-20.6723
  0
LINE
  5
15E
100
AcDbEntity
  8
0
  6
ByLayer
 62
  256
370
   -1
100
AcDbLine
 10
44.3422
 20
-20.6723
 11
43.5042
 21
-19.9652
  0
LINE
  5
15F
100
AcDbEntity
  8
0
  6
ByLayer
 62
  256
370
   -1
100
AcDbLine
 10
43.5042
 20
-19.9652
 11
42.8778
 21
-19.0654
  0
LINE
  5
160
100
AcDbEntity
  8
0
  6
ByLayer
 62
  256
370
   -1
100
AcDbLine
 10
42.8778
 20
-19.0654
 11
42.5056
 21
-18.0341
  0
LINE
  5
161
100
AcDbEntity
  8
0
  6
ByLayer
 62
  256
370
   -1
100
AcDbLine
 10
42.5056
 20
-18.0341
 11
42.413
 21
-16.9416
  0
LINE
  5
162
100
AcDbEntity
  8
0
  6
ByLayer
 62
  256
370
   -1
100
AcDbLine
 10
42.413
 20
-16.9416
 11
42.6064
 21
-15.8623
  0
LINE
  5
163
100
AcDbEntity
  8
0
  6
ByLayer
 62
  256
370
   -1
100
AcDbLine
 10
42.6064
 20
-15.8623
 11
43.0724
 21
-14.8699
  0
LINE
  5
164
100
AcDbEntity
  8
0
  6
ByLayer
 62
  256
370
   -1
100
AcDbLine
 10
43.0724
 20
-14.8699
 11
43.7795
 21
-14.0319
  0
LINE
  5
165
100
AcDbEntity
  8
0
  6
ByLayer
 62
  256
370
   -1
100
AcDbLine
 10
43.7795
 20
-14.0319
 11
44.6794
 21
-13.4055
  0
LINE
  5
166
100
AcDbEntity
  8
0
  6
ByLayer
 62
  256
370
   -1
100
AcDbLine
 10
44.6794
 20
-13.4055
 11
45.7107
 21
-13.0333
  0
LINE
  5
167
100
AcDbEntity
  8
0
  6
ByLayer
 62
  256
370
   -1
100
AcDbLine
 10
45.7107
 20
-13.0333
 11
46.8032
 21
-12.9407
  0
LINE
  5
168
100
AcDbEntity
  8
0
  6
ByLayer
 62
  256
370
   -1
100
AcDbLine
 10
46.8032
 20
-12.9407
 11
47.8824
 21
-13.134
  0
LINE
  5
169
100
AcDbEntity
  8
0
  6
ByLayer
 62
  256
370
   -1
100
AcDbLine
 10
47.8824
 20
-13.134
 11
48.8748
 21
-13.6001
  0
LINE
  5
16A
100
AcDbEntity
  8
0
  6
ByLayer
 62
  256
370
   -1
100
AcDbLine
 10
48.8748
 20
-13.6001
 11
49.7128
 21
-14.3072
  0
LINE
  5
16B
100
AcDbEntity
  8
0
  6
ByLayer
 62
  256
370
   -1
100
AcDbLine
 10
49.7128
 20
-14.3072
 11
50.3392
 21
-15.207
  0
LINE
  5
16C
100
AcDbEntity
  8
0
  6
ByLayer
 62
  256
370
   -1
100
AcDbLine
 10
50.3392
 20
-15.207
 11
50.7114
 21
-16.2384
  0
LINE
  5
16D
100
AcDbEntity
  8
0
  6
ByLayer
 62
  256
370
   -1
100
AcDbLine
 10
50.7114
 20
-16.2384
 11
50.804
 21
-17.3309
  0
LINE
  5
16E
100
AcDbEntity
  8
0
  6
ByLayer
 62
  256
370
   -1
100
AcDbLine
 10
50.804
 20
-17.3309
 11
50.6107
 21
-18.4101
  0
LINE
  5
16F
100
AcDbEntity
  8
0
  6
ByLayer
 62
  256
370
   -1
100
AcDbLine
 10
50.6107
 20
-18.4101
 11
50.1446
 21
-19.4025
  0
LINE
  5
170
100
AcDbEntity
  8
0
  6
ByLayer
 62
  256
370
   -1
100
AcDbLine
 10
50.1446
 20
-19.4025
 11
49.4375
 21
-20.2405
  0
LINE
  5
171
100
AcDbEntity
  8
0
  6
ByLayer
 62
  256
370
   -1
100
AcDbLine
 10
49.4375
 20
-20.2405
 11
48.5377
 21
-20.8669
  0
LINE
  5
172
100
AcDbEntity
  8
0
  6
ByLayer
 62
  256
370
   -1
100
AcDbLine
 10
48.5377
 20
-20.8669
 11
47.5064
 21
-21.2391
  0
LINE
  5
173
100
AcDbEntity
  8
0
  6
ByLayer
 62
  256
370
   -1
100
AcDbLine
 10
47.5064
 20
-21.2391
 11
46.4139
 21
-21.3317
  0
LINE
  5
174
100
AcDbEntity
  8
0
  6
ByLayer
 62
  256
370
   -1
100
AcDbLine
 10
46.4139
 20
-21.3317
 11
45.3346
 21
-21.1384
  0
LINE
  5
175
100
AcDbEntity
  8
0
  6
ByLayer
 62
  256
370
   -1
100
AcDbLine
 10
71.744
 20
-36.9076
 11
73.477
 21
-36.3278
  0
LINE
  5
176
100
AcDbEntity
  8
0
  6
ByLayer
 62
  256
370
   -1
100
AcDbLine
 10
73.477
 20
-36.3278
 11
75.0008
 21
-35.3193
  0
LINE
  5
177
100
AcDbEntity
  8
0
  6
ByLayer
 62
  256
370
   -1
100
AcDbLine
 10
75.0008
 20
-35.3193
 11
76.21169999999999
 21
-33.9507
  0
LINE
  5
178
100
AcDbEntity
  8
0
  6
ByLayer
 62
  256
370
   -1
100
AcDbLine
 10
76.21169999999999
 20
-33.9507
 11
77.0271
 21
-32.3153
  0
LINE
  5
179
100
AcDbEntity
  8
0
  6
ByLayer
 62
  256
370
   -1
100
AcDbLine
 10
77.0271
 20
-32.3153
 11
77.39149999999999
 21
-30.5246
  0
LINE
  5
17A
100
AcDbEntity
  8
0
  6
ByLayer
 62
  256
370
   -1
100
AcDbLine
 10
77.39149999999999
 20
-30.5246
 11
77.2799
 21
-28.7007
  0
LINE
  5
17B
100
AcDbEntity
  8
0
  6
ByLayer
 62
  256
370
   -1
100
AcDbLine
 10
77.2799
 20
-28.7007
 11
76.70010000000001
 21
-26.9677
  0
LINE
  5
17C
100
AcDbEntity
  8
0
  6
ByLayer
 62
  256
370
   -1
100
AcDbLine
 10
76.70010000000001
 20
-26.9677
 11
75.69159999999999
 21
-25.4439
  0
LINE
  5
17D
100
AcDbEntity
  8
0
  6
ByLayer
 62
  256
370
   -1
100
AcDbLine
 10
75.69159999999999
 20
-25.4439
 11
74.32299999999999
 21
-24.233
  0
LINE
  5
17E
100
AcDbEntity
  8
0
  6
ByLayer
 62
  256
370
   -1
100
AcDbLine
 10
74.32299999999999
 20
-24.233
 11
72.6876
 21
-23.4176
  0
LINE
  5
17F
100
AcDbEntity
  8
0
  6
ByLayer
 62
  256
370
   -1
100
AcDbLine
 10
72.6876
 20
-23.4176
 11
70.8969
 21
-23.0533
  0
LINE
  5
180
100
AcDbEntity
  8
0
  6
ByLayer
 62
  256
370
   -1
100
AcDbLine
 10
70.8969
 20
-23.0533
 11
69.07299999999999
 21
-23.1648
  0
LINE
  5
181
100
AcDbEntity
  8
0
  6
ByLayer
 62
  256
370
   -1
100
AcDbLine
 10
69.07299999999999
 20
-23.1648
 11
67.34
 21
-23.7446
  0
LINE
  5
182
100
AcDbEntity
  8
0
  6
ByLayer
 62
  256
370
   -1
100
AcDbLine
 10
67.34
 20
-23.7446
 11
65.81619999999999
 21
-24.7532
  0
LINE
  5
183
100
AcDbEntity
  8
0
  6
ByLayer
 62
  256
370
   -1
100
AcDbLine
 10
65.81619999999999
 20
-24.7532
 11
64.6053
 21
-26.1217
  0
LINE
  5
184
100
AcDbEntity
  8
0
  6
ByLayer
 62
  256
370
   -1
100
AcDbLine
 10
64.6053
 20
-26.1217
 11
64.1494
 21
-27.0362
  0
LINE
  5
185
100
AcDbEntity
  8
0
  6
ByLayer
 62
  256
370
   -1
100
AcDbLine
 10
64.1494
 20
-27.0362
 11
-50.7866
 21
-27.0362
  0
LINE
  5
186
100
AcDbEntity
  8
0
  6
ByLayer
 62
  256
370
   -1
100
AcDbLine
 10
-50.7866
 20
-27.0362
 11
-51.3915
 21
-26.5721
  0
LINE
  5
187
100
AcDbEntity
  8
0
  6
ByLayer
 62
  256
370
   -1
100
AcDbLine
 10
-51.3915
 20
-26.5721
 11
-52.3562
 21
-26.1725
  0
LINE
  5
188
100
AcDbEntity
  8
0
  6
ByLayer
 62
  256
370
   -1
100
AcDbLine
 10
-52.3562
 20
-26.1725
 11
-53.3915
 21
-26.0362
  0
LINE
  5
189
100
AcDbEntity
  8
0
  6
ByLayer
 62
  256
370
   -1
100
AcDbLine
 10
-53.3915
 20
-26.0362
 11
-54.4267
 21
-26.1725
  0
LINE
  5
18A
100
AcDbEntity
  8
0
  6
ByLayer
 62
  256
370
   -1
100
AcDbLine
 10
-54.4267
 20
-26.1725
 11
-55.3915
 21
-26.5721
  0
LINE
  5
18B
100
AcDbEntity
  8
0
  6
ByLayer
 62
  256
370
   -1
100
AcDbLine
 10
-55.3915
 20
-26.5721
 11
-56.2199
 21
-27.2078
  0
LINE
  5
18C
100
AcDbEntity
  8
0
  6
ByLayer
 62
  256
370
   -1
100
AcDbLine
 10
-56.2199
 20
-27.2078
 11
-56.8556
 21
-28.0362
  0
LINE
  5
18D
100
AcDbEntity
  8
0
  6
ByLayer
 62
  256
370
   -1
100
AcDbLine
 10
-56.8556
 20
-28.0362
 11
-57.2552
 21
-29.0009
  0
LINE
  5
18E
100
AcDbEntity
  8
0
  6
ByLayer
 62
  256
370
   -1
100
AcDbLine
 10
-57.2552
 20
-29.0009
 11
-57.3915
 21
-30.0362
  0
LINE
  5
18F
100
AcDbEntity
  8
0
  6
ByLayer
 62
  256
370
   -1
100
AcDbLine
 10
-57.3915
 20
-30.0362
 11
-57.2552
 21
-31.0715
  0
LINE
  5
190
100
AcDbEntity
  8
0
  6
ByLayer
 62
  256
370
   -1
100
AcDbLine
 10
-57.2552
 20
-31.0715
 11
-56.8556
 21
-32.0362
  0
LINE
  5
191
100
AcDbEntity
  8
0
  6
ByLayer
 62
  256
370
   -1
100
AcDbLine
 10
-56.8556
 20
-32.0362
 11
-56.2199
 21
-32.8646
  0
LINE
  5
192
100
AcDbEntity
  8
0
  6
ByLayer
 62
  256
370
   -1
100
AcDbLine
 10
-56.2199
 20
-32.8646
 11
-55.3915
 21
-33.5003
  0
LINE
  5
193
100
AcDbEntity
  8
0
  6
ByLayer
 62
  256
370
   -1
100
AcDbLine
 10
-55.3915
 20
-33.5003
 11
-54.4267
 21
-33.8999
  0
LINE
  5
194
100
AcDbEntity
  8
0
  6
ByLayer
 62
  256
370
   -1
100
AcDbLine
 10
-54.4267
 20
-33.8999
 11
-53.3915
 21
-34.0362
  0
LINE
  5
195
100
AcDbEntity
  8
0
  6
ByLayer
 62
  256
370
   -1
100
AcDbLine
 10
-53.3915
 20
-34.0362
 11
-52.3562
 21
-33.8999
  0
LINE
  5
196
100
AcDbEntity
  8
0
  6
ByLayer
 62
  256
370
   -1
100
AcDbLine
 10
-52.3562
 20
-33.8999
 11
-51.3915
 21
-33.5003
  0
LINE
  5
197
100
AcDbEntity
  8
0
  6
ByLayer
 62
  256
370
   -1
100
AcDbLine
 10
-51.3915
 20
-33.5003
 11
-50.7866
 21
-33.0362
  0
LINE
  5
198
100
AcDbEntity
  8
0
  6
ByLayer
 62
  256
370
   -1
100
AcDbLine
 10
-50.7866
 20
-33.0362
 11
64.09399999999999
 21
-33.0362
  0
LINE
  5
199
100
AcDbEntity
  8
0
  6
ByLayer
 62
  256
370
   -1
100
AcDbLine
 10
64.09399999999999
 20
-33.0362
 11
64.1169
 21
-33.1047
  0
LINE
  5
19A
100
AcDbEntity
  8
0
  6
ByLayer
 62
  256
370
   -1
100
AcDbLine
 10
64.1169
 20
-33.1047
 11
65.1255
 21
-34.6285
  0
LINE
  5
19B
100
AcDbEntity
  8
0
  6
ByLayer
 62
  256
370
   -1
100
AcDbLine
 10
65.1255
 20
-34.6285
 11
66.4941
 21
-35.8394
  0
LINE
  5
19C
100
AcDbEntity
  8
0
  6
ByLayer
 62
  256
370
   -1
100
AcDbLine
 10
66.4941
 20
-35.8394
 11
68.1294
 21
-36.6548
  0
LINE
  5
19D
100
AcDbEntity
  8
0
  6
ByLayer
 62
  256
370
   -1
100
AcDbLine
 10
68.1294
 20
-36.6548
 11
69.92010000000001
 21
-37.0191
  0
LINE
  5
19E
100
AcDbEntity
  8
0
  6
ByLayer
 62
  256
370
   -1
100
AcDbLine
 10
69.92010000000001
 20
-37.0191
 11
71.744
 21
-36.9076
  0
LINE
  5
19F
100
AcDbEntity
  8
0
  6
ByLayer
 62
  256
370
   -1
100
AcDbLine
 10
69.01730000000001
 20
-33.9991
 11
68.039
 21
-33.504
  0
LINE
  5
1A0
100
AcDbEntity
  8
0
  6
ByLayer
 62
  256
370
   -1
100
AcDbLine
 10
68.039
 20
-33.504
 11
67.2222
 21
-32.7725
  0
LINE
  5
1A1
100
AcDbEntity
  8
0
  6
ByLayer
 62
  256
370
   -1
100
AcDbLine
 10
67.2222
 20
-32.7725
 11
66.62260000000001
 21
-31.8546
  0
LINE
  5
1A2
100
AcDbEntity
  8
0
  6
ByLayer
 62
  256
370
   -1
100
AcDbLine
 10
66.62260000000001
 20
-31.8546
 11
66.2809
 21
-30.8128
  0
LINE
  5
1A3
100
AcDbEntity
  8
0
  6
ByLayer
 62
  256
370
   -1
100
AcDbLine
 10
66.2809
 20
-30.8128
 11
66.2206
 21
-29.718
  0
LINE
  5
1A4
100
AcDbEntity
  8
0
  6
ByLayer
 62
  256
370
   -1
100
AcDbLine
 10
66.2206
 20
-29.718
 11
66.4456
 21
-28.645
  0
LINE
  5
1A5
100
AcDbEntity
  8
0
  6
ByLayer
 62
  256
370
   -1
100
AcDbLine
 10
66.4456
 20
-28.645
 11
66.9408
 21
-27.6667
  0
LINE
  5
1A6
100
AcDbEntity
  8
0
  6
ByLayer
 62
  256
370
   -1
100
AcDbLine
 10
66.9408
 20
-27.6667
 11
67.6722
 21
-26.8499
  0
LINE
  5
1A7
100
AcDbEntity
  8
0
  6
ByLayer
 62
  256
370
   -1
100
AcDbLine
 10
67.6722
 20
-26.8499
 11
68.59010000000001
 21
-26.2503
  0
LINE
  5
1A8
100
AcDbEntity
  8
0
  6
ByLayer
 62
  256
370
   -1
100
AcDbLine
 10
68.59010000000001
 20
-26.2503
 11
69.6319
 21
-25.9086
  0
LINE
  5
1A9
100
AcDbEntity
  8
0
  6
ByLayer
 62
  256
370
   -1
100
AcDbLine
 10
69.6319
 20
-25.9086
 11
70.72669999999999
 21
-25.8483
  0
LINE
  5
1AA
100
AcDbEntity
  8
0
  6
ByLayer
 62
  256
370
   -1
100
AcDbLine
 10
70.72669999999999
 20
-25.8483
 11
71.7998
 21
-26.0733
  0
LINE
  5
1AB
100
AcDbEntity
  8
0
  6
ByLayer
 62
  256
370
   -1
100
AcDbLine
 10
71.7998
 20
-26.0733
 11
72.77800000000001
 21
-26.5684
  0
LINE
  5
1AC
100
AcDbEntity
  8
0
  6
ByLayer
 62
  256
370
   -1
100
AcDbLine
 10
72.77800000000001
 20
-26.5684
 11
73.59480000000001
 21
-27.2999
  0
LINE
  5
1AD
100
AcDbEntity
  8
0
  6
ByLayer
 62
  256
370
   -1
100
AcDbLine
 10
73.59480000000001
 20
-27.2999
 11
74.19450000000001
 21
-28.2178
  0
LINE
  5
1AE
100
AcDbEntity
  8
0
  6
ByLayer
 62
  256
370
   -1
100
AcDbLine
 10
74.19450000000001
 20
-28.2178
 11
74.5361
 21
-29.2596
  0
LINE
  5
1AF
100
AcDbEntity
  8
0
  6
ByLayer
 62
  256
370
   -1
100
AcDbLine
 10
74.5361
 20
-29.2596
 11
74.59650000000001
 21
-30.3544
  0
LINE
  5
1B0
100
AcDbEntity
  8
0
  6
ByLayer
 62
  256
370
   -1
100
AcDbLine
 10
74.59650000000001
 20
-30.3544
 11
74.37139999999999
 21
-31.4275
  0
LINE
  5
1B1
100
AcDbEntity
  8
0
  6
ByLayer
 62
  256
370
   -1
100
AcDbLine
 10
74.37139999999999
 20
-31.4275
 11
73.8763
 21
-32.4057
  0
LINE
  5
1B2
100
AcDbEntity
  8
0
  6
ByLayer
 62
  256
370
   -1
100
AcDbLine
 10
73.8763
 20
-32.4057
 11
73.14490000000001
 21
-33.2225
  0
LINE
  5
1B3
100
AcDbEntity
  8
0
  6
ByLayer
 62
  256
370
   -1
100
AcDbLine
 10
73.14490000000001
 20
-33.2225
 11
72.2269
 21
-33.8221
  0
LINE
  5
1B4
100
AcDbEntity
  8
0
  6
ByLayer
 62
  256
370
   -1
100
AcDbLine
 10
72.2269
 20
-33.8221
 11
71.18510000000001
 21
-34.1638
  0
LINE
  5
1B5
100
AcDbEntity
  8
0
  6
ByLayer
 62
  256
370
   -1
100
AcDbLine
 10
71.18510000000001
 20
-34.1638
 11
70.0903
 21
-34.2241
  0
LINE
  5
1B6
100
AcDbEntity
  8
0
  6
ByLayer
 62
  256
370
   -1
100
AcDbLine
 10
70.0903
 20
-34.2241
 11
69.01730000000001
 21
-33.9991
  0
CIRCLE
  5
1B7
100
AcDbEntity
  8
0
  6
ByLayer
 62
  256
370
   -1
100
AcDbCircle
 10
-53.39144999999999
 20
30.06378864673635
 40
1.75
  0
CIRCLE
  5
1B8
100
AcDbEntity
  8
0
  6
ByLayer
 62
  256
370
   -1
100
AcDbCircle
 10
-53.39149999999999
 20
14.96368451489184
 40
1.75
  0
CIRCLE
  5
1B9
100
AcDbEntity
  8
0
  6
ByLayer
 62
  256
370
   -1
100
AcDbCircle
 10
-53.39147803866119
 20
2.863813038189146
 40
1.75
  0
CIRCLE
  5
1BA
100
AcDbEntity
  8
0
  6
ByLayer
 62
  256
370
   -1
100
AcDbCircle
 10
-53.39149999999999
 20
-6.936018407690278
 40
1.75
  0
CIRCLE
  5
1BB
100
AcDbEntity
  8
0
  6
ByLayer
 62
  256
370
   -1
100
AcDbCircle
 10
-53.39145000000001
 20
-17.13619999999996
 40
1.75
  0
CIRCLE
  5
1BC
100
AcDbEntity
  8
0
  6
ByLayer
 62
  256
370
   -1
100
AcDbCircle
 10
-53.39147727092744
 20
-30.03610674818668
 40
1.75
  0
DIMENSION
  5
1BD
100
AcDbEntity
  8
Guides
  6
ByLayer
 62
  256
370
   -1
100
AcDbDimension
  2
*D1
 10
-51.64865666213498
 20
-29.87775168647952
 30
0
 11
-53.56114340847083
 21
-28.1687989530519
 31
0
 70
   35
 71
    5
  3
Standard
 53
0
210
0
220
0
230
1
100
AcDbDiametricDimension
 15
-55.1342978797199
 25
-30.19446180989384
 35
0
 40
0
  0
DIMENSION
  5
1BE
100
AcDbEntity
  8
Guides
  6
ByLayer
 62
  256
370
   -1
100
AcDbDimension
  2
*D2
 10
-51.64147391034398
 20
-17.1270520148566
 30
0
 11
-53.40125141265361
 21
-15.26122561822564
 31
0
 70
   35
 71
    5
  3
Standard
 53
0
210
0
220
0
230
1
100
AcDbDiametricDimension
 15
-55.14142608965604
 25
-17.14534798514332
 35
0
 40
0
  0
DIMENSION
  5
1BF
100
AcDbEntity
  8
Guides
  6
ByLayer
 62
  256
370
   -1
100
AcDbDimension
  2
*D3
 10
-51.6415847095739
 20
-6.918799919575
 30
0
 11
-53.4099483801235
 21
-5.06110916794804
 31
0
 70
   35
 71
    5
  3
Standard
 53
0
210
0
220
0
230
1
100
AcDbDiametricDimension
 15
-55.14141529042607
 25
-6.953236895805555
 35
0
 40
0
  0
DIMENSION
  5
1C0
100
AcDbEntity
  8
Guides
  6
ByLayer
 62
  256
370
   -1
100
AcDbDimension
  2
*D4
 10
-51.64178799797529
 20
2.830877320122742
 30
0
 11
-53.35618976930433
 21
4.738480938924046
 31
0
 70
   35
 71
    5
  3
Standard
 53
0
210
0
220
0
230
1
100
AcDbDiametricDimension
 15
-55.1411680793471
 25
2.89674875625555
 35
0
 40
0
  0
DIMENSION
  5
1C1
100
AcDbEntity
  8
Guides
  6
ByLayer
 62
  256
370
   -1
100
AcDbDimension
  2
*D5
 10
-51.64161436519212
 20
14.9836911411207
 30
0
 11
-53.41293567095948
 21
16.83856198075741
 31
0
 70
   35
 71
    5
  3
Standard
 53
0
210
0
220
0
230
1
100
AcDbDiametricDimension
 15
-55.14138563480785
 25
14.94367788866297
 35
0
 40
0
  0
DIMENSION
  5
1C2
100
AcDbEntity
  8
Guides
  6
ByLayer
 62
  256
370
   -1
100
AcDbDimension
  2
*D6
 10
-51.64204923441818
 20
30.01799605583162
 30
0
 11
-53.34238650974492
 21
31.93814660985972
 31
0
 70
   35
 71
    5
  3
Standard
 53
0
210
0
220
0
230
1
100
AcDbDiametricDimension
 15
-55.1408507655818
 25
30.10958123764109
 35
0
 40
0
  0
CIRCLE
  5
1C3
100
AcDbEntity
  8
0
  6
ByLayer
 62
  256
370
   -1
100
AcDbCircle
 10
25.4085
 20
-6.936205000000006
 40
1.75
  0
CIRCLE
  5
1C4
100
AcDbEntity
  8
0
  6
ByLayer
 62
  256
370
   -1
100
AcDbCircle
 10
25.4085
 20
2.86377849999999
 40
1.75
  0
DIMENSION
  5
1C5
100
AcDbEntity
  8
Guides
  6
ByLayer
 62
  256
370
   -1
100
AcDbDimension
  2
*D7
 10
27.15840222913848
 20
2.882276836578419
 30
0
 11
25.38868035366596
 21
4.738673745505507
 31
0
 70
   35
 71
    5
  3
Standard
 53
0
210
0
220
0
230
1
100
AcDbDiametricDimension
 15
23.65859777086152
 25
2.845280163421561
 35
0
 40
0
  0
DIMENSION
  5
1C6
100
AcDbEntity
  8
Guides
  6
ByLayer
 62
  256
370
   -1
100
AcDbDimension
  2
*D8
 10
27.15849312372272
 20
-6.941110805050528
 30
0
 11
25.41375621969699
 21
-5.061212367439948
 31
0
 70
   35
 71
    5
  3
Standard
 53
0
210
0
220
0
230
1
100
AcDbDiametricDimension
 15
23.65850687627728
 25
-6.931299194949485
 35
0
 40
0
  0
CIRCLE
  5
1C7
100
AcDbEntity
  8
0
  6
ByLayer
 62
  256
370
   -1
100
AcDbCircle
 10
25.20855000000001
 20
14.96372499964439
 40
3.25
  0
CIRCLE
  5
1C8
100
AcDbEntity
  8
0
  6
ByLayer
 62
  256
370
   -1
100
AcDbCircle
 10
25.20861829893902
 20
30.06400490052231
 40
3.25
  0
DIMENSION
  5
1C9
100
AcDbEntity
  8
Guides
  6
ByLayer
 62
  256
370
   -1
100
AcDbDimension
  2
*D9
 10
28.45856356718677
 20
30.08286632660968
 30
0
 11
25.19773670696553
 21
31.93897332451139
 31
0
 70
   35
 71
    5
  3
Standard
 53
0
210
0
220
0
230
1
100
AcDbDiametricDimension
 15
21.95867303069126
 25
30.04514347443493
 35
0
 40
0
  0
DIMENSION
  5
1CA
100
AcDbEntity
  8
Guides
  6
ByLayer
 62
  256
370
   -1
100
AcDbDimension
  2
*D10
 10
28.45771422327411
 20
15.03742608644504
 30
0
 11
25.1660301422304
 21
16.83824282076406
 31
0
 70
   35
 71
    5
  3
Standard
 53
0
210
0
220
0
230
1
100
AcDbDiametricDimension
 15
21.9593857767259
 25
14.89002391284373
 35
0
 40
0
  0
ENDSEC
  0
SECTION
  2
OBJECTS
  0
DICTIONARY
  5
C
330
0
100
AcDbDictionary
281
    1
  3
ACAD_GROUP
350
D
  0
DICTIONARY
  5
D
330
C
100
AcDbDictionary
281
    1
  0
ENDSEC
  0
EOF
