EESchema Schematic File Version 4
EELAYER 30 0
EELAYER END
$Descr A4 11693 8268
encoding utf-8
Sheet 1 1
Title "Steerable STrandBeest"
Date "2021-08-15"
Rev "1.0"
Comp "gratefulfrog.org"
Comment1 ""
Comment2 ""
Comment3 ""
Comment4 ""
$EndDescr
$Comp
L Regulator_Linear:L7805 U4
U 1 1 60E2CE28
P 5900 1460
F 0 "U4" V 5853 1565 50  0000 L CNN
F 1 "L7805" V 5946 1565 50  0000 L CNN
F 2 "Package_TO_SOT_THT:TO-220-3_Vertical" H 5925 1310 50  0001 L CIN
F 3 "http://www.st.com/content/ccc/resource/technical/document/datasheet/41/4f/b3/b0/12/d4/47/88/CD00000444.pdf/files/CD00000444.pdf/jcr:content/translations/en.CD00000444.pdf" H 5900 1410 50  0001 C CNN
	1    5900 1460
	0    1    1    0   
$EndComp
$Comp
L Device:C C3
U 1 1 60E2D0C6
P 5900 1910
F 0 "C3" H 6015 1957 50  0000 L CNN
F 1 "100nF" H 6015 1864 50  0000 L CNN
F 2 "misc:C_Disc_D3.0mm_W1.6mm_P2.50mm_big_pads" H 5938 1760 50  0001 C CNN
F 3 "~" H 5900 1910 50  0001 C CNN
	1    5900 1910
	1    0    0    -1  
$EndComp
$Comp
L Device:C C2
U 1 1 60E2D0D0
P 5900 1010
F 0 "C2" H 6015 1057 50  0000 L CNN
F 1 "330nF" H 6015 964 50  0000 L CNN
F 2 "misc:C_Disc_D3.0mm_W1.6mm_P2.50mm_big_pads" H 5938 860 50  0001 C CNN
F 3 "~" H 5900 1010 50  0001 C CNN
	1    5900 1010
	1    0    0    -1  
$EndComp
Wire Wire Line
	5900 1160 6550 1160
Connection ~ 5900 1160
Text Label 5900 1760 0    50   ~ 0
+5v_Robot
$Comp
L power:PWR_FLAG #FLG02
U 1 1 60DEF9C9
P 6550 1260
F 0 "#FLG02" H 6550 1335 50  0001 C CNN
F 1 "PWR_FLAG" H 6550 1436 50  0000 C CNN
F 2 "" H 6550 1260 50  0001 C CNN
F 3 "~" H 6550 1260 50  0001 C CNN
	1    6550 1260
	-1   0    0    1   
$EndComp
Connection ~ 6550 1160
$Comp
L power:PWR_FLAG #FLG01
U 1 1 60DECC2E
P 6550 1160
F 0 "#FLG01" H 6550 1235 50  0001 C CNN
F 1 "PWR_FLAG" H 6550 1336 50  0000 C CNN
F 2 "" H 6550 1160 50  0001 C CNN
F 3 "~" H 6550 1160 50  0001 C CNN
	1    6550 1160
	1    0    0    -1  
$EndComp
$Comp
L Connector:Conn_01x02_Female J1
U 1 1 60DD8C5D
P 6750 1160
F 0 "J1" H 6778 1136 50  0000 L CNN
F 1 "Conn_01x02_Female" H 6778 1043 50  0000 L CNN
F 2 "misc:TerminalBlock_TE_282834-2_1x02_P2.54mm_Horizontal_pads_ok" H 6750 1160 50  0001 C CNN
F 3 "~" H 6750 1160 50  0001 C CNN
	1    6750 1160
	1    0    0    -1  
$EndComp
$Comp
L power:+7.5V #PWR020
U 1 1 60DD65B9
P 6550 1160
F 0 "#PWR020" H 6550 1010 50  0001 C CNN
F 1 "+7.5V" V 6565 1290 50  0000 L CNN
F 2 "" H 6550 1160 50  0001 C CNN
F 3 "" H 6550 1160 50  0001 C CNN
	1    6550 1160
	0    -1   -1   0   
$EndComp
$Comp
L power:GND2 #PWR021
U 1 1 60F43529
P 6550 1260
F 0 "#PWR021" H 6550 1010 50  0001 C CNN
F 1 "GND2" V 6555 1130 50  0000 R CNN
F 2 "" H 6550 1260 50  0001 C CNN
F 3 "" H 6550 1260 50  0001 C CNN
	1    6550 1260
	0    1    1    0   
$EndComp
Connection ~ 6550 1260
$Comp
L power:GND2 #PWR017
U 1 1 60F43EF1
P 5900 860
F 0 "#PWR017" H 5900 610 50  0001 C CNN
F 1 "GND2" V 5905 730 50  0001 R CNN
F 2 "" H 5900 860 50  0001 C CNN
F 3 "" H 5900 860 50  0001 C CNN
	1    5900 860 
	0    1    1    0   
$EndComp
$Comp
L power:GND2 #PWR015
U 1 1 60F4449C
P 5600 1460
F 0 "#PWR015" H 5600 1210 50  0001 C CNN
F 1 "GND2" V 5605 1330 50  0001 R CNN
F 2 "" H 5600 1460 50  0001 C CNN
F 3 "" H 5600 1460 50  0001 C CNN
	1    5600 1460
	0    1    1    0   
$EndComp
$Comp
L power:GND2 #PWR018
U 1 1 60F4487A
P 5900 2060
F 0 "#PWR018" H 5900 1810 50  0001 C CNN
F 1 "GND2" V 5905 1930 50  0001 R CNN
F 2 "" H 5900 2060 50  0001 C CNN
F 3 "" H 5900 2060 50  0001 C CNN
	1    5900 2060
	0    1    1    0   
$EndComp
$Comp
L Mechanical:MountingHole H1
U 1 1 60E2E93A
P 6640 1930
F 0 "H1" H 6740 1977 50  0000 L CNN
F 1 "MountingHole" H 6740 1884 50  0000 L CNN
F 2 "MountingHole:MountingHole_2.7mm_M2.5_DIN965" H 6640 1930 50  0001 C CNN
F 3 "~" H 6640 1930 50  0001 C CNN
	1    6640 1930
	1    0    0    -1  
$EndComp
$Comp
L Mechanical:MountingHole H2
U 1 1 60E2ED83
P 6640 2140
F 0 "H2" H 6740 2187 50  0000 L CNN
F 1 "MountingHole" H 6740 2094 50  0000 L CNN
F 2 "MountingHole:MountingHole_2.7mm_M2.5_DIN965" H 6640 2140 50  0001 C CNN
F 3 "~" H 6640 2140 50  0001 C CNN
	1    6640 2140
	1    0    0    -1  
$EndComp
$Comp
L Device:CP1 C1
U 1 1 610BABCD
P 3450 3200
F 0 "C1" H 3335 3153 50  0000 R CNN
F 1 "47µF" H 3335 3246 50  0000 R CNN
F 2 "misc:CP_Radial_D5.0mm_P2.50mm_big_pads" H 3450 3200 50  0001 C CNN
F 3 "~" H 3450 3200 50  0001 C CNN
	1    3450 3200
	1    0    0    -1  
$EndComp
$Comp
L BOB_LED:NeoPixelButton D1
U 1 1 610BC608
P 3750 2950
F 0 "D1" H 3750 3320 50  0000 C CNN
F 1 "NeoPixelButton" H 3750 3227 50  0000 C CNN
F 2 "misc:NeoPixel_Vertical_hand_made" H 3800 2650 50  0001 L TNN
F 3 "http://www.inolux-corp.com/datasheet/SMDLED/Addressable%20LED/IN-PI556FCH.pdf" H 3850 2575 50  0001 L TNN
	1    3750 2950
	1    0    0    -1  
$EndComp
$Comp
L BOB_LED:NeoPixelStrip D2
U 1 1 610BCCF8
P 4660 2950
F 0 "D2" H 4660 3320 50  0000 C CNN
F 1 "NeoPixelStrip" H 4660 3227 50  0000 C CNN
F 2 "misc:NeoPixel_8_pixel_strip" H 4710 2650 50  0001 L TNN
F 3 "http://www.inolux-corp.com/datasheet/SMDLED/Addressable%20LED/IN-PI556FCH.pdf" H 4760 2575 50  0001 L TNN
	1    4660 2950
	1    0    0    -1  
$EndComp
$Comp
L BOB_LED:NeoPixelButton D3
U 1 1 610BD69A
P 5510 2950
F 0 "D3" H 5510 3320 50  0000 C CNN
F 1 "NeoPixelButton" H 5510 3227 50  0000 C CNN
F 2 "misc:NeoPixel_Vertical_hand_made" H 5560 2650 50  0001 L TNN
F 3 "http://www.inolux-corp.com/datasheet/SMDLED/Addressable%20LED/IN-PI556FCH.pdf" H 5610 2575 50  0001 L TNN
	1    5510 2950
	1    0    0    -1  
$EndComp
$Comp
L BOB_LED:NeoPixelButton D4
U 1 1 610F5B1A
P 6520 2950
F 0 "D4" H 6520 3320 50  0000 C CNN
F 1 "NeoPixelButton" H 6520 3227 50  0000 C CNN
F 2 "misc:NeoPixel_Vertical_hand_made" H 6570 2650 50  0001 L TNN
F 3 "http://www.inolux-corp.com/datasheet/SMDLED/Addressable%20LED/IN-PI556FCH.pdf" H 6620 2575 50  0001 L TNN
	1    6520 2950
	1    0    0    -1  
$EndComp
$Comp
L BOB_LED:NeoPixelStrip D5
U 1 1 610F5B20
P 7350 2950
F 0 "D5" H 7350 3320 50  0000 C CNN
F 1 "NeoPixelStrip" H 7350 3227 50  0000 C CNN
F 2 "misc:NeoPixel_8_pixel_strip" H 7400 2650 50  0001 L TNN
F 3 "http://www.inolux-corp.com/datasheet/SMDLED/Addressable%20LED/IN-PI556FCH.pdf" H 7450 2575 50  0001 L TNN
	1    7350 2950
	1    0    0    -1  
$EndComp
$Comp
L BOB_LED:NeoPixelButton D6
U 1 1 610F5B26
P 8210 2950
F 0 "D6" H 8210 3320 50  0000 C CNN
F 1 "NeoPixelButton" H 8210 3227 50  0000 C CNN
F 2 "misc:NeoPixel_Vertical_hand_made" H 8260 2650 50  0001 L TNN
F 3 "http://www.inolux-corp.com/datasheet/SMDLED/Addressable%20LED/IN-PI556FCH.pdf" H 8310 2575 50  0001 L TNN
	1    8210 2950
	1    0    0    -1  
$EndComp
$Comp
L power:GND2 #PWR08
U 1 1 61117B2D
P 3450 2850
F 0 "#PWR08" H 3450 2600 50  0001 C CNN
F 1 "GND2" V 3455 2720 50  0001 R CNN
F 2 "" H 3450 2850 50  0001 C CNN
F 3 "" H 3450 2850 50  0001 C CNN
	1    3450 2850
	-1   0    0    1   
$EndComp
$Comp
L power:GND2 #PWR011
U 1 1 61118C97
P 4360 3150
F 0 "#PWR011" H 4360 2900 50  0001 C CNN
F 1 "GND2" V 4365 3020 50  0001 R CNN
F 2 "" H 4360 3150 50  0001 C CNN
F 3 "" H 4360 3150 50  0001 C CNN
	1    4360 3150
	1    0    0    -1  
$EndComp
NoConn ~ 8510 2950
Wire Wire Line
	7910 2950 7650 2950
Wire Wire Line
	7050 2950 6820 2950
Wire Wire Line
	4050 2950 4360 2950
Wire Wire Line
	5210 2950 4960 2950
Wire Wire Line
	6220 2950 5810 2950
$Comp
L power:GND2 #PWR025
U 1 1 611307F8
P 7650 2850
F 0 "#PWR025" H 7650 2600 50  0001 C CNN
F 1 "GND2" V 7655 2720 50  0001 R CNN
F 2 "" H 7650 2850 50  0001 C CNN
F 3 "" H 7650 2850 50  0001 C CNN
	1    7650 2850
	-1   0    0    1   
$EndComp
$Comp
L power:GND2 #PWR023
U 1 1 61131C58
P 7050 2850
F 0 "#PWR023" H 7050 2600 50  0001 C CNN
F 1 "GND2" V 7055 2720 50  0001 R CNN
F 2 "" H 7050 2850 50  0001 C CNN
F 3 "" H 7050 2850 50  0001 C CNN
	1    7050 2850
	-1   0    0    1   
$EndComp
$Comp
L power:GND2 #PWR012
U 1 1 611324DA
P 4960 2850
F 0 "#PWR012" H 4960 2600 50  0001 C CNN
F 1 "GND2" V 4965 2720 50  0001 R CNN
F 2 "" H 4960 2850 50  0001 C CNN
F 3 "" H 4960 2850 50  0001 C CNN
	1    4960 2850
	-1   0    0    1   
$EndComp
$Comp
L power:GND2 #PWR010
U 1 1 61133479
P 4360 2850
F 0 "#PWR010" H 4360 2600 50  0001 C CNN
F 1 "GND2" V 4365 2720 50  0001 R CNN
F 2 "" H 4360 2850 50  0001 C CNN
F 3 "" H 4360 2850 50  0001 C CNN
	1    4360 2850
	-1   0    0    1   
$EndComp
$Comp
L power:GND2 #PWR09
U 1 1 61133AFE
P 4050 2850
F 0 "#PWR09" H 4050 2600 50  0001 C CNN
F 1 "GND2" V 4055 2720 50  0001 R CNN
F 2 "" H 4050 2850 50  0001 C CNN
F 3 "" H 4050 2850 50  0001 C CNN
	1    4050 2850
	-1   0    0    1   
$EndComp
Text Label 3450 3050 2    50   ~ 0
+5v_Robot
$Comp
L power:GND2 #PWR06
U 1 1 611436AA
P 3340 2420
F 0 "#PWR06" H 3340 2170 50  0001 C CNN
F 1 "GND2" V 3345 2290 50  0001 R CNN
F 2 "" H 3340 2420 50  0001 C CNN
F 3 "" H 3340 2420 50  0001 C CNN
	1    3340 2420
	1    0    0    -1  
$EndComp
Text Label 2390 1420 0    50   ~ 0
+5v_Robot
NoConn ~ 2390 3120
NoConn ~ 2390 3020
NoConn ~ 2390 2920
NoConn ~ 2390 2820
NoConn ~ 2390 2720
NoConn ~ 2390 2620
NoConn ~ 2390 2520
$Comp
L power:GND2 #PWR03
U 1 1 6116397D
P 2390 1920
F 0 "#PWR03" H 2390 1670 50  0001 C CNN
F 1 "GND2" V 2395 1790 50  0001 R CNN
F 2 "" H 2390 1920 50  0001 C CNN
F 3 "" H 2390 1920 50  0001 C CNN
	1    2390 1920
	0    -1   -1   0   
$EndComp
$Comp
L power:GND2 #PWR01
U 1 1 61164151
P 790 2620
F 0 "#PWR01" H 790 2370 50  0001 C CNN
F 1 "GND2" V 795 2490 50  0001 R CNN
F 2 "" H 790 2620 50  0001 C CNN
F 3 "" H 790 2620 50  0001 C CNN
	1    790  2620
	0    1    1    0   
$EndComp
$Comp
L power:GND2 #PWR02
U 1 1 61165499
P 790 3220
F 0 "#PWR02" H 790 2970 50  0001 C CNN
F 1 "GND2" V 795 3090 50  0001 R CNN
F 2 "" H 790 3220 50  0001 C CNN
F 3 "" H 790 3220 50  0001 C CNN
	1    790  3220
	0    1    1    0   
$EndComp
NoConn ~ 790  2920
NoConn ~ 790  2820
NoConn ~ 790  2020
NoConn ~ 790  1920
NoConn ~ 790  1820
NoConn ~ 790  1620
NoConn ~ 790  1520
NoConn ~ 790  1420
NoConn ~ 2390 1720
NoConn ~ 2390 1620
NoConn ~ 2390 1520
$Comp
L power:GND2 #PWR07
U 1 1 611725B6
P 3450 3350
F 0 "#PWR07" H 3450 3100 50  0001 C CNN
F 1 "GND2" V 3455 3220 50  0001 R CNN
F 2 "" H 3450 3350 50  0001 C CNN
F 3 "" H 3450 3350 50  0001 C CNN
	1    3450 3350
	1    0    0    -1  
$EndComp
$Comp
L power:GND2 #PWR013
U 1 1 6117557C
P 4960 3150
F 0 "#PWR013" H 4960 2900 50  0001 C CNN
F 1 "GND2" V 4965 3020 50  0001 R CNN
F 2 "" H 4960 3150 50  0001 C CNN
F 3 "" H 4960 3150 50  0001 C CNN
	1    4960 3150
	1    0    0    -1  
$EndComp
$Comp
L BOB_Motor_Driver:DRV8833-Adafruit U3
U 1 1 6116A844
P 3340 1720
F 0 "U3" H 3986 1767 50  0000 L CNN
F 1 "DRV8833-Adafruit" H 3986 1674 50  0000 L CNN
F 2 "misc:DRV8833_Adafruit_breakout" H 3790 2170 50  0001 L CNN
F 3 "https://www.adafruit.com/product/3297" H 3190 2270 50  0001 C CNN
	1    3340 1720
	1    0    0    -1  
$EndComp
NoConn ~ 3940 1620
Text Label 3640 1020 0    50   ~ 0
+5v_Robot
Text Label 2390 3220 0    50   ~ 0
3.3v
NoConn ~ 2740 1520
NoConn ~ 2740 1620
Text Label 2740 1320 2    50   ~ 0
3.3v
NoConn ~ 790  1720
NoConn ~ 790  2120
NoConn ~ 790  2220
NoConn ~ 790  2320
NoConn ~ 790  2420
$Comp
L ESP32-DEVKITC-32D:ESP32-DEVKITC-32D U1
U 1 1 60DD2EBC
P 1590 2320
F 0 "U1" H 1590 3490 50  0000 C CNN
F 1 "ESP32-Robot" H 1590 3397 50  0000 C CNN
F 2 "misc:MODULE_ESP32-DEVKITC-32D_big_pads" H 1590 2320 50  0001 L BNN
F 3 "" H 1590 2320 50  0001 L BNN
F 4 "4" H 1590 2320 50  0001 L BNN "PARTREV"
F 5 "Espressif Systems" H 1590 2320 50  0001 L BNN "MANUFACTURER"
	1    1590 2320
	-1   0    0    1   
$EndComp
$Comp
L Bob_Level_Shifter:MH_Level_converter_4_Channel U2
U 1 1 611EDB49
P 3170 4330
F 0 "U2" H 3170 3310 50  0000 C CNN
F 1 "MH_Level_converter_4_Channel" H 3220 3430 50  0000 C CNN
F 2 "misc:MH_Level_Converter" H 3170 3580 50  0001 C CNN
F 3 "" H 3280 4425 50  0001 C CNN
	1    3170 4330
	1    0    0    -1  
$EndComp
Wire Wire Line
	2390 2120 2560 2120
Wire Wire Line
	3570 4030 3770 4030
Wire Wire Line
	3770 4030 3770 3320
Wire Wire Line
	3770 3320 3350 3320
Wire Wire Line
	3350 3320 3350 2950
Wire Wire Line
	3350 2950 3450 2950
$Comp
L power:GND2 #PWR04
U 1 1 611FDCEF
P 3170 5030
F 0 "#PWR04" H 3170 4780 50  0001 C CNN
F 1 "GND2" V 3175 4900 50  0001 R CNN
F 2 "" H 3170 5030 50  0001 C CNN
F 3 "" H 3170 5030 50  0001 C CNN
	1    3170 5030
	1    0    0    -1  
$EndComp
$Comp
L power:GND2 #PWR05
U 1 1 6120011F
P 3270 5030
F 0 "#PWR05" H 3270 4780 50  0001 C CNN
F 1 "GND2" V 3275 4900 50  0001 R CNN
F 2 "" H 3270 5030 50  0001 C CNN
F 3 "" H 3270 5030 50  0001 C CNN
	1    3270 5030
	1    0    0    -1  
$EndComp
Text Label 3070 3630 2    50   ~ 0
3.3v
Text Label 3270 3630 0    50   ~ 0
+5v_Robot
NoConn ~ 3570 4230
NoConn ~ 3570 4430
NoConn ~ 3570 4630
NoConn ~ 2770 4630
NoConn ~ 2770 4430
NoConn ~ 2770 4230
NoConn ~ 13010 4380
Text Label 2740 2020 2    50   ~ 0
MB_0
Text Label 790  3020 2    50   ~ 0
MB_0
Text Label 2740 2120 2    50   ~ 0
MB_1
Text Label 790  3120 2    50   ~ 0
MB_1
Text Label 2740 1820 2    50   ~ 0
MA_0
Text Label 2740 1920 2    50   ~ 0
MA_1
Text Label 790  2720 2    50   ~ 0
MA_0
Text Label 790  2520 2    50   ~ 0
MA_1
NoConn ~ 2390 2220
NoConn ~ 2390 2320
NoConn ~ 2390 2020
NoConn ~ 2390 1820
Wire Wire Line
	2560 2120 2560 4030
Wire Wire Line
	2560 4030 2770 4030
NoConn ~ 2390 2420
NoConn ~ 3940 2020
NoConn ~ 3940 1920
NoConn ~ 3940 1820
NoConn ~ 3440 1020
NoConn ~ 3540 1020
NoConn ~ 3940 1720
Wire Wire Line
	4050 3050 4360 3050
Wire Wire Line
	7650 3050 7910 3050
Wire Wire Line
	6820 3050 7050 3050
Wire Wire Line
	4960 3050 5210 3050
Wire Wire Line
	5810 3050 6220 3050
$Comp
L power:GND2 #PWR0101
U 1 1 611CD19B
P 7050 3150
F 0 "#PWR0101" H 7050 2900 50  0001 C CNN
F 1 "GND2" V 7055 3020 50  0001 R CNN
F 2 "" H 7050 3150 50  0001 C CNN
F 3 "" H 7050 3150 50  0001 C CNN
	1    7050 3150
	1    0    0    -1  
$EndComp
$Comp
L power:GND2 #PWR0102
U 1 1 611CE2AE
P 7650 3150
F 0 "#PWR0102" H 7650 2900 50  0001 C CNN
F 1 "GND2" V 7655 3020 50  0001 R CNN
F 2 "" H 7650 3150 50  0001 C CNN
F 3 "" H 7650 3150 50  0001 C CNN
	1    7650 3150
	1    0    0    -1  
$EndComp
$Comp
L power:GND2 #PWR0103
U 1 1 611CE8FF
P 8510 2850
F 0 "#PWR0103" H 8510 2600 50  0001 C CNN
F 1 "GND2" V 8515 2720 50  0001 R CNN
F 2 "" H 8510 2850 50  0001 C CNN
F 3 "" H 8510 2850 50  0001 C CNN
	1    8510 2850
	-1   0    0    1   
$EndComp
$Comp
L power:GND2 #PWR0104
U 1 1 611D0557
P 7910 2850
F 0 "#PWR0104" H 7910 2600 50  0001 C CNN
F 1 "GND2" V 7915 2720 50  0001 R CNN
F 2 "" H 7910 2850 50  0001 C CNN
F 3 "" H 7910 2850 50  0001 C CNN
	1    7910 2850
	-1   0    0    1   
$EndComp
$Comp
L power:GND2 #PWR0105
U 1 1 611D0F89
P 6820 2850
F 0 "#PWR0105" H 6820 2600 50  0001 C CNN
F 1 "GND2" V 6825 2720 50  0001 R CNN
F 2 "" H 6820 2850 50  0001 C CNN
F 3 "" H 6820 2850 50  0001 C CNN
	1    6820 2850
	-1   0    0    1   
$EndComp
$Comp
L power:GND2 #PWR0106
U 1 1 611D1409
P 6220 2850
F 0 "#PWR0106" H 6220 2600 50  0001 C CNN
F 1 "GND2" V 6225 2720 50  0001 R CNN
F 2 "" H 6220 2850 50  0001 C CNN
F 3 "" H 6220 2850 50  0001 C CNN
	1    6220 2850
	-1   0    0    1   
$EndComp
$Comp
L power:GND2 #PWR0107
U 1 1 611D1AF9
P 5810 2850
F 0 "#PWR0107" H 5810 2600 50  0001 C CNN
F 1 "GND2" V 5815 2720 50  0001 R CNN
F 2 "" H 5810 2850 50  0001 C CNN
F 3 "" H 5810 2850 50  0001 C CNN
	1    5810 2850
	-1   0    0    1   
$EndComp
$Comp
L power:GND2 #PWR0108
U 1 1 611D1FB5
P 5210 2850
F 0 "#PWR0108" H 5210 2600 50  0001 C CNN
F 1 "GND2" V 5215 2720 50  0001 R CNN
F 2 "" H 5210 2850 50  0001 C CNN
F 3 "" H 5210 2850 50  0001 C CNN
	1    5210 2850
	-1   0    0    1   
$EndComp
NoConn ~ 8510 3050
$Comp
L Mechanical:MountingHole H3
U 1 1 611DDE5D
P 4790 3950
F 0 "H3" H 4890 3997 50  0000 L CNN
F 1 "WirePassage" H 4890 3904 50  0000 L CNN
F 2 "misc:MountingHole_12mmx8mm" H 4790 3950 50  0001 C CNN
F 3 "~" H 4790 3950 50  0001 C CNN
	1    4790 3950
	1    0    0    -1  
$EndComp
$Comp
L Mechanical:MountingHole H4
U 1 1 611DEBC7
P 4790 4180
F 0 "H4" H 4890 4227 50  0000 L CNN
F 1 "WirePassage" H 4890 4134 50  0000 L CNN
F 2 "misc:MountingHole_12mmx8mm" H 4790 4180 50  0001 C CNN
F 3 "~" H 4790 4180 50  0001 C CNN
	1    4790 4180
	1    0    0    -1  
$EndComp
$EndSCHEMATC
